At1,At2,At3,At4,At5,At6,At7,TARGET
0.213,0.5539999999999999,0.207,0.0,0.0,0.7490000000000001,0.22,1
0.102,0.518,0.111,0.0559999999999999,0.022,0.506,0.086,1
0.236,0.804,0.289,0.111,0.066,0.7559999999999999,0.241,1
0.1159999999999999,0.161,0.057,0.3329999999999999,0.14,0.177,0.049,1
0.364,0.6609999999999999,0.365,0.319,0.25,0.743,0.353,1
0.191,0.6609999999999999,0.214,0.042,0.022,0.4479999999999999,0.145,1
1.0,0.768,1.0,0.0279999999999999,0.047,0.878,1.0,1
0.204,0.268,0.132,0.0,0.0,0.149,0.098,1
0.0,0.2319999999999999,0.0,0.0,0.0,0.421,0.0,1
0.187,0.411,0.153,0.0559999999999999,0.0289999999999999,0.322,0.119,1
0.298,0.375,0.222,0.153,0.105,0.412,0.216,1
0.369,0.768,0.406,0.153,0.121,0.685,0.342,0
0.449,0.5710000000000001,0.4039999999999999,0.139,0.126,0.639,0.396,0
0.2,0.911,0.28,0.208,0.113,0.745,0.207,0
0.413,0.7140000000000001,0.428,0.0279999999999999,0.024,0.73,0.3929999999999999,0
0.302,0.482,0.258,0.069,0.048,0.599,0.263,0
0.627,0.75,0.64,0.083,0.0969999999999999,0.727,0.581,0
0.298,0.8390000000000001,0.36,0.208,0.143,0.856,0.32,0
0.396,0.4639999999999999,0.322,0.611,0.506,0.366,0.2739999999999999,0
0.271,0.857,0.3379999999999999,0.292,0.1889999999999999,0.778,0.278,0
0.284,0.857,0.352,0.389,0.259,0.4479999999999999,0.214,0
0.32,0.946,0.415,0.208,0.15,0.765,0.319,0
0.44,0.804,0.486,0.0,0.0,0.8290000000000001,0.447,0
0.3779999999999999,0.589,0.352,0.181,0.145,0.574,0.319,0
0.142,0.589,0.157,0.708,0.325,0.938,0.186,0
0.556,0.607,0.508,0.069,0.074,0.758,0.53,0
0.409,0.75,0.437,0.0969999999999999,0.0819999999999999,0.765,0.3989999999999999,0
0.062,0.75,0.114,0.625,0.214,0.82,0.09,0
0.413,0.821,0.467,0.083,0.071,0.818,0.419,0
0.3779999999999999,0.518,0.3279999999999999,0.292,0.2339999999999999,0.512,0.302,0
0.231,0.357,0.172,0.181,0.106,0.18,0.12,0
0.236,0.75,0.276,0.3329999999999999,0.174,0.78,0.246,0
0.36,0.821,0.415,0.1939999999999999,0.151,0.698,0.3379999999999999,0
0.68,0.7140000000000001,0.67,0.0139999999999999,0.017,0.851,0.6809999999999999,0
0.511,0.7859999999999999,0.547,0.139,0.138,0.741,0.483,0
0.396,0.911,0.482,0.111,0.092,0.754,0.384,0
0.662,0.7140000000000001,0.654,0.278,0.3379999999999999,0.537,0.5329999999999999,0
0.502,0.589,0.456,0.181,0.178,0.623,0.436,0
0.684,0.589,0.607,0.0,0.0,0.862,0.69,0
0.431,0.8390000000000001,0.491,0.3329999999999999,0.293,0.8740000000000001,0.452,0
0.5870000000000001,0.875,0.662,0.625,0.6920000000000001,0.911,0.616,0
0.222,0.429,0.183,0.486,0.24,0.357,0.15,0
0.613,0.929,0.715,0.069,0.08,0.8490000000000001,0.618,0
0.027,0.5,0.05,0.625,0.182,0.654,0.043,0
0.613,0.643,0.574,0.319,0.366,0.738,0.574,0
0.591,0.625,0.546,0.0279999999999999,0.031,0.5760000000000001,0.492,0
0.373,0.589,0.349,0.0559999999999999,0.044,0.43,0.276,0
0.4,0.589,0.371,0.514,0.429,0.716,0.377,0
0.778,0.732,0.769,0.722,1.0,0.503,0.608,0
0.102,0.0,0.022,0.0,0.0,0.0,0.017,0
0.409,0.875,0.482,0.306,0.259,0.914,0.4429999999999999,0
0.427,0.804,0.474,0.0559999999999999,0.048,0.836,0.437,0
0.462,0.911,0.551,0.1669999999999999,0.154,0.931,0.5,0
