At1,At2,At3,At4,At5,At6,At7,TARGET
0.102,0.518,0.111,0.0559999999999999,0.022,0.506,0.086,1
0.187,0.196,0.105,0.0559999999999999,0.0289999999999999,0.133,0.085,1
0.1159999999999999,0.161,0.057,0.3329999999999999,0.14,0.177,0.049,1
0.364,0.6609999999999999,0.365,0.319,0.25,0.743,0.353,1
0.191,0.6609999999999999,0.214,0.042,0.022,0.4479999999999999,0.145,1
0.0579999999999999,0.589,0.087,0.583,0.196,0.5760000000000001,0.06,1
0.071,0.321,0.057,0.069,0.025,0.129,0.016,1
1.0,0.768,1.0,0.0279999999999999,0.047,0.878,1.0,1
0.364,0.7859999999999999,0.408,0.042,0.033,0.71,0.344,1
0.187,0.411,0.153,0.0559999999999999,0.0289999999999999,0.322,0.119,1
0.52,0.768,0.5479999999999999,0.597,0.603,0.752,0.495,0
0.2,0.911,0.28,0.208,0.113,0.745,0.207,0
0.413,0.7140000000000001,0.428,0.0279999999999999,0.024,0.73,0.3929999999999999,0
0.302,0.482,0.258,0.069,0.048,0.599,0.263,0
0.44,0.643,0.424,0.139,0.124,0.767,0.428,0
0.44,0.804,0.486,0.0,0.0,0.8290000000000001,0.447,0
0.556,0.607,0.508,0.069,0.074,0.758,0.53,0
0.3289999999999999,0.6609999999999999,0.3339999999999999,0.153,0.1119999999999999,0.674,0.304,0
0.4529999999999999,0.911,0.541,0.0969999999999999,0.089,0.843,0.4639999999999999,0
0.062,0.75,0.114,0.625,0.214,0.82,0.09,0
0.413,0.732,0.434,0.0,0.0,0.8959999999999999,0.442,0
0.413,0.821,0.467,0.083,0.071,0.818,0.419,0
0.573,0.75,0.59,0.361,0.392,0.956,0.619,0
0.236,0.75,0.276,0.3329999999999999,0.174,0.78,0.246,0
0.516,0.625,0.482,0.0559999999999999,0.0559999999999999,0.65,0.456,0
0.502,0.857,0.569,0.528,0.519,0.8320000000000001,0.506,0
0.68,0.7140000000000001,0.67,0.0139999999999999,0.017,0.851,0.6809999999999999,0
0.627,0.893,0.711,0.0969999999999999,0.113,1.0,0.69,0
0.511,0.7859999999999999,0.547,0.139,0.138,0.741,0.483,0
0.396,0.911,0.482,0.111,0.092,0.754,0.384,0
0.298,0.857,0.365,0.083,0.057,0.845,0.318,0
0.516,0.768,0.544,0.139,0.139,0.667,0.462,0
0.507,0.964,0.619,0.1939999999999999,0.192,0.82,0.507,0
0.467,0.643,0.4479999999999999,0.083,0.078,0.743,0.444,0
0.7959999999999999,0.7859999999999999,0.818,0.556,0.784,0.8759999999999999,0.8029999999999999,0
0.622,0.75,0.635,0.264,0.306,0.787,0.601,0
0.5870000000000001,0.875,0.662,0.625,0.6920000000000001,0.911,0.616,0
0.213,0.768,0.259,1.0,0.563,0.528,0.177,0
0.613,0.929,0.715,0.069,0.08,0.8490000000000001,0.618,0
0.489,0.768,0.519,0.236,0.228,0.7979999999999999,0.483,0
0.556,0.875,0.63,0.4579999999999999,0.486,0.927,0.591,0
0.884,0.821,0.927,0.069,0.107,0.78,0.8370000000000001,0
0.027,0.5,0.05,0.625,0.182,0.654,0.043,0
0.418,0.857,0.485,0.111,0.096,0.792,0.415,0
0.271,0.196,0.154,0.25,0.162,0.22,0.154,0
0.222,0.6609999999999999,0.241,0.0,0.0,0.6409999999999999,0.206,0
0.236,0.75,0.276,0.0139999999999999,0.008,0.809,0.252,0
0.591,0.625,0.546,0.0279999999999999,0.031,0.5760000000000001,0.492,0
0.778,0.732,0.769,0.722,1.0,0.503,0.608,0
0.449,0.875,0.523,0.083,0.076,0.92,0.487,0
0.409,0.875,0.482,0.306,0.259,0.914,0.4429999999999999,0
0.427,0.804,0.474,0.0559999999999999,0.048,0.836,0.437,0
0.462,0.911,0.551,0.1669999999999999,0.154,0.931,0.5,0
