At1,At2,At3,At4,At5,At6,At7,TARGET
0.4579999999999999,0.7140000000000001,0.4679999999999999,0.111,0.102,0.741,0.436,1
0.187,0.196,0.105,0.0559999999999999,0.0289999999999999,0.133,0.085,1
0.089,0.179,0.045,0.0279999999999999,0.011,0.168,0.032,1
0.12,0.25,0.076,0.125,0.053,0.2239999999999999,0.059,1
0.0579999999999999,0.589,0.087,0.583,0.196,0.5760000000000001,0.06,1
0.071,0.321,0.057,0.069,0.025,0.129,0.016,1
0.364,0.7859999999999999,0.408,0.042,0.033,0.71,0.344,1
0.3779999999999999,0.732,0.402,0.278,0.223,0.687,0.35,1
0.187,0.214,0.109,0.0,0.0,0.273,0.11,1
0.098,0.607,0.123,0.042,0.016,0.67,0.105,1
0.391,0.893,0.471,0.306,0.251,0.922,0.428,0
0.52,0.768,0.5479999999999999,0.597,0.603,0.752,0.495,0
0.44,0.7859999999999999,0.48,0.0969999999999999,0.087,0.805,0.44,0
0.422,0.911,0.509,0.347,0.301,0.8540000000000001,0.4379999999999999,0
0.373,1.0,0.49,0.264,0.21,0.8270000000000001,0.384,0
0.44,0.643,0.424,0.139,0.124,0.767,0.428,0
0.5379999999999999,0.732,0.5489999999999999,0.0559999999999999,0.0579999999999999,0.882,0.5579999999999999,0
0.52,0.804,0.564,0.361,0.364,0.816,0.518,0
0.4529999999999999,0.946,0.556,0.1669999999999999,0.152,0.8340000000000001,0.461,0
0.3289999999999999,0.6609999999999999,0.3339999999999999,0.153,0.1119999999999999,0.674,0.304,0
0.4529999999999999,0.911,0.541,0.0969999999999999,0.089,0.843,0.4639999999999999,0
0.351,0.518,0.307,0.0559999999999999,0.042,0.636,0.313,0
0.413,0.732,0.434,0.0,0.0,0.8959999999999999,0.442,0
0.48,0.857,0.547,0.0559999999999999,0.053,0.836,0.487,0
0.44,0.768,0.473,0.347,0.31,0.696,0.406,0
0.573,0.75,0.59,0.361,0.392,0.956,0.619,0
0.764,0.7859999999999999,0.789,0.25,0.341,0.8540000000000001,0.762,0
0.7509999999999999,0.821,0.797,0.292,0.392,0.747,0.7,0
0.516,0.625,0.482,0.0559999999999999,0.0559999999999999,0.65,0.456,0
0.502,0.857,0.569,0.528,0.519,0.8320000000000001,0.506,0
0.627,0.893,0.711,0.0969999999999999,0.113,1.0,0.69,0
0.298,0.857,0.365,0.083,0.057,0.845,0.318,0
0.493,0.732,0.508,0.0559999999999999,0.054,0.6609999999999999,0.441,0
0.516,0.768,0.544,0.139,0.139,0.667,0.462,0
0.427,0.589,0.3929999999999999,0.181,0.158,0.754,0.412,0
0.507,0.964,0.619,0.1939999999999999,0.192,0.82,0.507,0
0.467,0.643,0.4479999999999999,0.083,0.078,0.743,0.444,0
0.7959999999999999,0.7859999999999999,0.818,0.556,0.784,0.8759999999999999,0.8029999999999999,0
0.471,0.8390000000000001,0.531,0.111,0.104,0.845,0.481,0
0.622,0.75,0.635,0.264,0.306,0.787,0.601,0
0.218,0.875,0.29,0.556,0.032,0.818,0.237,0
0.213,0.768,0.259,1.0,0.563,0.528,0.177,0
0.489,0.768,0.519,0.236,0.228,0.7979999999999999,0.483,0
0.556,0.875,0.63,0.4579999999999999,0.486,0.927,0.591,0
0.884,0.821,0.927,0.069,0.107,0.78,0.8370000000000001,0
0.418,0.857,0.485,0.111,0.096,0.792,0.415,0
0.524,0.75,0.544,0.153,0.155,0.7140000000000001,0.486,0
0.271,0.196,0.154,0.25,0.162,0.22,0.154,0
0.471,0.679,0.466,0.208,0.196,0.556,0.3879999999999999,0
0.222,0.6609999999999999,0.241,0.0,0.0,0.6409999999999999,0.206,0
0.236,0.75,0.276,0.0139999999999999,0.008,0.809,0.252,0
0.471,0.679,0.466,0.083,0.078,0.574,0.3939999999999999,0
0.449,0.875,0.523,0.083,0.076,0.92,0.487,0
