At1,At2,TARGET
1.14,-0.114,-1.0
-1.05,0.72,-1.0
-0.916,0.397,1.0
-1.25,-0.286,1.0
-0.482,-0.485,1.0
-0.122,-0.8079999999999999,-1.0
-0.541,-0.332,1.0
1.26,1.21,1.0
0.444,1.99,-1.0
-0.863,0.496,1.0
1.16,-0.4579999999999999,1.0
0.996,-1.7,1.0
1.28,0.691,-1.0
-0.687,-1.29,-1.0
1.74,0.964,1.0
0.271,-0.591,1.0
-1.59,-0.68,1.0
0.408,0.0673,1.0
1.13,1.48,-1.0
1.16,0.978,-1.0
-0.522,-1.34,-1.0
-1.41,0.894,-1.0
0.00902,-0.434,1.0
-2.14,-1.43,1.0
-1.31,1.25,-1.0
0.522,1.46,-1.0
0.536,0.921,-1.0
0.315,-0.182,1.0
-0.123,-1.07,-1.0
0.526,1.48,-1.0
0.00665,0.0118,1.0
-0.352,-0.49,1.0
-0.0701,-1.23,-1.0
-0.149,-1.2,-1.0
-1.62,0.593,-1.0
1.09,-1.37,1.0
-0.223,-1.28,-1.0
1.97,-0.772,-1.0
-0.508,-0.715,1.0
0.603,-0.108,1.0
-0.3229999999999999,-0.213,1.0
0.812,0.708,-1.0
0.888,0.8170000000000001,-1.0
0.0238,0.0836,1.0
0.415,-1.0,-1.0
1.23,-1.2,1.0
1.33,1.63,1.0
0.27,0.0491,1.0
0.495,-0.281,1.0
-0.519,-0.799,-1.0
-1.99,0.5489999999999999,-1.0
-1.03,0.654,-1.0
-0.0583,-1.15,-1.0
1.26,-1.37,1.0
-1.78,-0.3779999999999999,1.0
0.98,-0.0439,1.0
-1.12,0.5760000000000001,-1.0
-0.28,-1.3,-1.0
-0.0269,0.958,1.0
0.408,1.16,-1.0
1.2,1.54,1.0
-0.462,-0.187,1.0
1.27,0.589,-1.0
-0.8190000000000001,1.26,-1.0
-1.79,-0.954,1.0
0.826,1.5,1.0
0.845,0.7659999999999999,-1.0
1.01,0.48,-1.0
0.77,1.4,-1.0
-0.795,-1.43,-1.0
-0.0303,2.11,-1.0
-0.223,-0.419,1.0
0.926,0.972,-1.0
-1.86,-1.57,1.0
-0.8059999999999999,0.941,-1.0
-0.903,0.1009999999999999,1.0
-0.634,-0.969,-1.0
-0.0962,0.19,1.0
-0.536,1.13,-1.0
1.02,-0.261,1.0
-0.8759999999999999,-1.0,-1.0
-1.74,0.693,-1.0
1.49,1.55,1.0
-0.584,1.01,-1.0
-0.0625,-0.12,1.0
-1.68,1.08,-1.0
-1.77,-0.923,1.0
-0.2019999999999999,0.7120000000000001,1.0
1.06,-0.427,1.0
-1.7,0.872,-1.0
-0.411,-1.3,-1.0
0.6659999999999999,1.36,1.0
0.162,-0.7909999999999999,-1.0
-0.0347,1.3,-1.0
-0.52,-1.17,-1.0
-1.33,1.08,-1.0
0.0131,-0.969,-1.0
0.8959999999999999,1.58,1.0
-0.412,0.492,1.0
-0.0674,1.85,-1.0
1.08,0.6829999999999999,-1.0
1.15,0.243,-1.0
0.174,1.92,-1.0
1.64,0.0477,-1.0
-0.478,-0.7959999999999999,-1.0
-0.447,-1.0,-1.0
0.303,-0.143,1.0
1.1,-0.695,1.0
0.579,-1.02,1.0
-1.54,0.685,-1.0
0.916,0.144,1.0
0.254,-0.862,-1.0
-0.877,-0.401,1.0
1.06,-0.69,1.0
1.42,-0.32,1.0
-0.75,1.14,-1.0
-1.03,-1.09,-1.0
-1.77,-0.828,1.0
1.19,0.6970000000000001,-1.0
1.23,-0.0582,1.0
0.44,0.3989999999999999,1.0
-0.723,0.633,-1.0
-0.63,0.949,-1.0
1.9,-0.0565,-1.0
0.0107,0.0258,1.0
-0.645,-0.238,1.0
0.72,0.989,-1.0
0.0692,-0.828,-1.0
0.122,-0.0409999999999999,1.0
0.909,0.118,-1.0
1.05,0.4529999999999999,-1.0
-0.7859999999999999,-1.33,-1.0
0.07,1.7,-1.0
0.178,1.49,-1.0
-1.25,0.512,1.0
-0.187,-1.38,-1.0
0.3289999999999999,-0.37,1.0
-1.37,-0.8029999999999999,1.0
0.529,1.62,-1.0
-0.619,-0.748,-1.0
-0.914,1.07,-1.0
0.163,-1.31,-1.0
0.983,-1.31,1.0
-0.387,0.26,1.0
-1.59,-1.0,1.0
1.69,-0.7240000000000001,-1.0
-0.8690000000000001,-0.0393,1.0
-1.9,0.106,1.0
-1.75,0.722,-1.0
1.08,0.79,-1.0
0.498,0.5670000000000001,-1.0
0.8420000000000001,-1.41,1.0
-0.0584,0.54,1.0
-1.58,-1.26,1.0
-0.813,-0.57,1.0
-0.579,-0.748,1.0
-1.35,1.32,-1.0
-0.639,-0.938,-1.0
1.49,-0.00779,-1.0
0.0346,1.7,-1.0
-0.2739999999999999,0.0468,1.0
0.207,0.0304,1.0
1.63,-0.251,-1.0
-0.7170000000000001,1.0,-1.0
1.17,-0.5670000000000001,1.0
-0.109,-1.25,-1.0
0.867,0.81,-1.0
-0.562,-1.01,-1.0
1.79,-0.102,-1.0
-0.946,-0.1969999999999999,1.0
0.287,-0.517,1.0
-0.358,-1.02,-1.0
-0.392,-1.27,-1.0
-1.2,-1.02,-1.0
-0.337,-1.45,-1.0
-1.54,-0.643,1.0
0.311,1.76,-1.0
-0.473,-0.7490000000000001,-1.0
1.71,0.0217,-1.0
-1.18,-0.0978,1.0
1.23,0.354,-1.0
0.0788,-0.0998,1.0
0.0544,-1.59,-1.0
-0.24,1.72,1.0
-0.496,-1.09,-1.0
-0.636,1.35,-1.0
1.15,0.634,-1.0
1.29,-1.43,1.0
-0.983,1.06,-1.0
-0.206,-0.474,1.0
1.21,0.354,-1.0
-1.39,-0.68,1.0
-0.208,0.332,1.0
0.5529999999999999,1.54,-1.0
0.354,-1.19,-1.0
-0.0381,-0.7909999999999999,-1.0
-0.481,1.09,-1.0
0.866,-0.917,1.0
1.06,0.266,-1.0
-0.893,-1.27,-1.0
0.794,0.762,-1.0
-0.0978,-0.424,1.0
-0.201,0.0726,1.0
-1.97,0.611,-1.0
0.99,-0.0762,1.0
0.569,1.62,1.0
-0.508,1.48,-1.0
0.975,1.48,-1.0
0.8370000000000001,1.75,1.0
0.379,1.36,-1.0
-0.364,-0.0828,1.0
0.939,-0.351,1.0
1.24,0.5539999999999999,-1.0
-0.48,-0.913,-1.0
1.34,-0.261,-1.0
-0.513,1.29,-1.0
-0.648,-0.631,-1.0
-0.5329999999999999,-0.402,1.0
-0.395,-0.7559999999999999,-1.0
-0.7240000000000001,-1.26,-1.0
-1.59,-0.98,1.0
-0.581,-1.27,-1.0
-0.0203,1.92,1.0
1.05,0.444,-1.0
-0.654,-0.999,-1.0
0.165,-1.58,-1.0
2.6,0.951,1.0
1.52,-0.0653,-1.0
1.45,0.3979999999999999,-1.0
-0.455,0.868,-1.0
2.16,1.16,1.0
0.685,1.69,-1.0
1.03,0.5479999999999999,-1.0
-0.758,-1.21,-1.0
-0.472,0.411,1.0
-0.127,-1.33,-1.0
-0.784,-1.05,-1.0
0.275,-0.987,-1.0
-0.262,1.28,-1.0
-0.288,0.305,1.0
1.23,-0.493,-1.0
-1.27,-0.273,1.0
-0.994,1.14,-1.0
0.74,1.2,1.0
0.489,0.904,-1.0
-1.86,-1.47,1.0
-0.617,-1.02,-1.0
-0.66,0.965,-1.0
0.487,-0.13,1.0
-0.0508,-1.19,-1.0
0.96,-0.522,1.0
-1.21,0.778,-1.0
-1.76,-0.903,1.0
-0.8909999999999999,1.0,-1.0
0.263,-1.48,-1.0
1.21,1.28,-1.0
-1.69,-0.542,1.0
1.31,-0.254,-1.0
-0.488,-0.5660000000000001,1.0
1.8,-0.8109999999999999,-1.0
1.49,-0.156,-1.0
-0.8809999999999999,-1.59,-1.0
0.529,0.7879999999999999,1.0
0.5710000000000001,0.1969999999999999,1.0
0.682,1.5,-1.0
-1.33,0.0398,1.0
-0.672,0.6829999999999999,1.0
1.36,0.258,-1.0
-0.37,1.48,-1.0
-1.9,-1.1,1.0
-1.38,-0.32,1.0
0.2339999999999999,0.958,-1.0
-1.01,-0.7709999999999999,1.0
-0.7390000000000001,0.578,1.0
0.52,1.21,-1.0
1.27,-0.441,-1.0
0.422,-0.934,1.0
-0.7040000000000001,-0.802,-1.0
1.39,-0.218,-1.0
1.25,-0.35,-1.0
-0.0552,0.882,1.0
-0.946,1.02,-1.0
-0.794,1.07,-1.0
-0.652,-1.1,-1.0
-0.631,-0.867,-1.0
-0.856,-1.31,-1.0
-1.12,0.154,1.0
-1.1,0.135,1.0
0.8440000000000001,0.243,-1.0
0.472,0.289,1.0
1.64,0.174,-1.0
-0.413,-0.0275,1.0
-0.875,0.591,1.0
-0.698,-1.26,-1.0
-1.14,-0.494,1.0
-0.8029999999999999,-0.782,-1.0
-0.6409999999999999,0.516,1.0
-1.04,0.679,-1.0
0.701,0.0237,1.0
0.863,-1.02,1.0
-1.12,0.5589999999999999,1.0
-0.779,-1.14,-1.0
-1.67,-1.73,1.0
0.743,-1.18,1.0
1.28,-0.176,1.0
1.58,-1.29,1.0
0.61,0.488,-1.0
-2.15,-0.858,1.0
0.642,1.65,1.0
-1.58,-1.25,1.0
0.373,1.48,-1.0
0.3329999999999999,-0.845,1.0
-1.43,1.26,-1.0
1.18,0.585,-1.0
-1.01,-1.27,1.0
1.57,-0.389,-1.0
-0.00329,-0.0777,1.0
-0.937,-0.086,1.0
-0.606,-0.997,-1.0
1.4,0.377,-1.0
0.37,0.312,1.0
-1.41,-0.214,1.0
-0.0246,-0.141,1.0
-1.35,-0.485,1.0
0.996,0.225,-1.0
-0.198,1.67,1.0
-0.8,-0.282,1.0
0.168,0.345,1.0
-1.02,-1.18,-1.0
-1.31,0.916,-1.0
0.902,-1.08,1.0
-0.904,0.953,-1.0
-0.254,-0.932,-1.0
-0.8170000000000001,-1.19,-1.0
-1.73,0.87,-1.0
0.899,-0.235,1.0
0.15,-0.256,1.0
-1.23,-0.336,1.0
1.07,0.0877,-1.0
-0.256,1.52,-1.0
2.34,-1.25,-1.0
0.527,-0.251,1.0
-0.748,-0.57,1.0
0.105,0.103,1.0
0.563,0.1369999999999999,1.0
0.317,-0.0233,1.0
0.15,1.3,-1.0
-1.31,0.0072299999999999,1.0
1.42,-0.146,-1.0
-0.106,-0.316,1.0
-1.2,0.932,-1.0
-1.14,0.488,-1.0
0.176,-1.11,-1.0
-0.526,1.26,-1.0
-0.1889999999999999,-1.24,-1.0
0.775,0.0171,1.0
1.52,0.409,-1.0
-0.636,-0.988,1.0
-0.0723,-1.08,-1.0
0.939,1.69,1.0
0.324,1.68,1.0
-0.506,-1.09,-1.0
-0.978,0.931,-1.0
0.0219,-0.3879999999999999,1.0
-0.647,-1.22,-1.0
-0.31,-1.38,-1.0
-0.146,0.132,1.0
0.24,-1.14,-1.0
1.21,-1.02,1.0
-0.623,1.24,-1.0
-0.0908,-0.846,-1.0
1.39,-0.872,1.0
0.502,-0.536,1.0
-0.046,1.51,-1.0
-1.35,-1.19,1.0
1.77,0.109,-1.0
0.152,1.53,-1.0
0.308,0.933,-1.0
-1.66,-0.735,1.0
-0.109,-0.884,-1.0
1.04,0.816,-1.0
0.514,1.27,-1.0
0.1689999999999999,1.86,1.0
-0.984,-0.807,-1.0
-0.3289999999999999,-0.858,-1.0
-0.108,-1.3,-1.0
1.45,0.2289999999999999,-1.0
-0.0715,1.41,-1.0
0.8079999999999999,-0.831,1.0
1.39,0.262,-1.0
1.12,0.862,-1.0
-0.5579999999999999,0.5720000000000001,1.0
0.27,0.696,1.0
-1.74,0.254,-1.0
-0.16,-1.36,-1.0
1.29,0.153,-1.0
1.47,-0.312,1.0
-0.853,-1.17,-1.0
0.816,0.306,1.0
0.3779999999999999,-0.56,1.0
-0.5670000000000001,-1.14,-1.0
0.934,0.258,1.0
1.59,-0.522,-1.0
-0.61,-0.306,1.0
-1.57,0.942,-1.0
0.415,1.8,-1.0
-1.21,-0.934,-1.0
-0.0789,-1.35,-1.0
-0.466,0.145,1.0
0.238,-1.51,-1.0
-0.433,-1.13,-1.0
0.59,-0.7959999999999999,1.0
-0.235,-0.617,1.0
0.7959999999999999,0.429,1.0
0.165,-0.405,1.0
-0.424,2.01,-1.0
0.313,0.1889999999999999,1.0
-0.00698,-1.15,-1.0
-0.451,0.775,1.0
-0.828,-0.8390000000000001,-1.0
-1.01,1.07,-1.0
1.02,0.858,-1.0
-0.7859999999999999,-0.64,1.0
-0.0895,1.65,1.0
2.46,1.23,1.0
-0.8029999999999999,-0.705,-1.0
0.976,-1.53,1.0
-1.97,-0.674,1.0
-1.45,-0.203,1.0
0.1989999999999999,-0.86,-1.0
-1.68,-0.51,1.0
0.216,-1.12,-1.0
-0.2319999999999999,-0.843,1.0
-1.59,0.138,-1.0
1.37,-1.52,1.0
0.913,-0.318,1.0
1.51,-1.15,1.0
-0.7240000000000001,-1.48,-1.0
1.24,-0.145,-1.0
-0.7759999999999999,-1.26,-1.0
-1.42,-1.51,1.0
1.21,0.642,-1.0
0.551,1.48,-1.0
0.191,1.72,-1.0
0.345,-0.8909999999999999,-1.0
-0.396,-1.38,-1.0
0.903,-1.17,1.0
1.57,-0.0908,-1.0
1.18,0.913,-1.0
-0.3229999999999999,-0.264,1.0
-0.302,-1.22,-1.0
0.8740000000000001,-1.41,1.0
-0.885,1.05,-1.0
-1.52,-0.74,1.0
-0.716,-0.1939999999999999,1.0
-0.579,-0.397,1.0
1.57,-0.5660000000000001,-1.0
-0.7020000000000001,-1.2,-1.0
1.45,-1.78,1.0
-1.22,0.831,-1.0
1.39,-1.11,1.0
0.969,0.921,-1.0
-0.238,0.126,1.0
0.893,0.345,-1.0
-0.609,-0.917,-1.0
1.05,0.6509999999999999,-1.0
0.374,-1.39,-1.0
-0.784,0.969,-1.0
1.08,1.42,1.0
0.146,-0.151,1.0
-1.93,0.603,-1.0
-0.7340000000000001,-1.09,-1.0
0.0176,0.0932,1.0
1.72,-0.4479999999999999,-1.0
1.37,0.625,-1.0
1.3,0.186,-1.0
-0.0618,0.358,1.0
1.14,-0.0771,-1.0
-1.78,-1.49,1.0
-0.995,-1.39,-1.0
-0.233,0.593,1.0
-0.415,1.48,-1.0
-0.6729999999999999,0.313,1.0
1.85,1.38,1.0
0.546,-0.195,1.0
-1.13,-1.08,1.0
-1.13,0.193,1.0
-0.4429999999999999,1.86,-1.0
-0.262,-1.2,-1.0
-0.311,0.995,1.0
-1.43,0.7070000000000001,-1.0
-1.91,-2.24,1.0
0.512,-1.34,-1.0
-0.138,-0.951,-1.0
0.233,-1.29,-1.0
1.15,1.16,1.0
-1.94,-1.03,1.0
1.45,0.273,-1.0
0.413,-1.3,-1.0
0.206,1.19,-1.0
-0.639,-1.37,-1.0
-1.58,0.588,-1.0
-1.58,0.807,-1.0
-0.679,-0.0957,1.0
-0.924,1.45,-1.0
2.23,0.895,1.0
-0.5579999999999999,-1.67,-1.0
0.51,-1.15,-1.0
-0.68,0.314,1.0
1.8,-1.0,-1.0
1.3,0.648,-1.0
0.265,-0.182,1.0
0.8959999999999999,0.36,1.0
-0.945,-1.43,-1.0
-1.65,-0.723,1.0
0.725,-0.54,1.0
0.56,-1.05,-1.0
-1.29,0.8909999999999999,-1.0
0.126,-0.865,-1.0
1.31,-0.238,-1.0
0.918,0.82,-1.0
2.17,1.24,1.0
0.433,0.38,1.0
-1.32,-0.4029999999999999,1.0
-0.0936,-1.28,-1.0
-0.54,-0.601,1.0
-1.48,-0.682,1.0
0.6629999999999999,1.7,-1.0
-1.08,-0.0594,1.0
1.12,-0.7559999999999999,1.0
-1.4,0.5529999999999999,-1.0
1.37,0.428,-1.0
-0.254,0.4029999999999999,1.0
0.636,1.34,1.0
-0.437,-0.984,-1.0
0.685,2.2,-1.0
1.89,0.8340000000000001,1.0
-0.238,-1.49,-1.0
0.6559999999999999,0.8440000000000001,-1.0
1.26,1.72,-1.0
-0.745,0.987,-1.0
0.127,1.22,-1.0
-0.27,0.0117,1.0
0.418,-1.12,-1.0
1.66,1.3,1.0
-0.252,0.623,1.0
0.16,-1.4,-1.0
-0.966,0.487,1.0
-1.95,-0.9,1.0
-0.322,-0.356,1.0
0.923,0.246,-1.0
-0.711,0.0759,1.0
0.157,-0.934,-1.0
0.235,-1.05,-1.0
0.584,-0.212,1.0
-1.2,-0.248,1.0
0.191,1.94,-1.0
-1.22,1.12,-1.0
-1.63,0.1009999999999999,-1.0
0.02,-1.54,-1.0
0.5920000000000001,1.15,-1.0
1.33,0.335,-1.0
-1.42,-0.0747,1.0
0.237,0.0367,1.0
-0.948,-0.982,-1.0
-1.59,0.763,-1.0
0.255,0.412,-1.0
0.0428,-1.04,-1.0
0.973,0.457,-1.0
-0.639,1.28,-1.0
1.23,-0.00847,-1.0
2.64,0.966,1.0
-1.28,0.213,1.0
-0.0275,-1.42,-1.0
0.216,1.96,1.0
-0.5670000000000001,-1.14,-1.0
-0.236,-1.17,-1.0
-0.852,-0.59,1.0
1.05,0.768,-1.0
0.782,1.8,-1.0
1.13,0.33,-1.0
-1.58,0.456,-1.0
-1.87,-1.17,1.0
-0.892,1.25,-1.0
0.785,0.173,-1.0
1.04,0.779,-1.0
-0.693,0.953,-1.0
0.682,-0.146,-1.0
-0.1669999999999999,1.07,-1.0
-0.621,-1.12,-1.0
0.133,-0.2269999999999999,1.0
-0.7190000000000001,-0.384,1.0
0.0379,-1.64,-1.0
0.314,1.84,-1.0
1.68,-0.293,-1.0
0.551,0.921,-1.0
1.07,-0.221,1.0
0.535,1.4,-1.0
2.36,1.33,1.0
-1.6,0.682,-1.0
-1.52,0.506,-1.0
-2.1,-0.8590000000000001,1.0
0.52,1.25,-1.0
1.54,1.24,1.0
-0.421,-0.731,-1.0
1.1,0.253,-1.0
1.1,0.604,-1.0
-0.505,1.17,-1.0
-0.524,-0.857,-1.0
-0.975,-0.182,1.0
0.616,-1.07,1.0
-0.362,-1.7,-1.0
0.611,0.649,-1.0
-0.6970000000000001,-1.69,-1.0
0.526,1.36,1.0
-0.251,0.846,1.0
-1.51,-0.593,1.0
-0.155,-1.03,-1.0
-0.162,-0.0223,1.0
-0.746,-0.93,-1.0
-0.61,0.0088799999999999,1.0
-0.0339,-1.66,-1.0
0.935,0.556,-1.0
1.01,0.8290000000000001,-1.0
0.552,0.961,-1.0
-0.239,-0.848,-1.0
0.908,-0.506,1.0
-0.628,0.601,1.0
-0.341,0.1689999999999999,1.0
-0.455,-1.3,-1.0
-0.1159999999999999,0.0815,1.0
-0.71,-0.8740000000000001,1.0
1.51,1.59,1.0
1.67,-0.978,-1.0
-0.526,1.19,-1.0
0.431,0.266,-1.0
1.35,0.644,-1.0
-0.7440000000000001,0.196,1.0
-0.45,-1.59,-1.0
-0.696,-1.2,-1.0
-0.861,-0.862,-1.0
-0.631,-0.914,-1.0
0.524,-0.648,1.0
-0.501,1.1,-1.0
1.29,1.07,-1.0
0.284,2.31,-1.0
0.0066,-0.994,-1.0
-1.19,-1.03,-1.0
0.904,0.195,-1.0
-1.25,0.479,-1.0
-0.7979999999999999,-1.21,-1.0
-0.5379999999999999,-1.15,-1.0
-0.7170000000000001,-1.03,-1.0
-1.43,-1.18,1.0
-1.39,-0.282,1.0
0.598,0.484,-1.0
1.02,0.508,-1.0
-1.32,1.12,-1.0
-1.25,-1.1,-1.0
1.5,0.637,-1.0
-1.02,0.899,1.0
-0.0979,-1.01,-1.0
-1.01,-1.29,-1.0
-1.34,0.7170000000000001,-1.0
2.34,1.13,1.0
0.614,-0.157,1.0
2.03,-0.427,-1.0
-0.7070000000000001,-0.568,1.0
-1.01,0.412,1.0
-0.845,-0.377,1.0
1.31,-0.5660000000000001,1.0
-0.218,2.09,-1.0
1.15,-1.56,1.0
0.55,0.857,-1.0
0.4029999999999999,-0.997,-1.0
-0.0017,0.282,1.0
-0.617,-0.4579999999999999,1.0
-0.221,0.12,1.0
0.58,1.17,-1.0
0.8759999999999999,-0.969,1.0
-0.0237,0.303,1.0
-0.8059999999999999,0.575,1.0
1.08,1.36,1.0
-0.639,1.25,-1.0
0.595,0.429,-1.0
-1.94,-0.273,1.0
-0.295,0.565,1.0
-0.93,-0.895,-1.0
-1.18,0.422,1.0
-0.203,-1.08,-1.0
1.26,-0.3279999999999999,1.0
-0.3379999999999999,-0.91,-1.0
0.909,0.522,-1.0
-0.8320000000000001,-1.33,-1.0
-2.01,-1.85,1.0
-1.55,0.695,-1.0
0.314,1.54,-1.0
-1.44,-0.225,1.0
0.287,1.45,1.0
1.46,-0.509,1.0
1.81,-0.218,-1.0
-2.56,-0.0784,-1.0
-0.836,-0.507,1.0
-0.742,0.36,1.0
0.34,-1.03,-1.0
-1.07,-0.616,1.0
1.95,-1.02,-1.0
1.04,-1.13,1.0
-1.15,0.7290000000000001,-1.0
-0.528,0.953,1.0
0.8540000000000001,1.15,-1.0
-1.78,-1.58,1.0
-1.55,0.386,-1.0
-0.455,0.494,1.0
-1.2,0.659,-1.0
-0.413,0.0554,1.0
0.271,0.38,1.0
0.299,1.49,-1.0
-0.0601,2.04,1.0
-0.7829999999999999,-1.33,-1.0
-1.55,-1.6,1.0
-1.34,0.146,1.0
-0.484,-1.2,-1.0
-0.2689999999999999,0.961,1.0
-0.123,1.86,-1.0
1.27,-0.159,-1.0
0.433,1.65,1.0
-1.03,-0.858,1.0
0.354,1.06,-1.0
-1.92,-1.06,1.0
1.38,-1.36,1.0
-0.836,0.959,-1.0
0.7140000000000001,-1.19,1.0
1.19,0.594,-1.0
-0.575,-1.62,-1.0
-1.97,-1.72,1.0
-0.892,1.02,-1.0
-0.132,-1.35,-1.0
-0.475,-1.02,-1.0
1.19,0.115,-1.0
0.439,1.5,-1.0
0.109,1.65,1.0
-0.347,-0.556,1.0
-1.12,1.1,-1.0
0.0551,1.34,-1.0
0.136,-1.36,-1.0
-0.4679999999999999,-0.206,1.0
-0.777,-1.33,-1.0
-0.0693,-1.3,-1.0
-0.162,-0.3339999999999999,1.0
0.7240000000000001,-0.574,1.0
-1.03,0.153,1.0
0.385,-0.7440000000000001,-1.0
-1.49,0.7959999999999999,-1.0
0.0586,-0.133,1.0
1.05,-0.362,1.0
0.351,-1.42,-1.0
-1.34,-0.462,1.0
-0.213,0.77,1.0
-0.665,1.23,-1.0
0.35,0.889,-1.0
0.321,1.58,-1.0
0.614,0.908,-1.0
0.282,-1.43,-1.0
0.29,0.591,-1.0
0.662,1.49,-1.0
-1.84,-1.23,1.0
-0.995,-0.937,-1.0
-1.31,0.4629999999999999,-1.0
0.698,0.784,-1.0
-1.57,-0.401,1.0
-0.2739999999999999,0.489,1.0
0.764,1.98,1.0
2.41,0.946,1.0
1.27,-0.1939999999999999,-1.0
2.12,1.07,1.0
0.22,2.08,-1.0
-0.519,-1.0,-1.0
-0.68,1.68,-1.0
0.92,-0.7170000000000001,1.0
0.511,-0.773,1.0
1.11,0.205,-1.0
0.424,-0.84,-1.0
2.25,-1.4,-1.0
0.139,-0.8029999999999999,1.0
0.174,-1.11,-1.0
-0.1369999999999999,-1.16,-1.0
-0.0172,-1.03,-1.0
0.2689999999999999,0.605,1.0
-1.82,0.904,-1.0
2.53,1.5,1.0
0.471,2.03,-1.0
0.746,0.441,-1.0
-1.32,0.907,-1.0
1.59,-0.3779999999999999,-1.0
0.387,-0.000653,1.0
-0.914,-0.919,-1.0
-0.639,0.522,1.0
0.866,1.14,-1.0
-1.78,-0.491,1.0
-1.27,0.184,1.0
-1.08,-0.612,1.0
-0.7170000000000001,0.455,1.0
-1.11,0.00172,1.0
-0.862,1.53,-1.0
0.605,1.86,1.0
0.941,-0.254,1.0
1.68,0.113,-1.0
-0.5589999999999999,0.0594,1.0
0.424,0.547,1.0
-0.612,-1.42,-1.0
-0.201,0.287,1.0
0.778,0.952,-1.0
-0.216,-1.38,-1.0
-0.5539999999999999,-0.38,1.0
0.0698,-1.25,-1.0
-0.8690000000000001,0.625,-1.0
-1.53,-1.17,1.0
-0.987,-0.735,1.0
-0.4679999999999999,-1.17,-1.0
0.885,-0.372,1.0
1.04,0.285,-1.0
-0.0574,-0.208,1.0
-1.04,0.984,-1.0
0.952,-1.9,1.0
-0.55,0.236,1.0
0.746,0.991,-1.0
-0.0468,-0.332,1.0
-0.507,0.69,1.0
1.18,-1.19,1.0
0.913,-1.6,1.0
-1.1,0.145,1.0
-0.244,-1.2,-1.0
0.0643,-1.28,-1.0
0.483,-1.23,-1.0
0.816,-0.133,1.0
-1.49,0.7440000000000001,-1.0
0.742,1.56,1.0
1.45,-0.188,-1.0
-0.7909999999999999,-1.44,-1.0
0.0336,0.3229999999999999,1.0
0.308,-1.34,-1.0
0.856,-1.11,1.0
-0.171,1.68,1.0
-0.422,-0.241,1.0
0.1369999999999999,-0.862,-1.0
-1.33,-0.581,1.0
-1.76,-1.58,1.0
-0.258,-1.06,-1.0
0.395,1.35,1.0
1.52,0.795,-1.0
1.44,0.898,-1.0
1.04,0.952,-1.0
-1.11,0.276,1.0
-1.2,-1.19,-1.0
1.29,-1.19,1.0
0.247,-0.96,-1.0
0.247,0.41,1.0
0.722,0.153,-1.0
0.249,-0.451,1.0
0.923,0.166,1.0
-0.237,-0.0378,1.0
-1.2,1.43,-1.0
0.0209,-0.973,-1.0
0.637,0.984,-1.0
0.7140000000000001,-1.08,1.0
0.205,-1.28,-1.0
-0.7609999999999999,0.373,1.0
-0.0529,-0.0168,1.0
2.09,1.1,1.0
-1.28,-1.17,1.0
-0.638,-0.752,-1.0
1.42,1.49,1.0
-0.268,0.75,1.0
-0.57,0.502,1.0
-0.381,-0.959,-1.0
-0.432,1.13,-1.0
1.14,-0.938,1.0
0.0935,2.1,-1.0
0.4629999999999999,0.935,-1.0
-0.23,-1.02,-1.0
0.6709999999999999,0.181,1.0
-0.175,0.0644,1.0
0.7959999999999999,0.423,1.0
-0.8240000000000001,-0.471,1.0
-0.93,-0.502,1.0
-1.06,1.49,-1.0
2.45,1.25,1.0
-2.04,0.401,-1.0
0.848,0.402,-1.0
-1.27,-0.6729999999999999,1.0
0.784,1.39,-1.0
1.14,0.494,-1.0
-0.129,0.877,1.0
-0.138,0.425,1.0
-1.98,0.875,-1.0
-0.369,-0.965,-1.0
0.325,-0.153,1.0
-0.2319999999999999,-0.364,1.0
-1.68,0.93,-1.0
0.616,1.77,1.0
0.246,-0.767,-1.0
-0.763,-0.573,1.0
1.42,-0.0465,-1.0
-0.179,0.19,1.0
-0.721,1.19,-1.0
-0.7090000000000001,-0.942,-1.0
-0.8909999999999999,0.593,-1.0
1.3,-0.0279999999999999,-1.0
-0.2189999999999999,-0.195,1.0
-1.41,-0.856,1.0
0.444,1.14,-1.0
1.01,0.397,-1.0
1.31,-0.36,1.0
1.78,1.19,1.0
-1.33,-0.647,1.0
-1.2,0.455,-1.0
1.01,1.57,1.0
-1.0,-1.22,-1.0
-0.3939999999999999,1.39,-1.0
0.7290000000000001,1.49,1.0
0.515,0.884,-1.0
1.22,-0.159,-1.0
-2.0,0.4029999999999999,-1.0
1.71,1.39,1.0
-0.624,1.75,-1.0
-1.21,0.357,1.0
1.01,0.446,-1.0
-0.6659999999999999,-1.34,-1.0
0.745,0.6809999999999999,-1.0
0.622,-0.546,1.0
0.7509999999999999,0.608,-1.0
-1.13,0.1639999999999999,1.0
2.33,1.21,1.0
-1.67,-0.212,1.0
-0.389,-1.2,-1.0
1.11,1.33,1.0
-1.24,0.3229999999999999,1.0
-0.1159999999999999,-1.23,-1.0
0.372,1.6,-1.0
-0.254,-1.37,-1.0
-0.67,1.22,-1.0
1.57,1.16,1.0
-0.1369999999999999,1.44,-1.0
-1.87,-0.78,1.0
0.8,0.662,-1.0
0.133,2.05,-1.0
1.34,-1.8,1.0
0.175,0.652,1.0
1.14,-0.0829,-1.0
-0.617,-0.792,-1.0
-0.0814,2.18,1.0
1.27,1.6,1.0
-0.759,0.366,1.0
0.357,0.647,-1.0
-1.36,-0.258,1.0
0.977,0.597,-1.0
0.955,-0.0158,-1.0
-0.593,1.28,-1.0
1.14,0.8140000000000001,-1.0
0.575,-0.19,1.0
-1.54,0.643,-1.0
-1.25,-0.6890000000000001,1.0
1.27,0.0842,-1.0
0.957,0.0986,-1.0
0.303,-1.35,-1.0
1.46,0.6509999999999999,-1.0
0.957,-0.7859999999999999,1.0
0.105,-1.67,-1.0
-1.08,0.356,1.0
0.0909,-1.39,-1.0
-1.34,0.805,-1.0
1.17,-1.4,1.0
-0.8109999999999999,-1.35,-1.0
-0.961,-0.102,1.0
-0.968,-0.226,1.0
0.62,-0.986,1.0
1.45,1.33,1.0
0.1369999999999999,-0.247,1.0
-0.335,-1.69,-1.0
-0.0999,1.97,1.0
0.272,0.813,-1.0
-0.188,-0.998,-1.0
-1.26,-0.912,-1.0
-1.33,-0.392,1.0
-0.753,1.1,-1.0
-0.715,0.0859,1.0
0.624,1.1,-1.0
-1.37,0.968,-1.0
0.353,1.58,-1.0
0.11,0.5529999999999999,1.0
1.49,0.385,-1.0
0.5710000000000001,-1.53,-1.0
0.409,-0.0572,1.0
1.93,-0.8420000000000001,-1.0
0.484,-1.3,-1.0
1.09,0.299,-1.0
0.659,0.913,-1.0
-0.583,-1.05,-1.0
-0.6829999999999999,1.38,-1.0
0.0734,-0.162,1.0
0.8740000000000001,1.79,-1.0
0.584,0.679,-1.0
-0.779,0.6759999999999999,1.0
0.6779999999999999,0.335,-1.0
1.43,0.498,-1.0
1.03,0.0331,-1.0
-0.532,-1.17,-1.0
0.119,-1.28,-1.0
1.53,-1.05,1.0
0.126,0.8190000000000001,-1.0
0.534,1.86,1.0
2.03,1.1,1.0
-0.546,0.442,1.0
1.42,1.8,1.0
-0.5660000000000001,-0.563,1.0
-0.973,0.495,1.0
0.472,1.37,-1.0
-0.936,-1.5,-1.0
1.27,-0.675,1.0
-1.32,-0.146,1.0
1.7,-0.489,-1.0
0.617,1.11,-1.0
-1.41,1.14,-1.0
0.473,0.3389999999999999,1.0
-0.855,1.44,-1.0
0.18,-0.0627,1.0
0.211,1.71,1.0
0.6609999999999999,1.2,-1.0
0.544,-0.8420000000000001,1.0
-1.61,-0.39,1.0
0.134,-1.18,-1.0
-0.2789999999999999,-1.06,-1.0
-1.64,-0.562,1.0
0.499,-1.17,-1.0
-0.171,-1.09,-1.0
0.833,0.653,-1.0
-0.542,0.918,-1.0
1.73,1.26,1.0
0.316,1.43,1.0
0.933,0.711,-1.0
2.43,0.8690000000000001,1.0
-0.472,-1.16,-1.0
1.07,0.4379999999999999,-1.0
0.857,0.875,-1.0
0.6459999999999999,-0.932,1.0
-0.983,1.1,-1.0
-0.8290000000000001,1.06,-1.0
0.22,-0.867,-1.0
-2.09,-1.22,1.0
-1.64,-0.962,1.0
1.62,-1.16,1.0
1.13,-0.0116,-1.0
0.102,-1.03,-1.0
0.635,1.67,1.0
0.336,0.611,1.0
0.32,-0.998,-1.0
-0.129,-1.69,-1.0
0.335,-0.483,1.0
1.03,-0.382,1.0
-0.705,0.129,1.0
-1.37,-0.123,1.0
-1.9,-1.32,1.0
0.982,-0.452,1.0
0.995,0.502,-1.0
0.0853,0.789,1.0
-0.0659,-1.33,-1.0
-1.51,-0.276,1.0
1.19,-1.25,1.0
-1.49,0.228,1.0
1.18,0.597,-1.0
0.418,-0.897,1.0
-0.951,-1.3,-1.0
1.31,1.62,1.0
-0.107,-0.2319999999999999,1.0
-0.214,1.58,-1.0
-0.212,-0.155,1.0
-0.0683,-0.4039999999999999,1.0
-0.951,-1.33,-1.0
0.5329999999999999,0.541,1.0
-1.36,0.887,-1.0
0.98,-0.8320000000000001,1.0
-1.29,1.52,-1.0
1.08,-0.000817,-1.0
-0.147,1.85,-1.0
-0.135,0.0707,1.0
-1.43,1.25,-1.0
-0.499,-1.31,-1.0
0.296,1.51,-1.0
-0.337,1.48,-1.0
-0.0299,0.617,1.0
-1.78,-0.843,1.0
-0.8009999999999999,1.78,-1.0
-1.68,-0.528,1.0
-0.528,-1.23,-1.0
0.2019999999999999,-1.37,-1.0
0.535,1.99,-1.0
-0.491,1.22,-1.0
-1.33,-0.276,1.0
0.595,0.546,1.0
-0.2189999999999999,0.524,1.0
-0.907,0.416,1.0
1.86,-0.36,-1.0
-1.39,-0.322,1.0
-1.7,0.8690000000000001,-1.0
-1.02,-0.146,1.0
-0.145,-1.39,-1.0
-0.439,0.331,1.0
-1.49,-0.0266,1.0
0.812,-0.15,1.0
-2.04,-0.978,1.0
-0.772,0.933,-1.0
0.0914,0.493,1.0
0.5529999999999999,-0.159,1.0
0.759,0.0328,1.0
0.974,-0.951,1.0
0.105,1.77,-1.0
-1.02,-0.305,1.0
-0.635,1.94,1.0
0.44,1.16,-1.0
2.22,1.31,1.0
-1.18,-0.122,1.0
1.46,0.0665,-1.0
1.09,0.812,-1.0
1.15,1.68,1.0
0.955,-0.23,1.0
0.619,1.65,-1.0
-1.43,-0.357,1.0
-1.09,0.289,1.0
-0.436,0.821,1.0
0.6,-0.38,1.0
-0.124,0.181,1.0
1.03,-0.0835,-1.0
-1.71,-1.27,1.0
-1.46,-0.179,1.0
0.716,0.487,-1.0
0.0337,-1.13,-1.0
1.85,-0.5579999999999999,-1.0
0.0319,1.39,-1.0
-0.956,-0.77,-1.0
0.0624,-1.05,-1.0
-1.06,-1.24,-1.0
1.05,1.07,-1.0
-0.47,-1.12,-1.0
-1.45,0.377,-1.0
0.929,-0.902,1.0
-1.66,-1.52,1.0
-1.85,-0.347,1.0
-1.02,-0.0308,1.0
0.569,-0.5379999999999999,1.0
1.47,-0.0578,-1.0
-1.59,0.176,-1.0
0.804,0.6,-1.0
-1.01,-0.155,1.0
-1.62,-0.8959999999999999,1.0
-0.00515,1.75,-1.0
-1.42,-1.28,1.0
-0.316,-1.36,-1.0
-0.236,-1.54,-1.0
0.546,-1.12,-1.0
0.371,-1.23,-1.0
-0.821,-0.855,1.0
0.309,-1.03,-1.0
-0.912,-0.484,1.0
0.589,0.557,1.0
-1.28,0.72,-1.0
0.4479999999999999,0.71,-1.0
0.307,0.12,1.0
0.3279999999999999,0.5529999999999999,-1.0
1.08,0.437,-1.0
0.173,-0.428,1.0
-0.818,-0.69,1.0
-0.768,-0.0166,1.0
-1.16,-1.01,-1.0
0.995,0.131,1.0
-0.462,-0.7070000000000001,-1.0
-0.372,1.54,-1.0
0.247,-0.233,1.0
-1.99,-0.912,1.0
-2.0,-0.0624,-1.0
0.5539999999999999,1.19,-1.0
0.794,1.01,-1.0
-0.597,-1.6,-1.0
1.71,-0.289,-1.0
-1.02,-0.469,1.0
-0.434,1.98,-1.0
-0.299,-1.4,-1.0
-1.67,-0.875,1.0
0.108,-0.769,-1.0
0.418,-0.711,1.0
1.2,0.286,-1.0
0.557,1.38,-1.0
-0.878,0.659,-1.0
0.254,2.42,-1.0
0.961,0.4539999999999999,-1.0
-0.994,0.192,1.0
-1.07,-0.622,1.0
1.95,1.53,1.0
0.281,-0.4,1.0
0.586,-0.273,1.0
-1.65,-0.0692,1.0
-1.53,0.132,1.0
0.299,1.52,-1.0
-0.687,1.01,-1.0
1.08,-0.133,-1.0
0.0647,-1.22,-1.0
0.369,1.69,-1.0
-0.826,-0.966,-1.0
-0.3939999999999999,1.6,-1.0
0.942,1.89,1.0
-0.8170000000000001,-1.11,-1.0
0.405,1.93,-1.0
0.6659999999999999,-1.52,-1.0
-0.594,-1.21,-1.0
-1.07,0.0456,1.0
1.05,0.397,-1.0
1.5,-0.38,-1.0
0.867,-1.19,1.0
-0.509,-0.932,-1.0
0.0662,1.62,-1.0
0.3989999999999999,-1.48,-1.0
-0.441,-1.45,-1.0
1.0,0.285,1.0
1.25,-1.62,1.0
0.893,0.691,-1.0
-0.136,-1.41,-1.0
0.569,1.44,-1.0
-1.93,-0.0856,1.0
-0.903,-0.988,-1.0
0.486,1.05,-1.0
1.29,-0.499,-1.0
1.06,0.913,-1.0
-0.487,-1.19,-1.0
-0.0388,-0.984,-1.0
0.893,-0.327,1.0
1.01,-1.12,1.0
-1.58,-0.352,1.0
0.5379999999999999,-1.39,-1.0
-0.991,0.114,1.0
0.0919,-0.154,1.0
-1.01,1.21,-1.0
0.0608,-1.23,-1.0
0.677,1.03,-1.0
0.6409999999999999,1.72,1.0
-0.86,-1.27,-1.0
0.883,-1.0,1.0
-0.5660000000000001,-1.62,-1.0
-1.25,-1.14,1.0
2.69,1.12,1.0
1.21,-0.132,-1.0
0.126,-1.08,-1.0
-0.967,1.22,-1.0
-0.545,-1.31,-1.0
1.06,-0.2319999999999999,-1.0
0.6459999999999999,1.23,-1.0
0.6729999999999999,1.07,-1.0
-0.957,0.848,1.0
-0.6759999999999999,0.797,-1.0
0.514,0.715,-1.0
-0.484,0.615,1.0
1.2,0.318,-1.0
-0.795,0.276,1.0
-0.0006889999999999,2.0,1.0
-2.06,-0.332,-1.0
1.42,-1.1,1.0
1.07,0.6459999999999999,-1.0
0.0524,-0.853,-1.0
0.878,-0.856,1.0
-1.08,1.19,-1.0
0.13,-0.469,1.0
0.2239999999999999,1.57,1.0
-0.604,-1.2,-1.0
0.799,-0.8340000000000001,1.0
0.866,0.612,-1.0
0.897,0.294,-1.0
2.04,-0.462,-1.0
-1.49,0.555,-1.0
2.03,0.984,1.0
-0.973,0.7120000000000001,-1.0
1.46,-1.61,1.0
-0.912,1.34,-1.0
-0.375,-1.39,-1.0
0.3879999999999999,0.863,-1.0
1.38,1.27,-1.0
0.237,-1.26,-1.0
0.159,0.586,1.0
0.262,-0.5379999999999999,1.0
0.737,-0.183,1.0
0.711,0.787,-1.0
-0.284,-1.02,-1.0
1.47,-1.29,1.0
-0.89,-1.18,1.0
1.7,0.157,-1.0
-0.451,0.723,1.0
1.16,0.7759999999999999,-1.0
0.335,1.99,-1.0
0.452,1.95,1.0
0.83,0.6920000000000001,-1.0
0.347,-0.242,1.0
1.29,0.622,-1.0
-0.106,0.552,1.0
-0.353,-0.836,-1.0
-1.28,-0.00494,1.0
-0.172,-0.6759999999999999,1.0
0.455,-0.8690000000000001,1.0
-0.964,-1.17,-1.0
0.632,1.45,1.0
-0.0708,0.439,1.0
-0.135,0.136,1.0
-0.288,0.385,1.0
-0.974,-0.818,1.0
-1.13,-0.622,1.0
-0.542,1.12,-1.0
1.57,0.171,-1.0
1.09,-0.5379999999999999,1.0
-0.3989999999999999,1.3,-1.0
-0.731,-0.906,-1.0
0.017,-1.26,-1.0
-0.487,-1.13,-1.0
-1.03,0.2769999999999999,1.0
0.889,-0.5660000000000001,1.0
-0.375,1.36,-1.0
0.5870000000000001,0.322,1.0
0.985,1.16,-1.0
0.386,1.92,-1.0
0.921,0.3,-1.0
-0.835,-1.04,-1.0
-0.879,-0.975,-1.0
-0.603,1.3,-1.0
-0.501,-1.43,-1.0
-0.741,0.979,-1.0
1.02,-0.5489999999999999,1.0
1.23,2.19,-1.0
0.4,-1.39,-1.0
0.45,1.6,-1.0
-0.992,1.4,-1.0
-0.95,0.144,1.0
0.297,-1.11,1.0
0.953,0.7190000000000001,-1.0
1.32,-1.23,1.0
-0.762,-1.11,-1.0
0.977,-1.01,1.0
0.395,-1.04,-1.0
-1.39,1.09,-1.0
-1.81,0.0758,1.0
-0.0931,1.52,-1.0
-0.0677,-0.3939999999999999,1.0
-0.544,-0.773,-1.0
-1.07,-0.456,1.0
0.534,-0.763,1.0
0.518,1.41,-1.0
-0.0198,-1.22,-1.0
0.28,0.429,1.0
1.19,-1.33,1.0
-0.926,0.6940000000000001,-1.0
1.3,-1.28,1.0
1.46,-1.32,1.0
0.475,-0.381,1.0
0.685,0.546,-1.0
0.971,0.64,-1.0
0.49,-0.0477,1.0
0.301,-0.928,-1.0
0.3429999999999999,-1.14,-1.0
2.2,0.935,1.0
-0.429,1.13,-1.0
-0.409,0.349,1.0
1.07,-1.38,1.0
0.209,-0.455,1.0
-0.595,1.09,-1.0
1.2,0.361,-1.0
0.3929999999999999,1.64,-1.0
-0.126,-1.67,-1.0
-1.82,-0.665,1.0
0.636,0.7559999999999999,-1.0
-1.14,0.915,-1.0
0.196,-1.71,-1.0
-1.42,0.275,-1.0
1.89,-0.243,-1.0
1.1,-0.364,1.0
-0.113,0.626,1.0
-0.415,-1.3,-1.0
0.3989999999999999,-0.594,1.0
1.01,-0.205,1.0
-1.53,-1.72,1.0
0.0745,-0.607,1.0
1.53,0.0838,-1.0
0.26,-1.17,-1.0
1.08,1.03,-1.0
-0.239,-1.17,-1.0
1.09,1.21,-1.0
0.8440000000000001,-0.402,1.0
1.31,-1.08,1.0
-0.275,1.52,1.0
0.948,1.41,-1.0
1.13,1.51,1.0
1.24,0.809,-1.0
0.0941,1.44,-1.0
-0.292,1.32,-1.0
-0.528,0.296,1.0
1.64,-0.152,-1.0
0.317,-1.13,-1.0
1.0,-0.0347,-1.0
-2.0,-2.1,1.0
-0.389,-1.32,-1.0
0.83,1.67,1.0
1.12,1.01,-1.0
0.176,1.23,-1.0
-0.0545,-1.45,-1.0
-0.0207,-1.14,-1.0
-1.81,-1.21,1.0
-0.0982,0.395,1.0
0.98,0.7659999999999999,-1.0
0.47,-0.765,1.0
-1.55,1.05,-1.0
-1.53,0.39,-1.0
0.47,1.21,-1.0
-1.4,-0.386,1.0
-2.14,-1.59,1.0
0.974,0.898,-1.0
-1.16,-0.6409999999999999,-1.0
0.947,-0.888,1.0
-1.82,-0.899,1.0
-1.42,-0.617,1.0
-0.2,-1.02,-1.0
-0.0611,-1.4,-1.0
-1.06,0.181,1.0
1.79,-0.8340000000000001,-1.0
0.362,1.59,-1.0
-0.248,0.514,1.0
-0.908,1.26,-1.0
1.91,1.37,1.0
-0.69,-1.33,-1.0
-0.928,1.55,-1.0
1.01,-0.935,1.0
-0.44,1.22,-1.0
0.921,1.12,1.0
-1.57,-0.772,1.0
1.21,-0.271,-1.0
0.67,0.784,-1.0
-1.64,-1.91,1.0
0.0844,1.72,1.0
-0.954,0.848,-1.0
-1.39,-1.35,1.0
1.3,1.04,-1.0
0.299,-0.8190000000000001,-1.0
1.03,-1.12,1.0
-0.178,-1.15,-1.0
-1.38,0.0973,1.0
-1.01,-1.23,-1.0
0.534,2.15,-1.0
0.3879999999999999,-0.0851,1.0
-1.3,0.867,-1.0
0.606,1.77,1.0
0.6890000000000001,-0.506,1.0
-0.8109999999999999,-1.15,-1.0
0.318,1.82,1.0
1.15,1.49,1.0
-0.108,-0.7929999999999999,1.0
-1.08,-1.39,-1.0
0.342,-0.701,-1.0
-0.66,1.41,-1.0
-0.492,0.124,1.0
0.409,-1.15,-1.0
1.23,-1.4,1.0
-1.82,-1.78,1.0
0.0292,-1.21,-1.0
-0.852,1.32,-1.0
-0.777,1.22,-1.0
-0.489,-1.13,-1.0
-1.12,-0.297,1.0
1.03,0.7659999999999999,-1.0
-0.621,0.425,1.0
0.856,0.669,-1.0
-0.2189999999999999,0.128,1.0
1.28,-0.588,-1.0
0.3,-1.18,-1.0
1.05,-1.05,1.0
-0.0203,-1.42,-1.0
0.208,-0.427,1.0
-1.51,-0.196,1.0
1.46,-0.14,-1.0
-0.78,-1.52,-1.0
-0.0202,-1.26,-1.0
-1.51,0.384,-1.0
0.245,-0.6809999999999999,-1.0
-0.242,-1.47,-1.0
0.0968,0.589,1.0
-0.82,-1.04,-1.0
0.8320000000000001,-1.29,1.0
0.5770000000000001,0.628,-1.0
-1.19,-1.14,1.0
-0.679,0.536,1.0
0.295,-1.36,-1.0
-0.7440000000000001,-0.415,1.0
0.203,0.617,1.0
-1.01,-1.65,-1.0
1.49,1.59,1.0
-0.6579999999999999,0.5539999999999999,1.0
-1.45,-0.0697,1.0
-1.5,-0.39,1.0
-1.1,-1.24,-1.0
-0.921,0.894,1.0
-0.0633,-0.6990000000000001,-1.0
0.31,0.57,1.0
1.12,-0.422,-1.0
-0.135,-1.12,-1.0
-0.243,1.76,1.0
0.477,0.7909999999999999,-1.0
-0.838,0.644,1.0
-0.2689999999999999,-1.47,-1.0
0.247,-1.28,-1.0
-0.431,-0.346,1.0
1.93,0.165,-1.0
1.24,0.608,-1.0
0.262,-1.16,-1.0
-0.8029999999999999,-1.21,-1.0
-0.148,-1.37,-1.0
0.355,2.08,-1.0
1.16,0.598,-1.0
1.13,1.38,1.0
0.331,0.185,1.0
1.67,-1.77,1.0
0.166,-0.33,1.0
-0.411,-1.41,-1.0
0.3289999999999999,1.11,-1.0
0.451,-1.23,-1.0
-1.55,-0.7440000000000001,1.0
1.16,0.654,-1.0
0.487,1.45,-1.0
0.8109999999999999,-1.65,1.0
-1.53,-0.665,1.0
-2.13,0.6779999999999999,-1.0
-0.4629999999999999,-1.01,-1.0
0.923,-1.02,1.0
-1.03,1.31,-1.0
-0.581,1.36,-1.0
-1.78,-0.5820000000000001,1.0
1.09,0.6,-1.0
-0.419,1.4,-1.0
-0.132,0.954,-1.0
1.32,-0.311,1.0
2.03,1.32,1.0
-1.66,0.835,-1.0
0.271,-1.28,-1.0
-0.335,-0.81,-1.0
-0.8490000000000001,-0.187,1.0
0.247,-0.9,-1.0
1.43,0.57,-1.0
-0.473,0.085,1.0
0.251,0.171,1.0
-1.77,0.457,-1.0
1.03,0.252,1.0
-0.579,0.79,-1.0
-2.13,-0.347,1.0
-0.975,0.725,-1.0
-0.106,-1.14,-1.0
-0.555,-1.02,-1.0
-0.401,-1.17,-1.0
-0.11,-0.372,1.0
-0.425,0.996,1.0
0.1009999999999999,1.93,1.0
-0.316,0.177,1.0
-1.06,0.665,-1.0
-0.8959999999999999,0.207,1.0
0.915,-1.27,1.0
1.24,0.31,-1.0
2.44,1.37,1.0
-0.0819,1.64,-1.0
-1.48,0.74,-1.0
-0.957,1.0,-1.0
-0.153,-1.15,-1.0
-0.675,1.18,-1.0
-1.39,-0.474,1.0
-0.357,-0.944,-1.0
-0.35,-1.49,-1.0
0.84,-0.176,1.0
-0.294,-1.54,-1.0
1.22,-1.58,1.0
0.75,1.92,1.0
-0.472,-0.0198,1.0
0.0526,1.42,-1.0
1.72,-0.7929999999999999,-1.0
-1.43,-0.546,1.0
0.427,1.99,-1.0
-1.48,-1.23,1.0
-1.19,-0.638,1.0
-0.0143,1.55,-1.0
0.408,0.0179,1.0
-0.952,0.000432,1.0
0.667,1.92,1.0
-0.945,-0.639,1.0
-0.633,-0.698,1.0
-0.583,-1.35,-1.0
0.544,1.22,-1.0
0.465,0.283,1.0
1.24,0.79,-1.0
-0.427,-0.485,1.0
0.708,0.961,-1.0
-1.33,0.7190000000000001,-1.0
-0.8029999999999999,1.25,-1.0
-0.265,1.28,-1.0
-1.59,0.913,-1.0
-1.23,-0.703,1.0
-1.46,1.2,-1.0
-0.139,-1.26,-1.0
-0.632,1.35,-1.0
-0.949,1.0,-1.0
2.34,1.16,1.0
-0.0753,0.267,1.0
-0.179,-0.0492,1.0
1.8,1.32,1.0
-0.142,0.231,1.0
-0.924,-0.102,1.0
1.35,0.472,-1.0
-0.779,-1.04,-1.0
0.347,0.414,1.0
0.745,0.366,-1.0
-0.0187,-1.55,-1.0
0.168,-1.06,-1.0
-2.6,0.217,-1.0
-1.06,-0.8809999999999999,-1.0
0.926,-1.17,1.0
0.479,1.48,-1.0
0.0109,-0.3779999999999999,1.0
-0.115,-0.7190000000000001,-1.0
0.105,-0.208,1.0
0.514,1.52,-1.0
0.5579999999999999,-1.06,1.0
0.962,0.851,-1.0
1.08,0.3779999999999999,-1.0
1.96,1.31,1.0
-0.0685,0.931,-1.0
-0.0253,0.0742,1.0
0.95,-0.0297,1.0
1.05,-0.23,-1.0
1.27,-0.573,1.0
-0.292,-0.2239999999999999,1.0
1.72,-0.471,-1.0
-0.953,1.06,-1.0
-1.24,1.14,-1.0
-1.11,1.1,-1.0
-1.58,0.272,-1.0
-1.4,-0.107,1.0
0.171,2.11,1.0
-1.75,0.318,-1.0
-0.99,0.231,1.0
1.2,-0.778,1.0
0.802,1.21,-1.0
1.25,-0.2019999999999999,-1.0
-0.163,-0.759,-1.0
1.36,0.86,-1.0
1.25,0.555,-1.0
-0.4589999999999999,-1.11,-1.0
1.66,0.239,-1.0
-0.593,-1.58,-1.0
-0.974,1.05,-1.0
-1.96,0.445,-1.0
1.35,-0.461,-1.0
-0.956,-1.61,-1.0
-1.45,-0.1669999999999999,1.0
0.482,-0.653,1.0
-0.14,-0.6940000000000001,1.0
0.56,-1.02,-1.0
-0.693,1.28,-1.0
0.358,-0.887,1.0
1.14,-0.286,1.0
-0.153,1.97,1.0
0.589,0.7140000000000001,-1.0
2.47,1.12,1.0
0.605,1.28,-1.0
-1.21,1.19,-1.0
-0.7040000000000001,1.46,-1.0
-0.7240000000000001,-0.973,-1.0
-1.67,0.672,-1.0
-0.0939,1.68,-1.0
0.0969999999999999,-0.593,1.0
-1.49,0.415,-1.0
0.407,-0.94,-1.0
1.97,1.41,1.0
-0.889,-0.417,1.0
1.19,0.5539999999999999,-1.0
-1.8,0.6759999999999999,-1.0
0.291,1.34,-1.0
-0.267,-0.8959999999999999,-1.0
-0.59,-0.3279999999999999,1.0
0.0885,-1.22,-1.0
-1.42,0.624,-1.0
-0.141,-0.797,-1.0
0.104,-1.04,-1.0
-0.278,-1.09,-1.0
-0.914,-0.522,1.0
-1.84,0.0932,-1.0
1.64,1.53,1.0
0.16,0.1889999999999999,1.0
-1.71,-0.319,1.0
0.7929999999999999,0.836,-1.0
0.3829999999999999,-0.8240000000000001,1.0
-0.0697,1.56,-1.0
-1.64,-1.05,1.0
1.22,-1.46,1.0
1.48,1.01,1.0
-0.8759999999999999,0.2319999999999999,1.0
0.316,-0.601,1.0
-1.87,-1.0,1.0
-0.769,-1.46,-1.0
-1.53,0.6559999999999999,-1.0
-1.31,-1.11,1.0
0.617,-0.585,1.0
0.994,0.0734,-1.0
-0.345,0.376,1.0
-0.84,-1.16,-1.0
0.515,2.21,-1.0
-0.1969999999999999,0.544,1.0
0.913,-0.374,1.0
1.18,-0.2769999999999999,-1.0
-0.8740000000000001,0.7190000000000001,1.0
1.09,-0.384,1.0
-0.972,-1.08,1.0
-0.85,0.963,-1.0
1.21,0.306,-1.0
0.933,0.716,-1.0
1.75,1.33,1.0
0.415,0.986,-1.0
-1.45,-0.0461,1.0
0.928,-0.102,1.0
0.8340000000000001,0.925,-1.0
-0.0275,-0.5820000000000001,1.0
-0.0839,1.0,1.0
2.42,1.5,1.0
-0.341,0.0621,1.0
0.0311,-0.978,-1.0
0.586,0.402,-1.0
-0.0264,-0.952,-1.0
-1.19,-1.32,-1.0
-0.534,1.15,-1.0
0.418,0.616,1.0
-0.652,-1.54,-1.0
-0.598,-1.38,-1.0
-0.0215,0.7040000000000001,1.0
-0.00124,-0.938,1.0
-0.77,0.637,-1.0
-1.02,0.968,-1.0
-0.637,0.942,1.0
-0.0254,-0.79,1.0
-0.494,-1.22,-1.0
0.366,0.1639999999999999,1.0
0.595,0.677,-1.0
1.32,0.376,-1.0
1.09,0.614,-1.0
-0.26,1.36,-1.0
-1.6,-0.0414,1.0
1.23,-2.2,1.0
1.8,0.757,-1.0
1.22,0.423,-1.0
0.0951,-1.39,-1.0
0.439,-1.09,-1.0
0.8859999999999999,-0.292,1.0
1.22,0.8340000000000001,-1.0
0.675,0.667,-1.0
0.456,0.278,1.0
-0.815,1.18,-1.0
-0.497,-1.29,-1.0
-1.17,0.564,1.0
0.0786,1.63,-1.0
0.264,-0.605,1.0
-0.222,0.156,1.0
-1.51,0.481,-1.0
0.518,1.7,-1.0
-0.845,-0.00258,1.0
0.635,0.5589999999999999,1.0
-0.964,0.108,1.0
-0.132,-1.37,-1.0
0.0585,-0.3779999999999999,1.0
-0.0876,0.255,1.0
-0.0189,-1.28,-1.0
0.3779999999999999,0.987,-1.0
-1.32,0.516,1.0
1.49,-0.8859999999999999,-1.0
-1.7,-1.16,1.0
0.598,0.133,1.0
-1.48,-0.297,1.0
1.19,0.812,-1.0
-1.02,-1.29,-1.0
-1.31,-0.627,1.0
-0.0666,0.0656,1.0
0.615,0.375,-1.0
-0.142,1.65,-1.0
0.335,1.95,-1.0
1.22,0.247,-1.0
0.409,-1.51,-1.0
-1.3,-1.08,1.0
1.06,-0.4529999999999999,1.0
-0.911,-0.908,-1.0
0.903,-0.3389999999999999,1.0
1.35,-0.387,1.0
-1.67,-0.266,1.0
-0.856,-0.235,1.0
-0.918,1.44,-1.0
1.24,1.45,1.0
1.41,-0.447,-1.0
0.177,0.731,1.0
0.0886,-0.8440000000000001,-1.0
0.604,0.555,-1.0
-0.3939999999999999,-0.253,1.0
0.319,1.61,1.0
-0.8079999999999999,-1.5,-1.0
-0.44,0.298,1.0
-0.634,1.08,-1.0
-0.6509999999999999,-0.103,1.0
0.0605,2.06,1.0
-1.04,0.937,-1.0
2.62,1.12,1.0
-0.499,-0.241,1.0
-1.46,-0.108,1.0
1.01,0.677,-1.0
0.627,0.2339999999999999,-1.0
-0.436,1.45,-1.0
1.35,-0.177,-1.0
1.77,1.59,1.0
-0.26,-1.23,-1.0
0.477,1.83,-1.0
1.22,1.04,-1.0
-0.784,-0.00647,1.0
-0.236,1.44,-1.0
-0.767,-1.3,-1.0
1.14,0.376,-1.0
0.8140000000000001,0.8170000000000001,-1.0
-1.26,-0.119,1.0
0.933,-1.24,1.0
-1.14,0.0337,1.0
-1.8,-1.25,1.0
0.178,-1.24,-1.0
1.18,0.3339999999999999,-1.0
0.145,-0.415,1.0
-0.187,-0.267,1.0
0.769,0.855,-1.0
-1.31,-1.16,1.0
1.08,0.148,1.0
-1.82,-0.705,1.0
-0.177,-1.12,-1.0
0.389,-0.804,1.0
0.272,-1.12,-1.0
0.846,1.87,-1.0
0.677,0.108,1.0
1.7,-0.0336,-1.0
2.51,0.901,1.0
0.643,-0.4029999999999999,1.0
-0.509,-0.8240000000000001,-1.0
0.0817,0.418,1.0
1.68,-0.32,-1.0
-0.33,0.301,1.0
0.235,-1.06,-1.0
-0.59,-1.23,-1.0
1.08,0.72,-1.0
0.0243,-0.7190000000000001,-1.0
1.02,-0.351,1.0
-1.08,-0.868,1.0
-1.52,0.246,1.0
-0.8340000000000001,-1.19,-1.0
1.02,0.976,-1.0
-0.241,0.774,1.0
-0.451,1.7,-1.0
1.21,-0.774,1.0
0.8320000000000001,1.33,-1.0
0.432,0.7490000000000001,-1.0
-0.0454,1.75,-1.0
1.21,-0.873,1.0
1.56,-0.177,-1.0
0.292,-0.159,1.0
0.445,-1.38,-1.0
-0.4629999999999999,0.0231,1.0
-0.951,1.39,-1.0
-0.254,-1.27,-1.0
-0.449,1.04,-1.0
-0.311,-1.07,-1.0
0.5660000000000001,-0.977,1.0
-0.5429999999999999,7.62e-05,1.0
0.26,-0.54,1.0
-2.1,-0.604,1.0
1.26,0.462,-1.0
-0.527,0.887,-1.0
1.03,0.805,-1.0
-1.07,-0.039,1.0
1.35,-1.51,1.0
0.507,1.02,-1.0
0.306,-1.13,-1.0
-1.21,-0.392,1.0
0.204,-1.29,-1.0
-0.218,-1.63,-1.0
-1.34,0.626,-1.0
-0.614,-1.22,-1.0
0.445,0.0484,1.0
-0.959,1.07,-1.0
-0.204,-0.181,1.0
-2.18,-1.88,1.0
-0.474,0.264,1.0
0.904,1.15,-1.0
1.1,-0.313,1.0
0.961,-1.33,1.0
-0.2239999999999999,-1.02,-1.0
0.326,0.00626,1.0
0.449,-0.0489,1.0
-0.49,1.25,-1.0
0.42,2.1,-1.0
-0.391,-0.547,1.0
0.703,-0.583,1.0
-1.3,0.469,-1.0
-1.44,-0.505,1.0
1.55,-0.649,-1.0
0.447,-1.18,-1.0
-0.0433,0.605,1.0
-0.4479999999999999,-0.354,1.0
-0.672,1.35,-1.0
0.491,0.1939999999999999,1.0
-0.11,-1.21,-1.0
-0.436,1.86,-1.0
0.562,0.172,1.0
0.278,0.3829999999999999,1.0
-0.605,-1.52,-1.0
1.39,0.155,-1.0
-0.296,0.5379999999999999,1.0
0.952,0.836,-1.0
1.38,-0.645,1.0
-1.12,0.589,1.0
1.33,-1.71,1.0
0.8190000000000001,0.546,-1.0
1.58,-0.4679999999999999,-1.0
1.07,1.53,-1.0
0.434,0.295,1.0
-0.901,-1.68,-1.0
0.244,1.84,1.0
0.0114,1.66,-1.0
1.89,-0.633,-1.0
0.344,0.908,-1.0
0.21,2.18,-1.0
-0.932,-1.15,-1.0
0.23,-1.15,-1.0
1.55,1.1,1.0
-0.866,-0.1969999999999999,1.0
1.25,-1.38,1.0
0.991,-1.1,1.0
-0.927,-0.595,1.0
1.27,-0.519,-1.0
-1.17,0.586,-1.0
-1.01,0.768,-1.0
-0.471,-0.919,-1.0
-0.104,0.48,1.0
0.728,0.752,-1.0
-1.13,0.654,-1.0
-1.96,-0.442,1.0
0.675,0.8859999999999999,-1.0
-1.92,-1.17,1.0
-1.42,-1.4,-1.0
-0.39,-1.01,-1.0
-0.218,-1.05,-1.0
0.603,1.8,1.0
-0.0232,-1.24,-1.0
-1.48,0.944,-1.0
-0.0127,-1.12,-1.0
-0.5870000000000001,1.01,-1.0
1.5,-0.0608,-1.0
1.64,-0.308,-1.0
-0.642,-1.35,-1.0
-0.181,-1.1,-1.0
-0.305,1.18,-1.0
-1.19,0.8140000000000001,-1.0
-0.758,0.794,-1.0
0.8109999999999999,1.07,-1.0
-1.89,-1.16,1.0
-0.0199,-1.32,-1.0
-0.396,-1.45,-1.0
-1.08,0.89,-1.0
0.624,-0.285,1.0
-0.177,1.51,-1.0
-0.961,0.755,-1.0
-0.38,-1.34,-1.0
-0.516,1.46,-1.0
1.21,0.151,-1.0
-0.139,-0.363,1.0
0.0966,-1.06,-1.0
-0.347,-1.15,-1.0
-1.88,-1.26,1.0
0.484,-0.427,1.0
-0.1689999999999999,-0.135,1.0
-0.446,-1.53,-1.0
1.16,-0.357,1.0
0.955,0.142,1.0
-0.8440000000000001,0.371,1.0
1.35,0.677,-1.0
-0.145,1.65,-1.0
1.35,-0.518,-1.0
-0.715,-1.49,-1.0
-1.0,-0.885,-1.0
-0.357,1.51,-1.0
-1.53,0.795,-1.0
0.7070000000000001,-0.778,1.0
-0.836,-1.36,-1.0
-1.84,-0.284,1.0
-0.685,0.727,1.0
-1.15,-0.659,1.0
-1.6,0.7879999999999999,-1.0
-0.114,0.846,1.0
-1.14,1.08,-1.0
-0.397,0.563,1.0
1.08,0.088,-1.0
0.523,-1.38,-1.0
1.23,-0.0874,-1.0
-0.336,0.182,1.0
-0.882,-0.608,1.0
1.24,0.441,-1.0
-0.7140000000000001,-1.65,-1.0
0.437,2.35,-1.0
0.72,0.677,-1.0
0.8029999999999999,0.349,-1.0
-1.83,0.379,-1.0
-0.665,1.61,-1.0
-0.23,2.0,1.0
-1.75,-1.92,1.0
-0.599,1.25,-1.0
-0.298,-1.16,-1.0
-0.479,0.91,-1.0
-1.74,0.367,-1.0
0.00879,1.47,-1.0
-0.302,-0.1159999999999999,1.0
0.157,0.956,-1.0
0.934,0.32,-1.0
-0.226,-1.45,-1.0
-0.667,-0.895,-1.0
-0.0337,-1.36,-1.0
-0.0411,0.32,1.0
-0.495,1.31,-1.0
-0.995,-0.507,1.0
-1.75,-1.63,1.0
0.175,-0.887,-1.0
-1.75,-1.27,1.0
-1.33,0.878,-1.0
-0.238,1.74,1.0
0.99,1.02,-1.0
-1.64,-1.16,1.0
0.435,0.397,1.0
-0.306,2.28,-1.0
-1.28,-1.12,1.0
-0.211,-0.637,-1.0
-0.104,-1.15,-1.0
-0.897,-0.972,-1.0
0.655,1.72,1.0
-0.58,-0.579,1.0
0.688,-0.878,1.0
1.55,-0.00546,-1.0
-1.5,0.0847,1.0
-0.851,-1.26,-1.0
-0.138,-1.03,-1.0
1.94,1.25,1.0
-0.6509999999999999,1.12,-1.0
1.66,-0.402,-1.0
-1.31,0.239,1.0
0.0821,-0.3979999999999999,1.0
-0.639,0.68,1.0
0.782,-0.139,1.0
-1.29,-0.23,1.0
0.76,-1.16,1.0
-0.665,-1.04,-1.0
-0.22,-1.12,-1.0
-1.54,0.562,-1.0
-0.159,-0.12,1.0
-1.79,-0.124,1.0
1.12,-0.908,1.0
-1.28,-0.259,1.0
-0.625,-0.675,-1.0
-0.752,-0.1169999999999999,1.0
1.09,1.49,1.0
-0.867,0.214,1.0
0.596,-0.172,1.0
0.381,1.61,1.0
-0.6509999999999999,-0.528,1.0
0.0439,2.03,1.0
-0.5529999999999999,-0.687,1.0
-1.47,-0.8170000000000001,1.0
1.92,0.0429,-1.0
-0.6729999999999999,-0.177,1.0
1.32,0.218,-1.0
0.221,0.946,1.0
0.359,1.52,-1.0
1.45,0.273,-1.0
1.16,-1.1,1.0
-0.878,-1.46,-1.0
0.983,0.203,-1.0
0.435,1.31,1.0
-0.00145,-0.7,1.0
-0.248,-1.69,-1.0
1.78,0.272,-1.0
-1.04,1.13,-1.0
-0.536,-0.8140000000000001,-1.0
0.355,-0.222,1.0
0.431,1.64,1.0
0.0479,-1.06,-1.0
-0.767,-1.2,-1.0
0.473,-1.11,1.0
-0.4429999999999999,1.02,-1.0
-0.568,-0.873,-1.0
0.14,1.25,-1.0
2.18,1.13,1.0
0.799,-0.99,1.0
-0.0163,-1.07,-1.0
1.51,-0.355,-1.0
-0.264,-1.14,-1.0
2.07,1.37,1.0
-0.0175,-1.21,-1.0
0.405,-1.2,-1.0
-0.867,1.09,-1.0
0.545,1.28,-1.0
0.985,0.114,-1.0
-0.544,-0.831,-1.0
1.12,0.293,-1.0
-1.44,-0.47,1.0
-0.077,1.87,1.0
1.35,-0.962,1.0
0.2339999999999999,-0.413,1.0
0.599,1.14,-1.0
-1.38,-0.826,1.0
0.999,-1.12,1.0
-0.3339999999999999,-1.34,-1.0
-0.209,-0.356,1.0
-0.8909999999999999,-0.617,1.0
0.0545,-1.32,-1.0
0.545,-0.165,1.0
1.29,0.488,-1.0
-1.11,0.308,1.0
0.629,-0.617,1.0
0.424,0.0533,1.0
-0.5489999999999999,1.03,-1.0
1.27,0.775,-1.0
-1.84,-0.366,1.0
-1.74,0.6970000000000001,-1.0
-1.77,-1.19,1.0
1.05,-0.655,1.0
-1.15,-0.545,1.0
1.45,0.211,-1.0
0.643,-0.351,1.0
-0.0744,-0.4629999999999999,1.0
0.478,0.46,1.0
-0.3979999999999999,-1.28,-1.0
-0.397,-1.1,-1.0
0.625,1.38,1.0
0.1369999999999999,1.94,1.0
-0.726,-1.17,-1.0
0.517,1.46,-1.0
-1.57,-0.561,1.0
0.3289999999999999,0.606,-1.0
-0.529,0.365,1.0
-1.82,0.474,-1.0
1.46,-1.06,1.0
-0.144,1.68,-1.0
-1.23,-0.977,-1.0
-1.35,-0.57,1.0
-0.0117,-1.34,-1.0
1.31,0.151,-1.0
-1.52,-0.00335,1.0
0.976,1.24,-1.0
-1.4,0.98,-1.0
0.455,0.877,-1.0
0.193,1.72,-1.0
-0.152,-1.11,-1.0
1.31,0.208,-1.0
-1.06,-1.54,-1.0
0.75,1.63,1.0
1.88,-1.13,-1.0
0.894,-0.742,1.0
0.258,0.482,1.0
-1.55,-0.61,1.0
-1.36,-0.324,1.0
1.59,-0.111,-1.0
-0.0367,-0.144,1.0
1.74,0.195,-1.0
-0.482,0.0903,1.0
-0.0882,1.17,-1.0
0.762,0.344,-1.0
0.813,1.06,-1.0
0.163,-1.08,-1.0
1.88,-0.289,-1.0
0.273,1.79,-1.0
-0.8140000000000001,0.23,1.0
-0.422,-0.241,1.0
0.996,1.46,1.0
0.591,-0.427,1.0
-0.536,1.19,-1.0
-0.53,0.1009999999999999,1.0
-0.305,0.1939999999999999,1.0
-0.0461,1.65,-1.0
-0.534,-1.23,-1.0
-0.8029999999999999,-1.09,-1.0
0.915,1.15,-1.0
0.6759999999999999,0.925,-1.0
-0.6990000000000001,-0.359,1.0
-0.222,0.259,1.0
-0.615,-0.97,-1.0
-0.926,0.916,-1.0
-0.8540000000000001,-0.379,1.0
-1.19,1.14,-1.0
-0.728,-0.76,1.0
-0.173,1.59,-1.0
-0.114,-1.5,-1.0
-1.3,0.6509999999999999,1.0
-1.15,-0.562,1.0
0.884,-0.7659999999999999,1.0
-1.6,-1.32,1.0
0.7809999999999999,0.911,-1.0
0.6729999999999999,2.52,-1.0
-0.855,1.22,-1.0
-1.52,-0.993,1.0
0.273,-1.45,-1.0
-1.27,-0.688,1.0
0.157,-0.652,1.0
0.722,0.368,-1.0
-0.38,-1.27,-1.0
1.66,-0.384,-1.0
-0.118,-1.26,-1.0
-0.78,-1.37,-1.0
0.22,-1.36,-1.0
-0.621,1.11,-1.0
1.37,0.2189999999999999,-1.0
0.284,1.86,-1.0
0.941,1.46,-1.0
0.121,0.2189999999999999,1.0
0.919,0.7979999999999999,-1.0
0.5329999999999999,1.76,-1.0
0.845,0.00714,1.0
-0.203,1.26,-1.0
-0.914,0.317,1.0
-0.688,-1.14,-1.0
1.07,0.3989999999999999,-1.0
-0.411,-1.34,-1.0
0.924,0.861,-1.0
-0.901,-1.13,-1.0
1.15,0.565,-1.0
0.155,1.88,-1.0
1.43,-0.816,1.0
-0.113,2.13,1.0
1.14,0.212,-1.0
-1.69,-0.176,1.0
-0.6679999999999999,0.919,-1.0
0.732,0.493,-1.0
-1.4,-0.183,1.0
0.0125,-0.665,-1.0
1.5,1.5,1.0
-0.7440000000000001,-1.39,-1.0
1.31,0.17,-1.0
-1.21,0.918,-1.0
0.457,0.191,1.0
0.513,1.5,-1.0
0.0722,1.8,-1.0
0.508,-0.331,1.0
0.65,1.86,-1.0
0.0981,0.465,1.0
0.032,-1.5,-1.0
0.7390000000000001,2.14,-1.0
0.396,1.81,1.0
-0.695,1.08,-1.0
-1.84,-0.846,1.0
-0.8240000000000001,1.1,-1.0
1.16,-1.24,1.0
-0.0932,0.472,1.0
-1.22,0.0836,1.0
-0.188,-1.27,-1.0
1.62,1.19,1.0
-1.69,-1.14,1.0
0.25,-1.1,-1.0
-1.22,0.569,1.0
-0.901,-1.56,-1.0
-0.149,-0.0185,1.0
-0.226,-1.09,-1.0
-0.301,1.69,-1.0
-0.8270000000000001,1.23,-1.0
-0.672,-0.0414,1.0
0.606,-0.877,-1.0
0.966,-0.1989999999999999,1.0
1.06,0.629,-1.0
1.18,1.42,1.0
0.9,-1.36,1.0
1.46,-0.111,-1.0
0.242,0.347,1.0
-1.13,0.928,-1.0
-0.799,1.11,-1.0
-1.18,0.6920000000000001,-1.0
-0.787,-0.113,1.0
-0.412,-0.6890000000000001,-1.0
-0.452,0.524,1.0
-1.1,0.419,1.0
1.34,1.44,1.0
1.34,-0.0272,-1.0
-0.146,-0.8690000000000001,-1.0
0.0726,-1.31,-1.0
-0.0776,-1.35,-1.0
1.17,0.407,-1.0
-0.514,-1.21,-1.0
-0.897,-1.04,-1.0
0.108,-1.21,-1.0
2.18,1.21,1.0
0.634,0.366,1.0
1.3,0.7490000000000001,-1.0
0.283,0.3939999999999999,1.0
0.247,1.65,1.0
0.212,1.81,-1.0
1.08,-0.628,-1.0
-0.852,-0.298,1.0
-0.251,0.327,1.0
0.417,-1.28,-1.0
-0.12,-1.22,-1.0
2.11,0.942,1.0
-0.214,-0.235,1.0
1.05,0.2189999999999999,-1.0
0.0725,0.596,1.0
-1.34,0.8690000000000001,-1.0
0.911,-0.8320000000000001,1.0
0.303,-0.94,-1.0
1.7,-0.5539999999999999,-1.0
0.659,1.28,-1.0
-0.192,0.7909999999999999,1.0
0.424,1.64,1.0
-0.59,-1.04,-1.0
2.04,1.36,1.0
-1.11,-0.351,1.0
-1.86,-1.78,1.0
-1.12,-0.315,1.0
-0.932,-1.02,-1.0
0.726,-0.626,1.0
-0.347,-1.13,-1.0
-1.21,-1.16,1.0
0.3389999999999999,0.8809999999999999,-1.0
-0.836,-0.65,1.0
0.838,1.5,-1.0
-0.88,0.407,1.0
0.987,0.258,-1.0
1.86,-0.213,-1.0
-1.12,0.6990000000000001,-1.0
-1.19,-0.3279999999999999,1.0
-0.177,-1.45,-1.0
-0.131,1.76,1.0
0.0963,-1.38,-1.0
0.0561,-0.479,1.0
-0.413,1.17,-1.0
-1.21,-0.8540000000000001,1.0
0.879,1.03,-1.0
0.7240000000000001,0.706,-1.0
-2.03,-1.23,1.0
1.44,0.276,-1.0
1.1,1.58,1.0
1.07,0.512,-1.0
-1.24,-0.706,1.0
0.273,1.68,-1.0
1.19,0.289,-1.0
-0.436,-0.954,-1.0
-0.4029999999999999,-0.488,1.0
1.47,-1.44,1.0
1.13,1.07,-1.0
-0.711,0.96,-1.0
1.81,-0.551,-1.0
-0.381,-1.08,-1.0
0.957,-0.5720000000000001,1.0
-0.243,-1.24,-1.0
0.914,0.26,-1.0
0.701,0.564,-1.0
0.387,-0.7979999999999999,-1.0
-1.02,-1.43,-1.0
-0.178,-0.551,1.0
0.512,-0.49,1.0
-2.17,-0.523,1.0
1.18,0.7659999999999999,-1.0
-0.00948,-0.336,1.0
1.34,-1.07,1.0
1.28,1.35,1.0
-0.2739999999999999,-0.99,-1.0
-1.82,-0.341,1.0
1.42,-0.208,1.0
-0.261,0.204,1.0
-1.69,0.706,-1.0
-1.24,-0.497,1.0
-0.074,1.97,1.0
0.0285,1.72,1.0
-0.315,-1.09,-1.0
0.222,1.47,1.0
-0.376,-0.975,-1.0
-0.356,-0.0513,1.0
-0.42,1.11,-1.0
1.02,0.44,-1.0
-0.828,-0.82,-1.0
-0.825,0.481,1.0
1.23,-1.55,1.0
1.61,-0.387,-1.0
1.35,-1.23,1.0
0.424,0.471,-1.0
-0.522,0.877,1.0
-0.391,1.03,-1.0
-1.54,-0.6409999999999999,1.0
0.0114,-1.46,-1.0
1.16,0.151,1.0
-0.879,0.499,1.0
2.37,1.14,1.0
1.88,0.1159999999999999,-1.0
0.809,0.741,-1.0
1.28,-0.236,-1.0
1.01,1.53,1.0
-0.0443,-0.335,1.0
-0.337,1.66,-1.0
-0.957,0.039,1.0
-0.266,-1.2,-1.0
-1.33,-0.861,1.0
-1.87,-1.32,1.0
0.504,0.0752,-1.0
-0.2689999999999999,1.6,-1.0
1.55,-0.466,-1.0
-1.66,-0.56,1.0
0.299,1.56,-1.0
-0.418,-1.26,-1.0
-0.016,-0.4479999999999999,1.0
0.4629999999999999,0.498,-1.0
-1.56,-1.1,1.0
0.287,-1.45,-1.0
-1.03,1.01,-1.0
0.826,0.84,-1.0
-1.31,-0.354,1.0
-0.162,1.84,-1.0
-0.532,0.978,-1.0
0.527,-1.02,-1.0
-0.071,1.63,-1.0
0.625,1.67,-1.0
-0.317,1.77,-1.0
1.14,0.647,-1.0
-1.37,-0.177,1.0
-0.0273,0.7390000000000001,1.0
-1.89,-1.7,1.0
-0.936,1.81,-1.0
-1.34,0.595,-1.0
0.469,1.91,-1.0
-1.57,0.629,-1.0
0.445,0.135,1.0
-0.139,0.132,1.0
-0.987,-0.863,1.0
0.434,-0.1889999999999999,1.0
1.62,-0.0187,-1.0
0.659,-0.985,1.0
-1.42,-0.327,1.0
1.82,1.43,1.0
-0.487,-0.536,1.0
1.38,0.131,-1.0
-1.44,-0.0746,1.0
-0.163,-0.3979999999999999,1.0
1.25,-0.322,-1.0
1.33,-0.0802,-1.0
0.409,1.45,-1.0
-1.45,-1.25,1.0
-1.32,0.995,-1.0
1.72,0.0291,-1.0
-1.78,-0.687,1.0
-1.57,0.3779999999999999,-1.0
0.0235,-0.18,1.0
-1.17,0.156,1.0
-0.105,-0.442,1.0
0.414,1.16,-1.0
0.617,-0.0096,1.0
-1.37,0.648,-1.0
0.774,0.617,-1.0
0.501,0.0553,1.0
0.981,0.532,-1.0
0.141,0.0947,1.0
-1.84,-1.64,1.0
-1.16,0.41,-1.0
0.773,-0.747,1.0
0.217,-1.21,-1.0
0.8220000000000001,0.192,-1.0
0.00168,0.262,1.0
-0.742,-1.02,-1.0
-1.31,-0.903,-1.0
0.878,-1.38,1.0
2.41,1.26,1.0
-0.855,-1.05,-1.0
-1.88,-0.979,1.0
-0.895,-1.07,1.0
0.235,0.772,1.0
-0.2,1.74,1.0
-0.7390000000000001,1.32,-1.0
0.952,0.616,-1.0
-1.57,-0.205,1.0
0.774,-1.22,1.0
0.397,0.513,1.0
1.07,-1.38,1.0
-0.33,0.0829,1.0
-0.718,-1.25,-1.0
-0.6759999999999999,1.3,-1.0
0.434,2.19,-1.0
-0.882,-0.5820000000000001,1.0
0.0301,-0.894,-1.0
-0.685,0.989,-1.0
-0.377,-0.617,1.0
-1.09,1.39,-1.0
0.648,1.41,-1.0
0.318,1.4,-1.0
-0.501,0.0787,1.0
-1.81,-0.994,1.0
-0.954,-1.19,-1.0
0.627,-0.0629,1.0
-1.93,0.525,-1.0
-1.41,1.09,-1.0
0.0489,-1.36,-1.0
-1.25,-0.6559999999999999,1.0
2.2,1.26,1.0
0.949,0.422,-1.0
-1.32,-0.088,1.0
-0.695,-0.736,-1.0
0.916,1.63,-1.0
0.974,0.512,-1.0
1.38,0.7490000000000001,-1.0
0.521,-1.04,-1.0
1.13,0.429,-1.0
-0.965,-0.978,-1.0
0.7390000000000001,0.139,1.0
0.369,0.49,1.0
0.44,0.9,-1.0
1.33,1.43,1.0
1.19,0.997,-1.0
-0.914,0.425,1.0
-1.46,-0.298,1.0
0.941,-0.789,1.0
-1.82,0.885,-1.0
0.0949,-1.56,-1.0
0.8740000000000001,-0.769,1.0
-0.967,0.5920000000000001,-1.0
-0.76,-0.698,1.0
-2.25,-1.96,1.0
1.01,-0.984,1.0
0.198,-1.19,-1.0
-0.7290000000000001,1.37,-1.0
-0.968,-0.912,-1.0
-0.271,1.59,-1.0
0.897,1.07,-1.0
1.39,-0.498,-1.0
0.0968,-0.225,1.0
0.374,0.966,-1.0
-0.7909999999999999,-1.26,-1.0
-0.153,-1.2,-1.0
0.557,-1.04,1.0
0.412,-0.124,1.0
-1.55,-1.47,1.0
1.9,1.27,1.0
0.838,-0.115,1.0
-0.00294,0.513,1.0
1.82,-0.643,-1.0
-0.212,-1.18,-1.0
-0.835,-1.06,-1.0
-1.53,-1.21,1.0
0.352,0.3329999999999999,1.0
-1.09,0.531,-1.0
1.54,1.75,1.0
-0.282,1.78,1.0
0.428,-0.494,1.0
-1.21,-0.409,1.0
-1.31,0.175,1.0
0.614,-1.46,-1.0
-1.15,-0.0498,1.0
-0.902,-0.36,1.0
2.57,0.989,1.0
-0.103,-0.414,1.0
-0.969,1.02,-1.0
1.09,1.03,-1.0
1.44,-1.7,1.0
0.0403,-1.51,-1.0
-0.0957,-1.06,-1.0
1.05,0.472,-1.0
-0.268,-1.52,-1.0
1.35,0.2289999999999999,-1.0
-1.4,0.475,-1.0
1.18,1.49,-1.0
0.5660000000000001,0.0815,1.0
0.34,-1.34,-1.0
0.753,1.89,1.0
-0.613,0.775,1.0
-1.61,-1.13,1.0
1.06,-0.0531,1.0
0.764,-0.804,1.0
0.226,-1.38,-1.0
-1.19,1.01,-1.0
1.25,-0.118,-1.0
-0.2339999999999999,-0.6559999999999999,1.0
-1.45,-1.29,1.0
-1.63,-1.32,1.0
-0.715,-0.969,-1.0
1.39,-0.013,-1.0
0.0224,1.43,1.0
-0.3379999999999999,-1.33,-1.0
-0.693,-0.113,1.0
0.0533,-1.02,-1.0
-1.18,0.0302,1.0
1.15,0.3289999999999999,-1.0
-0.285,1.98,-1.0
1.06,-0.0553,1.0
0.6609999999999999,-0.1989999999999999,1.0
-1.54,-0.618,1.0
-1.67,-1.5,1.0
-0.674,0.8420000000000001,-1.0
0.722,-0.975,1.0
1.02,-0.625,1.0
1.26,-0.181,1.0
-0.405,-1.25,-1.0
-0.815,-0.682,1.0
0.384,2.15,-1.0
0.0529,1.52,-1.0
1.46,0.0373,-1.0
-1.06,-0.5489999999999999,1.0
-1.39,0.862,-1.0
0.527,0.51,1.0
-1.63,0.524,-1.0
2.2,-0.665,-1.0
-0.138,-0.0524,1.0
1.17,0.446,-1.0
0.647,0.317,-1.0
-1.73,-0.242,1.0
-0.4,0.00463,1.0
0.43,-0.654,1.0
1.49,0.365,-1.0
-0.643,1.68,-1.0
-0.253,-0.406,1.0
-1.13,-0.4429999999999999,1.0
1.3,0.175,-1.0
1.64,1.46,1.0
-0.0657,-1.19,-1.0
2.48,1.21,1.0
-0.959,1.08,-1.0
-0.5820000000000001,-0.752,1.0
0.552,1.04,-1.0
1.06,0.4429999999999999,-1.0
0.406,-0.7070000000000001,1.0
1.1,0.508,-1.0
1.1,0.604,-1.0
-0.753,1.18,-1.0
-0.872,0.26,1.0
0.524,-0.231,1.0
1.29,0.152,-1.0
-0.851,0.1889999999999999,1.0
0.244,-0.69,1.0
0.37,1.03,-1.0
-1.98,-0.88,1.0
-1.62,0.4679999999999999,-1.0
-0.843,-1.08,-1.0
1.0,1.17,-1.0
-0.954,0.687,1.0
0.768,-0.966,1.0
1.64,1.12,1.0
0.4039999999999999,0.00999,1.0
2.64,1.14,1.0
0.769,0.772,-1.0
