Mcg,Gvh,Lip,Chg,Aac,Alm1,Alm2,TARGET
49.0,29.0,48.0,5.0,56.0,24.0,35.0,0
59.0,49.0,48.0,5.0,52.0,45.0,36.0,0
23.0,32.0,48.0,5.0,55.0,25.0,35.0,0
67.0,39.0,48.0,5.0,36.0,38.0,46.0,0
42.0,4.0,48.0,5.0,56.0,18.0,3.0,0
51.0,5.0,48.0,5.0,46.0,32.0,35.0,0
22.0,43.0,48.0,5.0,48.0,16.0,28.0,0
25.0,4.0,48.0,5.0,46.0,44.0,52.0,0
34.0,45.0,48.0,5.0,38.0,24.0,35.0,0
23.0,4.0,48.0,5.0,39.0,28.0,38.0,0
4.0,45.0,48.0,5.0,38.0,22.0,0.0,0
3.0,16.0,48.0,5.0,56.0,11.0,23.0,0
25.0,4.0,48.0,5.0,47.0,33.0,42.0,0
43.0,37.0,48.0,5.0,53.0,35.0,44.0,0
53.0,38.0,48.0,5.0,44.0,26.0,36.0,0
4.0,29.0,48.0,5.0,42.0,35.0,44.0,0
24.0,35.0,48.0,5.0,31.0,19.0,31.0,0
65.0,47.0,48.0,5.0,59.0,3.0,4.0,0
38.0,46.0,48.0,5.0,48.0,22.0,29.0,0
61.0,45.0,48.0,5.0,48.0,35.0,41.0,0
17.0,38.0,48.0,5.0,45.0,42.0,5.0,0
44.0,35.0,48.0,5.0,55.0,55.0,61.0,0
23.0,33.0,48.0,5.0,43.0,33.0,43.0,0
29.0,3.0,48.0,5.0,45.0,3.0,17.0,0
22.0,36.0,48.0,5.0,35.0,39.0,47.0,0
47.0,47.0,48.0,5.0,22.0,16.0,26.0,0
54.0,47.0,48.0,5.0,28.0,33.0,42.0,0
51.0,37.0,48.0,5.0,35.0,36.0,45.0,0
44.0,34.0,48.0,5.0,3.0,33.0,43.0,0
42.0,38.0,48.0,5.0,54.0,34.0,43.0,0
47.0,29.0,48.0,5.0,51.0,33.0,43.0,0
25.0,37.0,48.0,5.0,41.0,33.0,42.0,0
25.0,37.0,48.0,5.0,43.0,26.0,36.0,0
26.0,26.0,48.0,5.0,34.0,25.0,35.0,0
44.0,51.0,48.0,5.0,47.0,26.0,36.0,0
44.0,42.0,48.0,5.0,42.0,25.0,2.0,0
42.0,3.0,48.0,5.0,48.0,26.0,36.0,0
44.0,28.0,48.0,5.0,43.0,27.0,37.0,0
29.0,41.0,48.0,5.0,48.0,38.0,46.0,0
34.0,28.0,48.0,5.0,41.0,35.0,44.0,0
29.0,47.0,48.0,5.0,41.0,23.0,34.0,0
34.0,55.0,48.0,5.0,58.0,31.0,41.0,0
4.0,46.0,48.0,5.0,52.0,49.0,56.0,0
52.0,44.0,48.0,5.0,37.0,36.0,42.0,0
5.0,51.0,48.0,5.0,27.0,23.0,34.0,0
34.0,46.0,48.0,5.0,52.0,35.0,44.0,0
4.0,42.0,48.0,5.0,37.0,27.0,27.0,0
3.0,45.0,48.0,5.0,36.0,21.0,32.0,0
64.0,76.0,48.0,5.0,45.0,35.0,38.0,0
57.0,54.0,48.0,5.0,37.0,28.0,33.0,0
51.0,46.0,48.0,5.0,58.0,31.0,41.0,0
38.0,4.0,48.0,5.0,63.0,25.0,35.0,0
24.0,34.0,48.0,5.0,38.0,3.0,4.0,0
26.0,5.0,48.0,5.0,44.0,32.0,41.0,0
43.0,32.0,48.0,5.0,33.0,45.0,52.0,0
47.0,28.0,48.0,5.0,56.0,2.0,25.0,0
35.0,34.0,48.0,5.0,46.0,3.0,27.0,0
38.0,3.0,48.0,5.0,43.0,29.0,39.0,0
34.0,42.0,48.0,5.0,41.0,34.0,43.0,0
25.0,51.0,48.0,5.0,37.0,42.0,5.0,0
29.0,28.0,48.0,5.0,5.0,42.0,5.0,0
25.0,26.0,48.0,5.0,39.0,32.0,42.0,0
24.0,41.0,48.0,5.0,49.0,23.0,34.0,0
4.0,31.0,48.0,5.0,41.0,29.0,39.0,0
28.0,33.0,48.0,5.0,45.0,22.0,33.0,0
37.0,44.0,48.0,5.0,42.0,39.0,47.0,0
0.0,38.0,48.0,5.0,42.0,48.0,55.0,0
27.0,3.0,48.0,5.0,71.0,28.0,39.0,0
36.0,42.0,48.0,5.0,53.0,32.0,41.0,0
3.0,37.0,48.0,5.0,43.0,18.0,3.0,0
26.0,4.0,48.0,5.0,36.0,26.0,37.0,0
4.0,41.0,48.0,5.0,55.0,22.0,33.0,0
6.0,61.0,48.0,5.0,49.0,92.0,37.0,1
63.0,47.0,48.0,5.0,51.0,82.0,84.0,1
34.0,49.0,48.0,5.0,58.0,85.0,8.0,1
46.0,61.0,48.0,5.0,48.0,86.0,87.0,1
27.0,35.0,48.0,5.0,51.0,77.0,79.0,1
52.0,39.0,48.0,5.0,65.0,71.0,73.0,1
12.0,67.0,48.0,5.0,74.0,58.0,63.0,1
4.0,5.0,48.0,5.0,65.0,82.0,84.0,1
5.0,66.0,48.0,5.0,31.0,92.0,92.0,1
72.0,46.0,48.0,5.0,51.0,66.0,7.0,1
47.0,55.0,48.0,5.0,58.0,71.0,75.0,1
33.0,56.0,48.0,5.0,33.0,78.0,8.0,1
54.0,57.0,48.0,5.0,56.0,81.0,83.0,1
49.0,42.0,48.0,5.0,53.0,79.0,81.0,1
74.0,44.0,48.0,5.0,55.0,88.0,89.0,1
33.0,45.0,48.0,5.0,45.0,88.0,89.0,1
5.0,37.0,48.0,5.0,66.0,64.0,69.0,1
66.0,53.0,48.0,5.0,59.0,66.0,66.0,1
34.0,51.0,48.0,5.0,67.0,9.0,9.0,1
63.0,54.0,48.0,5.0,65.0,79.0,81.0,1
7.0,4.0,48.0,5.0,56.0,86.0,83.0,1
6.0,5.0,1.0,5.0,54.0,77.0,8.0,1
74.0,7.0,48.0,5.0,66.0,65.0,69.0,1
2.0,46.0,48.0,5.0,57.0,78.0,81.0,1
89.0,55.0,48.0,5.0,51.0,72.0,76.0,1
7.0,46.0,48.0,5.0,56.0,78.0,73.0,1
41.0,51.0,48.0,5.0,53.0,75.0,78.0,1
34.0,67.0,48.0,5.0,52.0,76.0,79.0,1
59.0,56.0,48.0,5.0,55.0,8.0,82.0,1
36.0,47.0,48.0,5.0,51.0,69.0,72.0,1
39.0,41.0,48.0,5.0,52.0,72.0,75.0,1
31.0,44.0,48.0,5.0,5.0,79.0,82.0,1
61.0,66.0,48.0,5.0,46.0,87.0,88.0,1
11.0,5.0,48.0,5.0,58.0,72.0,68.0,1
36.0,45.0,48.0,5.0,38.0,79.0,17.0,1
0.0,51.0,48.0,5.0,35.0,67.0,44.0,1
1.0,49.0,48.0,5.0,41.0,67.0,21.0,1
3.0,51.0,48.0,5.0,42.0,61.0,34.0,1
63.0,49.0,48.0,5.0,54.0,76.0,79.0,3
7.0,39.0,1.0,5.0,51.0,82.0,84.0,2
79.0,41.0,48.0,5.0,66.0,81.0,83.0,4
79.0,36.0,48.0,5.0,46.0,82.0,7.0,4
78.0,33.0,48.0,5.0,57.0,77.0,79.0,4
66.0,48.0,48.0,5.0,54.0,7.0,74.0,4
76.0,71.0,48.0,5.0,5.0,71.0,75.0,4
84.0,49.0,48.0,5.0,55.0,78.0,74.0,4
77.0,55.0,48.0,5.0,51.0,78.0,74.0,4
58.0,6.0,48.0,5.0,59.0,73.0,76.0,4
81.0,53.0,48.0,5.0,57.0,87.0,88.0,4
76.0,41.0,48.0,5.0,5.0,59.0,62.0,4
64.0,45.0,48.0,5.0,67.0,61.0,66.0,4
81.0,52.0,48.0,5.0,57.0,78.0,8.0,4
49.0,61.0,1.0,5.0,56.0,71.0,74.0,4
88.0,42.0,48.0,5.0,52.0,73.0,75.0,4
84.0,54.0,48.0,5.0,75.0,92.0,7.0,4
63.0,51.0,48.0,5.0,64.0,72.0,76.0,4
57.0,38.0,48.0,5.0,6.0,49.0,33.0,4
78.0,44.0,48.0,5.0,45.0,73.0,68.0,4
67.0,88.0,48.0,5.0,73.0,5.0,25.0,5
61.0,75.0,48.0,5.0,51.0,33.0,33.0,5
67.0,84.0,48.0,5.0,74.0,54.0,37.0,5
73.0,84.0,48.0,5.0,86.0,58.0,29.0,5
75.0,76.0,48.0,5.0,83.0,57.0,3.0,5
65.0,51.0,48.0,5.0,66.0,54.0,33.0,5
52.0,81.0,48.0,5.0,72.0,38.0,38.0,5
6.0,76.0,1.0,5.0,77.0,59.0,52.0,5
63.0,49.0,48.0,5.0,79.0,45.0,28.0,5
71.0,71.0,48.0,5.0,68.0,43.0,36.0,5
77.0,57.0,1.0,5.0,37.0,54.0,1.0,6
67.0,55.0,1.0,5.0,66.0,58.0,16.0,6
74.0,49.0,48.0,5.0,42.0,54.0,36.0,7
7.0,61.0,48.0,5.0,56.0,52.0,43.0,7
66.0,86.0,48.0,5.0,34.0,41.0,36.0,7
72.0,86.0,48.0,5.0,17.0,55.0,21.0,7
67.0,81.0,48.0,5.0,54.0,49.0,23.0,7
57.0,59.0,48.0,5.0,39.0,47.0,33.0,7
71.0,71.0,48.0,5.0,4.0,54.0,39.0,7
66.0,74.0,48.0,5.0,31.0,38.0,43.0,7
67.0,81.0,48.0,5.0,25.0,42.0,25.0,7
64.0,72.0,48.0,5.0,49.0,42.0,19.0,7
32.0,39.0,48.0,5.0,53.0,28.0,38.0,7
74.0,82.0,48.0,5.0,49.0,49.0,41.0,7
63.0,83.0,48.0,5.0,4.0,39.0,19.0,7
63.0,71.0,48.0,5.0,6.0,4.0,39.0,7
74.0,47.0,48.0,5.0,5.0,57.0,42.0,7
75.0,84.0,48.0,5.0,35.0,52.0,33.0,7
69.0,67.0,48.0,5.0,3.0,39.0,24.0,7
7.0,71.0,48.0,5.0,42.0,84.0,85.0,7
63.0,8.0,48.0,5.0,46.0,31.0,29.0,7
69.0,59.0,48.0,5.0,46.0,44.0,52.0,7
68.0,67.0,48.0,5.0,49.0,4.0,34.0,7
76.0,73.0,48.0,5.0,44.0,39.0,39.0,7
64.0,81.0,48.0,5.0,37.0,39.0,44.0,7
69.0,66.0,48.0,5.0,41.0,5.0,25.0,7
69.0,65.0,48.0,5.0,63.0,48.0,41.0,7
61.0,6.0,48.0,5.0,44.0,39.0,38.0,7
