Mcg,Gvh,Lip,Chg,Aac,Alm1,Alm2,TARGET
49.0,29.0,48.0,5.0,56.0,24.0,35.0,0
23.0,32.0,48.0,5.0,55.0,25.0,35.0,0
67.0,39.0,48.0,5.0,36.0,38.0,46.0,0
21.0,34.0,48.0,5.0,51.0,28.0,39.0,0
2.0,44.0,48.0,5.0,46.0,51.0,57.0,0
25.0,48.0,48.0,5.0,44.0,17.0,29.0,0
22.0,43.0,48.0,5.0,48.0,16.0,28.0,0
44.0,27.0,48.0,5.0,55.0,52.0,58.0,0
23.0,4.0,48.0,5.0,39.0,28.0,38.0,0
41.0,57.0,48.0,5.0,39.0,21.0,32.0,0
31.0,23.0,48.0,5.0,73.0,5.0,14.0,0
51.0,54.0,48.0,5.0,41.0,34.0,43.0,0
25.0,4.0,48.0,5.0,47.0,33.0,42.0,0
21.0,51.0,48.0,5.0,5.0,32.0,41.0,0
43.0,39.0,48.0,5.0,47.0,31.0,41.0,0
53.0,38.0,48.0,5.0,44.0,26.0,36.0,0
32.0,42.0,48.0,5.0,35.0,28.0,38.0,0
38.0,46.0,48.0,5.0,48.0,22.0,29.0,0
33.0,45.0,48.0,5.0,52.0,32.0,41.0,0
3.0,37.0,48.0,5.0,59.0,41.0,49.0,0
4.0,5.0,48.0,5.0,45.0,39.0,47.0,0
61.0,45.0,48.0,5.0,48.0,35.0,41.0,0
17.0,38.0,48.0,5.0,45.0,42.0,5.0,0
44.0,35.0,48.0,5.0,55.0,55.0,61.0,0
43.0,4.0,48.0,5.0,39.0,28.0,39.0,0
23.0,58.0,48.0,5.0,37.0,53.0,59.0,0
47.0,47.0,48.0,5.0,22.0,16.0,26.0,0
4.0,35.0,48.0,5.0,45.0,33.0,42.0,0
44.0,34.0,48.0,5.0,3.0,33.0,43.0,0
44.0,56.0,48.0,5.0,5.0,46.0,54.0,0
52.0,36.0,48.0,5.0,41.0,28.0,38.0,0
36.0,41.0,48.0,5.0,48.0,47.0,54.0,0
47.0,29.0,48.0,5.0,51.0,33.0,43.0,0
24.0,43.0,48.0,5.0,54.0,52.0,59.0,0
25.0,37.0,48.0,5.0,41.0,33.0,42.0,0
37.0,5.0,48.0,5.0,42.0,36.0,45.0,0
44.0,42.0,48.0,5.0,42.0,25.0,2.0,0
24.0,43.0,48.0,5.0,37.0,28.0,38.0,0
42.0,3.0,48.0,5.0,48.0,26.0,36.0,0
44.0,28.0,48.0,5.0,43.0,27.0,37.0,0
41.0,43.0,48.0,5.0,45.0,31.0,41.0,0
34.0,55.0,48.0,5.0,58.0,31.0,41.0,0
36.0,56.0,48.0,5.0,43.0,45.0,53.0,0
4.0,46.0,48.0,5.0,52.0,49.0,56.0,0
5.0,51.0,48.0,5.0,27.0,23.0,34.0,0
53.0,42.0,48.0,5.0,16.0,29.0,39.0,0
34.0,46.0,48.0,5.0,52.0,35.0,44.0,0
41.0,43.0,48.0,5.0,5.0,24.0,25.0,0
64.0,76.0,48.0,5.0,45.0,35.0,38.0,0
57.0,54.0,48.0,5.0,37.0,28.0,33.0,0
65.0,55.0,48.0,5.0,34.0,37.0,28.0,0
38.0,4.0,48.0,5.0,63.0,25.0,35.0,0
38.0,26.0,48.0,5.0,54.0,16.0,28.0,0
33.0,47.0,48.0,5.0,53.0,18.0,29.0,0
26.0,5.0,48.0,5.0,44.0,32.0,41.0,0
44.0,49.0,48.0,5.0,39.0,38.0,4.0,0
32.0,33.0,48.0,5.0,6.0,6.0,2.0,0
35.0,34.0,48.0,5.0,46.0,3.0,27.0,0
38.0,3.0,48.0,5.0,43.0,29.0,39.0,0
41.0,51.0,48.0,5.0,58.0,2.0,31.0,0
24.0,41.0,48.0,5.0,49.0,23.0,34.0,0
17.0,39.0,48.0,5.0,53.0,3.0,39.0,0
61.0,36.0,48.0,5.0,49.0,35.0,44.0,0
34.0,51.0,48.0,5.0,44.0,37.0,46.0,0
0.0,38.0,48.0,5.0,42.0,48.0,55.0,0
39.0,31.0,48.0,5.0,38.0,34.0,43.0,0
3.0,44.0,48.0,5.0,49.0,22.0,33.0,0
17.0,52.0,48.0,5.0,49.0,37.0,46.0,0
36.0,42.0,48.0,5.0,53.0,32.0,41.0,0
3.0,37.0,48.0,5.0,43.0,18.0,3.0,0
4.0,41.0,48.0,5.0,55.0,22.0,33.0,0
44.0,35.0,48.0,5.0,44.0,52.0,59.0,0
23.0,48.0,48.0,5.0,59.0,88.0,89.0,1
27.0,35.0,48.0,5.0,51.0,77.0,79.0,1
29.0,47.0,48.0,5.0,71.0,65.0,69.0,1
55.0,47.0,48.0,5.0,57.0,78.0,8.0,1
12.0,67.0,48.0,5.0,74.0,58.0,63.0,1
84.0,44.0,48.0,5.0,48.0,71.0,74.0,1
5.0,66.0,48.0,5.0,31.0,92.0,92.0,1
64.0,58.0,48.0,5.0,48.0,78.0,73.0,1
47.0,59.0,48.0,5.0,52.0,76.0,79.0,1
49.0,42.0,48.0,5.0,53.0,79.0,81.0,1
31.0,5.0,48.0,5.0,57.0,84.0,85.0,1
33.0,45.0,48.0,5.0,45.0,88.0,89.0,1
45.0,4.0,48.0,5.0,61.0,74.0,77.0,1
66.0,53.0,48.0,5.0,59.0,66.0,66.0,1
6.0,61.0,48.0,5.0,54.0,67.0,71.0,1
34.0,51.0,48.0,5.0,67.0,9.0,9.0,1
6.0,5.0,1.0,5.0,54.0,77.0,8.0,1
16.0,51.0,48.0,5.0,33.0,39.0,48.0,1
74.0,7.0,48.0,5.0,66.0,65.0,69.0,1
2.0,46.0,48.0,5.0,57.0,78.0,81.0,1
89.0,55.0,48.0,5.0,51.0,72.0,76.0,1
12.0,43.0,48.0,5.0,63.0,7.0,74.0,1
33.0,37.0,48.0,5.0,46.0,65.0,69.0,1
58.0,34.0,48.0,5.0,56.0,87.0,81.0,1
51.0,4.0,48.0,5.0,57.0,62.0,67.0,1
6.0,46.0,48.0,5.0,45.0,81.0,83.0,1
37.0,47.0,48.0,5.0,39.0,76.0,79.0,1
39.0,41.0,48.0,5.0,52.0,72.0,75.0,1
31.0,44.0,48.0,5.0,5.0,79.0,82.0,1
61.0,66.0,48.0,5.0,46.0,87.0,88.0,1
48.0,49.0,48.0,5.0,52.0,77.0,71.0,1
11.0,5.0,48.0,5.0,58.0,72.0,68.0,1
69.0,39.0,48.0,5.0,57.0,76.0,79.0,1
46.0,59.0,48.0,5.0,36.0,76.0,23.0,1
1.0,49.0,48.0,5.0,41.0,67.0,21.0,1
3.0,51.0,48.0,5.0,42.0,61.0,34.0,1
63.0,75.0,48.0,5.0,64.0,73.0,66.0,1
71.0,52.0,48.0,5.0,64.0,1.0,99.0,1
85.0,53.0,48.0,5.0,53.0,52.0,35.0,3
75.0,55.0,1.0,1.0,4.0,47.0,3.0,2
69.0,43.0,48.0,5.0,59.0,74.0,77.0,4
79.0,36.0,48.0,5.0,46.0,82.0,7.0,4
78.0,33.0,48.0,5.0,57.0,77.0,79.0,4
75.0,37.0,48.0,5.0,64.0,7.0,74.0,4
66.0,48.0,48.0,5.0,54.0,7.0,74.0,4
76.0,71.0,48.0,5.0,5.0,71.0,75.0,4
77.0,55.0,48.0,5.0,51.0,78.0,74.0,4
81.0,44.0,48.0,5.0,42.0,67.0,68.0,4
58.0,6.0,48.0,5.0,59.0,73.0,76.0,4
81.0,53.0,48.0,5.0,57.0,87.0,88.0,4
87.0,49.0,48.0,5.0,61.0,76.0,79.0,4
47.0,46.0,48.0,5.0,62.0,74.0,77.0,4
49.0,61.0,1.0,5.0,56.0,71.0,74.0,4
84.0,54.0,48.0,5.0,75.0,92.0,7.0,4
63.0,51.0,48.0,5.0,64.0,72.0,76.0,4
86.0,55.0,48.0,5.0,63.0,81.0,83.0,4
79.0,54.0,48.0,5.0,5.0,66.0,68.0,4
57.0,38.0,48.0,5.0,6.0,49.0,33.0,4
63.0,69.0,48.0,5.0,65.0,41.0,28.0,5
67.0,88.0,48.0,5.0,73.0,5.0,25.0,5
61.0,75.0,48.0,5.0,51.0,33.0,33.0,5
73.0,84.0,48.0,5.0,86.0,58.0,29.0,5
77.0,57.0,48.0,5.0,88.0,53.0,2.0,5
74.0,78.0,48.0,5.0,75.0,54.0,15.0,5
65.0,51.0,48.0,5.0,66.0,54.0,33.0,5
69.0,59.0,48.0,5.0,77.0,39.0,21.0,5
63.0,49.0,48.0,5.0,79.0,45.0,28.0,5
68.0,63.0,48.0,5.0,73.0,4.0,3.0,5
67.0,55.0,1.0,5.0,66.0,58.0,16.0,6
68.0,49.0,1.0,5.0,62.0,55.0,28.0,6
7.0,61.0,48.0,5.0,56.0,52.0,43.0,7
66.0,86.0,48.0,5.0,34.0,41.0,36.0,7
73.0,78.0,48.0,5.0,58.0,51.0,31.0,7
63.0,1.0,48.0,5.0,35.0,51.0,49.0,7
57.0,59.0,48.0,5.0,39.0,47.0,33.0,7
71.0,71.0,48.0,5.0,4.0,54.0,39.0,7
67.0,81.0,48.0,5.0,25.0,42.0,25.0,7
32.0,39.0,48.0,5.0,53.0,28.0,38.0,7
7.0,64.0,48.0,5.0,47.0,51.0,47.0,7
63.0,57.0,48.0,5.0,49.0,7.0,2.0,7
63.0,86.0,48.0,5.0,39.0,47.0,34.0,7
63.0,71.0,48.0,5.0,6.0,4.0,39.0,7
68.0,78.0,48.0,5.0,43.0,44.0,42.0,7
64.0,84.0,48.0,5.0,37.0,45.0,4.0,7
75.0,84.0,48.0,5.0,35.0,52.0,33.0,7
69.0,67.0,48.0,5.0,3.0,39.0,24.0,7
69.0,8.0,48.0,5.0,46.0,57.0,26.0,7
63.0,8.0,48.0,5.0,46.0,31.0,29.0,7
66.0,71.0,48.0,5.0,41.0,5.0,35.0,7
69.0,59.0,48.0,5.0,46.0,44.0,52.0,7
29.0,39.0,48.0,5.0,52.0,4.0,48.0,7
56.0,54.0,48.0,5.0,43.0,37.0,3.0,7
69.0,66.0,48.0,5.0,41.0,5.0,25.0,7
69.0,65.0,48.0,5.0,63.0,48.0,41.0,7
74.0,56.0,48.0,5.0,47.0,68.0,3.0,7
74.0,74.0,48.0,5.0,31.0,53.0,52.0,7
