StatusAccount,DurationMonth,CreditHistory,Purpose,CreditAmount,SavingsAccount,EmploymentSince,InstallmentRate,StatusAndSex,Guarantors,ResidenceSince,Property,Age,InstallmentPlans,Housing,NCredits,Job,NPeopleMain,Telephone,ForeignWorker,TARGET
0,6,4,4,1169,4,4,4,2,0,4,0,67,2,1,2,2,1,1,0,1
3,12,4,7,2096,0,3,2,2,0,3,0,49,2,1,1,1,2,0,0,1
3,12,2,4,3059,3,3,2,0,0,4,0,61,2,1,1,1,1,0,0,1
1,12,2,4,1567,0,2,1,1,0,1,2,22,2,1,1,2,1,1,0,1
0,15,2,0,1403,0,2,2,1,0,4,2,28,2,0,1,2,1,0,0,1
0,24,2,4,1282,1,2,4,1,0,2,2,32,2,1,1,1,1,0,0,2
0,30,0,9,8072,4,1,2,2,0,3,2,25,0,1,3,2,1,0,0,1
3,9,4,0,2134,0,2,4,2,0,4,2,48,2,1,3,2,1,1,0,1
0,6,2,4,2647,2,2,2,2,0,3,0,44,2,0,1,2,2,0,0,1
0,10,4,0,2241,0,1,1,2,0,3,0,48,2,0,2,1,2,0,1,1
1,12,4,1,1804,1,1,3,2,0,4,1,44,2,1,1,2,1,0,0,1
3,10,4,3,2069,4,2,2,3,0,1,2,26,2,1,2,2,1,0,1,1
1,7,2,4,2415,0,2,3,2,2,2,0,34,2,1,1,2,1,0,0,1
1,18,2,9,1913,3,1,3,3,0,3,0,36,0,1,1,2,1,1,0,1
0,24,2,3,4020,0,2,2,2,0,2,2,27,1,1,1,2,1,0,0,1
1,18,2,0,5866,1,2,2,2,0,2,2,30,2,1,2,2,1,1,0,1
1,45,4,4,4746,0,1,4,2,0,2,1,25,2,1,2,1,1,0,0,2
2,18,2,4,2100,0,2,4,2,1,2,0,37,1,1,1,2,1,0,0,2
1,9,2,4,458,0,2,4,2,0,3,0,24,2,1,1,2,1,0,0,1
1,18,3,6,6204,0,2,2,2,0,4,0,44,2,1,1,1,2,1,0,1
0,48,4,1,6143,0,4,4,1,0,4,3,58,1,2,2,1,1,0,0,2
3,11,4,0,1393,0,1,4,1,0,4,2,35,2,1,2,3,1,0,0,1
3,36,2,4,2299,2,4,4,2,0,4,2,39,2,1,1,2,1,0,0,1
0,6,2,1,1352,2,0,1,1,0,2,1,23,2,0,1,0,1,1,0,1
1,27,3,1,5965,0,4,1,2,0,2,2,30,2,1,2,3,1,1,0,1
3,12,2,4,1262,0,2,3,2,0,2,2,25,2,1,1,2,1,0,0,1
3,6,1,0,783,4,2,1,2,2,2,0,26,1,1,1,1,2,0,0,1
2,18,2,0,1961,0,4,3,1,0,2,2,23,2,1,1,3,1,0,0,1
0,36,4,3,6229,0,1,4,1,1,4,3,23,2,0,2,1,1,1,0,2
1,15,4,4,1537,4,4,4,2,2,4,0,50,2,1,2,2,1,1,0,1
3,24,2,4,3181,0,1,4,1,0,4,1,26,2,1,1,2,1,1,0,1
3,36,2,4,2394,4,2,4,1,0,4,2,25,2,1,1,2,1,0,0,1
3,36,2,1,8133,0,2,1,1,0,2,1,30,0,1,1,2,1,0,0,1
3,7,4,4,730,4,4,4,2,0,2,1,46,2,0,2,1,1,1,0,1
0,36,2,7,1977,4,4,4,2,0,4,3,40,2,1,1,3,1,1,0,2
0,12,4,1,1526,0,4,4,2,0,4,3,66,2,2,2,3,1,0,0,1
1,11,3,4,4771,0,3,2,2,0,4,1,51,2,1,1,2,1,0,0,1
1,18,4,3,1295,0,1,4,1,0,1,1,27,2,1,2,2,1,0,0,1
0,18,2,0,2249,1,3,4,2,0,3,2,30,2,1,1,3,2,1,0,1
0,12,4,1,1409,0,4,4,2,0,3,0,54,2,1,1,2,1,0,0,1
2,24,4,3,3617,4,4,4,2,1,4,3,20,2,0,2,2,1,0,0,1
3,12,4,7,2012,4,3,4,1,0,2,2,61,2,1,1,2,1,0,0,1
1,36,4,4,2337,0,4,4,2,0,4,0,36,2,1,1,2,1,0,0,1
3,24,2,0,1469,1,4,4,3,0,4,0,41,2,0,1,1,1,0,0,1
3,6,3,4,932,0,2,3,1,0,2,0,24,2,1,1,2,1,0,0,1
3,18,1,0,6458,0,4,2,2,0,4,3,39,0,1,2,3,2,1,0,2
1,12,2,0,6078,0,3,2,2,0,2,2,32,2,1,1,2,1,0,0,1
1,6,3,9,1449,1,4,1,0,0,2,2,31,0,1,2,2,2,0,0,1
1,18,2,0,6260,0,3,3,2,0,3,0,28,2,0,1,1,1,0,0,1
0,12,2,4,1680,2,4,3,3,0,1,0,35,2,1,1,2,1,0,0,1
3,48,4,4,3578,4,4,4,2,0,1,0,47,2,1,1,2,1,1,0,1
0,10,4,3,2132,4,1,2,1,1,3,0,27,2,0,2,2,1,0,1,1
3,24,4,1,3868,0,4,4,1,0,2,2,41,2,0,2,3,1,1,0,1
1,18,2,3,1924,4,1,4,1,0,3,0,27,2,0,1,2,1,0,0,2
0,12,4,0,2121,0,2,4,2,0,2,1,30,2,1,2,2,1,0,0,1
0,12,2,4,701,0,2,4,3,0,2,0,40,2,1,1,1,1,0,0,1
1,12,4,1,1860,0,0,4,2,0,2,2,34,2,1,2,3,1,1,0,1
1,48,2,0,8487,4,3,1,1,0,2,2,24,2,1,1,2,1,0,0,1
0,36,3,7,6887,0,2,4,2,0,3,1,29,1,1,1,2,1,1,0,2
3,18,2,3,1984,0,2,4,2,0,4,3,47,0,2,2,2,1,0,0,1
1,15,4,4,2728,4,3,4,2,2,2,0,35,0,1,3,2,1,1,0,1
0,27,2,4,3416,0,2,3,2,0,2,2,27,2,1,1,3,1,0,0,1
0,18,2,3,2462,0,2,2,2,0,2,2,22,2,1,1,2,1,0,0,2
3,21,4,3,2288,0,1,4,1,0,4,1,23,2,1,1,2,1,1,0,1
1,48,1,9,3566,1,3,4,2,0,2,2,30,2,1,1,2,1,0,0,1
3,12,4,0,682,1,3,4,1,0,3,2,51,2,1,2,2,1,1,0,1
3,18,4,4,1582,3,4,4,2,0,4,2,46,2,1,2,2,1,0,0,1
2,36,2,4,5848,0,2,4,2,0,1,2,24,2,1,1,2,1,0,0,1
1,24,4,1,7758,3,4,2,1,0,4,3,29,2,0,1,2,1,0,0,1
1,24,3,9,6967,1,3,4,2,0,4,2,36,2,0,1,3,1,1,0,1
0,12,2,3,1282,0,2,2,1,0,4,2,20,2,0,1,2,1,0,0,2
3,6,4,4,1898,4,2,1,2,0,2,0,34,2,1,2,1,2,0,0,1
3,18,4,0,1055,0,1,4,1,0,1,1,30,2,1,2,2,1,0,0,1
3,15,2,5,1262,2,3,4,2,0,3,1,36,2,1,2,2,1,1,0,1
0,18,2,3,1131,0,0,4,1,0,2,2,33,2,1,1,2,1,0,0,2
1,24,4,9,1935,0,4,4,0,0,4,0,31,2,1,2,2,1,1,0,2
0,12,2,3,2577,0,2,2,0,0,1,2,42,2,1,1,2,1,0,0,1
3,12,2,4,1963,0,3,4,2,0,2,2,31,2,0,2,3,2,1,0,1
1,36,3,9,4455,0,2,2,0,0,2,0,30,1,1,2,3,1,1,0,2
0,21,1,0,1647,4,2,4,2,0,2,1,40,2,1,2,1,2,0,0,2
3,24,4,3,3777,3,2,4,2,0,4,0,50,2,1,1,2,1,1,0,1
3,15,4,4,1360,0,2,4,2,0,2,1,31,2,1,2,2,1,0,0,1
1,9,1,1,5129,0,4,2,1,0,4,3,74,0,2,1,3,2,1,0,2
3,24,2,9,4591,3,2,2,2,0,3,1,54,2,1,3,3,1,1,0,2
1,27,2,9,3915,0,2,4,2,0,2,2,36,2,1,1,2,2,1,0,2
1,24,2,1,2760,4,4,4,2,0,4,3,36,0,2,1,2,1,1,0,1
1,18,3,3,4297,0,4,4,0,0,3,3,40,2,1,1,3,1,1,0,2
0,12,2,0,1168,0,2,4,3,0,3,0,27,2,1,1,1,1,0,0,1
3,27,3,9,5117,0,3,3,2,0,4,2,26,2,1,2,2,1,0,0,1
3,12,4,0,1495,0,4,4,2,0,1,0,38,2,1,2,1,2,0,0,1
3,12,4,3,1935,0,4,4,2,0,4,0,43,2,1,3,2,1,1,0,1
0,24,2,9,6568,0,2,2,3,0,2,2,21,1,1,1,1,1,0,0,1
3,36,2,4,3835,4,4,2,1,0,4,0,45,2,1,1,1,1,1,0,1
2,30,3,9,1908,0,4,4,2,0,4,0,66,2,1,1,3,1,1,0,2
3,36,4,4,3342,4,4,4,2,0,2,2,51,2,1,1,2,1,1,0,1
0,18,0,9,3104,0,3,3,2,0,1,1,31,0,1,1,2,1,1,0,1
2,36,2,4,3913,0,2,2,2,0,2,0,23,2,1,1,2,1,1,0,1
0,24,2,3,3021,0,2,2,0,0,2,0,24,2,0,1,1,1,0,0,1
1,12,2,4,625,0,1,4,3,2,1,0,26,0,1,1,1,1,0,0,1
0,12,2,7,1200,4,2,4,1,0,4,1,23,0,0,1,2,1,1,0,1
3,24,3,9,2978,4,2,4,2,0,4,0,32,2,1,2,2,2,1,0,1
0,24,2,3,3149,0,1,4,2,0,1,3,22,0,2,1,2,1,0,0,1
3,12,2,4,2141,1,3,3,2,0,1,3,35,2,1,1,2,1,0,0,1
1,18,2,4,866,0,2,4,3,2,2,0,25,2,1,1,1,1,0,0,1
3,4,4,4,1544,0,3,2,2,0,1,0,42,2,1,3,1,2,0,0,1
0,24,2,4,1823,0,0,4,2,0,2,2,30,1,1,1,3,2,0,0,2
1,6,2,0,14555,4,0,1,2,0,2,1,23,2,1,1,0,1,1,0,2
1,21,2,9,2767,1,4,4,0,0,2,2,61,0,0,2,1,1,0,0,2
3,12,4,4,1291,0,2,4,1,0,2,1,35,2,1,2,2,1,0,0,1
3,6,2,4,1595,0,3,3,2,0,2,1,51,2,1,1,2,2,0,0,1
3,24,2,9,1258,0,3,4,2,0,1,0,25,2,1,1,2,1,1,0,1
3,12,4,4,717,0,4,4,2,0,4,0,52,2,1,3,2,1,0,0,1
3,6,0,0,1204,1,2,4,2,0,1,3,35,0,0,1,2,1,0,1,1
0,6,4,0,666,3,3,3,1,0,4,0,39,2,1,2,1,1,1,0,1
1,30,2,0,2150,0,2,4,1,2,2,3,24,0,1,1,2,1,0,0,2
3,24,3,3,4151,1,2,2,2,0,3,1,35,2,1,2,2,1,0,0,1
1,60,3,4,7418,4,2,1,2,0,1,0,27,2,1,1,1,1,0,0,1
3,11,4,4,1154,1,0,4,1,0,4,0,57,2,1,3,1,1,0,0,1
0,12,2,3,1657,0,2,2,2,0,2,0,27,2,1,1,2,1,0,0,1
0,24,2,4,1603,0,4,4,1,0,4,2,55,2,1,1,2,1,0,0,1
0,18,4,0,5302,0,4,2,2,0,4,3,36,2,2,3,3,1,1,0,1
3,12,4,7,2748,0,4,2,1,0,4,3,57,0,2,3,1,1,0,0,1
3,24,2,4,1533,0,1,4,1,0,3,2,38,1,1,1,2,1,1,0,1
3,24,2,4,999,4,4,4,2,0,2,2,25,2,1,2,2,1,0,0,1
3,12,4,3,1402,2,3,3,1,0,4,2,37,2,0,1,2,1,1,0,1
1,48,2,4,3060,0,3,4,2,0,4,0,28,2,1,2,2,1,0,0,2
0,30,2,6,11998,0,1,1,0,0,1,3,34,2,1,1,1,1,1,0,2
3,9,2,4,2697,0,2,1,2,0,2,0,32,2,1,1,2,2,0,0,1
3,18,4,4,2404,0,2,2,1,0,2,2,26,2,1,2,2,1,0,0,1
3,12,2,3,1574,0,2,4,2,0,2,0,50,2,1,1,2,1,0,0,1
3,15,4,3,1520,4,4,4,2,0,4,1,63,2,1,1,2,1,0,0,1
0,47,2,0,10722,0,1,1,1,0,1,0,35,2,1,1,1,1,1,0,1
0,48,2,1,4788,0,3,4,2,0,3,1,26,2,1,1,2,2,0,0,1
1,12,2,4,1092,0,2,4,1,2,4,0,49,2,1,2,2,1,1,0,1
0,24,3,4,1024,0,1,4,3,0,4,0,48,1,1,1,2,1,0,0,2
1,48,2,3,9960,0,1,1,1,0,2,2,26,2,1,1,2,1,1,0,2
3,12,2,1,4675,4,1,1,1,0,4,2,20,2,0,1,2,1,0,0,1
3,18,2,3,2515,0,2,3,2,0,4,0,43,2,1,1,2,1,1,0,1
1,36,0,4,3804,0,2,4,1,0,1,2,42,2,1,1,2,1,1,0,2
0,10,4,0,1038,0,3,4,2,1,3,1,49,2,1,2,2,1,1,0,1
3,48,4,0,10127,2,2,2,2,0,2,3,44,0,2,1,2,1,0,0,2
3,30,2,1,4811,4,3,2,1,0,4,1,24,1,0,1,1,1,0,0,1
0,12,2,4,727,1,1,4,3,0,3,3,33,2,1,1,1,1,1,0,2
1,9,2,0,276,0,2,4,3,0,4,0,22,2,0,1,1,1,0,0,1
0,36,1,3,2746,0,4,4,2,0,4,2,31,0,1,1,2,1,0,0,2
1,24,2,3,4351,4,2,1,1,0,4,1,48,2,1,1,1,1,1,0,1
0,24,2,4,1938,0,1,4,0,0,3,1,32,2,1,1,2,1,0,0,2
0,8,4,0,3398,0,3,1,2,0,4,0,39,2,1,2,1,1,0,1,1
3,24,2,0,1525,3,3,4,1,0,3,2,34,2,1,1,2,2,1,0,1
0,24,4,1,6615,0,0,2,2,0,4,3,75,2,2,2,3,1,1,0,1
0,15,2,5,1275,4,2,4,1,0,2,2,24,2,0,1,2,1,0,0,2
1,10,2,3,1521,0,2,4,0,0,2,2,31,2,1,1,1,1,0,0,1
0,21,2,3,3599,0,3,1,1,0,4,2,26,2,0,1,1,1,0,0,1
1,18,2,4,3213,2,1,1,3,0,3,0,25,2,0,1,2,1,0,0,1
3,6,3,9,1743,1,2,1,2,0,2,0,34,2,1,2,1,1,0,0,1
3,18,4,1,3229,4,0,2,2,0,4,3,38,2,1,1,3,1,1,0,1
3,12,4,4,2331,4,4,1,2,1,4,0,49,2,1,1,2,1,1,0,1
3,12,2,4,776,0,2,4,3,0,2,0,28,2,1,1,2,1,0,0,1
3,6,2,3,1766,0,2,1,3,0,2,1,21,2,0,1,2,1,0,0,1
3,12,2,9,1542,0,3,2,2,0,4,2,36,2,1,1,2,1,1,0,1
3,18,4,1,3850,0,3,3,2,0,1,2,27,2,1,2,2,1,0,0,1
0,18,2,3,3650,0,1,1,1,0,4,2,22,2,0,1,2,1,0,0,1
0,36,2,3,3446,0,4,4,2,0,2,2,42,2,1,1,2,2,0,0,2
1,18,2,3,3001,0,3,2,1,0,4,0,40,2,0,1,2,1,0,0,1
3,10,4,3,2146,0,1,1,1,0,3,0,23,2,0,2,2,1,0,0,1
1,36,2,0,14318,0,4,4,2,0,2,3,57,2,2,1,3,1,1,0,2
3,6,4,0,362,1,2,4,1,0,4,2,52,2,1,2,1,1,0,0,1
3,18,2,4,1126,4,1,4,1,0,2,0,21,2,0,1,2,1,1,0,1
3,18,2,0,1820,0,2,2,3,0,2,1,30,2,1,1,3,1,1,0,1
0,12,2,3,2578,0,0,3,1,0,4,3,55,2,2,1,3,1,0,0,1
1,12,2,0,1223,0,4,1,0,0,1,0,46,2,0,2,2,1,0,0,2
3,18,2,4,1473,0,1,3,3,0,4,0,39,2,1,1,2,1,1,0,1
1,18,4,9,1887,4,2,4,3,0,4,0,28,0,1,2,2,1,0,0,1
3,24,3,9,8648,0,1,2,2,0,2,2,27,0,1,2,2,1,1,0,2
1,18,3,0,2899,4,4,4,2,0,4,2,43,2,1,1,2,2,0,0,1
1,24,2,4,2039,0,1,1,3,0,1,1,22,2,1,1,2,1,1,0,2
3,24,4,1,2197,4,3,4,2,0,4,2,43,2,1,2,2,2,1,0,1
0,15,2,4,1053,0,1,4,3,0,2,0,27,2,1,1,2,1,0,1,1
3,24,2,4,3235,2,4,3,0,0,2,2,26,2,1,1,3,1,1,0,1
2,12,4,0,939,2,3,4,3,0,2,0,28,2,1,3,2,1,1,0,2
3,36,4,1,5842,0,4,2,2,0,2,1,35,2,1,2,2,2,1,0,1
0,12,2,0,2579,0,1,4,2,0,1,0,33,2,1,1,1,2,0,0,2
1,18,2,0,1042,4,2,4,1,0,2,1,33,2,1,1,2,1,0,0,2
1,12,2,1,2028,4,2,4,2,0,2,2,30,2,1,1,2,1,0,0,1
1,12,2,3,2762,4,4,1,1,0,2,1,25,0,1,1,2,1,1,0,2
3,28,4,4,2743,0,4,4,2,0,2,2,29,2,1,2,2,1,0,0,1
3,18,4,4,1149,3,2,4,2,0,3,0,46,2,1,2,2,1,0,0,1
3,9,2,3,1313,0,4,1,2,0,4,2,20,2,1,1,2,1,0,0,1
0,18,4,6,1190,0,0,2,1,0,4,3,55,2,2,3,0,2,0,0,2
3,5,2,9,3448,0,3,1,2,0,4,0,74,2,1,1,1,1,0,0,1
1,24,2,2,11328,0,2,2,2,1,3,2,29,0,1,2,3,1,1,0,2
0,6,4,3,1872,0,0,4,2,0,4,3,36,2,2,3,3,1,1,0,1
1,12,2,4,1484,4,2,2,3,0,1,0,25,2,1,1,2,1,1,0,2
3,24,4,0,1287,3,4,4,1,0,4,0,37,2,1,2,2,1,1,0,1
0,42,4,6,3394,0,0,4,2,1,4,2,65,2,1,2,0,1,0,0,1
3,12,2,0,1884,0,4,4,2,0,4,2,39,2,1,1,3,1,1,0,1
0,12,2,3,1620,0,2,2,1,1,3,1,30,2,1,1,2,1,0,0,1
1,20,3,2,2629,0,2,2,2,0,3,2,29,0,1,2,2,1,1,0,1
1,7,2,4,2576,0,2,2,2,2,2,0,35,2,1,1,2,1,0,0,1
3,36,4,1,11054,4,2,4,2,0,2,2,30,2,1,1,3,1,1,0,1
3,12,0,3,2759,0,4,2,2,0,4,1,34,2,1,2,2,1,0,0,1
0,11,4,0,3905,0,2,2,2,0,2,0,36,2,0,2,2,2,0,0,1
0,12,2,1,3386,0,4,3,2,0,4,3,35,2,2,1,2,1,1,0,2
0,36,2,3,3620,0,2,1,2,2,2,1,37,2,1,1,2,2,0,0,1
0,15,2,0,1721,0,1,2,2,0,3,0,36,2,1,1,2,1,0,0,1
0,24,3,4,1659,0,1,4,1,0,2,2,29,2,0,1,1,1,1,0,2
3,48,3,4,7238,4,4,3,2,0,3,2,32,0,1,2,2,2,0,0,1
3,33,3,9,2764,0,2,2,1,0,2,2,26,2,1,2,2,1,1,0,1
0,9,2,0,654,0,2,4,2,0,3,2,28,2,1,1,1,1,0,0,2
3,6,2,8,1238,4,0,4,2,0,4,1,36,2,1,1,3,2,1,0,1
1,18,4,4,1245,0,2,4,3,0,2,2,33,2,1,1,2,1,0,0,2
1,24,2,0,1201,0,1,4,2,0,1,1,26,2,1,1,2,1,0,0,1
0,30,2,3,3622,3,4,4,1,0,4,1,57,2,0,2,2,1,1,0,1
3,15,3,3,960,3,3,3,1,0,2,1,30,2,1,2,2,1,0,0,1
3,12,4,0,1163,2,2,4,2,0,4,0,44,2,1,1,2,1,1,0,1
3,24,2,0,3757,0,4,4,1,1,4,3,62,2,2,1,2,1,1,0,1
1,27,0,9,8318,0,4,2,1,0,4,3,42,2,2,2,3,1,1,0,2
3,6,4,4,1237,1,2,1,1,0,1,1,27,2,1,2,2,1,0,0,1
1,6,2,4,368,4,4,4,2,0,4,1,38,2,1,1,2,1,0,0,1
0,12,4,0,2122,0,2,3,2,0,2,0,39,2,0,2,1,2,0,1,1
1,36,2,3,9034,1,1,4,2,1,1,3,29,2,0,1,3,1,1,0,2
3,24,4,3,1585,0,3,4,2,0,3,1,40,2,1,2,2,1,0,0,1
1,18,2,4,1301,0,4,4,3,2,2,0,32,2,1,1,1,1,0,0,1
2,6,4,0,1323,1,4,2,0,0,4,2,28,2,1,2,2,2,1,0,1
1,24,4,4,1216,1,1,4,2,0,4,3,38,0,1,2,2,2,0,0,2
0,24,2,0,1207,0,1,4,1,0,4,1,24,2,0,1,2,1,0,0,2
2,15,4,1,2360,2,2,2,2,0,2,2,36,2,1,1,2,1,1,0,1
1,15,1,0,6850,1,0,1,2,0,2,1,34,2,1,1,3,2,1,0,2
3,24,2,4,1413,0,2,4,3,0,2,1,28,2,1,1,2,1,0,0,1
3,36,2,1,4686,0,2,2,2,0,2,3,32,2,2,1,3,1,1,0,1
2,15,2,9,2687,0,3,2,2,0,4,1,26,2,0,1,2,1,1,0,1
0,6,4,0,1361,0,1,2,2,0,4,0,40,2,1,1,1,2,0,1,1
3,36,4,3,7127,0,1,2,1,0,4,1,23,2,0,2,2,1,1,0,2
3,24,4,6,5507,0,4,3,2,0,4,3,44,2,2,2,2,1,0,0,1
3,24,2,1,3488,1,3,3,1,0,4,2,23,2,1,1,2,1,0,0,1
1,26,2,1,7966,0,1,2,2,0,3,2,30,2,1,2,2,1,0,0,1
3,4,4,4,1503,0,3,2,2,0,1,0,42,2,1,2,1,2,0,0,1
0,6,2,0,662,0,1,3,2,0,4,0,41,2,1,1,1,2,1,0,1
1,18,4,3,3612,0,4,3,1,0,4,1,37,2,1,1,2,1,1,0,1
2,18,2,3,3049,0,1,1,1,0,1,1,45,1,1,1,1,1,0,0,1
0,30,2,3,6350,4,4,4,2,0,4,1,31,2,1,1,2,1,0,0,2
2,18,2,3,2864,0,2,2,2,0,1,0,34,2,1,1,1,2,0,0,2
3,24,4,0,2022,0,2,4,1,0,4,2,37,2,1,1,2,1,1,0,1
0,12,1,4,626,0,2,4,1,0,4,0,24,0,1,1,1,1,0,0,2
1,18,4,3,1928,0,1,2,2,0,2,0,31,2,1,2,1,1,0,0,2
2,6,3,4,683,0,1,2,1,0,1,1,29,0,1,1,2,1,0,0,1
1,36,2,0,12389,4,2,1,2,0,4,3,37,2,2,1,2,1,1,0,2
1,24,3,9,4712,4,2,4,2,0,2,1,37,0,1,2,3,1,1,0,1
1,48,2,4,3979,4,3,4,2,0,1,2,41,2,1,2,2,2,1,0,1
0,48,2,4,6758,0,2,3,1,0,2,2,31,2,1,1,2,1,1,0,2
0,24,2,3,3234,0,1,4,1,0,4,0,23,2,0,1,1,1,1,0,2
3,30,4,4,5954,0,3,3,2,1,2,2,38,2,1,1,2,1,0,0,1
3,24,2,1,5433,4,0,2,1,0,4,1,26,2,0,1,3,1,1,0,1
0,15,2,9,806,0,2,4,1,0,4,1,22,2,1,1,1,1,0,0,1
1,36,4,0,2820,0,1,4,0,0,4,2,27,2,1,2,2,1,0,0,2
1,18,4,0,1056,0,4,3,2,2,3,0,30,0,1,2,2,1,0,0,2
1,12,4,0,3124,0,1,1,2,0,3,0,49,0,1,2,1,2,0,0,1
1,36,2,6,2384,0,1,4,2,0,1,3,33,2,0,1,1,1,0,0,2
0,18,2,3,2039,0,2,1,1,0,4,0,20,0,0,1,2,1,0,0,2
0,12,4,3,2246,0,4,3,2,0,3,1,60,2,1,2,2,1,0,0,2
1,24,3,0,1965,4,2,4,1,0,4,2,42,2,0,2,2,1,1,0,1
3,21,2,9,1572,3,4,4,1,0,4,0,36,0,1,1,1,1,0,0,1
1,24,2,0,2718,0,2,3,1,0,4,1,20,2,0,1,1,1,1,0,2
0,24,2,0,1442,0,3,4,1,0,4,2,23,2,0,2,2,1,0,0,2
3,18,4,0,2775,0,3,2,2,0,2,1,31,0,1,2,2,1,0,0,2
1,7,2,4,2329,0,1,1,1,2,1,0,45,2,1,1,2,1,0,0,1
1,9,2,3,918,0,2,4,1,0,1,1,30,2,1,1,2,1,0,0,2
0,12,2,5,741,1,0,4,1,0,3,1,22,2,1,1,2,1,0,0,2
2,10,2,0,1240,1,4,1,1,0,4,3,48,2,2,1,1,2,0,0,2
0,21,2,4,3357,3,1,4,1,0,2,2,29,0,1,1,2,1,0,0,1
3,18,3,3,1808,0,3,4,1,0,1,0,22,2,1,1,2,1,0,0,2
0,6,4,0,3676,0,2,1,2,0,3,0,37,2,0,3,2,2,0,0,1
3,18,4,0,1530,0,2,3,2,0,2,1,32,0,1,2,2,1,0,0,2
3,48,2,9,3914,4,2,4,0,0,2,0,38,0,1,1,2,1,0,0,2
3,15,2,4,1979,4,4,4,2,0,2,2,35,2,1,1,2,1,0,0,1
1,15,2,4,1444,4,1,4,2,0,1,1,23,2,1,1,2,1,0,0,1
3,9,2,3,1980,0,1,2,1,1,2,2,19,2,0,2,2,1,0,0,2
1,24,2,0,1355,0,1,3,1,0,4,2,25,2,1,1,1,1,1,0,2
3,24,2,4,1376,2,3,4,1,0,1,2,28,2,1,1,2,1,0,0,1
3,60,3,4,15653,0,3,2,2,0,4,2,21,2,1,2,2,1,1,0,1
0,18,2,7,750,0,0,4,1,0,1,0,27,2,1,1,0,1,0,0,2
3,15,2,7,4623,1,2,3,2,0,2,1,40,2,1,1,3,1,1,0,2
3,24,4,4,1851,0,3,4,3,2,2,2,33,2,1,2,2,1,1,0,1
3,36,3,9,7980,4,1,4,2,0,4,2,27,2,0,2,2,1,1,0,2
2,24,2,0,947,0,3,4,2,0,3,3,38,0,2,1,2,2,0,0,2
0,48,2,7,7476,0,3,4,2,0,1,3,50,2,2,1,3,1,1,0,1
1,36,3,0,8086,1,4,2,2,0,4,2,42,2,1,4,3,1,1,0,2
0,14,2,0,3973,0,0,1,2,0,4,3,22,2,2,1,2,1,0,0,1
3,48,2,4,10222,4,3,4,2,0,3,2,37,1,1,1,2,1,1,0,1
1,30,0,9,4221,0,2,2,1,0,1,2,28,2,1,2,2,1,0,0,1
3,24,4,2,6314,0,0,4,2,1,2,3,27,0,1,2,3,1,1,0,1
1,30,1,3,3496,3,2,4,2,0,2,2,34,1,1,1,2,2,1,0,1
3,48,1,9,3609,0,2,1,1,0,1,0,27,1,1,1,2,1,0,0,1
2,30,4,4,3017,0,4,4,2,0,4,1,47,2,1,1,2,1,0,0,1
3,24,4,9,4139,1,2,3,2,0,3,1,27,2,1,2,1,1,1,0,1
3,36,2,9,5742,1,3,2,2,0,2,2,31,2,1,2,2,1,1,0,1
3,60,2,0,10366,0,4,2,2,0,4,1,42,2,1,1,3,1,1,0,1
3,21,3,9,2580,2,1,4,2,0,2,0,41,0,1,1,1,2,0,0,2
3,30,4,4,4530,0,3,4,1,0,4,2,26,2,0,1,3,1,1,0,1
3,24,4,3,5150,0,4,4,2,0,4,2,33,2,1,1,2,1,1,0,1
0,24,2,4,2384,0,4,4,2,0,4,0,64,0,0,1,1,1,0,0,1
3,6,2,7,1538,0,1,1,1,0,2,3,56,2,1,1,2,1,0,0,1
3,15,3,4,1478,0,2,4,3,0,3,0,33,0,1,2,2,1,0,0,1
3,24,4,4,5103,0,1,3,3,0,3,3,47,2,2,3,2,1,1,0,1
1,36,3,9,9857,1,3,1,2,0,3,1,31,2,1,2,1,2,1,0,1
1,36,3,0,2862,1,4,4,2,0,3,3,30,2,2,1,2,1,0,0,1
0,12,2,0,3651,3,2,1,2,0,3,1,31,2,1,1,2,2,0,0,1
1,15,2,6,2631,1,2,3,1,0,2,0,25,2,1,1,1,1,0,0,1
1,24,2,4,2896,1,1,2,2,0,1,2,29,2,1,1,2,1,0,0,1
0,6,4,0,4716,4,1,1,2,0,3,0,44,2,1,2,1,2,0,0,1
3,6,2,1,1236,2,2,2,2,0,4,1,50,2,0,1,2,1,0,0,1
3,18,4,4,1800,0,2,4,2,0,2,2,24,2,1,2,2,1,0,0,1
3,12,2,3,1123,2,2,4,1,0,4,2,29,2,0,1,1,1,0,0,2
2,24,2,4,1377,1,4,4,1,0,2,3,47,2,2,1,2,1,1,0,1
1,30,3,9,2503,1,4,4,2,0,2,1,41,1,1,2,2,1,0,0,1
1,12,0,3,2969,0,1,4,1,0,3,1,25,2,0,2,2,1,0,0,2
3,30,4,1,7596,4,4,1,2,0,4,2,63,2,1,2,2,1,0,0,1
3,30,4,4,3077,4,4,3,2,0,2,2,40,2,1,2,2,2,1,0,1
2,24,4,4,3148,4,2,3,2,0,2,2,31,2,1,2,2,1,1,0,1
1,9,2,4,790,2,2,4,1,0,3,0,66,2,1,1,1,1,0,0,1
3,27,2,0,2570,0,2,3,1,0,3,0,21,2,0,1,2,1,0,0,2
0,18,2,4,1882,0,2,4,1,0,4,2,25,0,0,2,2,1,0,0,2
1,48,1,9,6416,0,4,4,1,0,3,3,59,2,0,1,2,1,0,0,2
1,24,3,4,6403,0,1,1,2,0,2,2,33,2,1,1,2,1,0,0,1
0,24,2,4,1987,0,2,2,2,0,4,0,21,2,0,1,1,2,0,0,2
1,8,2,4,760,0,3,4,1,2,2,0,44,2,1,1,1,1,0,0,1
3,4,4,0,3380,0,3,1,1,0,1,0,37,2,1,1,2,2,0,0,1
0,18,2,0,4380,1,2,3,2,0,4,2,35,2,1,1,1,2,1,0,1
3,6,4,0,6761,0,3,1,2,0,3,3,45,2,1,2,3,2,1,0,1
1,30,0,9,4280,1,2,4,1,0,4,2,26,2,0,2,1,1,0,0,2
0,24,1,3,2483,2,2,4,2,0,4,0,22,1,1,1,2,1,1,0,1
0,39,4,3,14179,4,3,4,2,0,4,1,30,2,1,2,3,1,1,0,1
0,13,4,9,1797,0,1,3,2,0,1,1,28,0,1,2,1,1,0,0,1
0,12,2,0,1274,0,1,3,1,0,1,0,37,2,1,1,1,1,0,0,2
3,21,2,1,5248,4,2,1,2,0,3,2,26,2,1,1,2,1,0,0,1
0,18,2,0,976,0,1,1,1,0,2,2,23,2,1,1,1,1,0,0,2
1,12,2,9,841,1,3,2,1,0,4,0,23,2,0,1,1,1,0,0,1
2,6,4,0,1299,0,2,1,2,0,1,0,74,2,1,3,0,2,0,1,1
0,12,4,0,691,0,4,4,2,0,3,1,35,2,1,2,2,1,0,0,2
0,18,4,3,2124,0,2,4,1,0,4,0,24,2,0,2,2,1,0,0,2
1,12,2,4,1155,0,4,3,3,2,3,0,40,0,1,2,1,1,0,0,1
0,30,2,3,3108,0,1,2,0,0,4,1,31,2,1,1,1,1,0,0,2
0,24,2,1,2812,4,4,2,1,0,4,0,26,2,0,1,2,1,0,0,1
0,36,4,7,8065,0,2,3,1,0,2,3,25,2,1,2,3,1,1,0,2
3,21,4,1,3275,0,4,1,2,0,4,2,36,2,1,1,3,1,1,0,1
3,24,4,4,2223,1,4,4,2,0,4,1,52,0,1,2,2,1,0,0,1
3,36,4,0,3535,0,3,4,2,0,4,2,37,2,1,2,2,1,1,0,1
3,36,4,1,5711,3,4,4,2,0,2,2,38,2,1,2,3,1,1,0,1
3,24,4,0,1940,3,4,4,2,0,4,0,60,2,1,1,2,1,1,0,1
1,12,2,0,836,1,1,4,1,0,2,1,23,0,1,1,1,1,0,0,2
3,6,4,3,1221,4,2,1,3,0,2,1,27,2,1,2,2,1,0,0,1
3,24,2,3,3062,2,4,4,2,0,3,3,32,2,0,1,2,1,1,0,1
3,9,2,3,2301,1,1,2,1,0,4,1,22,2,0,1,2,1,0,0,1
1,9,2,0,1549,4,1,4,2,0,2,0,35,2,1,1,0,1,0,0,1
3,12,4,4,976,4,4,4,2,0,4,2,35,2,1,2,2,1,0,0,1
1,12,2,0,7472,4,0,1,1,0,2,0,24,2,0,1,0,1,0,0,1
1,6,2,4,590,0,1,3,3,0,3,0,26,2,1,1,1,1,0,1,1
1,15,0,0,1778,0,1,2,1,0,1,0,26,2,0,2,0,1,0,0,2
1,6,2,4,484,0,3,3,3,2,3,0,28,0,1,1,1,1,0,0,1
0,36,4,1,9629,0,3,4,2,0,4,2,24,2,1,2,2,1,1,0,2
3,6,2,5,1338,2,2,1,0,0,4,0,62,2,1,1,2,1,0,0,1
0,18,2,4,1345,0,2,4,3,0,3,0,26,0,1,1,2,1,0,0,2
0,36,2,3,2712,0,4,2,2,0,2,1,41,0,1,1,2,2,0,0,2
0,21,4,0,1602,0,4,4,3,0,3,2,30,2,1,2,2,1,1,0,1
0,36,2,1,8335,4,4,3,2,0,4,3,47,2,2,1,2,1,0,0,2
0,45,0,9,11816,0,4,2,2,0,4,2,29,2,0,2,2,1,0,0,2
2,15,2,4,2327,0,1,2,1,0,3,0,25,2,1,1,1,1,0,0,2
0,12,0,0,1082,0,2,4,2,0,4,2,48,0,1,2,2,1,0,0,2
0,24,4,1,2957,0,4,4,2,0,4,1,63,2,1,2,2,1,1,0,1
3,18,2,6,1943,0,1,4,1,0,4,0,23,2,1,1,2,1,0,0,2
3,24,1,9,1559,0,3,4,2,0,4,2,50,0,1,1,2,1,1,0,1
3,18,2,3,3422,0,4,4,2,0,4,1,47,0,1,3,2,2,1,0,1
3,18,2,0,6761,4,2,2,2,0,4,2,68,2,0,2,2,1,0,0,2
3,24,2,0,1249,0,1,4,3,0,2,0,28,2,1,1,2,1,0,0,1
3,15,4,4,1471,0,2,4,2,0,4,3,35,2,2,2,2,1,1,0,1
0,18,1,0,1442,0,3,4,2,0,4,3,32,2,2,2,1,2,0,0,2
3,24,2,0,1474,1,1,4,3,0,3,0,33,2,1,1,2,1,1,0,1
3,15,4,3,3343,0,2,4,2,0,2,3,28,2,2,1,2,1,1,0,1
3,18,3,9,2169,0,2,4,3,0,2,2,28,2,1,1,2,1,1,0,2
0,24,2,4,2439,0,1,4,1,0,4,0,35,2,1,1,2,1,1,0,2
3,27,4,3,4526,3,1,4,2,0,2,0,32,1,1,2,1,2,1,0,1
0,18,2,4,2389,0,1,4,1,0,1,2,27,1,1,1,2,1,0,0,1
3,36,3,3,7678,2,3,2,1,0,4,2,40,2,1,2,2,1,1,0,1
2,6,4,0,1343,0,4,1,2,0,4,0,46,2,1,2,2,2,0,1,1
0,24,4,9,1382,1,3,4,2,0,1,0,26,2,1,2,2,1,1,0,1
3,15,2,5,874,4,1,4,1,0,1,0,24,2,1,1,2,1,0,0,1
0,12,2,3,3590,0,2,2,2,1,2,1,29,2,1,1,1,2,0,0,1
0,18,1,4,1940,0,1,3,2,1,4,3,36,0,2,1,3,1,1,0,1
3,24,2,1,7814,0,3,3,2,0,3,2,38,2,1,1,3,1,1,0,1
3,24,2,1,9277,4,2,2,0,0,4,3,48,2,2,1,2,1,1,0,1
1,24,2,3,4057,0,3,3,0,0,3,2,43,2,1,1,2,1,1,0,2
1,24,4,9,2825,4,3,4,2,0,3,3,34,2,1,2,2,2,1,0,1
1,48,2,9,15672,0,2,2,2,0,2,2,23,2,1,1,2,1,1,0,2
3,28,1,1,7824,4,1,3,2,2,4,0,40,0,0,2,2,2,1,0,1
0,27,4,9,2442,0,4,4,2,0,4,2,43,1,1,4,3,2,1,0,1
0,12,4,0,2171,0,2,4,2,0,4,1,38,0,1,2,1,1,0,1,1
3,18,4,4,1169,4,2,4,2,0,3,1,29,2,1,2,2,1,1,0,1
3,15,2,3,2186,4,3,1,1,0,4,0,33,0,0,1,1,1,0,0,1
3,20,4,0,3485,4,1,2,0,0,4,0,44,2,1,2,2,1,1,0,1
3,24,2,4,1278,0,4,4,2,0,1,0,36,2,1,1,3,1,1,0,1
1,9,2,0,3195,4,2,1,1,0,2,0,33,2,1,1,1,1,0,0,1
3,36,3,4,4454,0,2,4,1,0,4,0,34,2,1,2,2,1,0,0,1
0,24,1,9,3161,0,2,4,2,0,2,1,31,2,0,1,2,1,1,0,2
3,10,2,1,2848,1,2,1,2,1,2,0,32,2,1,1,2,2,0,0,1
0,6,2,0,14896,0,4,1,2,0,4,3,68,0,1,1,3,1,1,0,2
3,18,4,3,1817,0,2,4,1,0,2,3,28,2,1,2,2,1,0,0,1
1,12,2,0,2002,0,3,3,2,0,4,1,30,2,0,1,2,2,1,0,1
0,12,1,0,697,0,1,4,2,0,2,2,46,0,1,2,2,1,1,0,2
3,30,2,4,1867,4,4,4,2,0,4,2,58,2,1,1,2,1,1,0,1
0,24,2,3,1747,0,1,4,2,1,1,1,24,2,1,1,1,1,0,1,1
1,9,2,4,1670,0,1,4,1,0,2,2,22,2,1,1,2,1,1,0,2
3,12,4,4,522,2,4,4,2,0,4,1,42,2,1,2,2,2,1,0,1
2,9,2,4,745,0,2,3,1,0,2,0,28,2,1,1,1,1,0,0,2
1,6,2,4,2063,0,1,4,3,0,3,2,30,2,0,1,3,1,1,0,1
1,48,0,0,8358,2,1,1,1,0,1,2,30,2,1,2,2,1,0,0,1
0,24,1,3,3349,2,1,4,2,0,4,3,30,2,2,1,2,2,1,0,2
3,18,2,3,1533,0,1,4,3,1,1,1,43,2,1,1,1,2,0,0,2
1,24,2,1,4113,2,1,3,1,0,4,2,28,2,0,1,2,1,0,0,2
0,12,2,0,1893,0,2,4,1,2,4,1,29,2,1,1,2,1,1,0,1
0,24,4,4,1231,3,4,4,1,0,4,1,57,2,0,2,3,1,1,0,1
2,30,4,4,3656,4,4,4,2,0,4,1,49,1,1,2,1,1,0,0,1
1,9,4,4,1154,0,4,2,2,0,4,0,37,2,1,3,1,1,0,0,1
0,28,2,0,4006,0,2,3,2,0,2,2,45,2,1,1,1,1,0,0,2
3,6,4,4,1740,0,4,2,3,0,2,0,30,2,0,2,2,1,0,0,1
3,15,2,0,3556,4,2,3,2,0,2,3,29,2,1,1,2,1,0,0,1
3,24,2,4,2397,2,4,3,2,0,2,2,35,0,1,2,2,1,1,0,2
1,6,2,6,454,0,1,3,3,0,1,1,22,2,1,1,1,1,0,0,1
1,30,2,4,1715,4,2,4,1,0,1,2,26,2,1,1,2,1,0,0,1
3,15,2,4,3568,0,4,4,1,0,2,2,54,0,0,1,3,1,1,0,1
0,11,4,0,3939,0,2,1,2,0,2,0,40,2,1,2,1,2,0,0,1
0,24,1,0,1193,0,0,1,1,1,4,3,29,2,0,2,0,1,0,0,2
0,60,2,9,7297,0,4,4,2,1,4,3,36,2,0,1,2,1,0,0,2
2,24,2,4,1258,2,2,3,1,0,3,2,57,2,1,1,1,1,0,0,1
1,18,3,9,2427,4,4,4,2,0,2,1,42,2,1,2,2,1,0,0,1
1,15,1,0,1264,1,2,2,3,0,2,1,25,2,0,1,2,1,0,0,2
3,48,2,9,4844,0,0,3,2,0,2,2,33,0,0,1,3,1,1,0,2
2,21,2,0,2923,1,2,1,1,0,1,2,28,0,1,1,3,1,1,0,1
0,36,2,1,8229,0,2,2,2,0,2,1,26,2,1,1,2,2,0,0,2
0,15,4,3,1433,0,2,4,1,0,3,1,25,2,0,2,2,1,0,0,1
2,42,0,9,6289,0,1,2,0,0,1,1,33,2,1,2,2,1,0,0,1
3,12,4,7,3565,4,1,2,2,0,1,1,37,2,1,2,1,2,0,0,1
3,12,2,4,804,0,4,4,2,0,4,2,38,2,1,1,2,1,0,0,1
0,45,2,4,1845,0,2,4,2,0,4,3,23,2,2,1,2,1,1,0,2
1,36,2,1,6948,0,2,2,2,0,2,2,35,2,0,1,3,1,1,0,1
1,12,2,0,1295,0,1,3,1,0,1,2,25,2,0,1,2,1,0,0,2
0,24,4,0,1199,0,4,4,2,0,4,2,60,2,1,2,1,1,0,0,2
3,24,2,4,3430,2,4,3,2,0,2,2,31,2,1,1,2,2,1,0,1
1,36,0,9,1953,0,4,4,2,0,4,3,61,2,2,1,3,1,1,0,2
3,12,4,9,1412,0,2,4,1,2,2,0,29,2,1,2,3,1,1,0,1
1,24,4,2,11938,0,2,2,2,1,3,2,39,2,1,2,3,2,1,0,2
1,12,2,4,766,2,2,4,2,0,3,0,66,2,1,1,1,1,0,0,2
0,12,1,8,339,0,4,4,3,0,1,2,45,0,1,1,1,1,0,0,1
3,24,2,3,3972,0,3,2,1,0,4,1,25,2,0,1,2,1,1,0,1
1,16,4,0,1175,0,0,2,2,0,3,2,68,2,2,3,0,1,1,0,1
0,12,2,4,674,1,3,4,3,0,1,1,20,2,1,1,2,1,0,0,2
1,18,0,3,3244,0,2,1,1,0,4,2,33,0,1,2,2,1,1,0,1
3,9,4,7,936,2,4,4,2,0,2,2,52,2,1,2,2,1,1,0,1
3,12,2,1,1413,3,3,3,2,0,2,1,55,2,1,1,2,1,0,1,1
3,9,2,4,1478,0,3,4,2,0,2,2,22,2,1,1,2,1,0,0,2
0,24,2,0,915,4,4,4,1,0,2,2,29,0,1,1,2,1,0,0,2
0,12,2,3,1262,4,4,2,0,0,4,1,49,2,1,1,1,1,1,0,1
3,24,2,4,1901,1,2,4,2,0,4,2,29,2,0,1,3,1,1,0,1
1,8,2,3,1237,0,2,3,1,0,4,0,24,2,1,1,2,1,0,0,2
1,13,4,4,882,0,1,4,2,2,4,0,23,2,1,2,2,1,0,0,1
0,12,0,4,6199,0,2,4,2,0,2,1,28,2,0,2,2,1,1,0,2
3,36,2,0,3079,4,2,4,2,0,4,0,36,2,1,1,2,1,0,0,1
1,15,4,9,2326,2,2,2,2,0,4,2,27,0,1,1,2,1,0,0,1
1,12,4,0,958,0,3,2,2,0,3,0,47,2,1,2,1,2,0,0,1
1,48,4,3,5096,0,2,2,1,0,3,2,30,2,1,1,3,1,1,0,2
3,24,2,1,2670,0,4,4,2,0,4,2,35,2,1,1,3,1,1,0,1
3,18,2,9,1950,0,3,4,2,0,1,2,34,1,1,2,2,1,1,0,1
3,24,3,1,4679,0,3,3,2,0,3,2,35,2,1,2,1,1,1,0,1
0,6,2,7,448,0,1,4,1,0,4,1,23,2,1,1,2,1,0,0,2
1,12,4,4,3573,0,2,1,1,0,1,0,23,2,1,1,1,1,0,0,1
0,6,4,0,609,0,3,4,1,0,3,1,37,2,1,2,2,1,0,1,1
3,6,4,4,700,4,4,4,2,0,4,3,36,2,2,2,2,1,0,0,1
1,18,2,4,1113,0,2,4,1,2,4,0,26,2,1,1,1,2,0,0,1
1,36,2,7,2273,0,3,3,2,0,1,2,32,2,1,2,2,2,0,0,1
0,24,3,0,1333,0,0,4,2,0,2,0,43,2,2,2,2,2,0,0,2
3,15,4,3,2788,0,3,2,1,1,3,2,24,0,1,2,2,1,0,0,1
1,24,0,9,4241,0,2,1,2,0,4,0,36,2,1,3,1,1,1,0,2
2,10,2,3,1275,0,1,4,1,0,2,1,23,2,1,1,2,1,0,0,1
0,24,1,3,2828,2,2,4,2,0,4,0,22,1,1,1,2,1,1,0,1
3,9,2,7,3832,4,4,1,2,0,4,0,64,2,1,1,1,1,0,0,1
3,12,2,4,1493,0,1,4,1,0,3,2,34,2,1,1,2,2,0,0,1
2,6,4,7,1047,0,2,2,1,0,4,1,50,2,1,1,1,1,0,0,1
0,12,4,0,4843,0,4,3,2,1,4,1,43,2,0,2,2,1,1,0,2
2,15,2,7,1905,0,4,4,2,0,4,2,40,2,0,1,3,1,1,0,1
1,60,2,0,14027,0,3,4,2,0,2,3,27,2,1,1,3,1,1,0,2
1,20,0,1,6148,1,4,3,3,0,4,2,31,0,1,2,2,1,1,0,1
3,15,4,4,1316,2,2,2,3,0,2,1,47,2,1,2,1,1,0,0,1
1,36,1,5,3990,4,1,3,1,0,2,3,29,0,1,1,0,1,0,0,1
3,21,2,4,3160,4,4,4,2,0,3,1,41,2,1,1,2,1,1,0,1
3,10,2,1,2901,4,1,1,1,0,4,0,31,2,0,1,2,1,0,0,1
1,12,4,3,3617,0,4,1,2,0,4,2,28,2,0,3,2,1,1,0,1
2,12,4,0,1480,2,0,2,2,0,4,3,66,0,2,3,0,1,0,0,1
1,30,3,4,1919,1,1,4,2,0,3,3,30,1,1,2,3,1,0,0,2
1,60,2,7,6288,0,2,4,2,0,4,3,42,2,2,1,2,1,0,0,2
3,24,2,4,3621,1,4,2,2,0,4,2,31,2,1,2,2,1,0,0,2
1,30,4,3,8386,0,3,2,2,0,2,1,49,2,1,1,2,1,0,0,2
