StatusAccount,DurationMonth,CreditHistory,Purpose,CreditAmount,SavingsAccount,EmploymentSince,InstallmentRate,StatusAndSex,Guarantors,ResidenceSince,Property,Age,InstallmentPlans,Housing,NCredits,Job,NPeopleMain,Telephone,ForeignWorker,TARGET
1,48,2,4,5951,0,2,2,1,0,2,0,22,2,1,1,2,1,0,0,2
0,42,2,3,7882,0,3,2,2,2,4,1,45,2,2,1,2,2,0,0,1
3,24,2,3,2835,2,4,3,2,0,4,1,53,2,1,1,2,1,0,0,1
3,12,2,4,3059,3,3,2,0,0,4,0,61,2,1,1,1,1,0,0,1
1,12,2,4,1567,0,2,1,1,0,1,2,22,2,1,1,2,1,1,0,1
0,15,2,0,1403,0,2,2,1,0,4,2,28,2,0,1,2,1,0,0,1
0,30,0,9,8072,4,1,2,2,0,3,2,25,0,1,3,2,1,0,0,1
3,9,4,0,2134,0,2,4,2,0,4,2,48,2,1,3,2,1,1,0,1
0,6,2,4,2647,2,2,2,2,0,3,0,44,2,0,1,2,2,0,0,1
1,7,2,4,2415,0,2,3,2,2,2,0,34,2,1,1,2,1,0,0,1
0,60,3,9,6836,0,4,3,2,0,4,3,63,2,1,2,2,1,1,0,2
2,12,2,3,1474,0,1,4,1,0,1,1,33,0,1,1,3,1,1,0,1
3,48,4,7,6110,0,2,1,2,0,3,3,31,0,2,1,2,1,1,0,1
2,18,2,4,2100,0,2,4,2,1,2,0,37,1,1,1,2,1,0,0,2
1,9,2,4,458,0,2,4,2,0,3,0,24,2,1,1,2,1,0,0,1
3,30,2,4,2333,2,4,4,2,0,2,2,30,0,1,1,3,1,0,0,1
1,12,2,4,1158,2,2,3,0,0,1,2,26,2,1,1,2,1,1,0,1
1,18,3,6,6204,0,2,2,2,0,4,0,44,2,1,1,1,2,1,0,1
0,48,4,1,6143,0,4,4,1,0,4,3,58,1,2,2,1,1,0,0,2
3,11,4,0,1393,0,1,4,1,0,4,2,35,2,1,2,3,1,0,0,1
3,36,2,4,2299,2,4,4,2,0,4,2,39,2,1,1,2,1,0,0,1
0,6,2,1,1352,2,0,1,1,0,2,1,23,2,0,1,0,1,1,0,1
3,18,2,1,3378,4,2,2,2,0,1,1,31,2,1,1,2,1,1,0,1
1,36,3,0,2225,0,4,4,2,0,4,3,57,0,2,2,2,1,1,0,2
0,36,4,3,6229,0,1,4,1,1,4,3,23,2,0,2,1,1,1,0,2
1,9,2,9,1391,0,2,2,3,0,1,0,27,0,1,1,2,1,1,0,1
1,12,2,0,1007,3,2,4,3,0,1,0,22,2,1,1,2,1,0,0,1
3,36,2,7,1819,0,2,4,2,0,4,3,37,1,2,1,2,1,1,0,2
1,42,4,9,5954,0,3,2,1,0,1,0,41,0,1,2,1,1,0,0,1
0,36,2,7,1977,4,4,4,2,0,4,3,40,2,1,1,3,1,1,0,2
0,42,2,4,3965,0,1,4,2,0,3,2,34,2,1,1,2,1,0,0,2
1,11,3,4,4771,0,3,2,2,0,4,1,51,2,1,1,2,1,0,0,1
3,54,0,1,9436,4,2,2,2,0,2,1,39,2,1,1,1,2,0,0,1
1,30,2,3,3832,0,1,2,3,0,1,1,22,2,1,1,2,1,0,0,1
3,24,2,4,5943,4,1,1,1,0,1,2,44,2,1,2,2,1,1,0,2
0,12,4,1,1409,0,4,4,2,0,3,0,54,2,1,1,2,1,0,0,1
3,12,4,4,797,4,4,4,1,0,3,1,33,0,1,1,1,2,0,0,2
2,24,4,3,3617,4,4,4,2,1,4,3,20,2,0,2,2,1,0,0,1
1,12,2,0,1318,3,4,4,2,0,4,0,54,2,1,1,2,1,1,0,1
1,54,0,9,15945,0,1,3,2,0,4,3,58,2,0,1,2,1,1,0,2
3,12,4,7,2012,4,3,4,1,0,2,2,61,2,1,1,2,1,0,0,1
1,18,2,9,2622,1,2,4,2,0,4,2,34,2,1,1,2,1,0,0,1
1,20,3,1,7057,4,3,3,2,0,4,1,36,0,0,2,3,2,1,0,1
3,6,3,4,932,0,2,3,1,0,2,0,24,2,1,1,2,1,0,0,1
1,9,4,3,1919,0,3,4,2,0,3,2,35,2,0,1,2,1,1,0,1
3,18,1,0,6458,0,4,2,2,0,4,3,39,0,1,2,3,2,1,0,2
1,12,2,0,6078,0,3,2,2,0,2,2,32,2,1,1,2,1,0,0,1
0,24,2,3,7721,4,1,1,1,0,2,1,30,2,1,1,2,1,1,1,1
1,14,2,9,1410,2,4,1,3,0,2,0,35,2,1,1,2,1,1,0,1
1,6,3,9,1449,1,4,1,0,0,2,2,31,0,1,2,2,2,0,0,1
1,18,2,0,6260,0,3,3,2,0,3,0,28,2,0,1,1,1,0,0,1
3,36,4,0,7855,0,2,4,1,0,2,0,25,1,1,2,2,1,1,0,2
0,12,2,4,1680,2,4,3,3,0,1,0,35,2,1,1,2,1,0,0,1
0,42,2,4,7174,4,3,4,1,0,3,2,30,2,1,1,3,1,1,0,2
0,10,4,3,2132,4,1,2,1,1,3,0,27,2,0,2,2,1,0,1,1
3,24,4,1,3868,0,4,4,1,0,2,2,41,2,0,2,3,1,1,0,1
3,12,2,3,1768,0,2,3,2,0,2,0,24,2,0,1,1,1,0,0,1
2,10,4,0,781,0,4,4,2,0,4,3,63,2,2,2,2,1,1,0,1
1,18,2,3,1924,4,1,4,1,0,3,0,27,2,0,1,2,1,0,0,2
0,12,2,4,701,0,2,4,3,0,2,0,40,2,1,1,1,1,0,0,1
1,12,4,1,1860,0,0,4,2,0,2,2,34,2,1,2,3,1,1,0,1
0,12,4,0,3499,0,2,3,1,1,2,0,29,2,1,2,2,1,0,0,2
1,48,2,0,8487,4,3,1,1,0,2,2,24,2,1,1,2,1,0,0,1
3,15,2,3,2708,0,1,2,2,0,3,1,27,0,1,2,1,1,0,0,1
3,18,2,3,1984,0,2,4,2,0,4,3,47,0,2,2,2,1,0,0,1
1,15,4,4,2728,4,3,4,2,2,2,0,35,0,1,3,2,1,1,0,1
1,36,2,4,4795,0,1,4,1,0,1,3,30,2,1,1,3,1,1,0,1
0,27,2,4,3416,0,2,3,2,0,2,2,27,2,1,1,3,1,0,0,1
3,21,4,3,2288,0,1,4,1,0,4,1,23,2,1,1,2,1,1,0,1
3,12,4,0,682,1,3,4,1,0,3,2,51,2,1,2,2,1,1,0,1
3,18,4,4,1582,3,4,4,2,0,4,2,46,2,1,2,2,1,0,0,1
3,6,2,4,1346,1,4,2,2,0,4,3,42,0,2,1,2,2,1,0,1
2,36,2,4,5848,0,2,4,2,0,1,2,24,2,1,1,2,1,0,0,1
1,24,4,1,7758,3,4,2,1,0,4,3,29,2,0,1,2,1,0,0,1
1,24,3,9,6967,1,3,4,2,0,4,2,36,2,0,1,3,1,1,0,1
0,9,4,6,1288,1,4,3,2,2,4,0,48,2,1,2,2,2,0,1,1
3,6,4,4,1898,4,2,1,2,0,2,0,34,2,1,2,1,2,0,0,1
3,18,4,0,1055,0,1,4,1,0,1,1,30,2,1,2,2,1,0,0,1
0,18,2,3,1131,0,0,4,1,0,2,2,33,2,1,1,2,1,0,0,2
1,24,4,9,1935,0,4,4,0,0,4,0,31,2,1,2,2,1,1,0,2
1,8,2,4,1414,0,2,4,2,2,2,0,33,2,1,1,2,1,0,1,1
3,30,1,1,7485,4,0,4,1,0,1,0,53,0,1,1,3,1,1,0,2
0,12,2,3,2577,0,2,2,0,0,1,2,42,2,1,1,2,1,0,0,1
3,12,2,4,1963,0,3,4,2,0,2,2,31,2,0,2,3,2,1,0,1
0,21,1,0,1647,4,2,4,2,0,2,1,40,2,1,2,1,2,0,0,2
1,18,4,0,884,0,4,4,2,0,4,2,36,0,1,1,2,2,1,0,2
3,15,4,4,1360,0,2,4,2,0,2,1,31,2,1,2,2,1,0,0,1
1,9,1,1,5129,0,4,2,1,0,4,3,74,0,2,1,3,2,1,0,2
1,9,4,7,1501,0,4,2,1,0,3,2,34,2,1,2,3,1,1,0,2
1,24,2,1,2760,4,4,4,2,0,4,3,36,0,2,1,2,1,1,0,1
0,12,2,0,1168,0,2,4,3,0,3,0,27,2,1,1,1,1,0,0,1
3,12,4,0,1495,0,4,4,2,0,1,0,38,2,1,2,1,2,0,0,1
0,24,2,9,6568,0,2,2,3,0,2,2,21,1,1,1,1,1,0,0,1
3,9,4,4,3074,4,2,1,2,0,2,0,33,2,1,2,2,2,0,0,1
3,36,2,4,3835,4,4,2,1,0,4,0,45,2,1,1,1,1,1,0,1
0,27,0,9,5293,0,0,2,2,0,4,1,50,1,1,2,2,1,1,0,2
3,36,4,4,3342,4,4,4,2,0,2,2,51,2,1,1,2,1,1,0,1
0,24,2,3,3021,0,2,2,0,0,2,0,24,2,0,1,1,1,0,0,1
3,10,2,0,1364,0,2,2,1,0,4,2,64,2,1,1,2,1,1,0,1
3,24,3,9,2978,4,2,4,2,0,4,0,32,2,1,2,2,2,1,0,1
0,12,2,3,7865,0,4,4,2,0,4,3,53,2,2,1,3,1,1,0,2
3,12,2,4,2141,1,3,3,2,0,1,3,35,2,1,1,2,1,0,0,1
0,24,2,4,1823,0,0,4,2,0,2,2,30,1,1,1,3,2,0,0,2
1,6,2,0,14555,4,0,1,2,0,2,1,23,2,1,1,0,1,1,0,2
1,21,2,9,2767,1,4,4,0,0,2,2,61,0,0,2,1,1,0,0,2
3,12,4,4,1291,0,2,4,1,0,2,1,35,2,1,2,2,1,0,0,1
0,30,2,4,2522,0,4,1,2,2,3,1,39,2,1,1,2,2,0,0,1
3,6,2,4,1595,0,3,3,2,0,2,1,51,2,1,1,2,2,0,0,1
0,48,0,1,4605,0,4,3,2,0,4,3,24,2,2,2,2,2,0,0,2
3,12,1,8,3447,2,2,4,1,0,3,0,35,2,1,1,1,2,0,0,1
3,12,4,4,717,0,4,4,2,0,4,0,52,2,1,3,2,1,0,0,1
3,18,2,4,433,0,0,3,1,1,4,0,22,2,0,1,2,1,0,0,2
1,30,2,0,2150,0,2,4,1,2,2,3,24,0,1,1,2,1,0,0,2
1,60,3,4,7418,4,2,1,2,0,1,0,27,2,1,1,1,1,0,0,1
0,12,1,4,2149,0,2,4,0,0,1,3,29,2,2,1,2,1,0,0,2
3,15,2,1,3812,1,1,1,1,0,4,2,23,2,1,1,2,1,1,0,1
0,12,2,3,1657,0,2,2,2,0,2,0,27,2,1,1,2,1,0,0,1
0,24,2,4,1603,0,4,4,1,0,4,2,55,2,1,1,2,1,0,0,1
0,18,4,0,5302,0,4,2,2,0,4,3,36,2,2,3,3,1,1,0,1
1,15,2,4,802,0,4,4,2,0,3,2,37,2,1,1,2,2,0,0,2
3,36,4,9,6304,4,4,4,2,0,4,0,36,2,1,2,2,1,0,0,1
3,24,2,4,1533,0,1,4,1,0,3,2,38,1,1,1,2,1,1,0,1
0,14,2,0,8978,0,4,1,0,0,4,1,45,2,1,1,3,1,1,1,2
3,24,2,4,999,4,4,4,2,0,2,2,25,2,1,2,2,1,0,0,1
1,48,2,4,3060,0,3,4,2,0,4,0,28,2,1,2,2,1,0,0,2
3,9,2,4,2697,0,2,1,2,0,2,0,32,2,1,1,2,2,0,0,1
3,18,4,4,2404,0,2,2,1,0,2,2,26,2,1,2,2,1,0,0,1
3,15,4,3,1520,4,4,4,2,0,4,1,63,2,1,1,2,1,0,0,1
1,48,3,2,7582,1,0,2,2,0,4,3,31,2,2,1,3,1,1,0,1
0,24,3,4,1024,0,1,4,3,0,4,0,48,1,1,1,2,1,0,0,2
2,42,4,1,4796,0,4,4,2,0,4,3,56,2,2,1,2,1,0,0,1
1,48,2,3,9960,0,1,1,1,0,2,2,26,2,1,1,2,1,1,0,2
3,12,2,1,4675,4,1,1,1,0,4,2,20,2,0,1,2,1,0,0,1
3,10,2,0,1287,4,4,4,2,1,2,1,45,2,1,1,1,1,0,1,1
1,36,0,4,3804,0,2,4,1,0,1,2,42,2,1,1,2,1,1,0,2
2,24,4,0,1344,4,3,4,2,0,2,0,37,0,1,2,1,2,0,0,2
0,10,4,0,1038,0,3,4,2,1,3,1,49,2,1,2,2,1,1,0,1
3,48,4,0,10127,2,2,2,2,0,2,3,44,0,2,1,2,1,0,0,2
3,30,2,1,4811,4,3,2,1,0,4,1,24,1,0,1,1,1,0,0,1
2,24,2,3,3749,0,1,2,1,0,4,2,26,2,1,1,2,1,0,0,1
0,12,2,3,708,0,2,2,2,2,3,1,38,2,1,1,1,2,0,0,1
0,24,2,1,2910,0,3,2,2,0,1,3,34,2,2,1,3,1,1,0,1
3,12,4,3,5801,4,4,2,2,0,4,1,49,2,0,1,2,1,1,0,1
1,6,2,4,1068,0,4,4,2,0,4,2,28,2,1,1,2,2,0,0,1
0,24,0,3,4110,0,4,3,2,0,4,3,23,0,0,2,2,2,0,0,2
0,6,4,3,3384,0,2,1,0,0,4,0,44,2,0,1,3,1,1,0,2
1,13,2,4,2101,0,1,2,1,2,4,1,23,2,1,1,1,1,0,0,1
0,15,2,5,1275,4,2,4,1,0,2,2,24,2,0,1,2,1,0,0,2
1,10,2,3,1521,0,2,4,0,0,2,2,31,2,1,1,1,1,0,0,1
1,24,4,7,5743,0,1,2,1,0,4,3,24,2,2,2,2,1,1,0,1
1,18,2,9,4439,0,4,1,2,1,1,0,33,0,1,1,3,1,1,0,1
2,10,2,0,3949,0,1,1,2,2,1,1,37,2,1,1,1,2,0,0,1
3,15,4,4,1459,0,2,4,1,0,2,2,43,2,1,1,1,1,0,0,1
3,6,3,9,1743,1,2,1,2,0,2,0,34,2,1,2,1,1,0,0,1
1,9,2,3,959,0,2,1,1,0,2,2,29,2,1,1,2,1,0,1,2
3,10,2,7,727,2,4,4,2,0,4,3,46,2,2,1,2,1,1,0,1
3,12,4,4,2331,4,4,1,2,1,4,0,49,2,1,1,2,1,1,0,1
1,18,2,7,1239,4,2,4,2,0,4,3,61,2,2,1,2,1,0,0,1
3,6,2,3,1766,0,2,1,3,0,2,1,21,2,0,1,2,1,0,0,1
0,18,2,3,2473,0,0,4,2,0,1,2,25,2,1,1,0,1,0,0,2
3,12,2,9,1542,0,3,2,2,0,4,2,36,2,1,1,2,1,1,0,1
0,18,2,3,3650,0,1,1,1,0,4,2,22,2,0,1,2,1,0,0,1
3,10,4,3,2146,0,1,1,1,0,3,0,23,2,0,2,2,1,0,0,1
0,48,1,9,7685,0,3,2,1,2,4,2,37,2,0,1,2,1,0,0,2
3,18,3,4,2320,0,0,2,3,0,3,0,34,2,1,2,2,1,0,0,1
3,7,3,4,846,4,4,3,2,0,4,3,36,2,2,1,2,1,0,0,1
3,6,4,0,362,1,2,4,1,0,4,2,52,2,1,2,1,1,0,0,1
0,20,2,3,2212,4,3,4,2,0,4,2,39,2,1,1,2,1,1,0,1
1,18,2,1,12976,0,0,3,1,0,4,3,38,2,2,1,3,1,1,0,2
3,22,2,0,1283,4,3,4,1,0,4,1,25,2,0,1,2,1,0,0,1
3,30,3,9,4272,1,2,2,2,0,2,1,26,2,1,2,1,1,0,0,1
1,12,2,3,983,3,1,1,1,0,4,0,19,2,0,1,1,1,0,0,1
0,36,2,0,3249,0,3,2,2,0,4,3,39,0,2,1,3,2,1,0,1
0,6,4,4,1957,0,3,1,1,0,4,2,31,2,1,1,2,1,0,0,1
3,9,4,3,2406,0,0,2,2,0,3,2,31,2,1,1,3,1,0,0,1
1,39,3,7,11760,1,3,2,2,0,3,3,32,2,0,1,2,1,1,0,1
3,24,4,4,1516,3,2,4,1,0,1,0,43,2,1,2,1,1,0,0,1
3,18,2,4,1473,0,1,3,3,0,4,0,39,2,1,1,2,1,1,0,1
1,18,4,9,1887,4,2,4,3,0,4,0,28,0,1,2,2,1,0,0,1
3,24,4,1,2197,4,3,4,2,0,4,2,43,2,1,2,2,2,1,0,1
0,15,2,4,1053,0,1,4,3,0,2,0,27,2,1,1,2,1,0,1,1
3,24,2,4,3235,2,4,3,0,0,2,2,26,2,1,1,3,1,1,0,1
2,12,4,0,939,2,3,4,3,0,2,0,28,2,1,3,2,1,1,0,2
1,24,2,4,1967,0,4,4,1,0,4,2,20,2,1,1,2,1,1,0,1
3,12,4,9,2292,0,0,4,2,0,2,2,42,1,1,2,3,1,1,0,2
3,10,2,0,1597,2,2,3,2,0,2,3,40,2,0,1,1,2,0,1,1
0,24,2,0,1381,4,2,4,1,0,2,1,35,2,1,1,2,1,0,0,2
3,36,4,1,5842,0,4,2,2,0,2,1,35,2,1,2,2,2,1,0,1
0,12,2,0,2579,0,1,4,2,0,1,0,33,2,1,1,1,2,0,0,2
0,18,3,7,8471,4,2,1,1,0,2,2,23,2,0,2,2,1,1,0,1
1,18,2,0,1042,4,2,4,1,0,2,1,33,2,1,1,2,1,0,0,2
0,18,4,6,1190,0,0,2,1,0,4,3,55,2,2,3,0,2,0,0,2
1,12,2,4,1484,4,2,2,3,0,1,0,25,2,1,1,2,1,1,0,2
3,6,2,6,660,2,3,2,3,0,4,0,23,2,0,1,1,1,0,0,1
3,24,4,0,1287,3,4,4,1,0,4,0,37,2,1,2,2,1,1,0,1
3,12,2,7,719,0,4,4,2,0,4,2,41,0,1,1,1,2,0,0,2
0,36,2,0,1842,0,1,4,1,0,4,2,34,2,1,1,2,1,1,0,2
1,7,2,4,2576,0,2,2,2,2,2,0,35,2,1,1,2,1,0,0,1
2,12,2,3,1424,4,4,3,1,0,4,0,55,2,1,1,3,1,1,0,1
3,36,4,1,11054,4,2,4,2,0,2,2,30,2,1,1,3,1,1,0,1
3,6,2,4,518,0,2,3,1,0,1,0,29,2,1,1,2,1,0,0,1
3,12,0,3,2759,0,4,2,2,0,4,1,34,2,1,2,2,1,0,0,1
3,24,2,1,2679,0,1,4,1,0,1,3,29,2,1,1,3,1,1,0,1
3,18,2,4,4594,0,1,3,2,0,2,2,32,2,1,1,2,1,1,0,1
0,36,2,3,3620,0,2,1,2,2,2,1,37,2,1,1,2,2,0,0,1
0,15,2,0,1721,0,1,2,2,0,3,0,36,2,1,1,2,1,0,0,1
1,12,2,3,3017,0,1,3,1,0,1,0,34,2,0,1,3,1,0,0,1
0,24,2,1,2924,0,2,3,2,2,4,3,63,0,1,1,2,2,1,0,1
3,33,3,9,2764,0,2,2,1,0,2,2,26,2,1,2,2,1,1,0,1
3,6,2,8,1238,4,0,4,2,0,4,1,36,2,1,1,3,2,1,0,1
2,24,2,4,5152,0,3,4,2,0,2,2,25,0,1,1,2,1,0,0,1
0,15,4,3,1478,0,4,4,2,0,4,2,44,2,1,2,2,2,1,0,1
1,24,2,0,1201,0,1,4,2,0,1,1,26,2,1,1,2,1,0,0,1
3,12,4,4,1934,0,4,2,2,0,2,3,26,2,1,2,2,1,0,0,1
0,12,4,0,2122,0,2,3,2,0,2,0,39,2,0,2,1,2,0,1,1
3,24,4,3,1585,0,3,4,2,0,3,1,40,2,1,2,2,1,0,0,1
1,18,2,4,1301,0,4,4,3,2,2,0,32,2,1,1,1,1,0,0,1
0,24,2,0,1207,0,1,4,1,0,4,1,24,2,0,1,2,1,0,0,2
1,15,1,0,6850,1,0,1,2,0,2,1,34,2,1,1,3,2,1,0,2
3,24,2,4,1413,0,2,4,3,0,2,1,28,2,1,1,2,1,0,0,1
3,39,2,1,8588,1,4,4,2,0,2,2,45,2,1,1,3,1,1,0,1
0,12,2,0,759,0,3,4,2,0,2,0,26,2,1,1,2,1,0,0,2
3,36,2,1,4686,0,2,2,2,0,2,3,32,2,2,1,3,1,1,0,1
2,15,2,9,2687,0,3,2,2,0,4,1,26,2,0,1,2,1,1,0,1
0,6,2,0,1203,1,4,3,2,0,2,1,43,2,1,1,2,1,1,0,1
3,24,4,6,5507,0,4,3,2,0,4,3,44,2,2,2,2,1,0,0,1
0,18,2,4,3190,0,2,2,1,0,2,0,24,2,1,1,2,1,0,0,2
1,15,2,0,2631,1,2,2,1,0,4,2,28,2,0,2,2,1,1,0,2
3,24,2,4,1311,1,3,4,3,0,3,1,26,2,1,1,2,1,1,0,1
2,21,4,7,2319,0,1,2,0,0,1,2,33,2,0,1,2,1,0,0,2
1,18,4,3,3612,0,4,3,1,0,4,1,37,2,1,1,2,1,1,0,1
0,48,2,0,7763,0,4,4,2,0,4,3,42,0,2,1,3,1,0,0,2
2,18,2,3,3049,0,1,1,1,0,1,1,45,1,1,1,1,1,0,0,1
3,24,3,0,2032,0,4,4,2,0,4,3,60,2,2,2,2,1,1,0,1
0,30,2,3,6350,4,4,4,2,0,4,1,31,2,1,1,2,1,0,0,2
3,12,4,0,1255,0,4,4,2,0,4,0,61,2,1,2,1,1,0,0,1
3,24,4,0,2022,0,2,4,1,0,4,2,37,2,1,1,2,1,1,0,1
0,12,1,4,626,0,2,4,1,0,4,0,24,0,1,1,1,1,0,0,2
3,48,4,1,8858,4,3,2,2,0,1,3,35,2,2,2,2,1,1,0,1
3,12,4,6,996,4,3,4,1,0,4,0,23,2,1,2,2,1,0,0,1
0,48,2,4,6999,0,3,1,3,2,1,0,34,2,1,2,2,1,1,0,2
3,21,0,0,5003,4,2,1,1,0,4,1,29,0,1,2,2,1,1,0,2
0,24,1,3,3552,0,3,3,2,0,4,2,27,0,1,1,2,1,0,0,2
1,18,4,3,1928,0,1,2,2,0,2,0,31,2,1,2,1,1,0,0,2
0,24,2,1,2964,4,4,4,2,0,4,3,49,0,2,1,2,2,1,0,1
0,24,1,4,1546,0,3,4,2,2,4,2,24,0,0,1,1,1,0,0,2
1,24,3,9,4712,4,2,4,2,0,2,1,37,0,1,2,3,1,1,0,1
0,12,2,0,1372,0,3,2,0,0,3,2,36,2,1,1,2,1,0,0,2
1,48,2,4,3979,4,3,4,2,0,1,2,41,2,1,2,2,2,1,0,1
0,48,2,4,6758,0,2,3,1,0,2,2,31,2,1,1,2,1,1,0,2
0,24,2,3,3234,0,1,4,1,0,4,0,23,2,0,1,1,1,1,0,2
3,30,4,4,5954,0,3,3,2,1,2,2,38,2,1,1,2,1,0,0,1
3,24,2,1,5433,4,0,2,1,0,4,1,26,2,0,1,3,1,1,0,1
1,9,2,4,1082,0,4,4,2,0,4,2,27,2,1,2,1,1,0,0,1
1,12,2,4,2930,0,3,2,1,0,1,0,27,2,1,1,2,1,0,0,1
1,12,4,0,3124,0,1,1,2,0,3,0,49,0,1,2,1,2,0,0,1
3,9,2,3,1388,0,2,4,1,0,2,0,26,2,0,1,2,1,0,0,1
1,36,2,6,2384,0,1,4,2,0,1,3,33,2,0,1,1,1,0,0,2
0,9,4,0,2799,0,2,2,2,0,2,0,36,2,0,2,2,2,0,0,1
0,12,2,3,1289,0,2,4,2,2,1,1,21,2,1,1,1,1,0,0,1
0,18,2,5,1217,0,2,4,3,0,3,0,47,2,1,1,1,1,1,0,2
0,12,4,4,385,0,3,4,1,0,3,0,58,2,1,4,1,1,1,0,1
1,24,2,0,2718,0,2,3,1,0,4,1,20,2,0,1,1,1,1,0,2
0,24,1,2,1358,4,4,4,2,0,3,2,40,1,1,1,3,1,1,0,2
1,6,1,0,931,1,1,1,1,0,1,1,32,1,1,1,1,1,0,0,2
0,24,2,0,1442,0,3,4,1,0,4,2,23,2,0,2,2,1,0,0,2
3,18,4,0,2775,0,3,2,2,0,2,1,31,0,1,2,2,1,0,0,2
3,36,2,3,3349,0,2,4,1,0,2,2,28,2,1,1,3,1,1,0,2
3,18,2,4,2051,0,1,4,2,0,1,0,33,2,1,1,2,1,0,0,1
3,15,2,1,1300,4,4,4,2,0,4,3,45,0,2,1,2,2,0,0,1
0,24,1,1,3632,0,2,1,1,2,4,2,22,0,0,1,2,1,0,1,1
3,18,3,3,1808,0,3,4,1,0,1,0,22,2,1,1,2,1,0,0,2
0,6,4,0,3676,0,2,1,2,0,3,0,37,2,0,3,2,2,0,0,1
3,12,2,0,640,0,2,4,0,0,2,0,49,2,1,1,1,1,0,0,1
3,18,4,0,1530,0,2,3,2,0,2,1,32,0,1,2,2,1,0,0,2
0,12,2,3,1858,0,1,4,1,0,1,2,22,2,0,1,2,1,0,0,1
0,18,2,4,2600,0,2,4,2,0,4,3,65,2,2,2,2,1,0,0,2
2,6,2,3,2116,0,2,2,2,0,2,0,41,2,1,1,2,1,1,0,1
3,42,4,3,4042,2,2,4,2,0,4,0,36,2,1,2,2,1,1,0,1
0,18,1,3,1553,0,2,4,2,0,3,2,44,0,1,1,2,1,0,0,2
1,15,2,4,1444,4,1,4,2,0,1,1,23,2,1,1,2,1,0,0,1
1,24,2,0,1355,0,1,3,1,0,4,2,25,2,1,1,1,1,1,0,2
3,12,2,7,1393,0,4,4,2,0,4,1,47,0,1,3,2,2,1,0,1
3,24,2,4,1376,2,3,4,1,0,1,2,28,2,1,1,2,1,0,0,1
3,60,3,4,15653,0,3,2,2,0,4,2,21,2,1,2,2,1,1,0,1
1,15,2,6,1308,0,4,4,2,0,4,2,38,2,1,2,1,1,0,0,1
3,36,3,9,7980,4,1,4,2,0,4,2,27,2,0,2,2,1,1,0,2
0,30,0,3,4583,0,2,2,0,2,2,0,32,2,1,2,2,1,0,0,1
3,12,2,0,1386,2,2,2,1,0,2,1,26,2,1,1,2,1,0,0,2
2,24,2,0,947,0,3,4,2,0,3,3,38,0,2,1,2,2,0,0,2
0,12,2,7,684,0,2,4,2,0,4,2,40,2,0,1,1,2,0,0,2
0,24,2,0,2303,0,4,4,2,1,1,0,45,2,1,1,2,1,0,0,2
1,36,3,0,8086,1,4,2,2,0,4,2,42,2,1,4,3,1,1,0,2
3,48,2,4,10222,4,3,4,2,0,3,2,37,1,1,1,2,1,1,0,1
2,12,2,4,1297,0,2,3,3,0,4,0,23,2,0,1,2,1,0,0,1
0,12,2,0,900,4,2,4,3,0,2,2,23,2,1,1,2,1,0,0,2
3,24,4,2,6314,0,0,4,2,1,2,3,27,0,1,2,3,1,1,0,1
1,30,1,3,3496,3,2,4,2,0,2,2,34,1,1,1,2,2,1,0,1
2,30,4,4,3017,0,4,4,2,0,4,1,47,2,1,1,2,1,0,0,1
3,24,4,9,4139,1,2,3,2,0,3,1,27,2,1,2,1,1,1,0,1
3,30,4,4,4530,0,3,4,1,0,4,2,26,2,0,1,3,1,1,0,1
0,24,2,4,2384,0,4,4,2,0,4,0,64,0,0,1,1,1,0,0,1
3,6,2,7,1538,0,1,1,1,0,2,3,56,2,1,1,2,1,0,0,1
3,15,3,4,1478,0,2,4,3,0,3,0,33,0,1,2,2,1,0,0,1
3,24,4,4,5103,0,1,3,3,0,3,3,47,2,2,3,2,1,1,0,1
3,60,2,0,6527,4,2,4,2,0,4,3,34,2,2,1,2,2,1,0,1
2,10,4,4,1347,4,3,4,2,0,2,1,27,2,1,2,2,1,1,0,1
1,36,3,0,2862,1,4,4,2,0,3,3,30,2,2,1,2,1,0,0,1
3,9,2,4,2753,1,4,3,2,1,4,2,35,2,1,1,2,1,1,0,1
0,15,4,3,975,0,2,2,0,0,3,1,25,2,1,2,2,1,0,0,1
1,24,2,4,2896,1,1,2,2,0,1,2,29,2,1,1,2,1,0,0,1
3,6,2,1,1236,2,2,2,2,0,4,1,50,2,0,1,2,1,0,0,1
3,18,4,4,1800,0,2,4,2,0,2,2,24,2,1,2,2,1,0,0,1
2,24,2,4,1377,1,4,4,1,0,2,3,47,2,2,1,2,1,1,0,1
3,15,2,0,5324,2,4,1,1,0,4,3,35,2,2,1,2,1,0,0,1
1,48,2,0,6560,1,3,3,2,0,2,1,24,2,1,1,2,1,0,0,2
1,12,0,3,2969,0,1,4,1,0,3,1,25,2,0,2,2,1,0,0,2
1,9,2,4,1206,0,4,4,1,0,4,0,25,2,1,1,2,1,0,0,1
1,9,2,4,2118,0,2,2,2,0,2,0,37,2,1,1,1,2,0,0,1
0,6,1,7,1198,0,4,4,1,0,4,3,35,2,2,1,2,1,0,0,2
3,21,2,1,2476,4,4,4,2,0,4,0,46,2,1,1,3,1,1,0,1
3,30,4,1,7596,4,4,1,2,0,4,2,63,2,1,2,2,1,0,0,1
0,12,2,0,1228,0,2,4,1,0,2,0,24,2,1,1,1,1,0,0,2
1,9,2,4,790,2,2,4,1,0,3,0,66,2,1,1,1,1,0,0,1
3,6,4,0,250,3,2,2,1,0,2,0,41,0,1,2,1,1,0,0,1
0,18,2,4,1882,0,2,4,1,0,4,2,25,0,0,2,2,1,0,0,2
1,48,1,9,6416,0,4,4,1,0,3,3,59,2,0,1,2,1,0,0,2
0,24,2,4,1987,0,2,2,2,0,4,0,21,2,0,1,1,2,0,0,2
1,8,2,4,760,0,3,4,1,2,2,0,44,2,1,1,1,1,0,0,1
3,24,2,1,2603,3,2,2,1,0,4,2,28,2,0,1,2,1,1,0,1
3,4,4,0,3380,0,3,1,1,0,1,0,37,2,1,1,2,2,0,0,1
0,18,2,0,4380,1,2,3,2,0,4,2,35,2,1,1,1,2,1,0,1
1,30,0,9,4280,1,2,4,1,0,4,2,26,2,0,2,1,1,0,0,2
1,10,1,4,1048,0,2,4,2,0,4,0,23,1,1,1,1,1,0,0,1
0,39,4,3,14179,4,3,4,2,0,4,1,30,2,1,2,3,1,1,0,1
0,15,2,0,2511,0,0,1,1,0,4,2,23,2,0,1,2,1,0,0,1
0,12,2,0,1274,0,1,3,1,0,1,0,37,2,1,1,1,1,0,0,2
0,6,2,3,428,0,4,2,1,0,1,1,49,0,1,1,2,1,1,0,1
2,6,4,0,1299,0,2,1,2,0,1,0,74,2,1,3,0,2,0,1,1
2,15,4,4,1271,4,2,3,2,0,4,3,39,2,2,2,2,1,1,0,2
3,15,4,0,5045,4,4,1,1,0,4,2,59,2,1,1,2,1,1,0,1
0,18,4,3,2124,0,2,4,1,0,4,0,24,2,0,2,2,1,0,0,2
0,12,2,4,2214,0,2,4,2,0,3,1,24,2,1,1,1,1,0,0,1
1,12,2,4,1155,0,4,3,3,2,3,0,40,0,1,2,1,1,0,0,1
0,30,2,3,3108,0,1,2,0,0,4,1,31,2,1,1,1,1,0,0,2
3,12,4,4,1655,0,4,2,2,0,4,0,63,2,1,2,1,1,1,0,1
0,36,4,7,8065,0,2,3,1,0,2,3,25,2,1,2,3,1,1,0,2
3,36,4,0,3535,0,3,4,2,0,4,2,37,2,1,2,2,1,1,0,1
0,18,2,4,3509,0,3,4,1,2,1,0,25,2,1,1,2,1,0,0,1
1,18,2,6,3872,0,0,2,1,0,4,2,67,2,1,1,2,1,1,0,1
1,39,4,4,4933,0,3,2,2,2,2,0,25,2,1,2,2,1,0,0,2
3,24,4,0,1940,3,4,4,2,0,4,0,60,2,1,1,2,1,1,0,1
1,12,2,0,836,1,1,4,1,0,2,1,23,0,1,1,1,1,0,0,2
1,20,2,1,6468,4,0,1,0,0,4,0,60,2,1,1,3,1,1,0,1
1,21,2,9,1188,0,4,2,1,0,4,1,39,2,1,1,2,2,0,0,2
3,6,4,3,1221,4,2,1,3,0,2,1,27,2,1,2,2,1,0,0,1
3,9,2,3,2301,1,1,2,1,0,4,1,22,2,0,1,2,1,0,0,1
3,12,4,3,1258,0,1,2,1,0,4,1,22,2,0,2,1,1,0,0,1
3,24,3,0,717,4,4,4,3,0,4,2,54,2,1,2,2,1,1,0,1
1,9,2,0,1549,4,1,4,2,0,2,0,35,2,1,1,0,1,0,0,1
3,24,4,7,1597,0,4,4,2,0,4,3,54,2,2,2,2,2,0,0,1
3,12,4,4,976,4,4,4,2,0,4,2,35,2,1,2,2,1,0,0,1
3,12,4,4,930,4,4,4,2,0,4,0,65,2,1,4,2,1,0,0,1
1,15,0,0,1778,0,1,2,1,0,1,0,26,2,0,2,0,1,0,0,2
1,6,2,4,484,0,3,3,3,2,3,0,28,0,1,1,1,1,0,0,1
0,48,2,0,3931,0,3,4,2,0,4,3,46,2,2,1,2,2,0,0,2
1,36,3,0,7432,0,2,2,1,0,2,1,54,2,0,1,2,1,0,0,1
3,6,2,5,1338,2,2,1,0,0,4,0,62,2,1,1,2,1,0,0,1
3,6,4,4,1554,0,3,1,1,0,2,2,24,2,0,2,2,1,1,0,1
0,36,2,2,15857,0,0,2,0,1,3,2,43,2,1,1,3,1,0,0,1
3,12,2,0,1101,0,2,3,3,0,2,0,27,2,1,2,2,1,1,0,1
2,12,2,4,3016,0,2,3,3,0,1,2,24,2,1,1,2,1,0,0,1
0,36,2,3,2712,0,4,2,2,0,2,1,41,0,1,1,2,2,0,0,2
0,21,4,0,1602,0,4,4,3,0,3,2,30,2,1,2,2,1,1,0,1
3,18,0,9,4165,0,2,2,2,0,2,2,36,1,1,2,2,2,0,0,2
0,36,2,1,8335,4,4,3,2,0,4,3,47,2,2,1,2,1,0,0,2
0,45,0,9,11816,0,4,2,2,0,4,2,29,2,0,2,2,1,0,0,2
2,15,2,4,2327,0,1,2,1,0,3,0,25,2,1,1,1,1,0,0,2
0,24,4,1,2957,0,4,4,2,0,4,1,63,2,1,2,2,1,1,0,1
3,24,4,4,2611,0,4,4,3,1,3,0,46,2,1,2,2,1,0,0,1
3,18,2,6,1943,0,1,4,1,0,4,0,23,2,1,1,2,1,0,0,2
3,18,2,3,3422,0,4,4,2,0,4,1,47,0,1,3,2,2,1,0,1
3,18,2,0,6761,4,2,2,2,0,4,2,68,2,0,2,2,1,0,0,2
3,24,2,0,1474,1,1,4,3,0,3,0,33,2,1,1,2,1,1,0,1
3,15,4,3,3343,0,2,4,2,0,2,3,28,2,2,1,2,1,1,0,1
3,24,4,1,5804,3,2,4,2,0,2,0,27,2,1,2,2,1,0,0,1
0,24,2,4,2439,0,1,4,1,0,4,0,35,2,1,1,2,1,1,0,2
3,27,4,3,4526,3,1,4,2,0,2,0,32,1,1,2,1,2,1,0,1
3,15,2,3,2221,2,2,2,1,0,4,2,20,2,0,1,2,1,0,0,1
0,18,2,4,2389,0,1,4,1,0,1,2,27,1,1,1,2,1,0,0,1
3,12,4,3,3331,0,4,2,2,0,4,1,42,1,1,1,2,1,0,0,1
3,36,2,9,7409,4,4,3,2,0,2,1,37,2,1,2,2,1,0,0,1
2,6,4,0,1343,0,4,1,2,0,4,0,46,2,1,2,2,2,0,1,1
0,12,2,3,3590,0,2,2,2,1,2,1,29,2,1,1,1,2,0,0,1
0,18,1,4,1940,0,1,3,2,1,4,3,36,0,2,1,3,1,1,0,1
3,36,2,4,3595,0,4,4,2,0,2,2,28,2,1,1,2,1,0,0,1
1,30,4,0,2181,4,4,4,2,0,4,0,36,2,1,2,2,1,0,0,1
3,18,4,4,1098,0,0,4,1,0,4,2,65,2,1,2,0,1,0,0,1
1,24,2,3,4057,0,3,3,0,0,3,2,43,2,1,1,2,1,1,0,2
3,28,1,1,7824,4,1,3,2,2,4,0,40,0,0,2,2,2,1,0,1
3,15,4,4,1829,0,4,4,2,0,4,2,46,2,1,2,2,1,1,0,1
0,12,4,0,2171,0,2,4,2,0,4,1,38,0,1,2,1,1,0,1,1
3,36,3,1,8947,4,3,3,2,0,2,2,31,1,1,1,3,2,1,0,1
3,12,4,3,1592,3,3,3,1,0,2,1,35,2,1,1,2,1,0,1,1
3,15,2,3,2186,4,3,1,1,0,4,0,33,0,0,1,1,1,0,0,1
0,16,4,0,2625,0,4,2,2,2,4,1,43,0,0,1,2,1,1,0,2
3,20,4,0,3485,4,1,2,0,0,4,0,44,2,1,2,2,1,1,0,1
3,36,4,1,10477,4,4,2,2,0,4,3,42,2,2,2,2,1,0,0,1
0,21,2,0,3763,4,3,2,2,1,2,0,24,2,1,1,1,1,0,1,1
1,9,2,0,3195,4,2,1,1,0,2,0,33,2,1,1,1,1,0,0,1
3,36,3,4,4454,0,2,4,1,0,4,0,34,2,1,2,2,1,0,0,1
0,24,1,9,3161,0,2,4,2,0,2,1,31,2,0,1,2,1,1,0,2
0,6,2,0,14896,0,4,1,2,0,4,3,68,0,1,1,3,1,1,0,2
0,24,2,3,2359,1,0,1,0,0,1,1,33,2,1,1,2,1,0,0,2
3,18,4,3,1817,0,2,4,1,0,2,3,28,2,1,2,2,1,0,0,1
3,48,3,4,12749,2,3,4,2,0,1,2,37,2,1,1,3,1,1,0,1
1,12,2,0,2002,0,3,3,2,0,4,1,30,2,0,1,2,2,1,0,1
0,24,1,3,6872,0,1,2,0,0,1,1,55,0,1,1,2,1,1,0,2
0,12,1,0,697,0,1,4,2,0,2,2,46,0,1,2,2,1,1,0,2
0,18,4,3,1049,0,1,4,1,0,4,1,21,2,0,1,2,1,0,0,1
3,9,4,0,1224,0,2,3,2,0,1,0,30,2,1,2,2,1,0,0,1
3,12,4,4,522,2,4,4,2,0,4,1,42,2,1,2,2,2,1,0,1
0,12,2,4,1498,0,2,4,1,0,1,2,23,0,1,1,2,1,0,0,1
2,9,2,4,745,0,2,3,1,0,2,0,28,2,1,1,1,1,0,0,2
1,6,2,4,2063,0,1,4,3,0,3,2,30,2,0,1,3,1,1,0,1
3,12,2,0,3527,4,1,2,2,0,3,1,45,2,1,1,3,2,1,0,1
3,10,2,0,1546,0,2,3,2,0,2,0,31,2,1,1,1,2,0,1,1
3,12,2,0,2859,4,0,4,2,0,4,3,38,2,1,1,3,1,1,0,1
1,18,4,9,3590,0,0,3,3,0,3,2,40,2,1,3,0,2,1,0,1
0,36,3,9,2145,0,3,2,2,0,1,2,24,2,1,2,2,1,1,0,2
2,30,4,4,3656,4,4,4,2,0,4,1,49,1,1,2,1,1,0,0,1
1,30,2,4,1715,4,2,4,1,0,1,2,26,2,1,1,2,1,0,0,1
3,15,2,4,3568,0,4,4,1,0,2,2,54,0,0,1,3,1,1,0,1
3,42,2,4,7166,4,3,2,3,0,4,1,29,2,0,1,2,1,1,0,1
0,11,4,0,3939,0,2,1,2,0,2,0,40,2,1,2,1,2,0,0,1
3,24,2,0,7393,0,2,1,2,0,4,1,43,2,1,1,1,2,0,0,1
0,60,2,9,7297,0,4,4,2,1,4,3,36,2,0,1,2,1,0,0,2
1,6,2,4,753,0,2,2,1,2,3,0,64,2,1,1,2,1,0,0,1
0,36,2,1,8229,0,2,2,2,0,2,1,26,2,1,1,2,2,0,0,2
0,15,4,3,1433,0,2,4,1,0,3,1,25,2,0,2,2,1,0,0,1
2,42,0,9,6289,0,1,2,0,0,1,1,33,2,1,2,2,1,0,0,1
1,24,4,4,1743,0,4,4,2,0,2,1,48,2,1,2,1,1,0,0,1
0,36,2,3,3959,0,0,4,2,0,3,1,30,2,1,1,3,1,1,0,1
3,12,2,0,2390,4,4,4,2,0,3,2,50,2,1,1,2,1,1,0,1
0,45,2,4,1845,0,2,4,2,0,4,3,23,2,2,1,2,1,1,0,2
1,45,4,1,4576,1,0,3,2,0,4,2,27,2,1,1,2,1,0,0,1
0,24,4,0,1199,0,4,4,2,0,4,2,60,2,1,2,1,1,0,0,2
3,24,2,4,3430,2,4,3,2,0,2,2,31,2,1,1,2,2,1,0,1
3,12,4,9,1264,4,4,4,2,0,4,3,57,2,0,1,1,1,0,0,1
1,36,0,9,1953,0,4,4,2,0,4,3,61,2,2,1,3,1,1,0,2
3,12,2,4,2171,0,1,2,1,0,2,2,29,0,1,1,2,1,0,0,1
0,24,2,2,1755,0,4,4,1,2,4,0,58,2,1,1,1,1,1,0,1
0,12,0,6,1108,0,3,4,2,0,3,0,28,2,1,2,2,1,0,0,2
1,12,2,4,766,2,2,4,2,0,3,0,66,2,1,1,1,1,0,0,2
3,6,2,3,2978,2,2,1,2,0,2,2,32,2,1,1,2,1,1,0,1
3,24,2,3,3972,0,3,2,1,0,4,1,25,2,0,1,2,1,1,0,1
3,36,3,9,9572,0,1,1,0,0,1,2,28,2,1,2,2,1,0,0,2
1,18,0,3,3244,0,2,1,1,0,4,2,33,0,1,2,2,1,1,0,1
0,12,2,8,902,0,3,4,3,0,4,1,21,2,0,1,2,1,0,0,2
3,15,2,1,4657,0,2,3,2,0,2,2,30,2,1,1,2,1,1,0,1
3,9,2,4,1478,0,3,4,2,0,2,2,22,2,1,1,2,1,0,0,2
3,9,2,0,2507,2,4,2,2,0,4,3,51,2,2,1,1,1,0,0,1
3,12,4,9,1185,0,2,3,1,0,2,0,27,2,1,2,2,1,0,0,1
1,48,1,0,12169,4,0,4,2,1,4,3,36,2,2,1,3,1,1,0,1
0,12,2,3,1262,4,4,2,0,0,4,1,49,2,1,1,1,1,1,0,1
3,24,2,4,1901,1,2,4,2,0,4,2,29,2,0,1,3,1,1,0,1
1,21,4,3,2745,3,3,3,2,0,2,2,32,2,1,2,2,1,1,0,1
0,12,0,4,6199,0,2,4,2,0,2,1,28,2,0,2,2,1,1,0,2
1,60,1,2,14782,1,4,3,1,0,4,3,60,0,2,2,3,1,1,0,2
2,12,2,0,1330,0,1,4,2,0,1,0,26,2,1,1,2,1,0,0,1
1,15,4,9,2326,2,2,2,2,0,4,2,27,0,1,1,2,1,0,0,1
3,9,2,9,1449,0,3,3,1,0,2,2,27,2,1,2,2,1,0,0,1
1,12,4,0,958,0,3,2,2,0,3,0,47,2,1,2,1,2,0,0,1
1,48,4,3,5096,0,2,2,1,0,3,2,30,2,1,1,3,1,1,0,2
0,6,2,7,448,0,1,4,1,0,4,1,23,2,1,1,2,1,0,0,2
3,12,2,4,3077,0,2,2,2,0,4,2,52,2,1,1,2,1,1,0,1
3,6,2,0,3518,0,2,2,2,2,3,1,26,2,0,1,2,1,0,0,1
0,36,2,1,5493,0,4,2,2,0,4,3,42,2,2,1,2,2,0,0,1
0,6,4,0,609,0,3,4,1,0,3,1,37,2,1,2,2,1,0,1,1
3,6,4,4,700,4,4,4,2,0,4,3,36,2,2,2,2,1,0,0,1
1,18,2,4,1113,0,2,4,1,2,4,0,26,2,1,1,1,2,0,0,1
0,24,3,0,1333,0,0,4,2,0,2,0,43,2,2,2,2,2,0,0,2
3,15,4,3,2788,0,3,2,1,1,3,2,24,0,1,2,2,1,0,0,1
1,24,0,9,4241,0,2,1,2,0,4,0,36,2,1,3,1,1,1,0,2
2,10,2,3,1275,0,1,4,1,0,2,1,23,2,1,1,2,1,0,0,1
0,24,2,4,3660,0,2,2,1,0,4,2,28,2,1,1,2,1,0,0,1
3,24,4,1,2346,0,3,4,2,0,3,2,35,2,1,2,2,1,1,0,1
2,6,4,7,1047,0,2,2,1,0,4,1,50,2,1,1,1,1,0,0,1
0,12,4,0,4843,0,4,3,2,1,4,1,43,2,0,2,2,1,1,0,2
3,18,2,4,1505,0,2,4,2,0,2,3,32,2,2,1,3,1,1,0,1
1,20,0,1,6148,1,4,3,3,0,4,2,31,0,1,2,2,1,1,0,1
3,15,4,4,1316,2,2,2,3,0,2,1,47,2,1,2,1,1,0,0,1
1,36,1,5,3990,4,1,3,1,0,2,3,29,0,1,1,0,1,0,0,1
3,21,2,4,3160,4,4,4,2,0,3,1,41,2,1,1,2,1,1,0,1
1,12,4,3,3617,0,4,1,2,0,4,2,28,2,0,3,2,1,1,0,1
3,22,2,4,2675,2,4,3,2,0,4,2,40,2,1,1,2,1,0,0,1
1,48,0,2,18424,0,2,1,1,0,2,1,32,0,1,1,3,1,1,1,2
0,24,2,3,3345,0,4,4,2,0,2,1,39,2,0,1,3,1,1,0,2
1,30,3,4,1919,1,1,4,2,0,3,3,30,1,1,2,3,1,0,0,2
3,24,2,4,3621,1,4,2,2,0,4,2,31,2,1,2,2,1,0,0,2
