Age,Year,Positive,TARGET
38,59,2,0
39,63,4,0
47,68,4,0
45,66,0,1
61,65,8,0
64,68,0,0
44,61,0,0
55,58,1,0
55,66,18,0
43,63,14,0
37,59,6,0
42,60,1,0
63,60,1,1
59,64,4,0
68,67,0,0
54,59,7,0
77,65,3,0
60,61,1,0
35,64,13,0
39,58,0,0
53,58,4,1
61,68,0,0
50,64,0,0
52,62,0,0
42,63,1,0
46,62,0,0
49,61,1,0
38,66,0,0
51,64,7,0
50,63,13,1
49,60,1,0
62,66,0,0
67,66,0,0
53,61,1,0
50,64,0,1
55,58,1,0
54,66,0,0
70,59,8,0
62,58,0,0
65,64,0,0
59,67,3,0
52,60,4,0
67,66,0,0
45,67,1,1
30,64,1,0
42,59,0,1
62,58,0,1
65,61,2,1
57,64,0,0
53,59,3,1
62,59,13,1
41,67,0,1
41,60,23,1
57,64,0,0
44,67,16,0
37,58,0,0
38,62,3,0
52,68,0,0
44,58,9,1
49,67,1,0
56,66,2,0
47,58,3,0
63,63,0,0
47,66,12,0
48,67,7,1
74,63,0,0
36,60,1,0
34,59,0,1
72,63,0,1
57,62,0,0
45,67,0,0
60,61,25,0
65,59,2,0
52,59,2,1
46,65,20,1
51,59,1,0
52,64,0,0
48,64,0,0
34,67,7,0
58,67,0,0
54,65,23,1
46,63,0,0
36,69,0,0
57,62,14,1
58,60,3,0
57,69,0,0
50,65,4,0
41,69,8,0
49,62,0,0
66,58,0,0
57,61,0,0
42,69,1,1
51,59,13,1
50,58,1,0
37,63,0,0
59,62,35,1
45,64,0,0
49,63,0,1
53,60,1,0
39,67,0,0
40,58,0,0
65,66,15,1
59,64,0,0
72,64,0,0
64,61,0,0
45,59,14,0
39,63,0,0
48,66,0,0
72,58,0,0
67,64,8,1
48,58,11,1
47,62,0,1
59,64,1,0
55,67,1,0
43,64,0,1
50,61,6,0
44,64,6,1
65,58,0,0
69,66,0,0
47,67,0,0
46,69,3,1
65,67,1,0
34,60,1,0
75,62,1,0
33,60,0,0
52,63,4,0
45,65,6,1
60,64,0,0
56,66,3,1
56,60,0,0
78,65,1,1
43,65,0,0
47,65,0,1
43,60,0,0
61,59,0,0
41,59,8,0
37,63,0,0
50,63,1,0
61,64,0,0
61,65,0,1
54,60,3,0
50,61,0,0
61,59,0,0
63,66,0,0
43,58,52,1
52,69,3,1
58,58,0,0
54,58,1,0
47,66,0,0
44,63,19,1
55,66,0,0
43,64,2,0
52,66,4,1
