Age,Year,Positive,TARGET
47,68,4,0
64,58,0,0
45,66,0,1
61,65,8,0
64,68,0,0
54,62,0,0
44,61,0,0
55,58,1,0
37,59,6,0
42,60,1,0
34,60,0,0
43,63,2,0
63,60,1,1
59,64,4,0
63,61,0,0
68,67,0,0
54,59,7,0
60,61,1,0
58,59,0,0
39,58,0,0
69,67,8,1
73,68,0,0
30,65,0,0
50,64,0,0
45,60,0,0
46,62,0,0
55,69,3,0
74,65,3,1
51,64,7,0
70,58,0,1
49,60,1,0
55,58,0,0
40,58,2,0
67,66,0,0
56,65,9,1
50,64,0,1
51,66,1,0
55,58,1,0
41,65,0,0
30,62,3,0
59,64,7,0
67,66,0,0
45,67,1,1
51,65,0,0
42,59,0,1
62,58,0,1
65,61,2,1
57,64,0,0
65,67,0,0
53,59,3,1
62,59,13,1
41,67,0,1
54,65,5,1
41,60,23,1
52,68,0,0
58,61,2,0
56,66,2,0
47,58,3,0
56,60,0,0
45,67,0,0
60,61,25,0
65,59,2,0
52,59,2,1
46,58,2,1
38,67,5,0
52,64,0,0
48,64,0,0
34,67,7,0
58,67,0,0
46,63,0,0
34,66,9,1
36,69,0,0
42,58,0,0
57,62,14,1
53,63,0,0
41,69,8,0
49,62,0,0
42,69,1,1
60,67,2,0
50,61,0,0
37,63,0,0
40,65,0,0
34,58,30,0
49,64,10,1
59,62,35,1
45,64,0,0
64,65,22,0
33,58,10,0
53,60,1,0
38,60,0,0
39,67,0,0
38,64,1,0
55,68,15,1
40,58,0,0
59,64,0,0
57,61,5,1
57,64,9,0
48,66,0,0
72,58,0,0
67,64,8,1
38,60,0,0
48,58,11,1
70,67,0,0
67,63,1,1
41,64,0,0
63,61,28,0
69,60,0,0
52,62,1,0
41,65,0,0
65,58,0,1
59,64,1,0
55,67,1,0
43,64,3,0
50,61,6,0
70,63,0,0
44,63,1,0
69,66,0,0
47,67,0,0
48,58,11,1
46,69,3,1
65,67,1,0
75,62,1,0
52,63,4,0
38,69,21,1
65,62,22,1
45,67,1,0
70,66,14,0
56,60,0,0
43,64,0,1
47,65,0,1
48,61,8,0
41,59,8,0
37,63,0,0
38,66,11,0
57,67,0,0
50,63,1,0
47,63,6,0
61,65,0,1
38,60,1,0
54,60,3,0
50,61,0,0
45,68,0,0
49,63,3,0
43,58,52,1
52,69,3,1
54,58,1,0
47,66,0,0
44,63,19,1
55,66,0,0
63,62,0,0
42,61,4,0
43,64,2,0
52,66,4,1
