Age,Sex,ChestPainType,RestBloodPressure,SerumCholestoral,FastingBloodSugar,ResElectrocardiographic,MaxHeartRate,ExerciseInduced,Oldpeak,Slope,MajorVessels,Thal,TARGET
67,0,3,115,564,0,2,160,0,16.0,2,0,7,1
64,1,4,128,263,0,0,105,1,2.0,2,1,7,1
74,0,2,120,269,0,2,121,1,2.0,1,1,3,1
65,1,4,120,177,0,0,140,0,4.0,1,0,7,1
56,1,3,130,256,1,2,142,1,6.0,2,1,6,2
59,1,4,110,239,0,2,142,1,12.0,2,1,7,2
59,1,4,135,234,0,0,161,0,5.0,2,0,7,1
53,1,4,142,226,0,2,111,1,0.0,1,0,7,1
61,1,1,134,234,0,0,145,0,26.0,2,2,3,2
57,0,4,128,303,0,2,159,0,0.0,1,1,3,1
71,0,4,112,149,0,0,125,0,16.0,2,0,3,1
46,1,4,140,311,0,0,120,1,18.0,2,2,7,2
67,1,4,120,229,0,2,129,1,26.0,2,2,7,2
48,1,2,130,245,0,2,180,0,2.0,2,0,3,1
43,1,4,115,303,0,0,181,0,12.0,2,0,3,1
46,0,4,138,243,0,2,152,1,0.0,2,0,3,1
51,0,3,120,295,0,2,157,0,6.0,1,0,3,1
57,1,3,128,229,0,2,150,0,4.0,2,1,7,2
66,1,4,160,228,0,2,138,0,23.0,1,0,6,1
48,1,4,130,256,1,2,150,1,0.0,1,2,7,2
61,1,4,140,207,0,2,138,1,19.0,1,1,7,2
40,1,4,152,223,0,0,181,0,0.0,1,0,7,2
59,1,3,126,218,1,0,134,0,22.0,2,1,6,2
49,1,3,118,149,0,2,126,0,8.0,1,3,3,2
44,1,4,110,197,0,2,177,0,0.0,1,1,3,2
42,1,4,136,315,0,0,125,1,18.0,2,0,6,2
65,0,3,140,417,1,2,157,0,8.0,1,1,3,1
45,0,2,130,234,0,2,175,0,6.0,2,0,3,1
61,1,4,138,166,0,2,125,1,36.0,2,1,3,2
62,1,2,120,281,0,2,103,0,14.0,2,1,7,2
57,1,3,150,126,1,0,173,0,2.0,1,1,7,1
44,1,3,120,226,0,0,169,0,0.0,1,0,3,1
57,1,4,150,276,0,2,112,1,6.0,2,1,6,2
44,0,3,118,242,0,0,149,0,3.0,2,1,3,1
47,1,3,108,243,0,0,152,0,0.0,1,0,3,2
61,1,4,120,260,0,0,140,1,36.0,2,1,7,2
70,1,2,156,245,0,2,143,0,0.0,1,0,3,1
45,1,4,104,208,0,2,148,1,3.0,2,0,3,1
39,0,3,94,199,0,0,179,0,0.0,1,0,3,1
58,1,4,146,218,0,0,105,0,2.0,2,1,7,2
58,1,4,150,270,0,2,111,1,8.0,1,0,7,2
57,1,4,110,201,0,0,126,1,15.0,2,0,6,1
42,1,1,148,244,0,2,178,0,8.0,1,2,3,1
41,0,2,126,306,0,0,163,0,0.0,1,0,3,1
50,1,4,150,243,0,2,128,0,26.0,2,0,7,2
59,1,2,140,221,0,0,164,1,0.0,1,0,3,1
61,0,4,130,330,0,2,169,0,0.0,1,0,3,2
54,1,4,110,206,0,2,108,1,0.0,2,1,3,2
52,1,4,125,212,0,0,168,0,1.0,1,2,7,2
64,0,3,140,313,0,0,133,0,2.0,1,0,7,1
50,0,2,120,244,0,0,162,0,11.0,1,0,3,1
67,1,4,120,237,0,0,71,0,1.0,2,0,3,2
49,0,4,130,269,0,0,163,0,0.0,1,0,3,1
60,0,4,150,258,0,2,157,0,26.0,2,2,7,2
55,0,4,180,327,0,1,117,1,34.0,2,0,3,2
42,1,2,120,295,0,0,162,0,0.0,1,0,3,1
46,1,4,120,249,0,2,144,0,8.0,1,0,7,2
56,0,4,200,288,1,2,133,1,4.0,3,2,7,2
49,1,3,120,188,0,0,139,0,2.0,2,3,7,2
65,0,3,160,360,0,2,151,0,8.0,1,0,3,1
54,1,3,125,273,0,2,152,0,5.0,3,1,3,1
54,0,3,160,201,0,0,163,0,0.0,1,1,3,1
63,0,4,108,269,0,0,169,1,18.0,2,2,3,2
64,1,4,120,246,0,2,96,1,22.0,3,1,3,2
54,1,3,150,232,0,2,165,0,16.0,1,0,7,1
46,0,3,142,177,0,2,160,1,14.0,3,0,3,1
56,1,4,125,249,1,2,144,1,12.0,2,1,3,2
57,1,4,132,207,0,0,168,1,0.0,1,0,7,1
64,1,4,145,212,0,2,132,0,2.0,2,2,6,2
59,1,4,138,271,0,2,182,0,0.0,1,0,3,1
51,1,1,125,213,0,2,125,1,14.0,1,1,3,1
54,1,2,192,283,0,2,195,0,0.0,1,1,7,2
52,1,4,112,230,0,0,160,0,0.0,1,1,3,2
54,0,3,108,267,0,2,167,0,0.0,1,0,3,1
64,0,4,130,303,0,0,122,0,2.0,2,2,3,1
46,0,2,105,204,0,0,172,0,0.0,1,0,3,1
45,1,2,128,308,0,2,170,0,0.0,1,0,3,1
66,0,4,178,228,1,0,165,1,1.0,2,2,7,2
62,0,4,150,244,0,0,154,1,14.0,2,0,3,2
55,1,2,130,262,0,0,155,0,0.0,1,0,3,1
43,1,4,110,211,0,0,161,0,0.0,1,0,7,1
50,0,4,110,254,0,2,159,0,0.0,1,0,3,1
53,1,3,130,197,1,2,152,0,12.0,3,0,3,1
65,1,1,138,282,1,2,174,0,14.0,2,1,3,2
69,1,1,160,234,1,2,131,0,1.0,2,1,3,1
67,1,4,100,299,0,2,125,1,9.0,2,2,3,2
68,0,3,120,211,0,2,115,0,15.0,2,0,3,1
62,0,4,138,294,1,0,106,0,19.0,2,3,3,2
51,1,4,140,298,0,0,122,1,42.0,2,3,7,2
46,1,3,150,231,0,0,147,0,36.0,2,0,3,2
50,1,3,129,196,0,0,163,0,0.0,1,0,3,1
41,1,4,110,172,0,2,158,0,0.0,1,0,7,2
42,0,4,102,265,0,2,122,0,6.0,2,0,3,1
56,1,4,132,184,0,2,105,1,21.0,2,1,6,2
62,0,4,140,394,0,2,157,0,12.0,2,0,3,1
70,1,3,160,269,0,0,112,1,29.0,2,1,7,2
54,1,4,140,239,0,0,160,0,12.0,1,0,3,1
35,1,4,126,282,0,2,156,1,0.0,1,0,7,2
58,0,4,100,248,0,2,122,0,1.0,2,0,3,1
69,0,1,140,239,0,0,151,0,18.0,1,2,3,1
51,1,4,140,299,0,0,173,1,16.0,1,0,7,2
55,1,4,160,289,0,2,145,1,8.0,2,1,7,2
60,0,3,102,318,0,0,160,0,0.0,1,1,3,1
58,1,3,105,240,0,2,154,1,6.0,2,0,7,1
64,1,3,125,309,0,0,131,1,18.0,2,0,7,2
59,1,1,170,288,0,2,159,0,2.0,2,0,7,2
51,1,3,125,245,1,2,166,0,24.0,2,0,3,1
43,0,3,122,213,0,0,165,0,2.0,2,0,3,1
29,1,2,130,204,0,2,202,0,0.0,1,0,3,1
41,0,2,130,204,0,2,172,0,14.0,1,0,3,1
63,0,3,135,252,0,2,172,0,0.0,1,0,3,1
44,1,2,120,220,0,0,170,0,0.0,1,0,3,1
54,1,4,110,239,0,0,126,1,28.0,2,1,7,2
41,1,2,135,203,0,0,132,0,0.0,2,0,6,1
62,0,3,130,263,0,0,97,0,12.0,2,1,7,2
52,1,1,118,186,0,2,190,0,0.0,2,0,6,1
61,0,4,145,307,0,2,146,1,1.0,2,0,7,2
45,1,4,115,260,0,2,185,0,0.0,1,0,3,1
52,1,4,128,255,0,0,161,1,0.0,1,1,7,2
53,0,4,138,234,0,2,160,0,0.0,1,0,3,1
47,1,3,138,257,0,2,156,0,0.0,1,0,3,1
68,1,3,180,274,1,2,150,1,16.0,2,0,7,2
39,1,3,140,321,0,2,182,0,0.0,1,0,3,1
51,0,3,140,308,0,2,142,0,15.0,1,1,3,1
60,1,4,130,253,0,0,144,1,14.0,1,1,7,2
65,1,4,110,248,0,2,158,0,6.0,1,2,6,2
65,0,3,155,269,0,0,148,0,8.0,1,0,3,1
60,1,3,140,185,0,2,155,0,3.0,2,0,3,2
54,1,4,120,188,0,0,113,0,14.0,2,1,7,2
44,1,2,130,219,0,2,188,0,0.0,1,0,3,1
59,1,3,150,212,1,0,157,0,16.0,1,0,3,1
43,1,4,150,247,0,0,171,0,15.0,1,0,3,1
44,1,2,120,263,0,0,173,0,0.0,1,0,7,1
56,0,2,140,294,0,2,153,0,13.0,2,0,3,1
57,1,4,140,192,0,0,148,0,4.0,2,0,6,1
