Age,Sex,Steroid,Antivirals,Fatigue,Malaise,Anorexia,LiverBig,LiverFirm,SpleenPalpable,Spiders,Ascites,Varices,Bilirubin,AlkPhosphate,Sgot,AlbuMin,ProTime,Histology,TARGET
41,1,2,1,1,2,2,2,1,2,2,2,2,0.9,81,60,3.9,52,1,2
40,1,1,2,1,2,2,2,1,2,2,2,2,0.6,62,166,4.0,63,1,2
38,1,2,2,2,2,2,2,2,2,2,2,2,0.7,53,42,4.1,85,2,2
38,1,1,1,2,2,2,1,1,2,2,2,2,0.7,70,28,4.2,62,1,2
27,1,2,2,1,1,1,1,1,1,1,2,2,1.2,133,98,4.1,39,1,2
25,2,1,1,2,2,2,2,2,2,2,2,2,0.4,45,18,4.3,70,1,2
27,1,1,2,1,1,2,2,2,2,2,2,2,0.8,95,46,3.8,100,1,2
39,1,1,1,1,1,2,2,1,2,2,2,2,2.3,280,98,3.8,40,1,1
26,2,1,2,2,2,2,2,1,2,2,2,2,0.5,135,29,3.8,60,1,2
23,1,2,2,1,1,1,2,2,1,2,2,2,1.3,194,150,4.1,90,1,2
42,1,1,2,2,2,2,2,2,2,2,2,2,1.0,85,14,4.0,100,1,2
33,1,2,2,2,2,2,2,2,2,2,2,2,1.0,46,90,4.4,60,1,2
56,1,1,2,1,2,2,2,2,2,2,2,2,0.7,71,18,4.4,100,1,2
36,1,1,2,2,2,2,2,2,1,2,2,2,0.8,85,44,4.2,85,1,2
40,1,2,1,1,2,2,2,1,1,2,2,2,1.2,85,31,4.0,100,1,2
30,1,2,1,2,2,2,2,2,2,2,2,2,0.7,52,38,3.9,52,1,2
32,1,2,2,2,2,2,2,2,2,2,2,2,0.7,102,64,4.0,90,1,2
36,1,1,2,2,2,2,1,1,1,2,2,2,0.7,164,44,3.1,41,1,2
49,1,2,2,1,1,2,2,2,2,2,2,2,0.8,103,43,3.5,66,1,2
32,1,1,1,1,1,2,2,2,2,2,2,2,1.0,55,45,4.1,56,1,2
34,1,1,2,1,2,2,1,1,2,1,2,2,1.0,72,46,4.4,57,1,2
36,1,2,2,2,2,2,2,2,2,2,2,2,0.7,62,224,4.2,100,1,2
30,1,1,2,2,2,2,2,2,2,2,2,2,0.7,100,31,4.0,100,1,2
62,2,2,2,1,1,2,2,1,2,1,2,2,1.3,141,156,3.9,58,1,2
38,1,1,2,1,1,1,1,1,2,2,2,2,0.6,76,18,4.4,84,2,2
50,2,1,2,1,2,2,1,1,1,1,2,2,0.9,230,117,3.4,41,2,2
47,1,2,2,2,2,2,2,2,2,1,2,1,2.0,84,23,4.2,66,2,1
51,1,1,2,1,1,1,2,1,1,1,2,1,4.6,215,269,3.9,51,2,2
47,1,2,2,1,1,2,2,1,2,2,1,1,1.7,86,20,2.1,46,2,1
33,1,1,2,1,1,2,2,2,2,2,1,2,0.7,63,80,3.0,31,2,1
34,2,2,2,1,1,1,1,1,2,1,2,2,0.7,70,24,4.1,100,2,2
50,1,2,2,1,2,2,2,1,1,2,1,1,2.8,155,75,2.4,32,2,1
54,1,1,2,1,1,2,2,2,2,2,1,2,1.2,85,92,3.1,66,2,2
54,1,2,2,2,2,2,2,2,2,2,2,2,1.0,85,30,4.5,0,2,2
72,1,2,1,1,2,2,2,1,2,2,2,2,1.0,115,52,3.4,50,2,2
38,1,1,2,2,2,2,2,1,2,2,2,2,0.4,243,49,3.8,90,2,1
25,1,2,2,1,2,2,1,1,1,1,1,1,1.3,181,181,4.5,57,2,2
47,1,2,2,1,1,2,2,1,2,1,1,1,1.0,166,30,2.6,31,2,1
45,1,2,1,2,2,2,2,2,2,2,2,2,1.3,85,44,4.2,85,2,2
31,1,1,2,1,2,2,2,2,2,2,2,2,1.2,75,173,4.2,54,2,2
