Age,Sex,Steroid,Antivirals,Fatigue,Malaise,Anorexia,LiverBig,LiverFirm,SpleenPalpable,Spiders,Ascites,Varices,Bilirubin,AlkPhosphate,Sgot,AlbuMin,ProTime,Histology,TARGET
38,1,1,2,1,1,1,2,2,2,2,1,2,2.0,72,89,2.9,46,1,2
40,1,1,2,1,2,2,2,1,2,2,2,2,0.6,62,166,4.0,63,1,2
38,1,2,2,2,2,2,2,2,2,2,2,2,0.7,53,42,4.1,85,2,2
42,1,2,2,2,2,2,2,2,2,2,2,2,0.9,60,63,4.7,47,1,2
27,1,1,2,1,1,2,2,2,2,2,2,2,0.8,95,46,3.8,100,1,2
58,2,2,2,1,2,2,2,1,2,1,2,2,1.4,175,55,2.7,36,1,2
61,1,1,2,1,2,2,1,1,2,2,2,2,1.3,78,25,3.8,100,1,2
39,1,1,1,1,1,2,2,1,2,2,2,2,2.3,280,98,3.8,40,1,1
41,2,2,1,1,1,1,2,2,2,2,2,2,0.7,81,53,5.0,74,1,2
26,2,1,2,2,2,2,2,1,2,2,2,2,0.5,135,29,3.8,60,1,2
35,1,2,2,1,2,2,2,2,2,2,2,2,0.9,58,92,4.3,73,1,2
23,1,2,2,1,1,1,2,2,1,2,2,2,1.3,194,150,4.1,90,1,2
65,1,2,2,1,1,2,2,1,1,1,1,2,0.3,180,53,2.9,74,2,2
33,1,2,2,2,2,2,2,2,2,2,2,2,1.0,46,90,4.4,60,1,2
56,1,1,2,1,2,2,2,2,2,2,2,2,0.7,71,18,4.4,100,1,2
28,2,2,2,1,1,2,2,1,2,2,2,2,1.8,191,420,3.3,46,1,2
36,1,1,2,2,2,2,2,2,1,2,2,2,0.8,85,44,4.2,85,1,2
38,1,2,1,1,1,1,2,2,2,1,2,2,0.7,125,65,4.2,77,1,2
44,1,2,2,2,2,2,2,2,2,2,2,2,0.6,110,145,4.4,70,1,2
40,1,2,1,1,2,2,2,1,1,2,2,2,1.2,85,31,4.0,100,1,2
32,1,2,2,1,1,1,2,2,2,1,2,1,3.5,215,54,3.4,29,1,2
49,1,2,2,1,1,2,2,2,2,2,2,2,0.8,103,43,3.5,66,1,2
39,1,2,2,1,2,2,2,2,2,2,2,2,1.0,34,15,4.0,54,1,2
32,1,1,1,1,1,2,2,2,2,2,2,2,1.0,55,45,4.1,56,1,2
34,1,1,2,1,2,2,1,1,2,1,2,2,1.0,72,46,4.4,57,1,2
28,1,1,2,1,1,1,2,1,2,2,2,2,1.6,44,123,4.0,46,1,2
50,2,1,2,1,2,2,1,1,1,1,2,2,0.9,230,117,3.4,41,2,2
59,1,1,2,1,1,2,2,1,1,1,2,2,1.5,107,157,3.6,38,2,1
48,1,1,2,1,1,2,2,1,2,1,1,1,4.8,123,157,2.7,31,2,1
27,1,1,2,1,2,2,2,1,2,2,2,2,2.4,168,227,3.0,66,2,2
51,1,1,2,1,1,1,2,1,1,1,2,1,4.6,215,269,3.9,51,2,2
47,1,2,2,1,1,2,2,1,2,2,1,1,1.7,86,20,2.1,46,2,1
33,1,1,2,1,1,2,2,2,2,2,1,2,0.7,63,80,3.0,31,2,1
50,1,2,2,2,2,2,2,2,2,2,2,2,1.0,139,81,3.9,62,2,2
20,1,1,2,1,1,1,2,2,2,1,1,2,1.0,160,118,2.9,23,2,2
50,1,2,2,2,2,2,2,1,1,1,2,2,1.0,85,75,4.0,72,2,2
54,1,2,2,2,2,2,2,2,2,2,2,2,1.0,85,30,4.5,0,2,2
38,1,2,2,2,2,2,2,1,2,1,2,1,1.6,130,140,3.5,56,2,2
47,1,2,2,1,1,2,2,1,2,1,1,1,1.0,166,30,2.6,31,2,1
31,1,1,2,1,2,2,2,2,2,2,2,2,1.2,75,173,4.2,54,2,2
