"Handicapped_infants{y,n}","Water_project_cost{y,n}","Adoption_budget_resolution{y,n}","Physician_fee_freeze{y,n}","El_salvador_aid{y,n}","Religious_groups_in_schools{y,n}","Anti_satellite_test_ban{y,n}","Aid_to_nicaraguan_contras{y,n}","Mx_missile{y,n}","Immigration{y,n}","Synfuels_corporation_cutback{y,n}","Education_spending{y,n}","Superfund_right_to_sue{y,n}","Crime{y,n}","Duty_free_exports{y,n}","Export_south_africa{y,n}",TARGET
0,1,0,1,1,1,0,0,0,0,0,1,1,1,0,1,1
1,1,1,0,0,0,1,1,1,0,1,0,0,0,1,1,0
1,1,1,0,0,0,1,1,1,0,0,0,0,0,1,1,0
1,0,1,0,0,0,1,1,1,1,0,0,0,0,1,1,0
1,0,1,0,0,0,1,1,1,0,1,0,0,0,1,1,0
1,0,0,1,1,0,1,1,1,0,0,1,1,1,0,1,1
0,1,0,1,1,1,0,0,0,0,0,1,1,1,0,0,1
1,1,1,0,0,0,1,1,1,1,0,0,1,0,1,1,0
0,1,0,1,1,1,0,0,0,0,0,1,1,1,0,1,1
0,1,0,1,1,1,0,0,0,0,0,1,1,1,0,0,1
1,0,1,0,0,0,1,1,1,1,1,0,1,0,1,1,0
1,0,1,0,0,0,1,1,1,0,0,0,0,0,0,1,0
1,0,1,0,0,0,1,1,1,0,0,0,0,0,1,1,0
1,1,1,0,0,0,1,1,0,0,0,0,0,1,0,1,0
1,1,0,1,1,1,0,0,0,1,0,1,1,1,0,0,1
0,1,0,1,1,1,0,0,0,1,0,1,1,1,0,1,1
0,1,0,1,1,1,1,0,0,0,1,1,1,1,0,1,1
1,1,1,0,0,0,1,1,1,0,0,0,0,0,1,1,0
1,0,1,1,1,0,1,0,1,1,0,0,1,1,0,1,1
1,0,1,0,0,1,1,1,1,1,1,0,0,1,1,1,0
0,1,1,1,1,1,0,0,0,1,1,0,1,1,0,0,0
0,1,1,1,1,1,0,1,1,1,1,1,1,1,0,1,0
0,0,0,1,1,0,0,0,0,1,0,1,1,1,0,0,1
0,0,0,1,1,1,0,0,0,1,0,1,1,1,0,1,1
0,0,0,1,1,1,0,0,0,0,0,1,1,1,0,0,1
0,0,1,0,1,1,0,0,0,1,1,1,1,1,0,1,0
0,0,0,1,1,1,0,0,0,1,0,1,1,1,0,0,1
0,1,1,0,1,1,1,0,1,1,1,0,1,1,0,1,0
1,0,1,0,0,0,1,1,1,1,0,0,0,0,1,1,0
1,1,1,0,0,1,1,1,1,1,0,0,0,0,0,1,0
1,0,1,0,1,1,1,0,0,0,1,0,0,1,0,1,0
1,1,1,0,0,0,0,1,1,0,1,0,0,0,1,1,0
0,1,0,1,1,1,0,0,0,0,0,1,1,1,0,1,1
1,0,1,0,0,0,1,1,1,0,1,0,0,0,1,1,0
1,1,1,1,1,0,1,0,0,0,0,1,1,1,0,1,1
0,0,0,1,1,1,0,0,0,0,0,1,1,1,0,0,1
0,0,0,1,1,1,0,0,0,1,0,1,1,1,0,1,1
0,1,0,1,1,1,0,0,0,1,1,1,1,0,0,1,1
1,0,1,0,0,1,1,1,1,0,0,0,0,0,1,1,0
0,0,0,1,1,1,1,1,1,1,0,1,1,1,0,1,1
0,1,0,1,1,1,0,0,0,0,0,1,1,1,0,1,1
0,1,0,1,1,1,0,0,0,1,1,1,1,1,0,1,1
1,1,0,1,1,1,0,0,0,1,0,1,1,1,0,1,1
0,0,1,0,0,1,1,1,1,1,1,0,1,1,0,1,0
0,1,0,0,1,1,0,0,0,0,0,1,1,1,1,1,0
0,0,0,0,1,1,1,0,0,0,0,1,1,1,0,1,0
1,0,1,1,1,1,1,1,0,1,0,1,0,1,1,1,1
0,1,1,0,0,0,1,1,1,1,0,0,0,0,1,1,0
1,0,1,0,0,0,1,1,1,1,0,0,0,0,1,1,0
0,0,1,0,0,0,1,1,1,1,1,0,0,0,1,1,0
0,1,1,0,0,0,1,1,1,1,1,0,0,0,1,1,0
0,0,0,0,0,1,1,1,1,0,1,0,0,1,1,1,0
0,0,1,0,0,0,1,1,1,0,0,0,0,1,1,1,0
1,1,1,0,0,0,1,1,1,1,1,0,0,0,0,1,0
0,0,1,0,0,1,1,1,1,0,0,0,0,0,1,1,0
0,0,1,0,0,0,1,1,1,0,1,0,0,0,1,1,0
1,1,0,1,1,1,0,0,0,1,0,1,1,1,0,1,1
0,1,0,1,1,1,0,0,0,1,0,1,1,1,0,0,1
0,1,1,0,0,0,0,1,1,0,1,0,0,1,1,1,0
0,1,1,1,1,1,1,0,1,1,0,1,1,1,0,1,1
0,1,0,1,1,1,0,0,1,1,0,1,1,1,0,1,1
0,1,0,1,1,1,0,0,0,1,0,1,1,1,0,1,1
0,0,0,1,1,1,0,0,0,1,0,1,0,1,0,1,1
1,0,1,0,0,1,1,1,0,0,0,1,1,0,0,1,0
1,0,1,0,0,0,1,1,1,1,1,0,0,1,1,1,0
1,0,1,0,0,0,0,1,1,1,0,0,0,0,1,1,0
1,0,1,0,0,0,1,1,1,1,1,0,0,0,1,1,0
0,1,0,1,1,1,0,0,0,0,0,1,1,1,0,0,1
0,1,0,1,1,1,0,0,0,0,0,1,1,1,0,0,1
1,1,1,0,0,1,1,1,1,0,0,0,0,0,1,1,0
0,1,0,1,1,1,0,0,0,0,0,1,1,1,0,1,1
1,0,1,0,0,0,1,1,1,1,0,0,0,0,0,1,0
0,0,1,0,0,0,1,1,1,0,1,0,0,0,1,1,0
1,0,1,0,0,0,1,1,1,0,0,0,0,0,0,1,0
1,0,0,0,0,0,1,1,1,1,0,0,0,1,0,1,1
0,0,0,1,1,1,0,0,0,1,0,1,1,1,0,0,1
0,0,1,0,0,0,1,1,1,1,0,0,0,1,0,1,0
0,0,0,1,1,1,0,0,0,0,0,1,1,1,0,1,1
1,1,1,0,0,1,1,1,1,1,1,0,1,1,1,1,0
0,0,1,1,1,1,0,0,0,1,0,1,1,1,1,1,1
0,0,0,1,1,0,1,1,1,1,0,1,1,1,0,1,1
0,0,0,1,1,1,1,0,0,1,0,1,1,1,0,1,1
1,0,0,0,0,1,1,1,1,1,0,0,0,1,1,1,0
0,0,0,1,1,1,0,0,0,1,0,1,1,1,1,0,1
0,0,1,0,0,1,1,1,1,1,0,0,1,0,0,1,0
1,1,1,0,0,0,1,1,1,1,0,0,0,0,1,1,0
0,1,0,1,1,1,1,1,0,0,1,1,1,1,1,1,1
0,0,0,0,0,1,0,1,1,0,1,1,1,1,1,0,0
0,1,1,0,0,1,0,1,1,1,0,0,1,1,0,1,0
0,1,0,1,1,1,0,0,0,0,0,1,1,1,0,1,1
1,1,1,0,0,0,1,1,1,0,1,0,0,0,0,1,0
0,1,0,1,1,1,0,0,0,1,0,1,1,1,0,0,1
1,0,1,0,0,0,1,1,1,1,0,0,0,1,1,1,0
0,0,0,1,1,1,0,0,0,1,0,1,1,1,0,1,1
0,0,1,1,1,1,1,1,1,1,0,1,1,1,1,1,1
0,0,1,1,1,1,1,0,0,1,1,1,1,1,0,1,1
0,0,0,1,1,1,0,0,0,0,0,1,1,1,0,0,1
1,1,0,1,1,1,0,0,0,1,1,0,1,0,0,0,1
1,1,0,1,1,1,0,0,0,0,1,0,1,1,0,1,1
0,1,0,0,1,1,0,0,0,1,1,0,1,1,0,0,0
0,1,1,0,0,1,1,1,0,1,0,0,0,0,1,1,0
0,0,0,1,1,1,0,0,0,0,0,1,1,1,0,1,1
1,1,0,1,1,1,0,0,0,0,1,1,1,1,0,1,1
1,1,0,1,1,1,0,0,0,1,0,1,1,1,0,1,1
1,0,1,0,1,1,0,0,1,1,0,0,1,1,0,1,0
1,0,1,0,0,1,1,1,1,1,1,0,0,0,0,1,0
0,0,0,1,1,1,0,0,0,1,0,1,1,1,0,1,1
1,1,1,0,0,0,1,1,1,0,0,0,0,0,0,1,0
1,1,1,0,0,0,1,1,1,1,1,0,1,0,0,1,0
1,1,1,0,0,0,1,1,0,1,0,0,0,0,0,1,0
1,1,1,0,0,0,1,1,1,0,0,0,0,0,0,1,0
1,1,1,1,1,1,1,1,0,1,0,0,1,1,0,1,1
0,0,1,0,0,1,1,1,1,0,1,0,0,0,1,1,0
1,0,1,0,0,0,1,1,1,1,0,0,0,0,1,1,0
0,0,1,1,1,1,0,0,1,1,0,1,1,1,0,1,1
0,0,1,0,0,0,1,1,1,1,0,0,0,0,0,1,0
