Pulse1,Pulse3,Pulse4,Pulse5,Pulse6,Pulse7,Pulse8,Pulse9,Pulse10,Pulse11,Pulse12,Pulse13,Pulse14,Pulse15,Pulse16,Pulse17,Pulse18,Pulse19,Pulse20,Pulse21,Pulse22,Pulse23,Pulse24,Pulse25,Pulse26,Pulse27,Pulse28,Pulse29,Pulse30,Pulse31,Pulse32,Pulse33,Pulse34,TARGET
1,1.0,-0.188,0.93,-0.362,-0.109,-0.936,1.0,-0.045,0.509,-0.677,0.344,-0.6970000000000001,-0.517,-0.975,0.055,-0.622,0.331,-1.0,-0.132,-0.4529999999999999,-0.181,-0.357,-0.203,-0.266,-0.205,-0.184,-0.19,-0.1159999999999999,-0.166,-0.063,-0.1369999999999999,-0.024,0
1,0.023,-0.006,-0.099,-0.119,-0.008,-0.118,0.147,0.066,0.038,-0.063,0.0,0.0,-0.046,-0.155,-0.003,-0.102,-0.1159999999999999,-0.054,0.018,0.037,0.015,0.009,0.035,-0.015,-0.032,0.092,-0.079,0.007,0.0,0.0,-0.0,0.12,0
0,0.0,0.0,0.0,0.0,1.0,-1.0,0.0,0.0,-1.0,-1.0,0.0,0.0,0.0,0.0,1.0,1.0,-1.0,-1.0,0.0,0.0,0.0,0.0,1.0,1.0,1.0,1.0,0.0,0.0,1.0,1.0,0.0,0.0,0
1,0.964,-0.072,1.0,-0.143,1.0,-0.213,1.0,-0.362,0.926,-0.436,0.945,-0.407,0.904,-0.4639999999999999,0.983,-0.353,0.845,-0.66,0.753,-0.606,0.696,-0.642,0.851,-0.654,0.5760000000000001,-0.6970000000000001,0.254,-0.639,0.451,-0.728,0.389,-0.7340000000000001,1
1,1.0,-0.542,1.0,-1.0,1.0,-1.0,1.0,0.362,1.0,-0.411,1.0,1.0,1.0,-1.0,1.0,-0.294,1.0,-0.936,1.0,1.0,1.0,1.0,1.0,-0.409,1.0,-0.627,1.0,-1.0,1.0,-1.0,1.0,-1.0,0
1,1.0,0.074,1.0,0.034,1.0,-0.0559999999999999,1.0,0.088,1.0,0.1969999999999999,1.0,0.203,1.0,0.128,1.0,0.106,1.0,0.271,1.0,0.4479999999999999,1.0,0.418,1.0,0.2,1.0,0.367,0.956,0.486,1.0,0.325,1.0,0.467,1
0,0.0,0.0,-1.0,-1.0,1.0,1.0,-1.0,1.0,-1.0,1.0,1.0,-1.0,1.0,1.0,-1.0,-1.0,-1.0,1.0,1.0,-1.0,-1.0,1.0,-1.0,1.0,1.0,-1.0,-1.0,1.0,-1.0,-1.0,1.0,-1.0,0
1,0.6709999999999999,0.025,0.6659999999999999,0.05,0.5720000000000001,0.188,0.088,0.341,0.636,0.121,0.621,0.143,0.7859999999999999,0.11,0.584,0.182,0.144,0.412,0.539,0.213,0.514,0.226,0.488,0.237,0.462,0.246,0.434,0.253,0.407,0.258,1.0,0.33,1
0,1.0,-1.0,0.0,0.0,0.0,0.0,1.0,1.0,1.0,-1.0,-0.7190000000000001,1.0,0.0,0.0,-1.0,1.0,1.0,1.0,-1.0,1.0,1.0,0.562,-1.0,1.0,1.0,1.0,1.0,-1.0,1.0,1.0,1.0,1.0,0
1,1.0,0.084,1.0,0.174,1.0,-0.133,0.982,0.645,1.0,0.479,1.0,0.591,1.0,0.708,1.0,0.828,1.0,0.951,1.0,1.0,0.98,1.0,0.916,1.0,0.8390000000000001,1.0,0.748,1.0,0.644,1.0,0.525,1.0,1
0,-1.0,-1.0,1.0,1.0,1.0,-1.0,-1.0,1.0,1.0,-1.0,-1.0,-1.0,0.0,0.0,1.0,1.0,-1.0,-1.0,1.0,-1.0,1.0,-1.0,1.0,1.0,1.0,-1.0,1.0,-1.0,-1.0,1.0,1.0,-1.0,0
1,1.0,-0.142,1.0,-0.163,1.0,-0.237,1.0,-0.075,1.0,-0.25,1.0,-0.262,1.0,-0.22,1.0,-0.386,1.0,-0.462,1.0,-0.355,1.0,-0.597,1.0,-0.476,0.988,-0.497,1.0,-0.758,1.0,-0.758,1.0,-0.8440000000000001,1
1,1.0,-1.0,1.0,1.0,1.0,-1.0,1.0,-1.0,1.0,-1.0,1.0,-0.018,1.0,-1.0,1.0,1.0,1.0,-0.856,1.0,1.0,1.0,-1.0,0.0,0.0,1.0,1.0,1.0,-0.7909999999999999,1.0,1.0,1.0,1.0,0
1,1.0,0.004,1.0,-0.012,1.0,-0.03,1.0,-0.07,0.978,-0.063,1.0,-0.065,0.973,-0.079,0.926,-0.1369999999999999,0.942,-0.143,0.996,-0.142,0.948,-0.136,0.895,-0.209,0.8909999999999999,-0.179,0.856,-0.186,0.838,-0.201,0.8390000000000001,-0.208,1
0,1.0,1.0,1.0,-1.0,0.0,0.0,0.0,0.0,-1.0,-1.0,0.0,0.0,0.0,0.0,-1.0,1.0,1.0,1.0,-1.0,1.0,-1.0,1.0,1.0,-1.0,1.0,1.0,-1.0,1.0,1.0,1.0,0.0,0.0,0
1,0.912,0.043,0.942,0.023,0.947,0.053,0.936,0.013,0.919,0.063,0.928,0.121,0.92,0.062,0.889,0.127,0.8370000000000001,0.144,0.81,0.118,0.77,0.142,0.758,0.113,0.736,0.133,0.664,0.153,0.7090000000000001,0.108,0.653,0.114,1
1,1.0,0.025,0.997,0.049,0.975,0.071,0.617,-1.0,0.91,0.111,0.885,0.536,0.821,0.141,0.769,0.152,1.0,0.41,0.6579999999999999,0.1639999999999999,0.601,0.165,0.544,0.1639999999999999,0.489,0.16,0.435,0.154,0.384,0.147,1.0,1.0,0
1,-1.0,-1.0,1.0,1.0,1.0,-0.144,0.0,0.0,-1.0,1.0,1.0,1.0,0.179,-1.0,-1.0,-1.0,0.088,-1.0,1.0,-1.0,-1.0,1.0,-1.0,-1.0,1.0,-1.0,-1.0,-1.0,1.0,1.0,0.0,0.0,0
1,0.909,0.088,0.865,0.1689999999999999,1.0,0.166,0.552,0.682,0.7020000000000001,0.367,0.163,0.427,0.5760000000000001,0.461,0.511,0.496,0.316,0.13,0.3779999999999999,0.545,0.313,0.5579999999999999,0.249,0.565,0.186,0.5660000000000001,0.126,0.561,0.069,0.551,0.121,0.677,1
1,0.99,-0.0579999999999999,0.998,-0.13,0.987,-0.1939999999999999,0.994,-0.258,0.927,-0.301,0.927,-0.38,0.898,-0.4379999999999999,0.8490000000000001,-0.521,0.8740000000000001,-0.5710000000000001,0.79,-0.598,0.747,-0.6459999999999999,0.6829999999999999,-0.685,0.652,-0.732,0.61,-0.754,0.5479999999999999,-0.8029999999999999,0.492,-0.8320000000000001,1
1,0.946,-0.027,-1.0,0.261,-0.364,0.356,0.693,-0.634,1.0,-0.034,-0.29,-0.006,-0.5489999999999999,0.155,0.919,-0.4629999999999999,1.0,-0.504,-0.297,-0.315,-0.7390000000000001,0.374,0.8390000000000001,-0.467,0.522,-0.581,1.0,-0.614,-0.096,0.205,-0.061,0.419,0
1,0.0,0.0,1.0,0.517,0.0,0.0,0.11,-1.0,0.0,0.0,0.0,0.0,-1.0,-0.2239999999999999,-0.557,-0.833,0.769,0.631,0.0,0.0,0.534,0.357,-0.903,0.4479999999999999,1.0,-1.0,-1.0,0.816,0.0,0.0,0.0,0.0,0
1,0.841,-0.184,0.436,0.0289999999999999,0.934,-0.003,0.879,0.138,0.8109999999999999,-0.018,0.8859999999999999,0.55,0.917,-0.575,0.75,-0.295,0.867,-0.201,1.0,1.0,0.466,-0.163,0.901,-0.0279999999999999,0.934,-0.012,0.616,-0.3229999999999999,0.845,-0.257,0.933,-0.0139999999999999,1
0,1.0,1.0,1.0,-1.0,0.0,0.0,0.0,0.0,1.0,1.0,1.0,1.0,-1.0,-1.0,1.0,-1.0,-1.0,1.0,0.0,0.0,1.0,-1.0,1.0,-1.0,1.0,1.0,-1.0,-1.0,0.0,0.0,0.0,0.0,0
1,0.638,1.0,0.208,-1.0,1.0,1.0,0.877,0.309,-0.669,1.0,-0.059,0.588,0.018,0.05,-0.515,-1.0,0.143,-0.033,0.327,-0.439,-1.0,1.0,0.809,-1.0,1.0,-0.061,1.0,1.0,0.206,-1.0,1.0,1.0,0
1,1.0,-0.415,1.0,0.7609999999999999,0.871,0.186,1.0,-0.099,0.938,0.48,0.655,-0.161,1.0,0.009,0.976,-0.501,0.8,-0.245,0.8809999999999999,-0.191,1.0,-0.123,0.936,0.107,0.929,-0.072,1.0,-0.2739999999999999,0.44,0.198,0.514,-0.054,1
1,0.848,0.106,1.0,0.391,1.0,-1.0,0.669,0.084,1.0,0.27,1.0,0.606,1.0,0.355,1.0,0.027,0.584,-0.43,1.0,0.635,0.8909999999999999,0.266,0.91,-0.3329999999999999,1.0,0.159,0.377,-0.019,1.0,0.225,1.0,0.374,0
1,1.0,0.6779999999999999,0.813,0.82,0.43,1.0,0.206,0.805,-0.439,1.0,-0.7909999999999999,0.7709999999999999,-1.0,0.4029999999999999,-0.39,-0.586,-0.979,-0.428,-0.731,-0.763,-0.377,-0.975,0.414,-1.0,0.418,-0.933,0.258,-1.0,0.936,-0.352,0.988,0.034,1
1,0.6940000000000001,0.389,0.0,0.0,-0.3289999999999999,0.698,0.0,0.0,0.0,0.0,0.0,0.0,0.206,-0.242,0.21,0.1939999999999999,0.4639999999999999,0.782,0.0,0.0,0.0,0.0,0.7340000000000001,0.2739999999999999,0.762,0.635,0.0,0.0,0.0,0.0,0.0,0.0,0
0,1.0,1.0,0.0,0.0,1.0,-1.0,1.0,-1.0,1.0,1.0,1.0,1.0,1.0,-1.0,1.0,1.0,1.0,1.0,1.0,-1.0,-1.0,-1.0,1.0,-1.0,1.0,-1.0,1.0,1.0,0.0,0.0,1.0,-1.0,0
1,1.0,0.0409999999999999,1.0,0.12,1.0,0.162,1.0,0.2789999999999999,0.987,0.309,0.927,0.376,0.911,0.397,0.8190000000000001,0.461,0.7859999999999999,0.47,0.794,0.563,0.703,0.581,0.6709999999999999,0.597,0.589,0.61,0.54,0.609,0.4529999999999999,0.636,0.4039999999999999,0.627,1
1,1.0,0.242,1.0,0.486,1.0,0.73,1.0,1.0,1.0,1.0,1.0,1.0,1.0,0.7709999999999999,1.0,1.0,1.0,1.0,0.745,1.0,0.8959999999999999,1.0,0.6459999999999999,1.0,0.3829999999999999,1.0,0.108,1.0,-0.174,1.0,-0.8140000000000001,1.0,1
0,1.0,1.0,1.0,-1.0,1.0,1.0,-1.0,1.0,0.0,0.0,1.0,1.0,0.0,0.0,0.0,0.0,-1.0,1.0,-1.0,1.0,1.0,1.0,1.0,-1.0,1.0,1.0,1.0,1.0,1.0,-1.0,-1.0,1.0,0
1,0.923,0.078,0.927,0.163,0.897,0.246,0.841,0.352,0.7879999999999999,0.422,0.7070000000000001,0.47,0.708,0.565,0.605,0.642,0.512,0.649,0.3989999999999999,0.67,0.342,0.6829999999999999,0.237,0.7609999999999999,0.188,0.7390000000000001,0.0969999999999999,0.71,0.027,0.7709999999999999,-0.04,0.695,1
1,0.682,-0.173,0.823,0.2189999999999999,0.466,0.3289999999999999,0.258,0.583,1.0,-0.152,0.011,0.445,0.011,0.389,0.187,0.412,0.106,0.364,0.043,0.307,-0.001,0.249,-0.0289999999999999,0.1939999999999999,-0.043,0.145,-0.048,0.103,-0.046,0.071,-0.04,0.046,0
1,0.392,-0.063,0.975,0.043,1.0,1.0,0.358,0.153,0.545,0.131,0.616,-0.821,0.578,0.679,0.6679999999999999,-0.104,0.466,-0.1159999999999999,0.6559999999999999,0.148,0.8320000000000001,0.455,0.47,0.1639999999999999,0.493,0.146,0.325,-0.026,0.391,0.135,0.344,0.128,0
1,0.727,-0.05,0.892,0.035,1.0,0.727,0.664,-0.059,0.482,-0.168,0.818,0.096,0.568,1.0,0.505,0.218,0.6679999999999999,0.1,1.0,-0.3,0.986,-1.0,0.573,0.327,0.57,0.147,0.423,0.0819999999999999,0.489,0.146,1.0,1.0,0
1,0.5760000000000001,-0.016,0.4039999999999999,0.0,0.384,0.129,0.4,-0.059,0.565,0.141,0.467,0.0819999999999999,0.525,-0.055,0.58,0.016,0.502,0.0,0.4589999999999999,0.067,0.58,0.0819999999999999,0.498,0.004,0.486,0.1,0.4629999999999999,0.0819999999999999,0.451,0.235,0.431,0.173,1
1,0.846,-0.086,-0.317,-0.8059999999999999,-0.09,-0.564,0.8059999999999999,0.046,0.895,-0.008,-0.185,0.64,-0.2,-0.6809999999999999,0.857,-0.113,0.78,-0.157,-0.07,0.508,-0.341,0.809,0.789,-0.037,0.7090000000000001,-0.253,0.779,-0.141,-0.214,-0.782,-0.185,-0.599,0
1,0.292,0.136,0.4529999999999999,0.168,0.518,-0.005,0.526,0.209,0.525,-0.166,0.474,-0.048,0.555,0.039,0.8170000000000001,-0.2239999999999999,0.424,-0.042,0.35,0.066,0.282,-0.209,0.517,-0.032,0.504,-0.034,0.346,0.098,0.708,-0.019,0.396,-0.032,1
1,0.792,0.1689999999999999,0.0,0.0,0.565,0.069,0.395,1.0,0.384,0.996,-0.024,0.532,0.237,0.129,-0.027,0.951,-0.51,0.8490000000000001,-0.102,0.3879999999999999,-0.426,0.237,-0.916,0.807,-0.341,0.882,-1.0,0.6940000000000001,-1.0,0.129,0.0,0.0,0
1,0.957,-0.121,0.633,-0.127,0.964,-0.182,0.97,0.085,0.92,-0.011,0.835,-0.247,1.0,-0.314,0.993,-0.212,0.987,-0.21,1.0,-0.272,0.931,-0.395,1.0,-0.192,0.888,-0.316,0.8140000000000001,-0.237,0.8909999999999999,-0.319,0.695,-0.416,1
1,0.0,0.0,0.0,0.0,0.0,0.0,0.0,0.0,0.622,1.0,0.0,0.0,0.0,0.0,0.366,-0.72,0.561,-1.0,0.0,0.0,0.0,0.0,0.0,0.0,1.0,0.11,0.0,0.0,0.0,0.0,0.0,0.0,0
1,0.42,-0.61,0.0,0.0,1.0,-1.0,0.9,1.0,0.43,0.64,0.0,0.0,0.0,0.0,0.67,-0.29,0.84,-1.0,0.0,0.0,0.0,0.0,0.21,0.68,1.0,0.22,0.0,0.0,0.0,0.0,0.0,0.0,0
1,0.214,-0.095,0.3329999999999999,0.071,0.19,0.19,0.238,0.095,0.405,0.024,0.31,-0.048,0.31,-0.048,0.286,-0.119,0.3329999999999999,0.048,0.31,0.0,0.214,-0.119,0.357,-0.048,0.221,-0.023,0.19,0.0,0.17,-0.02,0.147,-0.019,1
1,0.8690000000000001,-0.071,1.0,-0.025,1.0,-0.069,0.878,0.002,0.836,-0.064,1.0,-0.073,1.0,-0.2,0.8690000000000001,0.053,0.88,-0.038,1.0,-0.115,1.0,-0.187,0.8440000000000001,0.036,1.0,-0.142,0.8220000000000001,-0.147,1.0,-0.156,1.0,-0.442,1
1,0.436,-0.127,0.5820000000000001,-0.145,0.182,-0.6729999999999999,0.345,-0.036,0.291,-0.055,0.291,0.291,0.364,-0.418,0.2,-0.018,0.364,0.055,0.127,0.491,0.618,0.1639999999999999,0.327,0.1639999999999999,0.411,-0.07,0.345,-0.055,0.127,-0.364,0.291,-0.291,0
1,1.0,-0.925,1.0,0.755,0.491,-0.057,0.623,0.0,1.0,-0.001,0.4529999999999999,0.075,0.623,-0.057,0.989,-0.001,0.528,0.0,0.528,0.075,0.952,-0.001,1.0,0.792,0.922,-0.001,0.943,-1.0,1.0,0.434,0.434,-0.113,1
1,0.959,0.1009999999999999,1.0,-0.019,0.983,0.026,0.97,-0.093,0.99,-0.027,0.98,-0.031,1.0,-0.053,1.0,-0.052,0.938,0.016,0.976,-0.093,0.979,-0.053,0.916,-0.157,0.957,-0.07,0.91,0.013,1.0,-0.108,0.931,-0.069,1
1,0.0,0.0,0.989,-0.2269999999999999,0.1889999999999999,-0.054,0.0,0.0,0.932,0.073,1.0,-0.2,1.0,0.07,1.0,-0.114,0.0,0.0,1.0,-0.211,1.0,-0.416,0.0,0.0,1.0,-0.176,0.0,0.0,1.0,-0.259,0.289,-0.157,0
1,0.6409999999999999,0.0139999999999999,0.341,-0.024,0.528,0.035,0.195,0.122,0.433,0.048,0.22,0.049,0.293,0.0,0.366,0.0,0.317,0.073,0.268,0.122,0.237,0.0579999999999999,0.22,0.098,0.193,0.0559999999999999,0.174,0.055,0.195,0.0,0.171,0.073,1
1,0.897,0.382,0.912,0.375,0.743,0.6759999999999999,0.456,0.779,0.191,0.89,-0.022,0.86,-0.206,0.8240000000000001,-0.375,0.6759999999999999,-0.5,0.478,-0.735,0.382,-0.86,0.088,-0.743,-0.125,-0.679,-0.241,-0.551,-0.426,-0.441,-0.507,-0.287,-0.5660000000000001,1
1,0.267,-0.1,0.5329999999999999,0.0,0.3329999999999999,-0.133,0.367,0.1169999999999999,0.5670000000000001,0.017,0.7170000000000001,0.083,0.7,-0.067,0.5329999999999999,0.2,0.417,-0.017,0.317,0.2,0.7,0.0,0.25,0.133,0.462,0.054,0.4,0.033,0.467,0.033,0.417,-0.05,1
1,0.952,0.023,0.938,-0.013,0.935,0.012,0.967,-0.017,0.969,0.005,0.957,-0.031,0.953,-0.004,0.995,-0.027,0.998,0.018,0.936,-0.05,0.938,-0.024,0.971,-0.045,0.962,-0.016,0.974,0.019,0.954,-0.034,0.958,0.008,1
1,1.0,-0.055,1.0,-1.0,0.5,-0.111,0.361,-0.222,1.0,-0.257,0.1669999999999999,-0.111,1.0,-0.347,1.0,-0.389,1.0,-0.429,0.0,-0.25,1.0,-0.503,1.0,-0.278,1.0,-0.5710000000000001,1.0,-0.278,1.0,-0.632,1.0,-0.659,0
1,0.627,-0.078,0.725,0.0,0.608,-0.078,0.627,-0.118,0.6859999999999999,-0.118,0.667,-0.1369999999999999,0.647,-0.098,0.5489999999999999,-0.118,0.5489999999999999,-0.216,0.588,-0.196,0.667,-0.235,0.451,-0.255,0.524,-0.247,0.569,-0.314,0.431,-0.216,0.471,-0.275,0
1,-0.6559999999999999,0.156,0.062,0.0,0.0,0.062,0.625,0.062,0.188,0.0,-0.031,0.094,0.062,0.0,0.156,-0.156,0.4379999999999999,-0.375,0.0,-0.094,0.0,0.0,0.031,-0.469,0.031,0.0,-0.7190000000000001,0.031,-0.031,0.0,0.0,0.094,0
1,0.6,0.033,0.633,0.067,0.7,0.067,0.7,0.0,0.633,0.0,0.8,0.0,0.733,0.0,0.7,0.1,0.667,0.1,0.733,-0.033,0.767,0.0,0.633,0.133,0.659,0.102,0.6,0.133,0.6,0.1669999999999999,0.633,0.1669999999999999,1
1,0.059,-0.008,0.067,0.008,0.0,-0.011,0.006,-0.039,0.017,-0.075,-0.006,0.053,0.064,-0.034,0.0,0.095,-0.064,0.075,-0.047,0.025,0.0279999999999999,-0.006,0.008,0.006,0.103,-0.008,0.031,-0.003,0.045,0.0,0.047,-0.034,0
1,0.7240000000000001,-0.011,0.797,0.011,0.8,0.002,0.79,0.011,0.784,-0.01,0.8340000000000001,0.033,0.851,0.017,0.8009999999999999,-0.008,0.7909999999999999,-0.03,0.76,0.034,0.748,0.055,0.726,-0.015,0.78,0.006,0.741,-0.05,0.83,0.03,0.79,0.008,1
1,0.039,0.026,0.004,0.0,0.02,-0.02,0.021,-0.05,-0.048,-0.013,0.0139999999999999,-0.023,0.0,-0.033,-0.047,-0.0289999999999999,-0.017,0.036,0.021,0.004,0.051,-0.023,0.051,0.019,0.04,0.016,0.02,0.007,-0.026,-0.019,-0.0139999999999999,0.02,0
1,0.943,0.386,0.483,0.645,0.216,0.775,-0.5589999999999999,0.649,-0.737,0.42,-0.7609999999999999,0.0,-0.627,-0.311,-0.384,-0.622,-0.128,-0.693,0.499,-0.636,0.715,-0.377,0.7390000000000001,-0.055,0.601,0.304,0.455,0.605,0.027,0.545,-0.216,0.505,1
1,0.02,0.007,0.0409999999999999,-0.008,0.021,0.011,0.011,0.044,0.003,0.001,0.02,-0.031,-0.02,0.061,-0.0409999999999999,0.027,-0.024,-0.004,0.044,-0.025,0.018,0.0,0.0,-0.013,0.018,-0.011,0.006,-0.016,-0.017,-0.024,0.007,0.0,0
1,1.0,-1.0,1.0,1.0,-1.0,1.0,1.0,-1.0,1.0,-1.0,-1.0,-1.0,-1.0,1.0,1.0,1.0,1.0,1.0,-1.0,1.0,1.0,-1.0,1.0,-1.0,1.0,1.0,1.0,1.0,-1.0,1.0,-1.0,1.0,0
1,0.852,0.3929999999999999,0.389,0.764,0.089,0.989,-0.426,0.887,-0.762,0.5,-0.931,0.108,-0.8590000000000001,-0.31,-0.66,-0.5529999999999999,-0.193,-0.861,0.284,-0.805,0.6459999999999999,-0.352,0.778,-0.233,0.7170000000000001,0.213,0.3779999999999999,0.583,0.1969999999999999,0.6629999999999999,-0.1119999999999999,0.649,1
0,0.0,0.0,0.0,0.0,0.0,0.0,0.0,0.0,0.0,0.0,0.0,0.0,0.0,0.0,0.0,0.0,0.0,0.0,0.0,0.0,0.0,0.0,0.0,0.0,1.0,0.0,0.0,0.0,0.0,0.0,0.0,0.0,0
0,-1.0,1.0,1.0,1.0,0.0,0.0,1.0,-1.0,1.0,-1.0,1.0,-1.0,-1.0,-1.0,0.0,0.0,-1.0,-1.0,0.0,0.0,0.0,0.0,-1.0,-1.0,1.0,-1.0,1.0,1.0,-1.0,-1.0,0.0,0.0,0
1,1.0,0.118,1.0,0.235,1.0,0.412,1.0,0.059,1.0,0.235,1.0,0.118,1.0,0.471,1.0,-0.059,1.0,-0.118,1.0,0.353,1.0,0.412,1.0,-0.118,1.0,0.2019999999999999,1.0,0.059,1.0,0.353,1.0,0.235,1
1,1.0,-0.0819999999999999,1.0,-0.113,0.992,-0.298,1.0,-0.331,0.967,-0.3429999999999999,0.858,-0.473,0.919,-0.482,0.731,-0.652,0.6809999999999999,-0.635,0.8240000000000001,-0.7829999999999999,0.588,-0.748,0.67,-0.963,0.488,-0.857,0.379,-0.8390000000000001,0.241,-0.888,0.292,-0.8959999999999999,1
1,1.0,0.241,0.998,0.004,0.802,-0.301,0.899,-0.235,0.706,-0.241,0.7390000000000001,-0.305,0.715,-0.361,0.472,-0.612,0.405,-0.551,0.61,-0.3929999999999999,0.532,-0.327,0.24,-0.521,0.292,-0.484,0.128,-0.391,0.157,-0.513,0.184,-0.466,1
1,0.922,-0.1939999999999999,0.964,-0.177,0.87,-0.226,0.8170000000000001,-0.271,0.7929999999999999,-0.289,0.703,-0.496,0.633,-0.5,0.373,-0.7070000000000001,0.271,-0.721,0.405,-0.542,0.335,-0.597,0.148,-0.636,0.093,-0.596,-0.072,-0.5489999999999999,-0.018,-0.541,-0.075,-0.479,1
1,1.0,1.0,0.0,0.0,1.0,-1.0,-1.0,-1.0,1.0,1.0,1.0,-1.0,0.0,0.0,1.0,-1.0,1.0,1.0,0.0,0.0,1.0,-1.0,-1.0,-1.0,1.0,1.0,-1.0,1.0,-1.0,1.0,0.0,0.0,0
1,1.0,0.635,1.0,1.0,0.7709999999999999,1.0,-0.3329999999999999,1.0,-1.0,1.0,0.0,1.0,-1.0,1.0,-1.0,0.0,-1.0,-0.667,-1.0,-0.925,-1.0,-0.3329999999999999,-0.3329999999999999,-1.0,0.192,-1.0,1.0,-1.0,0.0,-1.0,1.0,-0.667,1
1,1.0,0.068,1.0,0.142,1.0,0.221,1.0,-0.125,1.0,0.395,1.0,0.49,1.0,0.59,-0.375,1.0,1.0,0.0,1.0,0.92,1.0,1.0,1.0,1.0,1.0,1.0,1.0,0.25,1.0,1.0,1.0,1.0,1
0,-1.0,-1.0,0.0,0.0,0.0,0.0,0.0,0.0,0.0,0.0,0.0,0.0,1.0,-1.0,0.0,0.0,-1.0,-1.0,0.0,0.0,1.0,1.0,1.0,-1.0,1.0,-1.0,0.0,0.0,0.0,0.0,0.0,0.0,0
1,0.649,-0.079,0.583,-0.144,-0.131,-0.214,0.298,0.044,0.381,-0.263,0.289,-0.32,0.035,-0.1889999999999999,0.203,-0.294,0.152,-0.291,0.095,-0.315,0.066,-0.268,0.03,-0.251,-0.0,-0.2319999999999999,-0.026,-0.211,-0.047,-0.19,0.013,-0.272,1
1,0.0,0.0,0.0,0.0,0.0,0.0,0.0,0.0,1.0,-0.3329999999999999,0.1669999999999999,0.26,0.0,0.0,0.0,0.0,0.0,0.0,-0.198,-0.2189999999999999,-0.1669999999999999,0.906,-1.0,0.5,0.042,0.75,-0.2289999999999999,-1.0,-0.125,-0.271,-0.198,-0.938,0
1,1.0,-0.095,-1.0,-1.0,-1.0,-1.0,1.0,0.317,0.813,0.762,-1.0,-1.0,-1.0,1.0,0.474,1.0,1.0,1.0,0.688,-1.0,-1.0,-1.0,0.8290000000000001,0.365,1.0,1.0,1.0,0.508,-1.0,-0.325,-1.0,0.728,0
1,1.0,-1.0,1.0,1.0,1.0,1.0,1.0,-0.5,1.0,1.0,1.0,1.0,1.0,1.0,0.0,0.0,1.0,1.0,1.0,1.0,1.0,-1.0,1.0,1.0,1.0,0.625,1.0,-0.75,-0.75,1.0,1.0,1.0,0
1,0.369,-1.0,-1.0,-1.0,-0.077,1.0,1.0,0.95,0.746,-0.387,-1.0,-0.7929999999999999,-0.0969999999999999,1.0,0.487,0.465,0.318,-0.275,-0.143,-0.2019999999999999,-0.12,0.069,0.03,0.066,0.034,-0.012,-0.004,-0.017,-0.008,0.001,0.0,0.003,0
0,0.0,0.0,0.0,0.0,0.0,0.0,0.0,0.0,0.0,0.0,1.0,1.0,1.0,1.0,1.0,-1.0,0.0,0.0,1.0,1.0,1.0,-1.0,1.0,1.0,1.0,0.0,1.0,1.0,1.0,-1.0,0.0,0.0,0
1,0.0,0.0,0.0,0.0,0.0,0.0,-0.85,-1.0,0.0,0.0,1.0,-1.0,0.0,0.0,-1.0,-1.0,-1.0,-1.0,1.0,-1.0,-0.6,-1.0,1.0,1.0,-1.0,-0.2,1.0,-1.0,0.0,1.0,0.0,0.0,0
1,1.0,0.091,0.955,-0.091,0.773,0.0,1.0,0.0,0.955,0.0,1.0,0.045,0.909,-0.045,1.0,0.0,1.0,0.0,0.8640000000000001,0.091,0.773,0.091,0.909,0.045,0.915,0.0289999999999999,0.955,0.091,0.8640000000000001,-0.091,0.8640000000000001,0.045,1
1,0.912,-0.088,0.971,0.176,0.8240000000000001,0.088,0.912,-0.0289999999999999,0.971,-0.176,0.971,0.147,0.941,0.0289999999999999,1.0,0.0,1.0,0.0,0.765,0.118,0.882,0.0289999999999999,0.853,0.0289999999999999,0.927,0.026,0.941,-0.118,0.971,0.059,0.912,0.059,1
1,1.0,0.455,1.0,0.545,0.818,0.636,1.0,-0.091,1.0,0.0,0.818,-0.455,0.636,0.273,1.0,-0.636,1.0,-0.273,0.909,-0.455,1.0,0.078,1.0,-0.091,1.0,0.089,1.0,0.364,1.0,0.636,0.727,0.273,1
0,-1.0,-1.0,1.0,-1.0,-1.0,1.0,0.0,0.0,1.0,-1.0,1.0,-1.0,0.0,0.0,0.0,0.0,0.0,0.0,-1.0,1.0,1.0,-1.0,-1.0,1.0,1.0,1.0,0.0,0.0,1.0,0.5,0.0,0.0,0
1,1.0,0.143,1.0,0.7140000000000001,1.0,0.7140000000000001,1.0,-0.143,0.857,-0.143,1.0,0.025,1.0,0.0,0.429,-0.143,1.0,0.036,1.0,-0.286,1.0,0.0,0.286,-0.286,1.0,0.049,1.0,0.052,1.0,0.5710000000000001,1.0,0.0,1
0,1.0,1.0,1.0,-1.0,1.0,1.0,1.0,1.0,1.0,1.0,1.0,-1.0,1.0,1.0,1.0,-1.0,1.0,-1.0,1.0,1.0,1.0,1.0,1.0,-1.0,1.0,1.0,1.0,1.0,1.0,1.0,1.0,1.0,0
1,0.87,0.47,0.539,0.8220000000000001,0.104,0.953,-0.38,0.879,-0.7390000000000001,0.5820000000000001,-0.921,0.1669999999999999,-0.8240000000000001,-0.249,-0.594,-0.633,-0.24,-0.8290000000000001,0.188,-0.787,0.516,-0.574,0.693,-0.248,0.691,0.105,0.528,0.3979999999999999,0.26,0.5660000000000001,-0.067,0.5760000000000001,1
0,1.0,-1.0,1.0,1.0,1.0,-1.0,1.0,1.0,1.0,-1.0,1.0,-1.0,1.0,-1.0,1.0,1.0,1.0,1.0,1.0,1.0,1.0,-1.0,1.0,1.0,1.0,1.0,1.0,1.0,1.0,1.0,1.0,-1.0,0
1,0.927,0.042,0.893,0.158,0.861,0.198,0.8370000000000001,0.365,0.8059999999999999,0.402,0.762,0.406,0.6659999999999999,0.484,0.601,0.518,0.534,0.522,0.484,0.542,0.425,0.557,0.3329999999999999,0.5529999999999999,0.27,0.542,0.223,0.534,0.143,0.491,0.1159999999999999,0.466,1
1,0.935,0.136,0.937,0.254,0.857,0.3879999999999999,0.79,0.471,0.7240000000000001,0.599,0.653,0.75,0.508,0.736,0.416,0.8270000000000001,0.255,0.86,0.1369999999999999,0.856,0.005,0.889,-0.074,0.7979999999999999,-0.21,0.78,-0.332,0.715,-0.385,0.644,-0.474,0.5579999999999999,1
0,1.0,-1.0,-1.0,1.0,-1.0,1.0,1.0,1.0,1.0,1.0,-1.0,-1.0,-1.0,-1.0,1.0,1.0,1.0,-1.0,-1.0,-1.0,-1.0,-1.0,1.0,0.0,1.0,-1.0,1.0,-1.0,-1.0,1.0,-1.0,1.0,0
1,0.8059999999999999,0.131,0.731,0.243,0.6459999999999999,0.19,0.369,0.456,0.4479999999999999,0.4639999999999999,0.25,0.573,0.252,0.371,0.152,0.519,-0.098,0.575,-0.035,0.429,-0.089,0.444,-0.149,0.4,-0.1989999999999999,0.35,-0.238,0.295,-0.266,0.239,-0.238,0.312,1
0,1.0,-1.0,1.0,1.0,1.0,-1.0,1.0,1.0,1.0,-1.0,1.0,1.0,1.0,-1.0,1.0,-1.0,1.0,1.0,1.0,1.0,1.0,-1.0,1.0,-1.0,1.0,-1.0,1.0,1.0,1.0,-1.0,1.0,1.0,0
0,0.0,0.0,1.0,1.0,0.0,0.0,1.0,1.0,0.0,0.0,1.0,-1.0,0.0,0.0,0.0,0.0,0.0,0.0,0.0,0.0,0.0,0.0,0.0,0.0,1.0,-1.0,0.0,0.0,-1.0,1.0,0.0,0.0,0
1,0.923,0.155,0.8640000000000001,0.298,0.726,0.368,0.706,0.568,0.574,0.627,0.433,0.747,0.317,0.677,0.191,0.768,0.047,0.762,-0.121,0.77,-0.185,0.713,-0.293,0.657,-0.3879999999999999,0.586,-0.4679999999999999,0.501,-0.531,0.407,-0.562,0.351,1
1,0.735,-0.3829999999999999,0.802,0.103,0.7879999999999999,0.153,0.556,0.053,1.0,0.212,0.7190000000000001,0.29,0.688,0.3289999999999999,0.497,0.173,0.643,-0.0279999999999999,0.574,0.425,0.531,0.449,0.945,0.575,0.442,0.482,0.125,1.0,0.351,0.497,0.306,0.498,1
0,0.0,0.0,0.0,0.0,0.0,0.0,0.0,0.0,0.0,0.0,0.0,0.0,0.0,0.0,0.0,0.0,0.0,0.0,0.0,0.0,0.0,0.0,0.0,0.0,1.0,1.0,0.0,0.0,0.0,0.0,0.0,0.0,0
0,1.0,1.0,-1.0,-1.0,-1.0,-1.0,0.0,0.0,0.0,0.0,-1.0,-1.0,0.0,0.0,0.0,0.0,0.0,0.0,-1.0,1.0,1.0,1.0,0.0,0.0,1.0,-1.0,0.0,0.0,-1.0,-1.0,-1.0,-1.0,0
1,0.505,-0.1689999999999999,0.7140000000000001,0.015,0.711,0.023,0.6809999999999999,0.013,0.346,0.0559999999999999,0.69,0.044,0.6809999999999999,0.051,0.67,0.057,0.634,-0.047,0.645,0.069,0.631,0.074,0.84,0.181,0.599,0.083,0.382,0.068,0.565,0.09,0.546,0.093,1
1,0.687,1.0,0.92,-0.7609999999999999,0.818,0.043,0.7609999999999999,0.107,0.868,0.737,0.701,0.182,0.759,0.1369999999999999,0.935,-0.251,0.7070000000000001,0.187,0.649,0.246,0.602,0.774,1.0,-0.5379999999999999,0.893,0.222,0.711,0.5379999999999999,1.0,-0.065,0.565,0.239,0
1,0.253,0.359,0.0,0.0,-0.296,-1.0,0.0,0.0,0.076,-0.073,0.0,0.0,0.0,0.0,0.0,0.0,0.0,0.0,0.008,0.6809999999999999,-0.2,0.337,-0.104,0.357,0.0559999999999999,-1.0,0.0,0.0,0.063,-1.0,0.0,0.0,0
1,0.0,0.0,1.0,0.129,0.884,-0.02,0.0,0.0,1.0,-0.424,1.0,0.196,1.0,-0.053,1.0,-0.816,0.0,0.0,1.0,-0.04,1.0,-0.187,0.0,0.0,1.0,-1.0,0.0,0.0,1.0,0.118,0.907,-0.096,0
1,0.8109999999999999,0.037,0.851,-0.001,0.79,0.007,0.7959999999999999,-0.043,0.8759999999999999,0.0,0.856,-0.067,0.8640000000000001,0.003,0.8290000000000001,-0.054,0.81,-0.119,0.769,-0.084,0.843,-0.05,0.77,-0.069,0.816,-0.087,0.826,-0.104,0.8140000000000001,-0.05,0.821,-0.151,1
1,0.499,0.018,0.431,-0.096,0.506,-0.042,0.501,0.096,0.447,0.06,0.5579999999999999,-0.119,0.517,-0.036,0.527,-0.06,0.5529999999999999,-0.01,0.486,-0.034,0.491,-0.01,0.5920000000000001,0.0,0.532,-0.033,0.431,0.034,0.545,-0.055,0.59,-0.086,1
1,1.0,0.5,1.0,0.25,0.25,1.0,0.1689999999999999,0.912,-0.133,0.805,-0.341,0.608,-0.4379999999999999,0.379,-0.437,0.1669999999999999,-0.367,0.007,-0.265,-0.09,-0.162,-0.13,-0.078,-0.127,-0.021,-0.102,0.01,-0.07,0.022,-0.0409999999999999,0.022,-0.02,1
1,0.0,0.0,0.0,0.0,1.0,1.0,-1.0,-1.0,0.0,0.0,1.0,-0.111,0.0,0.0,0.0,0.0,-1.0,1.0,1.0,1.0,1.0,-1.0,0.0,0.0,1.0,-1.0,0.0,0.0,0.0,0.0,1.0,1.0,0
1,0.8340000000000001,0.391,0.54,0.7859999999999999,0.123,0.894,-0.332,0.836,-0.701,0.596,-0.866,0.2189999999999999,-0.8440000000000001,-0.242,-0.597,-0.619,-0.1939999999999999,-0.878,0.124,-0.8909999999999999,0.511,-0.725,0.7909999999999999,-0.2769999999999999,0.83,0.087,0.6659999999999999,0.491,0.375,0.7,-0.04,0.794,1
1,0.7440000000000001,-0.024,0.708,0.033,0.722,0.1689999999999999,0.792,0.077,0.8140000000000001,0.439,0.638,0.006,0.708,0.217,1.0,0.061,0.61,0.051,0.675,0.042,0.52,-0.25,0.73,-0.158,0.617,0.071,0.309,0.086,0.5589999999999999,0.075,0.603,0.217,1
1,0.5,0.0,0.387,0.104,0.491,0.065,0.47,-0.039,0.357,-0.126,0.457,0.048,0.504,0.026,0.357,0.196,0.422,0.148,0.422,-0.026,0.322,-0.113,0.474,-0.009,0.418,0.069,0.387,0.039,0.352,0.148,0.4479999999999999,0.174,1
1,0.946,0.175,0.909,0.331,0.851,0.5,0.737,0.638,0.5920000000000001,0.738,0.487,0.836,0.305,0.907,0.18,0.934,-0.007,0.931,-0.1889999999999999,0.894,-0.33,0.825,-0.465,0.765,-0.586,0.6629999999999999,-0.679,0.526,-0.753,0.425,-0.812,0.261,1
1,0.918,0.182,0.861,0.355,0.7290000000000001,0.457,0.604,0.6990000000000001,0.504,0.7490000000000001,0.361,0.818,0.157,0.836,0.004,0.852,-0.1639999999999999,0.779,-0.36,0.762,-0.431,0.654,-0.531,0.539,-0.603,0.41,-0.645,0.273,-0.657,0.1369999999999999,-0.6409999999999999,0.054,1
1,0.589,-0.609,0.8540000000000001,0.5529999999999999,0.8109999999999999,0.073,0.5660000000000001,0.162,0.3279999999999999,0.242,0.503,0.123,0.639,0.1989999999999999,0.7190000000000001,0.427,0.5429999999999999,0.139,0.652,0.278,0.6890000000000001,0.073,0.519,0.267,0.49,0.2769999999999999,0.462,0.286,0.435,0.293,0.408,0.299,1
1,0.848,0.068,0.8059999999999999,-0.023,0.77,-0.033,0.667,-0.066,0.596,-0.077,0.6729999999999999,-0.0579999999999999,0.643,-0.064,0.392,0.045,0.713,0.0139999999999999,0.56,-0.08,0.534,-0.085,0.47,-0.228,0.487,-0.091,0.526,-0.085,0.4429999999999999,-0.096,0.422,-0.098,1
1,1.0,0.08,0.968,-0.005,0.967,-0.007,0.88,-0.039,1.0,0.0139999999999999,0.962,-0.0139999999999999,0.959,-0.017,0.985,0.01,0.912,-0.088,0.95,-0.024,0.946,-0.026,0.982,0.02,0.938,-0.03,1.0,-0.0579999999999999,0.928,-0.035,0.922,-0.037,1
1,0.501,-0.036,0.611,0.013,0.589,0.016,0.589,0.025,0.667,-0.004,0.7170000000000001,-0.047,0.665,0.009,0.573,0.025,0.647,-0.074,0.569,0.142,0.575,-0.036,0.465,0.049,0.5660000000000001,0.008,0.476,-0.036,0.546,0.106,0.607,-0.081,1
1,0.715,-0.006,0.667,-0.042,0.631,-0.052,0.78,0.081,0.6729999999999999,0.0969999999999999,0.647,0.159,0.602,-0.019,0.544,-0.045,0.469,-0.1,0.647,0.149,0.392,0.217,0.524,-0.055,0.451,0.0,0.314,-0.068,0.492,-0.107,0.304,-0.052,1
1,0.6809999999999999,0.104,0.77,0.035,0.652,0.081,0.61,-0.005,0.79,0.119,0.598,0.049,0.625,0.096,0.7829999999999999,-0.175,0.738,-0.109,0.486,0.01,0.61,0.081,0.667,-0.128,0.638,-0.025,0.765,0.022,0.612,-0.072,0.514,-0.047,1
1,0.997,0.217,0.92,0.47,0.769,0.624,0.5329999999999999,0.7809999999999999,0.368,0.883,0.1009999999999999,0.833,-0.068,0.893,-0.283,0.721,-0.437,0.617,-0.5579999999999999,0.481,-0.65,0.355,-0.647,0.159,-0.667,0.023,-0.649,-0.135,-0.546,-0.2289999999999999,-0.472,-0.35,1
1,0.943,0.2,0.961,0.408,0.805,0.5660000000000001,0.5670000000000001,0.708,0.418,0.8320000000000001,0.149,0.895,0.052,0.937,-0.247,0.8390000000000001,-0.428,0.7559999999999999,-0.503,0.626,-0.655,0.504,-0.6890000000000001,0.309,-0.7709999999999999,0.156,-0.754,-0.044,-0.752,-0.179,-0.669,-0.344,1
1,0.94,0.281,0.805,0.528,0.5820000000000001,0.732,0.35,0.805,0.108,0.904,-0.2,0.893,-0.397,0.8220000000000001,-0.588,0.629,-0.763,0.4039999999999999,-0.813,0.1889999999999999,-0.813,-0.043,-0.753,-0.2689999999999999,-0.632,-0.4639999999999999,-0.4639999999999999,-0.614,-0.264,-0.708,-0.089,-0.713,1
1,0.898,0.352,0.6729999999999999,0.622,0.439,0.944,-0.036,0.805,-0.228,0.753,-0.251,0.488,-0.574,0.284,-0.6679999999999999,0.106,-0.474,-0.062,-0.8109999999999999,-0.06,-0.332,-0.476,-0.129,-0.536,0.072,-0.519,0.243,-0.435,0.366,-0.301,0.428,0.133,1
1,0.585,-0.355,1.0,0.353,0.754,-0.006,0.825,0.1939999999999999,0.502,-0.276,0.66,0.064,0.6970000000000001,0.147,0.7240000000000001,-0.427,0.7609999999999999,0.045,0.669,0.205,0.848,-0.41,0.648,-0.047,0.568,-0.106,0.528,-0.133,0.156,-0.122,0.4479999999999999,-0.103,1
1,0.871,0.043,0.799,0.183,0.99,0.293,0.895,-0.083,0.8859999999999999,-0.02,0.904,-0.267,0.894,0.2,0.8859999999999999,-0.046,0.845,-0.01,0.979,-0.34,0.79,-0.251,0.867,-0.092,0.86,-0.0289999999999999,0.7879999999999999,-0.0409999999999999,0.759,0.218,0.882,0.092,1
1,0.7490000000000001,0.025,0.99,0.098,0.759,0.129,0.743,-0.092,0.958,0.025,0.979,-0.005,0.961,0.102,0.915,0.038,0.71,0.027,0.812,-0.08,1.0,0.0,0.718,-0.012,0.823,0.026,0.7240000000000001,-0.011,0.904,0.111,0.728,0.0279999999999999,1
1,0.473,0.195,0.062,-0.183,0.623,0.01,0.456,-0.044,0.565,0.018,0.447,0.275,0.716,-0.038,0.556,0.124,0.414,0.115,0.528,0.0279999999999999,0.512,-0.107,0.479,-0.024,0.465,0.033,0.536,0.251,0.32,-0.145,0.346,-0.003,1
1,0.599,0.147,0.6990000000000001,-0.139,0.851,-0.139,0.81,0.024,0.505,0.0279999999999999,0.674,-0.045,0.8079999999999999,-0.1369999999999999,0.514,-0.245,0.815,-0.143,0.7020000000000001,-0.004,0.3329999999999999,0.062,0.561,-0.331,0.614,-0.168,0.527,-0.021,0.539,-0.313,0.674,-0.22,1
1,0.847,-0.034,0.8640000000000001,-0.085,0.82,0.0,0.737,-0.076,0.72,-0.136,0.7490000000000001,-0.1169999999999999,0.775,-0.187,0.7809999999999999,-0.212,0.62,-0.102,0.792,-0.157,0.894,-0.034,0.8490000000000001,-0.261,0.741,-0.233,0.662,-0.223,0.726,-0.3779999999999999,0.6579999999999999,-0.248,1
1,0.4679999999999999,0.113,0.59,0.007,0.5539999999999999,0.069,0.479,-0.14,0.53,0.013,0.639,-0.162,0.6779999999999999,-0.033,0.545,-0.135,0.53,-0.047,0.479,-0.195,0.508,-0.135,0.415,-0.2019999999999999,0.539,-0.115,0.599,-0.0289999999999999,0.537,-0.118,0.563,-0.044,1
1,0.882,0.306,0.732,0.578,0.341,0.585,0.057,1.0,-0.092,0.921,-0.624,0.72,-0.698,0.326,-0.8140000000000001,0.412,-1.0,-0.008,-0.79,-0.411,-0.769,-0.455,-0.5720000000000001,-0.6759999999999999,-0.316,-0.8190000000000001,-0.03,-0.868,0.254,-0.821,0.002,-0.8170000000000001,1
1,0.8340000000000001,0.315,0.655,0.5770000000000001,0.35,0.7070000000000001,0.173,0.789,-0.19,0.799,-0.417,0.665,-0.684,0.477,-0.747,0.195,-0.722,-0.049,-0.62,-0.282,-0.492,-0.535,-0.266,-0.66,-0.015,-0.6970000000000001,0.2269999999999999,-0.644,0.431,-0.512,0.647,-0.301,1
1,0.525,-0.034,0.949,0.085,0.525,-0.1689999999999999,0.305,-0.017,0.508,-0.136,0.644,0.288,0.831,-0.356,0.542,0.017,0.5589999999999999,0.034,0.593,0.305,0.8640000000000001,0.051,0.407,0.153,0.6729999999999999,-0.003,0.6609999999999999,-0.034,0.831,-0.153,0.763,-0.102,1
1,0.3329999999999999,-0.25,0.444,0.222,0.389,0.1669999999999999,0.417,0.139,0.5,-0.111,0.5489999999999999,-0.084,0.583,0.3329999999999999,0.556,0.0279999999999999,0.25,-0.1939999999999999,0.472,-0.0559999999999999,0.528,-0.0279999999999999,0.389,0.083,0.415,-0.143,0.1939999999999999,-0.139,0.369,-0.148,0.083,-0.5,1
1,0.7559999999999999,0.496,0.836,0.5429999999999999,0.5489999999999999,0.721,0.352,0.708,0.135,0.947,-0.098,0.938,-0.376,0.8220000000000001,-0.527,0.7120000000000001,-0.684,0.68,-0.7020000000000001,0.25,-0.7909999999999999,0.03,-0.99,-0.291,-0.7040000000000001,-0.3279999999999999,-0.633,-0.192,-0.341,-0.605,-0.196,-0.63,1
1,0.924,0.369,0.72,0.684,0.293,0.941,-0.111,0.765,-0.316,0.925,-0.6659999999999999,0.7879999999999999,-0.921,0.423,-0.943,0.096,-1.0,0.032,-0.664,-0.6629999999999999,-0.46,-0.782,-0.135,-0.8809999999999999,0.198,-0.851,0.489,-0.7020000000000001,0.6990000000000001,-0.46,0.7609999999999999,-0.132,1
1,1.0,0.162,1.0,-0.0559999999999999,1.0,0.0139999999999999,1.0,-0.124,1.0,-0.015,1.0,-0.017,1.0,-0.064,1.0,-0.072,1.0,0.059,1.0,-0.1009999999999999,1.0,-0.027,1.0,-0.23,1.0,-0.068,1.0,0.083,1.0,-0.142,1.0,-0.074,1
1,0.956,-0.002,0.8640000000000001,-0.132,0.95,-0.005,0.828,-0.512,0.924,0.104,1.0,-0.142,0.993,-0.025,0.959,-0.155,0.84,0.617,1.0,-0.163,0.875,-0.085,0.857,-0.017,0.841,-0.018,0.8240000000000001,-0.019,0.8059999999999999,-0.02,0.7879999999999999,-0.02,1
1,0.8959999999999999,0.3929999999999999,0.6609999999999999,0.718,0.295,0.908,-0.048,0.944,-0.457,0.846,-0.777,0.585,-0.928,0.251,-0.923,-0.153,-0.7609999999999999,-0.484,-0.509,-0.762,-0.149,-0.8859999999999999,0.216,-0.857,0.532,-0.6859999999999999,0.748,-0.407,0.831,-0.07,0.769,0.2789999999999999,1
1,1.0,-0.241,1.0,-0.203,0.873,-0.1009999999999999,0.8859999999999999,0.013,1.0,0.114,0.924,0.063,0.848,-0.038,0.633,-0.367,0.873,-0.013,0.937,0.063,1.0,0.253,0.62,-0.38,0.846,-0.055,1.0,-0.063,0.532,0.025,0.835,-0.025,1
1,0.748,0.008,0.833,0.017,0.826,0.025,0.866,0.017,0.605,0.059,0.7909999999999999,0.047,0.774,0.054,0.647,0.193,0.84,0.042,0.713,0.071,0.6890000000000001,0.076,0.664,0.084,0.637,0.083,0.613,0.017,0.5820000000000001,0.088,0.5529999999999999,0.089,1
1,0.3939999999999999,-0.242,0.627,0.013,0.455,0.091,0.636,0.091,0.212,-0.212,0.5760000000000001,0.152,0.3939999999999999,0.0,0.562,0.046,0.515,0.03,0.7879999999999999,0.182,0.303,-0.152,0.485,0.059,0.4639999999999999,0.061,0.3329999999999999,-0.03,0.419,0.064,0.3939999999999999,0.242,1
1,0.867,0.36,0.72,0.667,0.372,0.83,0.086,0.8590000000000001,-0.241,0.861,-0.518,0.6759999999999999,-0.687,0.415,-0.77,0.099,-0.6940000000000001,-0.1369999999999999,-0.495,-0.422,-0.325,-0.5770000000000001,-0.0279999999999999,-0.6,0.154,-0.531,0.3229999999999999,-0.371,0.462,-0.1969999999999999,0.41,0.018,1
1,0.8959999999999999,0.379,0.6729999999999999,0.6940000000000001,0.359,0.887,-0.042,0.933,-0.389,0.8440000000000001,-0.6729999999999999,0.621,-0.8270000000000001,0.304,-0.862,-0.054,-0.736,-0.3429999999999999,-0.518,-0.624,-0.2339999999999999,-0.7390000000000001,0.069,-0.7390000000000001,0.335,-0.623,0.524,-0.421,0.612,-0.173,0.601,0.087,1
1,1.0,0.515,0.455,0.3329999999999999,0.061,0.364,-0.321,0.731,-0.455,0.485,-0.5760000000000001,0.0,-0.5760000000000001,-0.121,-0.3329999999999999,-0.485,-0.091,-0.848,0.485,-0.5760000000000001,0.5760000000000001,-0.424,1.0,-0.3939999999999999,0.73,0.123,0.97,0.5760000000000001,0.242,0.364,0.091,0.3329999999999999,1
1,0.8809999999999999,0.0,0.948,-0.027,0.936,-0.012,0.902,0.018,0.902,0.018,0.939,0.009,0.957,0.003,1.0,0.027,0.942,-0.012,0.909,0.024,0.915,0.055,0.997,0.049,0.897,0.022,0.909,0.009,1.0,0.055,0.976,-0.012,1
1,0.826,0.0819999999999999,0.7909999999999999,-0.0819999999999999,0.904,-0.018,0.929,0.011,0.8009999999999999,0.089,0.947,-0.007,0.943,0.0,0.933,0.2019999999999999,0.95,-0.007,0.915,0.007,0.805,0.071,0.911,0.16,0.895,0.0819999999999999,0.777,0.067,0.926,0.181,0.926,0.0,1
1,0.745,0.106,0.887,0.01,0.885,0.015,0.872,-0.0139999999999999,0.73,0.106,0.877,0.0289999999999999,0.872,0.034,0.957,0.078,0.95,0.043,0.856,0.047,0.8490000000000001,0.052,0.872,0.113,0.8340000000000001,0.06,0.745,-0.035,0.8170000000000001,0.068,0.8079999999999999,0.072,1
1,0.975,0.007,0.986,0.02,1.0,0.02,0.993,0.016,0.957,0.023,0.972,0.036,1.0,0.037,0.979,0.021,0.986,0.057,0.972,0.048,0.945,0.055,0.984,0.036,0.975,0.065,0.948,0.0819999999999999,0.991,0.062,0.989,0.099,1
1,1.0,0.011,1.0,0.011,1.0,0.023,0.994,-0.0139999999999999,0.994,-0.002,0.983,0.023,1.0,0.009,0.976,0.008,0.979,0.017,0.98,0.007,0.981,0.021,0.971,-0.007,0.98,0.016,0.979,0.015,0.986,0.021,0.987,0.0279999999999999,1
1,0.98,0.001,1.0,0.0,0.99,-0.001,0.947,0.024,0.977,0.021,0.979,0.031,0.992,0.023,0.939,0.057,0.936,0.053,0.977,0.055,1.0,0.062,0.942,0.081,0.967,0.073,0.957,0.081,0.982,0.081,0.972,0.086,1
1,0.823,-0.076,0.805,0.002,0.875,-0.012,0.868,-0.075,0.728,-0.1169999999999999,0.846,0.05,0.831,-0.074,0.748,0.067,0.7829999999999999,0.064,0.868,-0.024,0.7879999999999999,-0.06,0.745,-0.024,0.767,-0.027,0.74,-0.076,0.701,-0.042,0.784,0.012,1
1,0.353,-0.138,0.6940000000000001,-0.024,0.682,-0.036,0.557,-0.061,0.618,-0.105,0.621,-0.065,0.594,-0.073,0.423,-0.264,0.5820000000000001,0.05,0.497,-0.088,0.462,-0.09,0.45,-0.006,0.391,-0.09,0.356,-0.103,0.322,-0.086,0.289,-0.083,1
1,0.667,-0.0139999999999999,0.974,0.068,0.496,0.501,0.757,-0.003,0.652,-0.141,0.402,-0.489,0.392,0.5870000000000001,0.768,0.318,0.7859999999999999,0.113,0.475,-0.449,1.0,0.007,0.607,0.07,0.687,0.171,0.8759999999999999,0.078,0.5529999999999999,0.246,0.139,0.481,1
1,0.835,0.083,0.737,-0.147,0.843,-0.0559999999999999,0.904,-0.046,0.894,0.131,0.812,0.067,0.7929999999999999,-0.089,1.0,-0.021,0.966,0.066,0.8759999999999999,0.012,0.775,0.066,0.954,-0.042,0.835,0.001,1.0,0.128,0.867,-0.107,0.905,-0.043,1
1,0.951,0.004,0.952,-0.027,0.934,-0.019,0.946,0.016,0.965,0.033,0.942,0.073,0.946,-0.013,0.972,0.001,0.948,0.06,0.927,0.084,0.931,0.1009999999999999,0.945,0.0139999999999999,0.935,0.049,0.932,0.0819999999999999,0.941,-0.0,0.915,0.047,1
1,0.906,-0.017,0.981,-0.02,0.957,-0.036,0.857,0.001,0.897,-0.033,0.8909999999999999,-0.0139999999999999,0.906,-0.045,0.914,-0.009,0.8079999999999999,-0.129,0.887,0.012,0.922,-0.023,0.91,-0.021,0.8909999999999999,-0.078,0.83,-0.172,0.96,-0.038,0.8740000000000001,-0.162,1
1,1.0,-0.034,1.0,0.005,1.0,-0.121,0.89,0.012,0.731,0.053,0.8540000000000001,0.008,0.546,0.003,0.838,-0.136,0.755,-0.085,0.7090000000000001,-0.275,0.434,-0.121,0.575,-0.402,0.59,-0.221,0.431,-0.174,0.604,-0.242,0.56,-0.382,1
1,0.996,0.065,1.0,-0.012,0.978,0.025,0.961,0.023,0.993,0.078,0.893,0.103,0.942,0.053,0.888,0.111,0.861,0.086,0.816,0.118,0.8370000000000001,0.144,0.813,0.134,0.795,0.136,0.7909999999999999,0.154,0.7709999999999999,0.159,0.7090000000000001,0.12,1
1,0.961,0.071,1.0,0.043,1.0,0.093,0.902,-0.051,0.893,0.026,0.8320000000000001,-0.061,0.875,0.098,0.765,0.003,0.752,-0.053,0.66,-0.079,0.642,-0.059,0.557,-0.077,0.581,-0.022,0.497,-0.013,0.513,-0.0,0.521,-0.002,1
1,1.0,0.065,1.0,0.207,1.0,0.263,0.931,0.322,0.868,0.39,0.755,0.501,0.7959999999999999,0.523,0.66,0.608,0.5760000000000001,0.63,0.478,0.6709999999999999,0.406,0.688,0.344,0.721,0.2769999999999999,0.7240000000000001,0.193,0.7070000000000001,0.114,0.727,0.07,0.7140000000000001,1
1,1.0,0.098,1.0,0.122,1.0,0.226,0.986,0.092,0.949,0.192,0.93,0.243,0.892,0.283,0.855,0.267,0.8370000000000001,0.331,0.8340000000000001,0.317,0.748,0.396,0.762,0.347,0.685,0.427,0.628,0.46,0.568,0.47,0.5429999999999999,0.509,1
1,0.883,-0.22,1.0,0.364,0.8240000000000001,0.192,0.851,0.059,0.906,-0.043,0.852,0.25,0.779,0.253,0.6920000000000001,0.579,0.71,0.391,0.732,0.276,1.0,0.349,0.568,0.52,0.698,0.532,0.809,0.586,0.43,0.7090000000000001,0.524,0.542,1
1,0.284,-0.318,0.0,0.0,0.682,-1.0,0.307,0.958,0.644,0.064,0.348,-0.848,0.0,0.0,0.591,-0.36,0.451,-0.807,0.0,0.0,0.0,0.0,0.242,0.178,1.0,-0.239,0.061,-0.485,0.163,-0.701,0.0,0.0,0
1,-1.0,0.281,0.222,0.15,-0.757,-0.71,-0.307,0.7120000000000001,-1.0,1.0,-0.8170000000000001,0.34,-0.7909999999999999,-0.026,-0.98,-0.83,-0.601,-0.542,-0.046,-0.83,0.941,-0.941,-1.0,-0.431,0.7440000000000001,0.092,-1.0,0.052,0.183,0.026,-0.402,-0.482,0
1,0.904,-0.016,1.0,0.08,1.0,0.016,0.93,0.005,0.936,-0.016,1.0,0.0,1.0,0.064,1.0,0.048,0.914,0.043,0.968,0.021,0.989,-0.016,0.963,0.053,0.97,0.045,0.877,0.011,1.0,0.091,0.979,0.064,1
0,0.0,0.0,0.0,0.0,0.0,0.0,0.0,0.0,0.0,0.0,-1.0,-1.0,0.0,0.0,1.0,0.75,0.0,0.0,0.0,0.0,-1.0,1.0,0.0,0.0,1.0,-1.0,-1.0,-1.0,1.0,1.0,0.0,0.0,0
1,1.0,0.455,1.0,-0.455,1.0,0.091,1.0,-0.091,1.0,0.0,1.0,-0.273,1.0,-0.182,1.0,0.091,1.0,0.0,1.0,-0.364,1.0,0.091,1.0,-0.091,1.0,-0.049,1.0,0.455,1.0,-0.273,1.0,-0.182,1
0,-1.0,1.0,1.0,-1.0,0.0,0.0,0.0,0.0,1.0,-1.0,1.0,1.0,0.0,0.0,1.0,-1.0,0.0,0.0,0.0,0.0,1.0,1.0,-1.0,1.0,1.0,-1.0,-1.0,1.0,-1.0,-1.0,0.0,0.0,0
0,1.0,1.0,1.0,-1.0,1.0,-1.0,1.0,1.0,0.0,0.0,1.0,-1.0,0.0,0.0,0.0,0.0,0.0,0.0,-1.0,1.0,1.0,1.0,0.0,0.0,1.0,1.0,0.0,0.0,-1.0,-1.0,0.0,0.0,0
0,1.0,-1.0,1.0,1.0,1.0,1.0,1.0,1.0,1.0,1.0,1.0,-1.0,1.0,1.0,1.0,1.0,1.0,-1.0,1.0,-1.0,1.0,-1.0,1.0,-1.0,1.0,1.0,1.0,-1.0,1.0,1.0,1.0,1.0,0
1,0.575,-0.032,0.752,-0.054,0.615,-0.012,0.54,0.034,0.617,0.099,0.591,-0.024,0.627,0.012,0.708,0.026,0.603,0.016,0.478,-0.0279999999999999,0.591,0.038,0.5,0.04,0.613,-0.012,0.617,-0.135,0.688,-0.0139999999999999,0.625,-0.032,1
1,0.794,0.295,0.6409999999999999,0.523,0.413,0.682,0.142,0.835,-0.168,0.7879999999999999,-0.429,0.723,-0.5720000000000001,0.415,-0.754,0.168,-0.7,-0.099,-0.5770000000000001,-0.235,-0.406,-0.3829999999999999,-0.174,-0.525,0.015,-0.487,0.19,-0.381,0.31,-0.2319999999999999,0.346,-0.08,1
1,1.0,-0.013,1.0,0.016,1.0,-0.002,1.0,0.063,0.978,0.045,0.96,0.0289999999999999,1.0,0.065,0.989,0.034,1.0,0.036,0.998,0.094,0.957,0.074,1.0,0.1009999999999999,1.0,0.088,0.991,0.085,1.0,0.1009999999999999,1.0,0.1009999999999999,1
1,0.884,0.367,0.6709999999999999,0.674,0.396,0.8640000000000001,0.024,0.932,-0.351,0.8370000000000001,-0.603,0.588,-0.787,0.3879999999999999,-0.833,-0.006,-0.693,-0.33,-0.525,-0.539,-0.2739999999999999,-0.6809999999999999,0.008,-0.698,0.26,-0.607,0.446,-0.434,0.542,-0.215,0.563,0.0279999999999999,1
1,0.901,0.418,0.6409999999999999,0.757,0.304,0.951,-0.204,0.965,-0.555,0.812,-0.8190000000000001,0.509,-0.97,0.103,-0.915,-0.314,-0.7020000000000001,-0.655,-0.324,-0.89,0.059,-0.942,0.445,-0.8220000000000001,0.741,-0.552,0.894,-0.187,0.879,0.204,0.706,0.5489999999999999,1
