Pulse1,Pulse3,Pulse4,Pulse5,Pulse6,Pulse7,Pulse8,Pulse9,Pulse10,Pulse11,Pulse12,Pulse13,Pulse14,Pulse15,Pulse16,Pulse17,Pulse18,Pulse19,Pulse20,Pulse21,Pulse22,Pulse23,Pulse24,Pulse25,Pulse26,Pulse27,Pulse28,Pulse29,Pulse30,Pulse31,Pulse32,Pulse33,Pulse34,TARGET
1,0.995,-0.059,0.852,0.023,0.8340000000000001,-0.377,1.0,0.038,0.852,-0.178,0.598,-0.449,0.605,-0.382,0.8440000000000001,-0.385,0.5820000000000001,-0.322,0.57,-0.297,0.369,-0.474,0.568,-0.512,0.411,-0.462,0.213,-0.341,0.423,-0.545,0.186,-0.4529999999999999,1
1,1.0,-0.452,1.0,1.0,0.7120000000000001,-1.0,0.0,0.0,0.0,0.0,0.0,0.0,-1.0,0.145,0.541,-0.3929999999999999,-1.0,-0.545,-0.7,1.0,0.0,0.0,1.0,0.907,0.516,1.0,1.0,-0.201,0.257,1.0,-0.324,1.0,0
1,1.0,-0.024,0.941,0.065,0.921,-0.233,0.772,-0.1639999999999999,0.528,-0.203,0.564,-0.007,0.344,-0.275,0.529,-0.218,0.451,-0.178,0.06,-0.356,0.023,-0.529,0.033,-0.652,0.133,-0.532,0.024,-0.622,-0.057,-0.596,-0.046,-0.657,1
1,0.976,-0.106,0.946,-0.208,0.928,-0.284,0.86,-0.273,0.7979999999999999,-0.479,0.782,-0.508,0.746,-0.614,0.579,-0.6809999999999999,0.379,-0.736,0.363,-0.7659999999999999,0.319,-0.7979999999999999,0.228,-0.816,0.1369999999999999,-0.825,0.046,-0.8240000000000001,-0.043,-0.813,-0.138,-0.81,1
1,-0.019,-0.085,0.0,0.0,0.0,0.0,0.115,-0.268,-0.457,-0.382,0.0,0.0,-0.337,0.386,-0.371,0.15,0.637,0.221,0.0,0.0,0.0,0.0,-0.148,-0.013,0.206,-0.023,0.0,0.0,0.166,0.241,-0.0819999999999999,0.381,0
1,1.0,0.067,1.0,-0.184,1.0,-0.273,1.0,-0.431,1.0,-0.413,0.962,-0.519,0.907,-0.59,0.892,-0.665,0.6990000000000001,-0.71,0.706,-0.763,0.631,-0.805,0.5589999999999999,-0.8909999999999999,0.472,-0.865,0.4029999999999999,-0.8370000000000001,0.31,-0.8909999999999999,0.23,-0.892,1
1,1.0,-0.163,1.0,-0.102,1.0,-0.152,1.0,-0.193,0.941,-0.352,0.957,-0.298,0.937,-0.344,0.945,-0.281,0.901,-0.434,0.86,-0.473,0.83,-0.512,0.841,-0.471,0.762,-0.584,0.657,-0.688,0.687,-0.645,0.647,-0.672,1
1,1.0,-0.867,1.0,0.223,0.855,-0.3989999999999999,1.0,-0.121,1.0,0.351,1.0,0.078,1.0,-0.148,1.0,-1.0,1.0,-1.0,0.618,0.158,1.0,0.623,1.0,-0.17,1.0,0.359,1.0,-0.665,1.0,0.884,1.0,-0.188,0
1,0.509,-0.94,1.0,0.267,-0.035,-1.0,1.0,-1.0,0.437,-1.0,0.0,0.0,-1.0,-0.3429999999999999,-0.377,0.036,1.0,-1.0,0.0,0.0,0.0,0.0,-0.163,0.922,0.3979999999999999,0.265,0.0,0.0,1.0,0.2319999999999999,0.0,0.0,0
1,1.0,-0.006,1.0,-0.098,1.0,-0.076,1.0,-0.106,1.0,-0.111,1.0,-0.395,1.0,-0.156,0.921,-0.319,0.865,-0.345,0.917,-0.441,0.961,-0.469,0.8190000000000001,-0.4039999999999999,0.8270000000000001,-0.422,0.758,-0.382,0.804,-0.406,0.7440000000000001,-0.45,1
0,1.0,1.0,0.0,0.0,0.0,0.0,-1.0,-1.0,0.0,0.0,0.0,0.0,-1.0,-1.0,-1.0,-1.0,-1.0,1.0,-1.0,1.0,0.0,0.0,0.0,0.0,1.0,-1.0,-1.0,1.0,-1.0,1.0,-1.0,1.0,0
0,-1.0,1.0,0.0,0.0,0.0,0.0,-1.0,1.0,1.0,1.0,0.0,0.0,0.0,0.0,1.0,-1.0,-1.0,1.0,1.0,1.0,0.0,0.0,-1.0,-1.0,1.0,-1.0,1.0,1.0,-1.0,1.0,0.0,0.0,0
1,1.0,-0.062,1.0,0.0289999999999999,1.0,-0.051,1.0,-0.017,1.0,-0.1169999999999999,0.845,-0.052,0.934,-0.066,0.6920000000000001,-0.074,0.657,-0.204,0.949,-0.316,0.809,-0.317,0.8490000000000001,-0.348,0.725,-0.292,0.731,-0.386,0.544,-0.263,0.642,-0.395,1
1,1.0,-0.087,1.0,-0.173,0.866,-0.818,0.948,0.611,0.955,-0.414,0.885,-0.317,0.879,-0.2339999999999999,0.8109999999999999,-0.622,0.122,-1.0,0.903,0.111,0.624,-0.785,0.5539999999999999,-0.8290000000000001,0.481,-0.866,0.406,-0.897,0.33,-0.921,-0.133,-1.0,1
1,0.882,-0.146,0.934,-0.111,0.921,-0.1639999999999999,0.883,-0.17,0.885,-0.318,0.853,-0.315,0.821,-0.359,0.807,-0.336,0.752,-0.47,0.706,-0.472,0.662,-0.501,0.613,-0.481,0.568,-0.546,0.502,-0.599,0.471,-0.574,0.422,-0.581,1
1,0.713,-0.026,0.413,-0.231,0.98,-0.095,0.997,-0.102,1.0,-0.11,0.59,1.0,0.8370000000000001,-1.0,0.823,-0.179,0.8079999999999999,-0.283,-0.259,0.927,0.519,0.055,0.655,-0.204,0.931,-0.413,0.638,-0.2189999999999999,0.861,-0.8740000000000001,-0.2319999999999999,-1.0,0
1,1.0,-0.159,0.723,0.2769999999999999,0.8340000000000001,-0.584,1.0,-0.282,1.0,-0.499,0.8,-0.125,0.768,0.146,1.0,0.3929999999999999,1.0,0.266,0.964,-0.019,0.926,-0.913,1.0,0.148,1.0,-0.1159999999999999,1.0,-0.111,1.0,0.534,1.0,-0.578,1
1,0.662,-1.0,1.0,1.0,1.0,-0.6729999999999999,0.809,-0.4039999999999999,1.0,-1.0,1.0,-0.894,1.0,0.7340000000000001,0.176,0.71,1.0,0.78,1.0,0.853,1.0,-1.0,1.0,0.8540000000000001,1.0,-0.086,0.96,-0.362,1.0,0.653,1.0,0.347,0
0,0.0,0.0,0.0,0.0,0.0,0.0,1.0,1.0,1.0,1.0,0.0,0.0,0.0,0.0,-0.375,-1.0,-1.0,-1.0,0.0,0.0,0.0,0.0,-1.0,-1.0,-1.0,-1.0,-1.0,1.0,1.0,0.0,0.0,0.0,0
1,1.0,-0.037,1.0,-0.074,0.996,-0.11,0.998,-0.099,0.989,-0.138,0.967,-0.217,0.953,-0.251,0.912,-0.344,0.906,-0.322,0.9,-0.347,0.879,-0.376,0.862,-0.43,0.8320000000000001,-0.431,0.8140000000000001,-0.426,0.779,-0.48,0.7509999999999999,-0.502,1
1,0.982,0.009,0.981,-0.038,0.976,-0.057,0.959,-0.07,0.99,-0.045,0.947,-0.111,0.934,-0.128,0.942,-0.1159999999999999,0.797,-0.192,0.883,-0.174,0.863,-0.187,0.885,-0.1969999999999999,0.818,-0.211,0.785,-0.239,0.769,-0.231,0.743,-0.239,1
1,1.0,1.0,1.0,1.0,0.91,1.0,-0.27,1.0,-0.8320000000000001,1.0,-1.0,1.0,-1.0,0.725,-1.0,-0.578,-1.0,-0.421,-1.0,-1.0,-0.528,-1.0,0.9,-1.0,1.0,-1.0,1.0,-1.0,1.0,-0.347,1.0,0.348,1
1,-0.679,-1.0,-1.0,1.0,1.0,0.633,0.035,-1.0,-1.0,-1.0,1.0,1.0,0.887,-1.0,-1.0,1.0,0.838,1.0,1.0,-1.0,-1.0,-1.0,-0.1889999999999999,1.0,1.0,-1.0,-1.0,-1.0,-1.0,1.0,1.0,0.336,0
1,0.957,0.081,0.975,-0.057,0.972,-0.085,0.961,-0.066,0.947,0.013,0.954,-0.168,0.946,-0.195,0.996,-0.3229999999999999,0.903,-0.359,0.914,-0.273,0.901,-0.298,0.999,-0.407,0.872,-0.346,0.921,-0.306,0.84,-0.391,0.8220000000000001,-0.412,1
1,0.083,-0.207,-1.0,1.0,-1.0,1.0,0.7190000000000001,0.472,-0.821,-0.627,-1.0,-1.0,-1.0,1.0,-0.0279999999999999,0.5920000000000001,-0.421,-0.421,-0.746,-1.0,-1.0,-0.4679999999999999,-1.0,0.238,1.0,-1.0,-1.0,-0.389,-1.0,-1.0,-1.0,0.615,0
1,1.0,-0.023,1.0,-0.045,1.0,-0.067,1.0,-0.088,1.0,0.562,1.0,-0.127,1.0,-0.145,1.0,0.324,1.0,-0.176,0.995,-0.1889999999999999,0.956,-0.201,1.0,-0.923,0.873,-0.218,0.8290000000000001,-0.2239999999999999,0.785,-0.228,0.74,-0.23,1
0,-1.0,1.0,1.0,-1.0,-1.0,1.0,0.0,0.0,1.0,1.0,-1.0,-0.188,1.0,1.0,-1.0,-1.0,1.0,-1.0,-1.0,-1.0,1.0,1.0,1.0,-1.0,1.0,1.0,1.0,1.0,0.0,0.0,-1.0,-1.0,0
1,1.0,0.0579999999999999,0.945,0.074,1.0,0.132,1.0,-0.019,0.948,0.07,0.957,0.146,0.949,0.1119999999999999,0.909,0.201,0.967,0.163,0.997,0.143,0.908,0.1639999999999999,0.917,0.2239999999999999,0.884,0.236,0.8859999999999999,0.225,0.7829999999999999,0.296,0.836,0.312,1
1,0.172,-1.0,-1.0,1.0,0.0,0.0,0.0,0.0,-1.0,1.0,0.0,0.0,-0.614,-0.677,0.805,0.361,0.52,0.144,0.0,0.0,-1.0,-0.271,-0.848,0.962,1.0,1.0,-1.0,0.677,0.0,0.0,0.0,0.0,0
1,0.017,-0.356,0.0,0.0,0.0,0.0,0.0,0.0,0.0,0.0,0.0,0.0,0.123,-0.55,0.228,0.828,1.0,-0.423,0.0,0.0,0.083,-1.0,-0.106,-0.1669999999999999,1.0,-0.767,-1.0,0.1889999999999999,0.0,0.0,1.0,-0.273,0
1,1.0,0.28,1.0,0.025,1.0,0.078,1.0,0.043,0.988,0.3329999999999999,1.0,0.055,1.0,0.044,0.958,-0.246,0.8440000000000001,-0.087,1.0,0.042,0.999,0.2739999999999999,1.0,-0.391,0.964,-0.022,0.867,0.2339999999999999,0.946,-0.22,0.804,-0.073,1
0,1.0,-1.0,1.0,-1.0,1.0,-1.0,1.0,-1.0,1.0,1.0,1.0,1.0,1.0,-1.0,1.0,1.0,1.0,1.0,1.0,1.0,1.0,-1.0,1.0,-1.0,1.0,-1.0,1.0,0.6559999999999999,0.0,0.0,1.0,-1.0,0
1,1.0,1.0,1.0,-1.0,1.0,-1.0,1.0,1.0,1.0,1.0,1.0,1.0,1.0,-1.0,1.0,1.0,1.0,1.0,1.0,1.0,1.0,1.0,1.0,1.0,1.0,0.5,0.0,0.0,1.0,-1.0,1.0,-1.0,0
1,1.0,0.035,1.0,0.183,1.0,0.27,1.0,0.251,1.0,0.288,1.0,0.386,1.0,0.317,1.0,0.657,1.0,0.5379999999999999,1.0,0.613,1.0,0.595,0.8959999999999999,0.6829999999999999,0.895,0.7140000000000001,0.856,0.6709999999999999,0.7440000000000001,0.856,0.715,0.758,1
0,1.0,-1.0,1.0,1.0,-1.0,-1.0,1.0,-1.0,0.0,0.0,0.0,0.0,-1.0,1.0,1.0,-1.0,1.0,-1.0,-0.75,1.0,1.0,-1.0,1.0,-1.0,1.0,-1.0,-1.0,-1.0,0.0,0.0,1.0,-1.0,0
1,1.0,0.051,1.0,0.108,1.0,0.195,1.0,0.285,1.0,0.348,1.0,0.3829999999999999,0.946,0.429,0.8909999999999999,0.504,0.759,0.588,0.8059999999999999,0.6,0.7959999999999999,0.628,0.6659999999999999,0.639,0.594,0.6940000000000001,0.495,0.727,0.47,0.7170000000000001,0.3339999999999999,0.752,1
0,1.0,1.0,1.0,-1.0,1.0,1.0,1.0,1.0,1.0,1.0,1.0,1.0,1.0,1.0,1.0,-1.0,-1.0,1.0,-1.0,1.0,-1.0,1.0,1.0,-1.0,1.0,1.0,-1.0,1.0,-1.0,-1.0,-1.0,1.0,0
1,1.0,-0.066,1.0,0.629,1.0,0.096,1.0,0.203,1.0,-1.0,1.0,-0.406,1.0,-0.159,1.0,0.049,1.0,-0.615,1.0,-0.266,1.0,-1.0,1.0,-0.58,1.0,-0.8140000000000001,1.0,-1.0,1.0,-0.7859999999999999,1.0,-0.483,1
0,1.0,-1.0,1.0,1.0,1.0,1.0,1.0,1.0,1.0,1.0,1.0,-1.0,1.0,-1.0,1.0,1.0,1.0,-1.0,1.0,1.0,1.0,1.0,1.0,-1.0,1.0,1.0,1.0,-1.0,1.0,1.0,1.0,-1.0,0
1,0.7490000000000001,-0.0279999999999999,0.657,-0.052,0.8059999999999999,0.0279999999999999,0.8590000000000001,0.025,0.635,0.087,0.716,0.078,0.731,0.052,0.7859999999999999,-0.278,0.66,-0.015,0.787,0.07,0.346,-0.186,0.654,0.0279999999999999,0.61,-0.066,0.536,-0.212,0.59,-0.141,0.564,0.03,1
1,0.675,0.045,0.77,-0.106,0.774,0.038,0.66,-0.045,0.645,0.011,0.6679999999999999,-0.14,0.721,-0.023,0.77,0.087,0.619,-0.079,0.758,-0.238,0.74,-0.147,0.8490000000000001,-0.151,0.7390000000000001,-0.0579999999999999,0.6679999999999999,0.023,0.8640000000000001,0.038,0.732,0.008,1
1,0.419,0.125,0.35,0.125,0.2319999999999999,0.28,-0.036,0.4429999999999999,0.045,0.362,-0.191,0.336,-0.134,0.273,0.027,0.405,-0.348,0.127,-0.2,0.051,-0.186,0.364,-0.14,-0.048,-0.1,-0.071,-1.0,-1.0,-0.0289999999999999,-0.075,-0.005,-0.063,0
1,0.7090000000000001,-0.248,0.643,0.043,0.452,0.3829999999999999,0.652,0.183,0.5,0.27,0.578,-0.23,0.504,0.3779999999999999,0.387,-0.426,0.361,-0.261,0.27,0.1169999999999999,0.532,-0.038,0.313,-0.122,0.499,-0.043,0.483,-0.044,0.643,-0.252,0.504,0.148,1
1,-0.542,0.149,-0.337,0.7340000000000001,0.52,-0.139,0.319,-0.068,0.207,-0.152,0.474,0.09,0.563,-0.155,0.1639999999999999,0.452,0.337,0.034,0.505,0.071,-0.638,-0.616,1.0,0.6559999999999999,0.413,-0.401,-0.152,0.111,0.024,0.5579999999999999,0.526,-0.09,0
1,0.901,0.166,0.7929999999999999,0.374,0.73,0.505,0.598,0.73,0.4429999999999999,0.812,0.244,0.875,0.064,0.85,-0.126,0.8740000000000001,-0.287,0.7959999999999999,-0.466,0.659,-0.5710000000000001,0.5379999999999999,-0.682,0.4,-0.718,0.258,-0.7240000000000001,0.1119999999999999,-0.715,-0.055,-0.677,-0.1989999999999999,1
1,0.977,0.19,0.8270000000000001,0.4629999999999999,0.718,0.5870000000000001,0.48,0.843,0.314,0.926,0.103,0.939,-0.133,0.843,-0.32,0.916,-0.521,0.795,-0.6829999999999999,0.495,-0.774,0.335,-0.8540000000000001,0.178,-0.833,-0.0139999999999999,-0.8240000000000001,-0.193,-0.6729999999999999,-0.337,-0.599,-0.497,1
1,-1.0,-1.0,0.0,0.0,0.508,-0.785,0.606,0.3289999999999999,-1.0,-0.414,0.0,0.0,0.0,0.0,1.0,-0.267,0.365,-0.635,0.971,-1.0,-1.0,-1.0,1.0,-0.596,-1.0,-1.0,-1.0,-1.0,1.0,-1.0,0.0,0.0,0
1,0.741,0.05,0.7909999999999999,0.025,0.7859999999999999,0.038,0.662,0.099,0.6779999999999999,0.312,0.759,0.073,0.747,0.084,0.7070000000000001,-0.079,0.636,0.0,0.7,0.114,0.682,0.122,0.67,0.154,0.642,0.136,0.657,0.175,0.598,0.147,0.575,0.151,1
1,1.0,-1.0,0.0,0.0,0.779,-0.993,0.809,0.551,-0.419,-0.949,0.0,0.0,0.0,0.0,0.721,-0.772,0.735,-0.603,0.0,0.0,0.184,-1.0,-1.0,-1.0,-1.0,-1.0,1.0,-1.0,1.0,-1.0,0.0,0.0,0
1,0.945,-0.493,1.0,-0.037,0.989,-0.871,0.901,0.669,1.0,-0.1009999999999999,1.0,-0.125,1.0,-0.15,1.0,-0.177,1.0,-0.205,1.0,-0.235,1.0,-0.266,1.0,-0.299,1.0,-0.3329999999999999,1.0,-0.369,1.0,-0.407,1.0,-0.447,1
1,0.994,0.005,0.841,-0.113,0.882,-0.1639999999999999,0.991,-0.063,0.965,-0.075,0.852,0.03,0.872,-0.208,0.939,-0.13,0.983,-0.089,0.899,0.001,0.878,-0.059,0.934,-0.1989999999999999,0.8759999999999999,-0.178,0.943,-0.166,0.8029999999999999,-0.257,0.7659999999999999,-0.278,1
1,0.1009999999999999,0.108,0.0,0.0,0.0,0.0,0.547,0.8240000000000001,0.311,1.0,0.0,0.0,0.0,0.0,0.372,-1.0,0.331,-1.0,0.0,0.0,0.0,0.0,-0.426,-1.0,1.0,-1.0,0.5539999999999999,-0.236,0.0,0.0,0.0,0.0,0
1,1.0,-0.5720000000000001,0.992,-0.7340000000000001,0.895,-0.974,1.0,-0.358,1.0,-0.2319999999999999,0.629,-0.8640000000000001,1.0,-0.575,1.0,-0.7959999999999999,0.768,-0.89,0.966,-1.0,0.701,-0.7490000000000001,0.619,-0.769,0.5379999999999999,-0.78,0.81,-1.0,1.0,-1.0,0.304,-0.7609999999999999,1
1,0.659,-0.629,0.0,0.0,0.0,0.0,0.773,1.0,1.0,-0.28,0.0,0.0,0.0,0.0,0.621,-0.2269999999999999,0.841,-1.0,1.0,-1.0,0.0,0.0,0.0,0.0,1.0,-0.939,-0.129,-0.932,0.0,0.0,0.0,0.0,0
1,0.863,0.193,0.809,0.411,0.672,0.5579999999999999,0.546,0.7,0.367,0.815,0.196,0.857,-0.0409999999999999,0.863,-0.172,0.758,-0.341,0.657,-0.482,0.561,-0.602,0.41,-0.5920000000000001,0.257,-0.63,0.088,-0.5720000000000001,-0.078,-0.5489999999999999,-0.1989999999999999,-0.429,-0.32,1
1,0.914,0.816,-0.73,1.0,-0.395,0.557,0.054,0.297,-0.186,-0.102,-0.032,-0.09,0.0139999999999999,-0.034,0.011,-0.005,0.003,0.001,0.0,0.001,-0.0,0.0,-0.0,0.0,-0.0,0.0,0.0,0.0,0.0,0.0,0.0,0.0,0
1,0.982,0.0,0.8859999999999999,0.031,0.862,0.046,0.8,0.0,0.691,0.045,0.7929999999999999,0.084,0.7709999999999999,0.096,0.627,0.255,0.682,0.127,0.7070000000000001,0.126,0.6859999999999999,0.135,0.745,0.2269999999999999,0.6459999999999999,0.151,0.6729999999999999,0.027,0.607,0.165,0.588,0.171,1
1,0.3929999999999999,0.524,-0.7879999999999999,0.113,-0.166,-0.764,0.667,0.012,0.821,0.405,-0.672,0.307,-0.348,-0.637,0.4639999999999999,0.155,0.5479999999999999,0.06,-0.518,0.45,-0.477,-0.476,0.321,0.7020000000000001,0.52,0.3879999999999999,0.5710000000000001,0.3929999999999999,-0.5489999999999999,-0.299,0.254,-0.5579999999999999,0
1,0.738,0.833,-0.762,-0.238,0.3329999999999999,-0.143,0.452,-0.143,-0.6729999999999999,0.128,0.3329999999999999,0.0,0.286,-0.071,-0.382,0.512,0.238,0.024,0.452,0.048,0.1669999999999999,-0.262,-0.573,-0.102,0.249,-0.511,1.0,0.0,-0.667,-0.048,0.262,0.024,0
1,0.4379999999999999,0.042,0.583,-0.104,0.396,0.0,0.3329999999999999,-0.062,0.479,0.0,0.292,0.104,0.542,0.021,0.4379999999999999,-0.2289999999999999,0.354,-0.2289999999999999,0.3329999999999999,0.083,0.25,0.188,0.396,-0.188,0.44,-0.1009999999999999,0.417,-0.083,0.583,-0.312,0.3329999999999999,-0.062,1
1,1.0,1.0,0.0,0.0,0.0,0.0,0.0,0.0,0.477,-0.8909999999999999,-0.515,0.455,-0.955,0.286,0.647,1.0,0.0,0.0,0.0,0.0,0.62,0.203,-1.0,-1.0,1.0,-1.0,1.0,1.0,0.0,0.0,0.0,0.0,0
1,0.952,0.066,0.936,0.13,0.91,0.192,0.8490000000000001,-0.5,0.9,0.613,0.779,0.3429999999999999,0.723,0.38,0.6609999999999999,0.408,0.955,0.599,0.5329999999999999,0.441,0.4679999999999999,0.445,0.4039999999999999,0.442,0.344,0.432,0.903,1.0,0.2339999999999999,0.396,0.186,0.372,1
1,0.598,0.4029999999999999,0.828,0.805,0.76,0.7070000000000001,0.84,-0.11,0.973,0.08,0.958,-0.857,0.92,0.884,0.955,-0.052,0.887,0.181,0.985,-0.696,0.867,-0.858,0.286,-0.301,1.0,0.171,0.63,0.427,0.878,0.81,0.82,0.688,0
1,0.0,0.0,-0.337,0.8540000000000001,0.0,0.0,0.6890000000000001,-1.0,0.971,0.314,-0.26,-0.5920000000000001,-0.302,0.6559999999999999,0.942,0.1639999999999999,0.0,0.0,0.0,0.0,-0.18,-1.0,0.0,0.0,1.0,-1.0,0.0,0.0,0.044,0.619,0.0,0.0,0
1,0.969,0.009,1.0,0.008,0.987,-0.008,0.979,-0.0279999999999999,0.998,-0.035,1.0,-0.013,1.0,-0.026,1.0,-0.012,0.985,0.0,1.0,-0.026,1.0,-0.047,0.96,-0.045,0.992,-0.035,0.97,-0.025,1.0,-0.039,0.984,-0.0409999999999999,1
1,1.0,1.0,1.0,-1.0,0.0,0.0,0.0,0.0,1.0,1.0,1.0,-1.0,1.0,1.0,1.0,-1.0,0.0,0.0,0.0,0.0,1.0,-0.278,0.0,0.0,1.0,-1.0,1.0,1.0,1.0,-1.0,0.0,0.0,0
1,0.347,0.204,0.469,0.245,0.408,0.204,0.469,0.449,0.306,0.5920000000000001,0.122,0.551,0.0,0.51,-0.061,0.551,-0.204,0.551,-0.286,0.449,-0.286,0.327,-0.612,0.2239999999999999,-0.466,0.149,-0.5920000000000001,0.184,-0.347,0.0,-0.265,-0.245,1
1,0.0,0.0,1.0,-1.0,0.0,0.0,0.0,0.0,1.0,1.0,1.0,-0.253,1.0,0.233,1.0,-1.0,0.0,0.0,0.0,0.0,1.0,1.0,0.0,0.0,1.0,-1.0,0.0,0.0,1.0,-1.0,0.0,0.0,0
1,-0.267,0.4,-0.273,0.122,-0.178,-0.044,0.062,-0.069,0.045,0.026,-0.009,0.027,-0.016,-0.002,-0.001,-0.009,0.005,-0.002,0.001,0.002,-0.001,0.001,-0.001,-0.0,0.0,-0.0,0.0,0.0,0.0,0.0,-0.0,0.0,0
1,1.0,-0.3779999999999999,0.649,0.297,0.649,-0.243,0.865,0.1889999999999999,1.0,-0.27,0.514,0.0,0.622,-0.054,0.324,-0.216,0.718,-0.177,0.622,0.054,0.757,0.135,0.351,-0.297,0.61,-0.222,0.585,-0.23,0.73,-0.595,0.514,-0.243,1
1,0.945,-0.035,-1.0,-0.332,-1.0,-0.016,0.973,0.012,0.934,-0.02,-1.0,0.1639999999999999,-1.0,-0.004,0.953,-0.035,0.922,-0.027,-0.992,0.1169999999999999,-0.934,0.348,0.957,-0.004,0.82,0.138,0.902,-0.066,-1.0,-0.188,-1.0,-0.344,0
1,0.31,-0.103,0.241,-0.103,0.207,-0.069,0.074,-0.054,0.036,-0.037,0.017,-0.024,0.007,-0.015,0.003,-0.009,0.001,-0.005,-0.0,-0.003,-0.0,-0.002,-0.0,-0.001,-0.0,-0.0,-0.0,-0.0,-0.0,-0.0,-0.0,-0.0,1
1,0.25,0.1669999999999999,0.467,0.267,0.19,0.24,0.078,0.1989999999999999,0.011,0.149,-0.024,0.102,-0.037,0.063,-0.038,0.035,-0.032,0.015,-0.025,0.004,-0.017,-0.003,-0.011,-0.005,-0.006,-0.006,-0.003,-0.005,-0.001,-0.004,0.0,-0.003,1
1,1.0,-0.011,1.0,-0.027,1.0,-0.065,0.951,-0.016,0.989,-0.032,0.989,0.086,1.0,-0.065,0.951,0.092,0.978,-0.005,1.0,0.065,1.0,0.043,0.978,0.092,0.986,0.013,1.0,-0.032,1.0,0.027,1.0,-0.07,1
1,0.853,0.054,1.0,0.081,1.0,1.0,0.915,-0.008,0.8370000000000001,0.039,1.0,0.272,1.0,1.0,0.8140000000000001,0.047,0.907,0.1159999999999999,1.0,0.507,1.0,-1.0,0.8059999999999999,0.039,1.0,0.716,0.845,0.07,1.0,0.873,1.0,1.0,0
1,-0.205,0.288,0.23,0.1,0.282,0.318,0.322,0.35,0.363,-0.346,0.092,0.275,-0.095,0.21,-0.088,0.235,-0.342,0.314,-0.48,-0.08,0.299,0.332,-0.58,-0.24,0.322,-0.285,-0.47,0.185,-0.271,-0.312,0.4039999999999999,0.03,0
1,0.947,0.287,0.726,0.672,0.476,0.825,0.013,0.8909999999999999,-0.249,0.845,-0.476,0.561,-0.759,0.417,-0.665,0.072,-0.654,-0.195,-0.525,-0.44,-0.309,-0.551,-0.0409999999999999,-0.648,0.161,-0.564,0.368,-0.419,0.461,-0.225,0.504,-0.06,1
1,0.055,0.0139999999999999,-0.026,0.046,0.0139999999999999,0.046,-0.078,0.009,0.017,-0.066,-0.037,0.043,-0.083,-0.046,-0.095,0.08,-0.04,0.052,0.02,0.023,-0.037,-0.011,0.032,-0.009,0.009,0.017,0.026,0.011,0.026,0.011,-0.046,-0.006,0
1,0.471,0.228,0.423,0.336,0.257,0.476,0.019,0.495,-0.021,0.54,-0.341,0.312,-0.413,0.325,-0.516,0.069,-0.5,-0.1159999999999999,-0.148,-0.146,-0.148,-0.381,-0.233,0.003,0.036,-0.317,0.159,-0.217,0.249,-0.243,0.267,0.042,1
1,0.087,0.007,0.14,-0.0409999999999999,0.105,-0.0819999999999999,0.126,-0.062,0.233,-0.011,0.124,0.078,0.146,-0.135,0.291,-0.048,0.19,0.073,0.1169999999999999,0.0,0.1119999999999999,-0.002,0.151,-0.103,0.085,0.0139999999999999,0.1119999999999999,-0.066,0.096,-0.073,0.1169999999999999,-0.069,0
1,0.857,0.001,0.8190000000000001,-0.057,0.775,-0.042,0.843,0.09,0.863,0.119,0.8809999999999999,-0.061,0.7829999999999999,0.035,0.8370000000000001,-0.068,0.836,-0.142,0.8809999999999999,0.012,0.905,0.022,0.797,-0.019,0.8240000000000001,-0.037,0.8809999999999999,-0.064,0.7390000000000001,-0.019,0.7909999999999999,-0.092,1
1,1.0,1.0,1.0,0.512,0.625,-1.0,1.0,1.0,0.025,0.031,1.0,1.0,0.0,0.0,1.0,-1.0,1.0,1.0,1.0,1.0,0.312,1.0,1.0,1.0,1.0,1.0,1.0,1.0,-0.944,1.0,0.0,0.0,0
1,1.0,0.5489999999999999,0.627,1.0,0.02,1.0,-0.49,0.922,-0.8240000000000001,0.588,-1.0,0.118,-0.961,-0.3329999999999999,-0.647,-0.6859999999999999,-0.235,-0.863,0.353,-1.0,0.745,-0.725,0.922,-0.216,0.929,0.2189999999999999,0.725,0.569,0.235,0.902,-0.118,0.902,1
1,0.0,0.0,-1.0,-1.0,-1.0,1.0,0.0,0.0,-1.0,1.0,1.0,1.0,1.0,-1.0,0.0,0.0,0.0,0.0,-1.0,-1.0,-1.0,1.0,1.0,0.4379999999999999,1.0,-1.0,0.0,0.0,-1.0,-1.0,-1.0,1.0,0
1,0.444,0.444,0.537,0.908,-0.222,1.0,-0.3329999999999999,0.889,-1.0,0.3329999999999999,-1.0,-0.111,-1.0,-0.222,-0.667,-0.778,0.556,-1.0,-0.222,-0.778,0.778,-0.222,0.3329999999999999,0.0,0.921,0.45,0.575,0.8440000000000001,0.222,1.0,-0.556,1.0,1
1,1.0,0.0,1.0,0.0,0.5,0.5,0.75,0.0,0.912,0.121,0.8909999999999999,0.142,0.8690000000000001,0.162,0.75,0.25,0.75,0.5,0.75,0.0,1.0,-0.25,0.5,0.5,0.7390000000000001,0.264,0.75,0.25,0.696,0.291,0.675,0.303,1
1,1.0,0.0,1.0,0.0,0.667,0.111,1.0,-0.111,0.889,-0.111,1.0,-0.222,0.778,0.0,0.778,0.0,1.0,-0.111,0.778,-0.111,0.667,-0.111,0.667,0.0,0.903,-0.054,1.0,0.111,0.889,-0.111,1.0,0.0,1
1,0.0,0.0,-1.0,-0.628,1.0,0.511,0.08,-0.2339999999999999,-1.0,-0.362,0.128,-0.59,1.0,-1.0,0.0,0.0,0.83,-0.08,-0.25,1.0,0.17,-0.7070000000000001,0.0,0.0,-0.191,-0.4679999999999999,-0.223,-0.489,0.745,0.904,-0.6759999999999999,0.457,0
1,0.917,0.292,0.833,-0.1669999999999999,0.708,0.25,0.875,-0.083,0.917,0.042,0.833,0.125,0.708,0.0,0.875,0.042,1.0,0.083,0.667,-0.083,0.75,0.1669999999999999,0.833,-0.125,0.838,0.055,1.0,0.208,0.708,0.0,0.708,0.042,1
1,0.186,-0.1669999999999999,0.0,0.0,0.0,0.0,0.0,0.0,0.0,0.0,0.115,-0.191,0.0,0.0,0.0,0.0,0.0,0.0,0.0,0.0,-0.051,-0.066,0.079,0.09,0.173,-0.109,0.125,0.096,0.026,-0.048,0.168,0.196,0
1,1.0,1.0,-1.0,1.0,-1.0,-0.825,0.346,0.211,0.461,0.07,0.228,0.057,0.351,0.346,0.728,-0.039,0.228,0.531,0.0,0.0,-0.298,-0.162,1.0,-0.667,1.0,-1.0,1.0,-0.246,0.351,0.2019999999999999,0.8290000000000001,0.079,0
1,-1.0,-1.0,-0.507,1.0,1.0,-1.0,1.0,0.5379999999999999,0.0,0.0,0.24,-1.0,1.0,1.0,0.0,0.0,1.0,1.0,1.0,1.0,0.0,0.0,-0.715,1.0,0.3329999999999999,-1.0,1.0,-1.0,0.698,-1.0,0.476,1.0,0
1,0.8420000000000001,0.435,0.5,0.762,0.099,0.935,-0.3779999999999999,0.882,-0.7240000000000001,0.612,-0.939,0.1939999999999999,-0.867,-0.255,-0.629,-0.6559999999999999,-0.251,-0.857,0.162,-0.865,0.515,-0.669,0.7490000000000001,-0.289,0.779,0.079,0.6409999999999999,0.428,0.314,0.624,-0.004,0.6940000000000001,1
0,-1.0,1.0,-1.0,-1.0,0.0,0.0,-1.0,1.0,1.0,-1.0,-1.0,-1.0,-1.0,1.0,0.0,0.0,-1.0,-1.0,-1.0,1.0,0.0,0.0,1.0,-1.0,1.0,1.0,1.0,-1.0,1.0,1.0,0.0,0.0,0
1,1.0,0.051,0.994,0.1009999999999999,0.961,0.148,0.955,-0.265,0.66,0.547,0.804,0.253,0.738,0.2739999999999999,0.6679999999999999,0.287,0.596,0.293,0.525,0.292,0.456,0.285,0.39,0.272,0.3289999999999999,0.256,0.2739999999999999,0.236,0.2239999999999999,0.214,0.181,0.191,1
1,0.937,-0.002,0.608,0.432,0.923,-0.401,0.931,0.168,0.962,0.091,0.997,0.0819999999999999,0.916,0.051,0.846,-0.253,0.8740000000000001,-0.145,0.8490000000000001,0.261,0.7509999999999999,-0.036,0.845,-0.026,0.873,-0.023,0.985,0.094,0.7829999999999999,-0.102,0.858,-0.147,1
1,1.0,0.231,1.0,-0.785,1.0,-0.104,1.0,0.154,1.0,0.278,0.981,-0.069,1.0,0.066,0.958,-0.19,0.836,-0.156,0.974,0.037,0.996,0.092,1.0,-0.013,0.962,-0.046,0.912,0.039,1.0,-0.1369999999999999,0.965,-0.1169999999999999,1
1,0.7979999999999999,0.3829999999999999,0.8079999999999999,-0.17,1.0,-0.077,0.982,-0.074,0.7020000000000001,0.207,0.997,0.021,0.982,0.025,1.0,-0.131,0.957,0.077,1.0,0.002,0.903,0.308,1.0,-0.145,1.0,-0.004,0.7559999999999999,0.079,1.0,-0.188,1.0,-0.057,1
1,1.0,-0.284,1.0,-0.253,0.946,-0.351,1.0,-0.306,0.927,-0.491,0.908,-0.441,0.757,-0.589,0.6970000000000001,-0.58,0.596,-0.5760000000000001,0.685,-0.71,0.545,-0.873,0.492,-0.733,0.355,-0.7609999999999999,0.264,-0.782,0.166,-0.731,0.14,-0.7,1
0,0.0,0.0,-1.0,1.0,1.0,1.0,-1.0,-1.0,0.0,0.0,-1.0,-1.0,-1.0,-0.312,-1.0,-1.0,1.0,-1.0,1.0,-1.0,0.0,0.0,1.0,-1.0,-1.0,-1.0,0.0,0.0,1.0,-1.0,0.0,0.0,0
1,-1.0,1.0,-1.0,0.152,0.284,1.0,-1.0,1.0,-1.0,-1.0,1.0,1.0,-1.0,-0.235,0.283,-1.0,1.0,1.0,-0.314,-1.0,-1.0,-1.0,1.0,-1.0,-1.0,-0.036,1.0,-1.0,-1.0,-0.3229999999999999,0.149,1.0,0
1,0.474,-0.105,0.838,0.018,0.8320000000000001,0.026,0.684,-0.053,0.684,0.0,0.799,0.05,0.7829999999999999,0.0579999999999999,0.8420000000000001,0.474,1.0,0.053,0.726,0.076,0.703,0.081,0.421,0.211,0.654,0.09,0.526,-0.211,0.602,0.095,0.574,0.0969999999999999,1
1,-0.006,-0.5,0.0,0.0,-0.019,1.0,0.0,0.0,0.0,0.0,0.0,0.0,0.0,0.0,0.0,0.0,0.314,0.929,-0.353,0.7440000000000001,-0.346,-0.8079999999999999,0.0,0.0,-0.615,-0.513,0.0,0.0,0.0,0.0,0.0,0.0,0
1,0.455,0.091,0.636,0.091,0.273,0.182,0.636,0.0,0.364,-0.091,0.455,-0.091,0.486,-0.013,0.636,-0.182,0.455,0.0,0.364,-0.091,0.273,0.182,0.364,-0.091,0.344,-0.018,0.273,0.0,0.364,0.0,0.29,-0.018,1
1,-1.0,-0.597,0.0,0.0,-1.0,0.645,-0.871,1.0,0.0,0.0,0.0,0.0,0.0,0.0,0.0,0.0,0.0,0.0,-1.0,-1.0,0.0,0.0,0.298,0.2339999999999999,1.0,0.516,0.0,0.0,0.0,0.0,0.0,0.0,0
1,0.975,0.131,0.941,0.2,0.888,0.322,0.89,0.327,0.856,0.452,0.723,0.523,0.6990000000000001,0.588,0.585,0.669,0.489,0.7040000000000001,0.442,0.682,0.353,0.7559999999999999,0.268,0.762,0.168,0.785,0.075,0.804,-0.03,0.777,-0.103,0.742,1
0,0.0,0.0,1.0,1.0,1.0,1.0,0.0,0.0,0.0,0.0,-1.0,-1.0,0.0,0.0,-1.0,-1.0,0.0,0.0,0.0,0.0,1.0,1.0,0.0,0.0,1.0,1.0,0.0,0.0,-1.0,1.0,0.0,0.0,0
1,0.888,0.381,0.659,0.6940000000000001,0.291,0.879,-0.067,0.901,-0.396,0.804,-0.6459999999999999,0.565,-0.83,0.2689999999999999,-0.789,-0.0819999999999999,-0.628,-0.309,-0.466,-0.556,-0.1639999999999999,-0.643,0.096,-0.611,0.304,-0.484,0.432,-0.298,0.47,-0.095,0.422,0.126,1
1,0.946,0.009,0.973,-0.003,0.989,0.004,0.958,0.016,0.941,0.035,0.972,0.047,0.986,0.019,0.943,0.071,0.986,-0.007,0.978,0.05,0.964,0.071,0.933,0.081,0.952,0.044,0.975,0.008,0.978,0.071,1.0,-0.003,1
1,0.763,-0.078,1.0,-0.296,1.0,-0.857,0.8,0.061,0.456,-0.428,1.0,-0.126,1.0,-0.835,0.493,0.019,0.8220000000000001,-0.059,0.982,-0.1989999999999999,1.0,0.22,0.696,-0.265,0.921,-0.245,0.789,0.02,0.875,-0.271,1.0,-0.57,1
1,0.385,0.156,0.412,0.074,0.265,0.241,0.233,0.132,0.195,0.253,0.245,0.37,0.089,0.23,-0.039,0.37,0.051,0.249,0.249,0.0969999999999999,0.078,0.3,-0.025,0.285,-0.06,0.263,-0.148,0.148,-0.093,0.311,-0.191,0.288,0
1,0.064,-0.153,-0.044,0.059,0.084,-0.025,-0.015,0.187,0.064,0.0,0.123,-0.099,0.059,0.0,0.02,-0.03,-0.128,-0.207,0.069,0.015,0.069,0.03,0.079,0.163,0.281,-0.049,-0.059,-0.094,0.044,0.054,0.074,-0.108,0
1,0.619,0.108,0.7070000000000001,-0.069,0.7040000000000001,0.017,0.743,0.002,0.71,0.158,0.716,-0.002,0.7979999999999999,0.066,0.8370000000000001,-0.166,0.687,-0.091,0.625,-0.013,0.61,0.1169999999999999,0.713,-0.095,0.698,-0.017,0.633,0.048,0.789,-0.051,0.652,-0.047,1
1,0.889,0.016,0.92,0.013,0.924,0.0139999999999999,0.892,-0.102,0.901,-0.084,0.93,-0.01,0.931,-0.089,0.86,-0.051,0.895,-0.04,0.884,-0.121,0.889,-0.119,0.83,-0.141,0.865,-0.118,0.855,-0.131,0.835,-0.125,0.868,-0.122,1
1,0.0,0.0,0.0,0.0,0.0,0.0,0.0,0.0,0.0,0.0,-1.0,1.0,1.0,0.552,0.0,0.0,0.0,0.0,0.0,0.0,0.0,0.0,0.0,0.0,1.0,1.0,0.0,0.0,0.0,0.0,0.0,0.0,0
0,0.0,0.0,0.0,0.0,0.0,0.0,0.0,0.0,0.0,0.0,0.0,0.0,0.0,0.0,0.0,0.0,0.0,0.0,0.0,0.0,0.0,0.0,0.0,0.0,1.0,-1.0,0.0,0.0,0.0,0.0,0.0,0.0,0
1,0.87,0.38,0.6409999999999999,0.6920000000000001,0.313,0.866,-0.039,0.907,-0.422,0.7929999999999999,-0.706,0.516,-0.81,0.2269999999999999,-0.8109999999999999,-0.125,-0.675,-0.381,-0.3829999999999999,-0.629,-0.13,-0.708,0.156,-0.664,0.385,-0.516,0.526,-0.299,0.562,-0.059,0.515,0.166,1
1,0.0,0.0,0.0,0.0,0.0,0.0,-1.0,1.0,0.0,0.0,1.0,0.373,-0.12,-0.12,0.0,0.0,-1.0,-1.0,0.0,0.0,1.0,-1.0,0.0,0.0,1.0,0.2269999999999999,0.0,0.0,0.0,0.0,0.0,0.0,0
1,0.882,0.435,0.596,0.777,0.1969999999999999,0.945,-0.241,0.925,-0.625,0.713,-0.8640000000000001,0.337,-0.924,-0.053,-0.774,-0.447,-0.47,-0.733,-0.102,-0.8220000000000001,0.264,-0.7759999999999999,0.56,-0.5589999999999999,0.721,-0.244,0.725,0.096,0.581,0.389,0.347,0.5770000000000001,1
1,0.3279999999999999,0.025,0.152,0.213,0.149,0.74,-0.257,0.923,-0.103,0.1939999999999999,-0.614,0.258,-0.941,-0.054,-0.131,-0.143,-0.303,-0.446,-0.114,-0.856,0.027,-0.228,0.2789999999999999,-0.063,0.337,-0.119,0.2769999999999999,-0.114,0.151,0.133,0.122,0.205,1
1,0.623,-0.035,0.591,0.005,0.604,-0.075,0.632,0.01,0.625,-0.075,0.67,0.072,0.629,-0.084,0.675,0.091,0.6709999999999999,0.0,0.59,0.1009999999999999,0.501,0.031,0.659,0.141,0.605,0.02,0.514,0.045,0.617,-0.01,0.614,-0.091,1
1,0.615,0.1889999999999999,0.782,0.018,0.775,0.026,0.6509999999999999,-0.103,0.775,0.08,0.74,0.051,0.723,0.0579999999999999,0.6859999999999999,-0.089,0.617,0.163,0.662,0.076,0.639,0.08,0.602,-0.072,0.588,0.088,0.551,0.257,0.534,0.092,0.506,0.093,1
1,0.6829999999999999,0.054,0.848,0.002,0.843,0.003,0.843,0.099,0.758,0.0409999999999999,0.8190000000000001,0.006,0.807,0.007,0.8059999999999999,-0.124,0.779,-0.035,0.764,0.009,0.746,0.01,0.7959999999999999,-0.042,0.708,0.011,0.622,0.1159999999999999,0.6659999999999999,0.012,0.644,0.012,1
1,1.0,0.098,1.0,0.251,0.984,0.33,0.804,0.53,0.75,0.603,0.569,0.7190000000000001,0.5529999999999999,0.741,0.295,0.8220000000000001,0.211,0.7979999999999999,0.0969999999999999,0.8220000000000001,-0.017,0.799,-0.151,0.7559999999999999,-0.228,0.6920000000000001,-0.317,0.609,-0.4029999999999999,0.545,-0.428,0.445,1
1,0.894,0.134,0.87,0.315,0.789,0.434,0.634,0.6,0.54,0.71,0.397,0.762,0.243,0.795,0.091,0.7959999999999999,-0.092,0.763,-0.2019999999999999,0.669,-0.303,0.626,-0.406,0.505,-0.462,0.408,-0.503,0.273,-0.528,0.192,-0.488,0.06,1
1,0.7659999999999999,0.211,0.639,0.381,0.484,0.525,0.15,0.223,0.138,0.596,-0.077,0.445,0.0,0.486,-0.275,0.42,-0.561,0.368,-0.366,0.1889999999999999,-0.405,0.076,-0.385,-0.032,-0.3389999999999999,-0.125,-0.275,-0.1969999999999999,-0.2,-0.246,-0.119,-0.272,1
1,1.0,0.114,0.7,-0.121,0.816,0.0969999999999999,0.7120000000000001,0.011,0.562,-0.078,0.691,0.125,0.586,0.04,0.531,-0.034,0.6940000000000001,0.1689999999999999,0.727,0.072,0.321,0.059,0.5329999999999999,0.374,0.491,0.18,0.152,0.324,0.441,0.1889999999999999,0.562,0.152,1
1,0.479,-0.124,0.428,-0.124,0.701,-0.392,0.732,0.072,0.263,-0.216,0.495,0.16,0.4539999999999999,-0.119,0.423,0.062,0.5,-0.273,0.546,0.186,0.423,0.0819999999999999,0.706,0.196,0.534,-0.124,0.155,-0.263,0.474,0.0409999999999999,0.4539999999999999,-0.515,1
1,0.635,-0.044,0.765,0.03,0.614,0.36,0.654,-0.005,0.642,0.083,0.794,-0.434,0.725,0.55,0.596,0.139,0.635,0.2189999999999999,0.633,-0.254,0.71,0.154,0.647,0.231,0.688,0.177,0.617,0.076,0.6629999999999999,0.198,0.691,0.367,1
1,0.607,-0.027,0.6709999999999999,0.0409999999999999,0.529,-0.044,0.505,0.037,0.705,-0.078,0.58,-0.02,0.532,0.078,0.6409999999999999,0.119,0.569,-0.024,0.532,0.007,0.715,-0.034,0.529,-0.034,0.573,0.008,0.586,-0.003,0.59,-0.027,0.502,0.068,1
1,0.495,0.0969999999999999,0.296,0.0579999999999999,0.35,0.0,0.573,-0.024,0.583,0.024,0.335,0.049,0.524,0.005,0.471,-0.107,0.432,0.005,0.35,0.0579999999999999,0.1889999999999999,0.257,0.311,-0.15,0.365,0.038,0.3929999999999999,0.175,0.262,0.0,0.374,-0.019,1
1,0.988,0.022,0.931,0.341,0.8390000000000001,0.352,0.747,0.489,0.736,0.519,0.551,0.602,0.431,0.662,0.318,0.7040000000000001,0.284,0.6890000000000001,0.075,0.737,0.063,0.713,-0.165,0.6970000000000001,-0.166,0.605,-0.162,0.5579999999999999,-0.347,0.442,-0.335,0.375,1
1,0.979,0.158,0.901,0.352,0.82,0.486,0.718,0.649,0.588,0.737,0.4029999999999999,0.8320000000000001,0.251,0.848,0.047,0.855,-0.122,0.797,-0.262,0.8079999999999999,-0.3779999999999999,0.7170000000000001,-0.51,0.583,-0.5760000000000001,0.46,-0.619,0.308,-0.6579999999999999,0.183,-0.6409999999999999,0.03,1
1,0.291,0.1,0.233,0.173,0.038,0.3429999999999999,0.12,0.263,0.063,0.213,-0.047,0.128,-0.063,0.079,-0.063,0.0409999999999999,-0.054,0.0139999999999999,-0.042,-0.003,-0.0289999999999999,-0.012,-0.018,-0.015,-0.009,-0.015,-0.003,-0.012,0.001,-0.009,0.003,-0.006,1
1,0.836,0.132,0.722,0.061,0.6579999999999999,0.083,0.239,0.13,0.4379999999999999,0.203,0.494,0.127,0.447,0.135,0.294,0.0289999999999999,0.482,0.158,0.3279999999999999,0.146,0.295,0.146,0.264,0.145,0.236,0.143,0.264,0.161,0.188,0.136,0.1669999999999999,0.132,1
1,0.878,-0.0819999999999999,0.8340000000000001,0.073,0.848,0.0409999999999999,0.772,-0.022,0.772,-0.057,0.823,-0.106,0.679,-0.005,0.88,-0.209,0.8340000000000001,0.033,0.8640000000000001,-0.06,0.973,-0.28,0.851,-0.188,0.8370000000000001,-0.102,0.8590000000000001,-0.033,0.785,-0.109,0.7909999999999999,-0.005,1
1,0.747,-0.132,0.5379999999999999,0.17,0.727,0.095,0.696,-0.111,0.6679999999999999,-0.235,0.879,-0.192,0.737,0.042,0.63,-0.004,0.636,-0.119,0.792,-0.253,0.664,-0.287,0.672,-0.105,0.618,-0.12,0.601,-0.209,0.375,0.069,0.611,-0.0139999999999999,1
1,0.8809999999999999,0.275,0.721,0.429,0.616,0.637,0.3879999999999999,0.905,0.098,0.961,-0.201,0.892,-0.357,0.775,-0.6509999999999999,0.622,-0.7879999999999999,0.455,-0.8190000000000001,0.191,-0.8390000000000001,-0.081,-0.7829999999999999,-0.264,-0.6759999999999999,-0.455,-0.547,-0.609,-0.305,-0.667,-0.193,-0.7559999999999999,1
1,0.931,0.293,0.799,0.5579999999999999,0.6,0.716,0.262,0.927,0.046,0.967,-0.2319999999999999,0.951,-0.5589999999999999,0.81,-0.733,0.624,-0.91,0.362,-0.923,0.06,-0.936,-0.198,-0.8320000000000001,-0.469,-0.652,-0.696,-0.412,-0.857,-0.136,-0.94,0.1,-0.948,1
1,0.835,0.29,0.693,0.477,0.492,0.684,0.22,0.868,-0.081,0.85,-0.356,0.777,-0.527,0.584,-0.7040000000000001,0.313,-0.758,0.039,-0.7120000000000001,-0.153,-0.583,-0.392,-0.372,-0.53,-0.17,-0.609,0.084,-0.615,0.252,-0.485,0.406,-0.353,1
1,0.929,0.332,0.762,0.623,0.493,0.843,0.216,0.952,-0.14,0.962,-0.472,0.836,-0.7070000000000001,0.655,-0.875,0.368,-0.918,0.0559999999999999,-0.898,-0.262,-0.74,-0.541,-0.508,-0.747,-0.223,-0.861,0.078,-0.872,0.36,-0.7809999999999999,0.594,-0.603,1
1,0.985,-0.027,0.981,-0.0409999999999999,1.0,-0.076,0.987,0.015,0.953,-0.026,0.985,-0.075,0.994,-0.071,0.974,-0.095,0.973,-0.122,0.993,-0.053,0.953,-0.089,0.974,-0.083,0.967,-0.129,0.935,-0.149,0.971,-0.158,0.968,-0.188,1
1,0.941,-0.015,0.942,0.01,0.95,-0.015,0.959,-0.011,0.946,-0.037,0.972,-0.018,0.971,-0.039,0.955,-0.0409999999999999,0.952,-0.047,0.942,-0.022,0.928,-0.044,0.92,-0.045,0.927,-0.0579999999999999,0.903,-0.075,0.92,-0.072,0.92,-0.074,1
1,0.838,0.429,0.721,0.584,0.456,0.7809999999999999,0.165,0.8270000000000001,-0.13,0.8690000000000001,-0.462,0.785,-0.594,0.521,-0.785,0.265,-0.84,0.039,-0.62,-0.314,-0.474,-0.489,-0.373,-0.6779999999999999,-0.051,-0.627,0.147,-0.4589999999999999,0.371,-0.392,0.483,-0.243,1
1,0.937,0.351,0.753,0.6559999999999999,0.456,0.8859999999999999,0.153,0.958,-0.218,0.963,-0.565,0.8340000000000001,-0.7879999999999999,0.58,-0.931,0.26,-0.936,-0.064,-0.87,-0.409,-0.6509999999999999,-0.675,-0.368,-0.85,-0.046,-0.912,0.273,-0.858,0.5479999999999999,-0.696,0.748,-0.442,1
1,0.8809999999999999,0.352,0.684,0.6509999999999999,0.348,0.7979999999999999,0.0579999999999999,0.908,-0.298,0.865,-0.626,0.696,-0.7709999999999999,0.3929999999999999,-0.858,0.084,-0.816,-0.24,-0.6459999999999999,-0.5,-0.3979999999999999,-0.6829999999999999,-0.111,-0.755,0.17,-0.715,0.407,-0.5760000000000001,0.5660000000000001,-0.368,0.628,-0.133,1
1,0.85,0.018,0.922,0.015,0.92,0.022,0.928,0.08,0.8759999999999999,0.114,0.912,0.043,0.907,0.05,0.873,0.0279999999999999,0.959,0.0,0.8909999999999999,0.07,0.884,0.077,0.8370000000000001,0.109,0.8690000000000001,0.09,0.8759999999999999,0.088,0.852,0.1009999999999999,0.843,0.107,1
1,1.0,-0.012,1.0,-0.003,1.0,-0.016,1.0,-0.016,1.0,-0.0279999999999999,1.0,-0.022,0.998,-0.031,0.995,-0.032,0.993,-0.035,1.0,-0.039,1.0,-0.05,1.0,-0.049,0.998,-0.055,0.994,-0.063,0.991,-0.065,0.99,-0.067,1
1,0.895,-0.032,0.875,0.055,0.895,0.0139999999999999,0.929,0.0279999999999999,0.913,-0.01,0.941,-0.016,0.919,0.034,0.937,0.0,0.943,0.0139999999999999,0.905,0.008,0.887,-0.018,0.893,0.024,0.89,0.016,0.8809999999999999,0.002,0.873,0.042,0.867,0.024,1
1,0.901,0.018,1.0,-0.018,0.901,0.007,0.848,0.057,1.0,0.035,0.979,0.011,0.975,0.035,1.0,-0.032,0.897,-0.032,0.862,0.078,1.0,0.092,0.901,0.046,0.943,0.032,0.947,0.025,1.0,0.011,0.936,0.021,1
1,0.905,0.411,0.654,0.748,0.299,0.959,-0.133,0.978,-0.522,0.833,-0.797,0.551,-0.966,0.152,-0.93,-0.256,-0.7190000000000001,-0.594,-0.415,-0.852,-0.022,-0.938,0.363,-0.8540000000000001,0.675,-0.62,0.86,-0.281,0.887,0.098,0.755,0.4629999999999999,1
1,1.0,1.0,0.367,0.062,0.13,0.927,-0.276,0.936,-0.315,0.377,-0.872,0.369,-0.929,-0.089,-0.389,-0.342,-0.466,-0.825,-0.054,-0.936,0.256,-0.204,0.738,-0.46,0.855,-0.068,1.0,1.0,0.387,0.002,0.178,0.7979999999999999,1
1,0.8759999999999999,0.037,0.9,0.003,0.892,0.005,0.863,0.0,0.95,0.075,0.87,0.01,0.863,0.012,0.8390000000000001,-0.062,0.857,0.025,0.8420000000000001,0.016,0.835,0.017,0.795,-0.043,0.821,0.02,0.82,0.087,0.8079999999999999,0.023,0.8009999999999999,0.024,1
1,0.3279999999999999,0.11,0.16,0.293,0.14,0.745,-0.251,0.92,-0.165,0.267,-0.637,0.249,-0.976,-0.003,-0.2319999999999999,-0.1989999999999999,-0.305,-0.489,-0.144,-0.9,0.093,-0.289,0.283,-0.186,0.396,-0.115,0.31,0.0559999999999999,0.214,0.205,0.134,0.264,1
1,0.6579999999999999,0.436,0.447,0.748,0.053,0.851,-0.32,0.821,-0.6829999999999999,0.524,-0.8420000000000001,0.071,-0.828,-0.287,-0.47,-0.7170000000000001,-0.048,-0.86,0.233,-0.763,0.5670000000000001,-0.521,0.743,-0.186,0.748,0.237,0.452,0.591,0.205,0.768,-0.185,0.7440000000000001,1
1,0.195,0.057,0.042,0.252,-0.106,0.489,-0.183,-0.183,-0.42,0.061,-0.4539999999999999,0.092,-0.1639999999999999,-0.305,-0.103,-0.397,0.187,-0.176,0.34,-0.12,0.286,-0.16,0.216,0.247,0.039,0.311,-0.038,0.263,-0.168,0.168,-0.302,-0.336,1
1,0.76,0.011,0.863,0.003,0.858,0.004,0.8,0.023,0.815,0.121,0.831,0.007,0.818,0.009,0.828,-0.07,0.765,0.039,0.77,0.011,0.7509999999999999,0.012,0.7709999999999999,-0.003,0.7090000000000001,0.0139999999999999,0.662,0.008,0.6629999999999999,0.015,0.639,0.015,1
1,0.947,-0.0,0.932,-0.032,0.952,-0.034,0.956,0.024,0.941,0.018,0.926,0.047,0.94,-0.015,0.948,0.02,0.938,0.0139999999999999,0.914,0.077,0.895,0.061,0.94,0.032,0.925,0.025,0.921,0.022,0.925,0.004,0.927,-0.006,1
1,0.847,0.135,0.736,-0.062,0.879,0.083,0.889,-0.091,0.787,0.067,0.807,-0.004,0.7929999999999999,-0.011,0.858,-0.046,0.872,-0.035,0.8170000000000001,-0.095,0.71,0.044,0.865,-0.151,0.8109999999999999,-0.048,0.782,-0.007,0.757,-0.067,0.858,-0.062,1
1,1.0,0.578,1.0,-1.0,1.0,-1.0,1.0,-1.0,1.0,-1.0,1.0,-1.0,1.0,-1.0,1.0,-1.0,1.0,-1.0,1.0,-0.628,1.0,-1.0,1.0,-1.0,1.0,-1.0,1.0,-1.0,1.0,-1.0,1.0,-1.0,0
0,-1.0,-1.0,0.0,0.0,-1.0,1.0,1.0,-0.375,0.0,0.0,0.0,0.0,0.0,0.0,1.0,-1.0,-1.0,-1.0,1.0,-1.0,0.0,0.0,1.0,-1.0,-1.0,1.0,-1.0,-1.0,0.0,0.0,-1.0,1.0,0
1,-0.643,-1.0,1.0,0.8290000000000001,1.0,-1.0,1.0,-0.2339999999999999,1.0,0.962,1.0,-0.377,1.0,-1.0,1.0,0.138,1.0,-1.0,1.0,-0.034,-0.843,1.0,0.5379999999999999,0.857,1.0,1.0,1.0,-1.0,1.0,-1.0,1.0,-1.0,0
1,1.0,0.168,0.994,0.163,0.946,0.3329999999999999,0.918,0.226,0.914,0.371,0.8420000000000001,0.469,0.81,0.492,0.785,0.483,0.6509999999999999,0.57,0.5660000000000001,0.581,0.556,0.647,0.483,0.552,0.433,0.691,0.357,0.7609999999999999,0.3389999999999999,0.6679999999999999,0.221,0.787,1
1,0.961,0.086,0.968,0.193,0.96,0.275,0.98,0.351,0.929,0.4629999999999999,0.863,0.525,0.828,0.588,0.732,0.691,0.69,0.731,0.545,0.688,0.483,0.762,0.406,0.747,0.3339999999999999,0.838,0.249,0.861,0.138,0.868,0.09,0.863,1
1,1.0,0.017,0.962,-0.031,1.0,-0.034,1.0,-0.051,0.99,-0.071,0.992,-0.09,1.0,-0.157,1.0,-0.143,0.983,-0.118,1.0,-0.185,1.0,-0.193,0.99,-0.221,0.965,-0.2019999999999999,0.946,-0.171,0.964,-0.226,0.87,-0.233,1
0,0.0,0.0,0.0,0.0,0.0,0.0,0.0,0.0,0.0,0.0,0.0,0.0,0.0,0.0,0.0,0.0,0.0,0.0,0.0,0.0,0.0,0.0,0.0,0.0,1.0,-1.0,0.0,0.0,0.0,0.0,0.0,0.0,0
1,1.0,0.2339999999999999,0.914,0.52,0.78,0.721,0.477,0.8420000000000001,0.276,0.917,0.095,0.882,-0.22,0.914,-0.342,0.755,-0.514,0.645,-0.645,0.446,-0.741,0.292,-0.708,0.036,-0.7170000000000001,-0.119,-0.65,-0.282,-0.513,-0.445,-0.374,-0.5329999999999999,1
1,1.0,-0.148,1.0,0.049,0.574,-0.016,0.6559999999999999,0.016,0.852,-0.033,0.721,0.0,0.6890000000000001,-0.1639999999999999,0.1969999999999999,-0.148,0.6559999999999999,-0.172,0.672,0.033,1.0,-0.295,0.311,-0.344,0.524,-0.203,0.3279999999999999,-0.033,0.2789999999999999,-0.4429999999999999,0.492,-0.066,0
1,0.621,-0.636,0.0,0.0,0.0,0.0,0.345,0.288,0.428,0.3939999999999999,-0.076,0.519,0.364,0.314,-0.5379999999999999,0.33,0.121,-0.148,0.019,-0.534,-0.5760000000000001,0.178,0.292,-0.273,0.258,-0.5760000000000001,0.432,0.242,0.182,-0.023,0.17,-0.417,0
1,0.8809999999999999,-0.009,0.898,-0.025,0.941,-0.018,0.892,-0.128,0.8220000000000001,-0.109,0.889,0.012,0.908,-0.1369999999999999,0.871,-0.061,0.908,-0.024,0.88,-0.146,0.8290000000000001,-0.124,0.901,-0.195,0.882,-0.149,0.8440000000000001,-0.129,0.884,-0.185,0.917,-0.168,1
1,0.427,-0.5,0.0,0.0,0.0,0.0,0.465,0.51,0.59,0.021,0.0,0.0,0.0,0.0,0.165,-0.4539999999999999,0.5920000000000001,-0.183,0.0,0.0,0.0,0.0,0.988,-0.408,-1.0,-1.0,-0.2789999999999999,-0.7559999999999999,0.0,0.0,0.0,0.0,0
1,0.7979999999999999,0.094,0.7809999999999999,0.207,0.716,0.281,0.693,0.413,0.659,0.501,0.579,0.608,0.492,0.584,0.3339999999999999,0.679,0.296,0.635,0.096,0.6809999999999999,0.021,0.722,-0.087,0.632,-0.119,0.607,-0.182,0.56,-0.255,0.517,-0.273,0.425,1
1,0.941,0.119,0.857,0.01,0.851,0.015,0.77,-0.003,0.845,0.109,0.833,0.03,0.8270000000000001,0.035,0.748,0.019,0.8,0.024,0.809,0.049,0.8029999999999999,0.054,0.773,0.022,0.7909999999999999,0.062,0.8590000000000001,0.093,0.779,0.071,0.773,0.075,1
1,0.97,-0.144,0.913,-0.002,0.966,-0.171,0.986,0.183,0.918,0.002,0.936,-0.084,0.913,-0.002,0.868,-0.087,0.97,-0.212,1.0,0.103,0.92,-0.053,0.925,0.068,0.94,-0.093,0.97,-0.201,0.8540000000000001,-0.087,0.966,-0.2189999999999999,1
1,0.512,1.0,1.0,0.5379999999999999,0.7120000000000001,0.8079999999999999,0.456,0.4639999999999999,0.331,1.0,0.212,1.0,-0.174,1.0,-0.331,0.987,-0.614,1.0,-0.527,0.7170000000000001,-0.885,0.479,-1.0,0.352,-1.0,0.096,-1.0,-0.1669999999999999,-1.0,-0.422,-0.919,-0.6559999999999999,1
