Lymphatics,Block_of_affere,Bl_of_lymph_c,Bl_of_lymph_s,By_pass,Extravasates,Regeneration_of,Early_uptake_in,Lym_nodes_dimin,Lym_nodes_enlar,Changes_in_lym,Defect_in_node,Changes_in_node,Changes_in_stru,Special_forms,Dislocation_of,Exclusion_of_no,No_of_nodes_in,TARGET
1,1,0,0,0,1,0,1,1,2,1,2,0,3,2,0,1,3,1
2,1,0,0,0,0,0,1,1,2,1,2,0,3,1,0,1,2,1
0,0,0,0,0,1,0,0,1,2,1,2,2,2,1,0,0,1,1
0,0,0,0,0,0,0,1,1,3,1,0,0,0,2,1,1,5,1
0,1,0,0,0,1,0,1,1,2,1,1,1,0,0,0,1,1,2
0,0,0,0,0,0,0,0,1,2,1,2,1,3,0,0,1,1,2
2,1,1,0,1,1,0,1,1,3,2,0,1,3,0,1,1,3,2
1,1,0,0,0,0,0,1,1,3,1,2,0,3,2,1,1,3,1
1,0,0,0,0,1,0,1,1,4,1,0,0,4,2,1,1,3,1
0,1,1,0,1,1,1,1,1,3,2,0,0,1,2,1,1,5,1
0,0,0,0,0,0,0,0,1,1,0,3,3,2,1,1,1,1,2
0,1,1,0,1,1,0,0,1,2,1,1,1,0,0,0,1,1,2
1,1,0,0,0,1,0,1,1,2,1,2,2,5,2,0,0,1,2
0,0,0,0,0,0,0,1,1,2,1,0,2,4,1,1,1,1,2
0,0,0,0,0,0,0,0,1,2,2,2,2,3,1,1,0,1,2
0,1,0,0,0,0,0,1,1,3,1,2,2,3,2,0,1,5,1
2,1,0,0,1,1,0,1,1,3,2,0,2,1,2,1,1,3,1
1,0,0,0,0,0,0,1,1,4,2,1,0,1,2,1,1,3,1
2,1,0,0,0,1,0,0,1,2,1,1,1,1,0,0,1,1,2
1,1,0,0,0,0,0,1,1,2,1,2,2,1,1,0,0,1,2
0,1,0,0,0,0,0,0,1,2,2,1,1,4,0,1,1,1,2
1,1,1,0,0,1,0,0,1,3,1,1,1,0,2,0,1,2,2
1,1,1,1,1,1,1,1,3,1,0,2,2,3,1,1,1,4,0
0,0,0,0,0,1,0,1,1,3,2,0,2,3,2,1,1,3,1
1,1,0,0,0,1,0,0,1,2,2,0,2,0,1,0,0,1,2
0,1,1,0,0,1,0,0,1,2,2,2,1,2,0,0,0,1,2
1,1,1,0,1,0,0,1,1,2,1,1,1,3,2,0,1,1,2
0,0,0,0,0,0,0,1,1,4,2,0,0,1,2,1,1,5,1
2,0,0,0,0,0,0,1,1,4,1,2,0,7,2,1,1,7,1
1,1,0,0,0,0,0,0,1,2,1,1,1,1,1,0,0,1,2
1,1,0,0,0,1,0,1,1,3,1,0,1,0,0,1,1,2,2
0,1,0,0,0,0,0,1,1,3,2,1,1,2,0,0,1,1,2
1,1,1,0,1,1,0,1,1,2,2,1,0,4,0,1,0,1,2
0,0,0,0,0,0,0,0,1,1,1,0,1,3,0,1,1,2,2
2,1,0,0,0,0,0,1,1,2,1,2,1,2,0,1,1,1,2
1,1,0,0,0,1,0,1,1,3,2,1,1,0,2,1,1,1,2
0,0,0,0,0,0,0,1,1,3,2,2,1,0,2,1,1,2,1
1,0,0,0,0,1,0,1,1,2,1,0,1,3,0,1,1,1,1
2,0,0,0,0,1,0,1,1,4,2,0,1,2,2,1,1,5,1
0,0,0,0,0,1,0,1,1,2,1,2,2,3,0,0,1,2,1
0,0,0,0,0,0,0,1,1,2,1,2,2,0,1,1,0,2,2
2,1,0,0,0,1,0,0,1,2,2,2,1,4,0,0,0,1,2
1,0,0,0,0,0,0,1,2,1,1,2,2,3,2,0,1,8,1
2,1,1,1,1,1,1,1,1,4,2,0,0,7,2,1,1,8,1
2,1,1,1,1,1,0,1,1,4,2,0,0,7,2,1,1,6,1
1,0,0,0,0,0,0,0,1,2,1,2,2,1,1,0,1,2,1
0,1,0,0,0,0,0,1,1,4,2,0,2,7,2,1,1,5,1
0,1,1,0,0,0,0,1,1,2,1,0,1,3,0,1,1,2,2
0,1,0,0,0,1,0,1,1,2,2,2,2,0,0,0,0,2,2
1,1,1,0,1,1,0,0,1,3,2,0,1,0,0,1,1,3,2
1,1,1,0,1,1,0,1,1,3,1,2,1,0,1,1,1,1,2
1,1,0,0,1,1,0,1,1,3,2,2,1,0,0,1,1,2,2
2,0,0,0,0,0,0,1,1,3,1,0,0,3,2,1,1,1,1
0,1,0,0,0,0,0,1,1,3,2,1,1,4,0,1,0,1,2
1,1,1,0,0,1,0,0,1,2,2,1,1,1,0,0,1,2,2
1,1,0,0,0,1,0,0,1,2,1,0,1,0,1,1,1,2,2
2,1,0,0,0,0,0,1,1,2,1,2,2,2,0,0,0,1,2
1,0,0,0,1,0,0,1,1,2,2,1,1,1,2,0,0,1,2
1,0,0,0,0,1,0,1,1,4,1,2,2,0,2,1,1,7,1
2,0,0,0,0,0,0,1,1,3,1,2,0,2,0,1,0,1,1
0,0,0,0,0,1,0,1,1,2,1,2,0,3,1,1,1,2,1
0,1,0,0,1,1,0,0,1,3,2,0,1,0,2,0,0,1,2
1,0,0,0,0,0,0,1,1,3,1,2,2,3,1,0,0,1,2
3,0,0,0,0,0,0,0,1,1,0,3,3,5,1,0,0,1,3
0,0,0,0,0,0,0,1,1,2,1,0,0,3,0,0,1,2,1
0,0,0,0,0,0,0,1,1,2,1,0,2,3,2,1,1,3,1
2,0,0,0,0,1,0,1,1,4,1,2,0,7,2,1,1,2,1
1,0,0,0,0,0,0,1,1,2,1,0,2,0,2,1,1,3,1
0,0,0,0,0,0,0,1,1,3,1,0,2,3,2,1,1,4,1
2,1,0,0,1,0,0,1,1,3,2,1,1,4,0,1,1,3,2
2,1,0,0,1,1,0,1,1,3,2,0,1,0,2,1,1,2,2
1,1,0,0,0,1,0,1,1,2,2,1,1,4,0,1,1,3,2
2,1,0,0,1,1,0,1,1,2,2,2,1,4,2,1,1,4,2
1,1,1,1,1,1,1,0,2,2,1,0,2,0,2,1,1,7,0
