Preg,Plas,Pres,Skin,Insu,Mass,Pedi,Age,TARGET
14,175,62,30,0,33.6,0.212,38,1
3,107,62,13,48,22.9,0.6779999999999999,23,1
3,169,74,19,125,29.9,0.268,31,1
5,116,74,29,0,32.3,0.66,35,1
6,0,68,41,0,39.0,0.727,41,1
4,146,92,0,0,31.2,0.539,61,1
6,162,62,0,0,24.3,0.178,50,1
0,189,104,25,0,34.3,0.435,41,1
9,112,82,32,175,34.2,0.26,36,1
5,109,62,41,129,35.8,0.514,25,1
0,146,70,0,0,37.9,0.3339999999999999,28,1
2,102,86,36,120,45.5,0.127,23,1
8,167,106,46,231,37.6,0.165,43,1
6,119,50,22,176,27.1,1.318,33,1
3,129,92,49,155,36.4,0.968,32,1
1,100,66,29,196,32.0,0.444,42,0
5,96,74,18,67,33.6,0.997,43,0
2,127,58,24,275,27.7,1.6,25,0
7,133,88,15,155,32.4,0.262,37,0
8,85,55,20,0,24.4,0.136,42,0
3,84,68,30,106,31.9,0.591,25,0
0,84,64,22,66,35.8,0.545,21,0
0,137,70,38,0,33.2,0.17,22,0
1,108,88,19,0,27.1,0.4,24,0
7,62,78,0,0,32.6,0.391,41,0
4,114,65,0,0,21.9,0.432,37,0
6,154,78,41,140,46.1,0.5710000000000001,27,0
5,73,60,0,0,26.8,0.268,27,0
6,125,68,30,120,30.0,0.4639999999999999,32,0
3,96,78,39,0,37.3,0.238,40,0
0,74,52,10,36,27.8,0.2689999999999999,22,0
10,92,62,0,0,25.9,0.1669999999999999,31,0
0,73,0,0,0,21.1,0.342,25,0
3,80,0,0,0,0.0,0.174,22,0
6,137,61,0,0,24.2,0.151,55,0
1,100,66,15,56,23.6,0.6659999999999999,26,0
1,88,62,24,44,29.9,0.422,23,0
0,67,76,0,0,45.3,0.1939999999999999,46,0
4,99,68,38,0,32.8,0.145,33,0
5,108,72,43,75,36.1,0.263,33,0
7,137,90,41,0,32.0,0.391,39,0
2,155,74,17,96,26.6,0.433,27,1
0,162,76,36,0,49.6,0.364,26,1
13,158,114,0,0,42.3,0.257,44,1
1,122,90,51,220,49.7,0.325,31,1
3,80,82,31,70,34.2,1.2919999999999998,27,1
4,136,70,0,0,31.2,1.182,22,1
0,131,66,40,0,34.3,0.196,22,1
0,198,66,32,274,41.3,0.502,28,1
4,95,64,0,0,32.0,0.161,31,1
0,119,0,0,0,32.4,0.141,24,1
9,152,78,34,171,34.2,0.893,33,1
9,171,110,24,240,45.4,0.721,54,1
9,119,80,35,0,29.0,0.263,29,1
9,102,76,37,0,32.9,0.665,46,1
3,130,78,23,79,28.4,0.3229999999999999,34,1
0,120,74,18,63,30.5,0.285,26,0
5,110,68,0,0,26.0,0.292,30,0
4,90,88,47,54,37.7,0.362,29,0
1,93,56,11,0,22.5,0.417,22,0
2,105,58,40,94,34.9,0.225,25,0
9,123,70,44,94,33.1,0.374,40,0
0,123,88,37,0,35.2,0.1969999999999999,29,0
2,108,62,32,56,25.2,0.128,21,0
1,90,62,18,59,25.1,1.268,25,0
4,110,76,20,100,28.4,0.118,27,0
2,108,62,10,278,25.3,0.8809999999999999,22,0
7,179,95,31,0,34.2,0.1639999999999999,60,0
1,109,58,18,116,28.5,0.2189999999999999,22,0
1,157,72,21,168,25.6,0.123,24,0
0,117,0,0,0,33.8,0.932,44,0
7,114,76,17,110,23.8,0.466,31,0
5,147,78,0,0,33.7,0.218,65,0
0,117,80,31,53,45.2,0.089,24,0
0,107,76,0,0,45.3,0.6859999999999999,24,0
0,102,78,40,90,34.5,0.238,24,0
2,92,76,20,0,24.2,1.6980000000000002,28,0
3,83,58,31,18,34.3,0.336,25,0
6,154,74,32,193,29.3,0.8390000000000001,39,0
3,99,54,19,86,25.6,0.154,24,0
5,104,74,0,0,28.8,0.153,48,0
5,103,108,37,0,39.2,0.305,65,0
2,197,70,45,543,30.5,0.158,53,1
8,183,64,0,0,23.3,0.672,32,1
3,128,72,25,190,32.4,0.5489999999999999,27,1
0,141,0,0,0,42.4,0.205,29,1
2,124,68,28,205,32.9,0.875,30,1
0,180,66,39,0,42.0,1.893,25,1
1,88,30,42,99,55.0,0.496,26,1
8,197,74,0,0,25.9,1.1909999999999998,39,1
3,139,54,0,0,25.6,0.402,22,1
4,125,70,18,122,28.9,1.144,45,1
0,124,70,20,0,27.4,0.254,36,1
1,115,70,30,96,34.6,0.529,32,1
3,106,54,21,158,30.9,0.292,24,0
6,114,0,0,0,0.0,0.1889999999999999,26,0
10,101,76,48,180,32.9,0.171,63,0
3,99,80,11,64,19.3,0.284,30,0
1,87,68,34,77,37.6,0.401,24,0
0,117,66,31,188,30.8,0.493,22,0
7,159,64,0,0,27.4,0.294,40,0
6,111,64,39,0,34.2,0.26,24,0
9,124,70,33,402,35.4,0.282,34,0
1,80,74,11,60,30.0,0.527,22,0
0,101,64,17,0,21.0,0.252,21,0
3,100,68,23,81,31.6,0.949,28,0
8,74,70,40,49,35.3,0.705,39,0
1,93,70,31,0,30.4,0.315,23,0
0,91,68,32,210,39.9,0.381,25,0
2,146,76,35,194,38.2,0.3289999999999999,29,0
5,111,72,28,0,23.9,0.407,27,0
6,102,90,39,0,35.7,0.674,28,0
6,87,80,0,0,23.2,0.084,32,0
10,115,98,0,0,24.0,1.022,34,0
7,136,74,26,135,26.0,0.647,51,0
1,81,72,18,40,26.6,0.283,24,0
1,85,66,29,0,26.6,0.351,31,0
6,129,90,7,326,19.6,0.5820000000000001,60,0
0,95,64,39,105,44.6,0.366,22,0
0,118,64,23,89,0.0,1.731,21,0
0,135,68,42,250,42.3,0.365,24,1
5,187,76,27,207,43.6,1.034,53,1
1,199,76,43,0,42.9,1.394,22,1
5,166,76,0,0,45.7,0.34,27,1
0,179,50,36,159,37.8,0.455,22,1
7,161,86,0,0,30.4,0.165,47,1
3,174,58,22,194,32.9,0.593,36,1
3,187,70,22,200,36.4,0.408,36,1
2,118,80,0,0,42.9,0.693,21,1
2,197,70,99,0,34.7,0.575,62,1
1,125,50,40,167,33.3,0.962,28,1
4,134,72,0,0,23.8,0.2769999999999999,60,1
1,99,72,30,18,38.6,0.412,21,0
5,121,72,23,112,26.2,0.245,30,0
3,125,58,0,0,31.6,0.151,24,0
6,166,74,0,0,26.6,0.304,66,0
0,124,56,13,105,21.8,0.452,21,0
2,68,70,32,66,25.0,0.187,25,0
0,161,50,0,0,21.9,0.254,65,0
3,158,64,13,387,31.2,0.295,24,0
6,92,62,32,126,32.0,0.085,46,0
4,110,92,0,0,37.6,0.191,30,0
7,81,78,40,48,46.7,0.261,42,0
1,124,60,32,0,35.8,0.514,21,0
1,83,68,0,0,18.2,0.624,27,0
0,126,84,29,215,30.7,0.52,24,0
2,100,54,28,105,37.8,0.498,24,0
1,95,74,21,73,25.9,0.6729999999999999,36,0
1,111,94,0,0,32.8,0.265,45,0
2,75,64,24,55,29.7,0.37,33,0
2,175,88,0,0,22.9,0.326,22,0
2,81,72,15,76,30.1,0.547,25,0
2,105,75,0,0,23.3,0.56,53,0
5,116,74,0,0,25.6,0.201,30,0
1,105,58,0,0,24.3,0.187,21,0
4,120,68,0,0,29.6,0.7090000000000001,34,0
3,142,80,15,0,32.4,0.2,63,0
4,95,70,32,0,32.1,0.612,24,0
6,103,66,0,0,24.3,0.249,29,0
2,100,66,20,90,32.9,0.867,28,1
8,155,62,26,495,34.0,0.5429999999999999,46,1
6,190,92,0,0,35.5,0.278,66,1
5,144,82,26,285,32.0,0.452,58,1
8,133,72,0,0,32.9,0.27,39,1
2,146,0,0,0,27.5,0.24,28,1
4,173,70,14,168,29.7,0.361,33,1
7,187,68,39,304,37.7,0.254,41,1
7,109,80,31,0,35.9,1.127,43,1
0,123,72,0,0,36.3,0.258,52,1
7,152,88,44,0,50.0,0.337,36,1
7,196,90,0,0,39.8,0.451,41,1
2,144,58,33,135,31.6,0.422,25,1
0,104,64,37,64,33.6,0.51,22,1
1,100,74,12,46,19.5,0.149,28,0
1,96,122,0,0,22.4,0.207,27,0
3,111,90,12,78,28.4,0.495,29,0
2,129,84,0,0,28.0,0.284,27,0
2,110,74,29,125,32.4,0.698,27,0
5,88,78,30,0,27.6,0.258,37,0
2,122,52,43,158,36.2,0.816,28,0
3,103,72,30,152,27.6,0.73,27,0
0,152,82,39,272,41.5,0.27,27,0
1,143,74,22,61,26.2,0.256,21,0
2,142,82,18,64,24.7,0.7609999999999999,21,0
4,110,66,0,0,31.9,0.471,29,0
1,119,44,47,63,35.5,0.28,25,0
5,128,80,0,0,34.6,0.144,45,0
8,91,82,0,0,35.6,0.5870000000000001,68,0
1,119,88,41,170,45.3,0.507,26,0
7,102,74,40,105,37.2,0.204,45,0
4,128,70,0,0,34.3,0.303,24,0
3,102,44,20,94,30.8,0.4,26,0
1,106,76,0,0,37.5,0.1969999999999999,26,0
1,114,66,36,200,38.1,0.289,21,0
0,146,82,0,0,40.5,1.781,44,0
8,100,76,0,0,38.7,0.19,42,0
8,99,84,0,0,35.4,0.3879999999999999,50,0
0,102,86,17,105,29.3,0.695,27,0
2,128,64,42,0,40.0,1.101,24,0
0,100,70,26,50,30.8,0.597,21,0
0,180,78,63,14,59.4,2.42,25,1
4,123,62,0,0,32.0,0.226,35,1
1,126,60,0,0,30.1,0.349,47,1
9,145,88,34,165,30.3,0.7709999999999999,53,1
1,172,68,49,579,42.4,0.7020000000000001,28,1
1,133,102,28,140,32.8,0.2339999999999999,45,1
5,136,84,41,88,35.0,0.286,35,1
10,111,70,27,0,27.5,0.141,40,1
4,144,82,32,0,38.5,0.5539999999999999,37,1
4,156,75,0,0,48.3,0.238,32,1
0,181,88,44,510,43.3,0.222,26,1
7,100,0,0,0,30.0,0.484,32,1
13,129,0,30,0,39.9,0.569,44,1
1,108,60,46,178,35.5,0.415,24,0
2,114,68,22,0,28.7,0.092,25,0
1,107,72,30,82,30.8,0.821,24,0
2,109,92,0,0,42.7,0.845,54,0
7,106,92,18,0,22.7,0.235,48,0
3,108,62,24,0,26.0,0.223,25,0
0,93,60,25,92,28.7,0.532,22,0
0,57,60,0,0,21.7,0.735,67,0
2,99,52,15,94,24.6,0.637,21,0
4,99,72,17,0,25.6,0.294,28,0
8,84,74,31,0,38.3,0.457,39,0
2,71,70,27,0,28.0,0.586,22,0
2,107,74,30,100,33.6,0.4039999999999999,23,0
1,109,38,18,120,23.1,0.407,26,0
10,133,68,0,0,27.0,0.245,36,0
4,91,70,32,88,33.1,0.446,22,0
2,84,0,0,0,0.0,0.304,21,0
0,94,0,0,0,0.0,0.256,25,0
1,103,30,38,83,43.3,0.183,33,0
6,165,68,26,168,33.6,0.631,49,0
5,86,68,28,71,30.2,0.364,24,0
2,139,75,0,0,25.6,0.1669999999999999,29,0
0,78,88,29,40,36.9,0.434,21,0
4,85,58,22,49,27.8,0.306,28,0
13,152,90,33,29,26.8,0.731,43,1
2,108,80,0,0,27.0,0.259,52,1
14,100,78,25,184,36.6,0.412,46,1
9,164,78,0,0,32.8,0.148,45,1
3,182,74,0,0,30.5,0.345,29,1
3,170,64,37,225,34.5,0.356,30,1
0,107,62,30,74,36.6,0.757,25,1
2,158,90,0,0,31.6,0.805,66,1
9,164,84,21,0,30.8,0.831,32,1
6,124,72,0,0,27.6,0.368,29,1
8,105,100,36,0,43.3,0.239,45,1
8,124,76,24,600,28.7,0.687,52,1
0,104,64,23,116,27.8,0.4539999999999999,23,0
1,91,54,25,100,25.2,0.2339999999999999,23,0
2,85,65,0,0,39.6,0.93,27,0
0,111,65,0,0,24.6,0.66,31,0
1,124,74,36,0,27.8,0.1,30,0
1,82,64,13,95,21.2,0.415,23,0
1,128,82,17,183,27.5,0.115,22,0
4,144,58,28,140,29.5,0.287,37,0
7,94,64,25,79,33.3,0.738,41,0
3,90,78,0,0,42.7,0.5589999999999999,21,0
6,103,72,32,190,37.7,0.324,55,0
0,137,68,14,148,24.8,0.143,21,0
4,127,88,11,155,34.5,0.598,28,0
2,111,60,0,0,26.2,0.3429999999999999,23,0
1,138,82,0,0,40.1,0.236,28,0
1,84,64,23,115,36.9,0.471,28,0
3,116,74,15,105,26.3,0.107,24,0
3,78,50,32,88,31.0,0.248,26,1
11,143,94,33,146,36.6,0.254,51,1
6,102,82,0,0,30.8,0.18,36,1
10,148,84,48,237,37.6,1.001,51,1
3,163,70,18,105,31.6,0.268,28,1
4,183,0,0,0,28.4,0.212,36,1
1,128,48,45,194,40.5,0.613,24,1
11,111,84,40,0,46.8,0.925,45,1
5,124,74,0,0,34.0,0.22,38,1
8,181,68,36,495,30.1,0.615,60,1
10,161,68,23,132,25.5,0.326,47,1
10,115,0,0,0,0.0,0.261,30,1
8,120,0,0,0,30.0,0.183,38,1
1,117,88,24,145,34.5,0.4029999999999999,40,1
2,90,68,42,0,38.2,0.503,27,1
6,104,74,18,156,29.9,0.722,41,1
4,132,86,31,0,28.0,0.419,63,0
6,109,60,27,0,25.0,0.206,27,0
5,155,84,44,545,38.7,0.619,34,0
2,101,58,17,265,24.2,0.614,23,0
8,95,72,0,0,36.8,0.485,57,0
2,123,48,32,165,42.1,0.52,26,0
1,116,70,28,0,27.4,0.204,21,0
0,101,76,0,0,35.7,0.198,26,0
3,148,66,25,0,32.5,0.256,22,0
4,114,64,0,0,28.9,0.126,24,0
10,68,106,23,49,35.5,0.285,47,0
3,115,66,39,140,38.1,0.15,28,0
0,125,96,0,0,22.5,0.262,21,0
0,134,58,20,291,26.4,0.352,21,0
3,126,88,41,235,39.3,0.7040000000000001,27,0
0,132,78,0,0,32.4,0.3929999999999999,21,0
0,107,60,25,0,26.4,0.133,23,0
4,84,90,23,56,39.5,0.159,25,0
3,102,74,0,0,29.5,0.121,32,0
0,105,64,41,142,41.5,0.173,22,0
1,126,56,29,152,28.7,0.8009999999999999,21,0
9,134,74,33,60,25.9,0.46,81,0
2,56,56,28,45,24.2,0.332,22,0
4,146,85,27,100,28.9,0.1889999999999999,27,0
2,88,58,26,16,28.4,0.7659999999999999,22,0
8,151,78,32,210,42.9,0.516,36,1
0,121,66,30,165,34.3,0.203,33,1
0,138,0,0,0,36.3,0.933,25,1
3,171,72,33,135,33.3,0.1989999999999999,24,1
5,97,76,27,0,35.6,0.3779999999999999,52,1
7,142,90,24,480,30.4,0.128,43,1
3,158,70,30,328,35.5,0.344,35,1
4,132,0,0,0,32.9,0.302,23,1
9,156,86,28,155,34.3,1.189,42,1
3,129,64,29,115,26.4,0.2189999999999999,28,1
7,194,68,28,0,35.9,0.745,41,1
0,95,85,25,36,37.4,0.247,24,1
5,189,64,33,325,31.2,0.583,29,1
8,126,74,38,75,25.9,0.162,39,0
4,90,0,0,0,28.0,0.61,31,0
11,103,68,40,0,46.2,0.126,42,0
2,82,52,22,115,28.5,1.699,25,0
1,80,55,0,0,19.1,0.258,21,0
2,90,60,0,0,23.5,0.191,25,0
1,116,78,29,180,36.1,0.496,25,0
8,126,88,36,108,38.5,0.349,49,0
1,130,60,23,170,28.6,0.6920000000000001,21,0
1,97,70,40,0,38.1,0.218,30,0
8,118,72,19,0,23.1,1.476,46,0
3,113,50,10,85,29.5,0.626,25,0
4,129,86,20,270,35.1,0.231,23,0
7,142,60,33,190,28.8,0.687,61,0
0,126,86,27,120,27.4,0.515,21,0
4,116,72,12,87,22.1,0.4629999999999999,37,0
1,89,66,23,94,28.1,0.1669999999999999,21,0
7,125,86,0,0,37.6,0.304,51,0
1,151,60,0,0,26.1,0.179,22,0
1,89,24,19,25,27.8,0.5589999999999999,21,0
4,154,72,29,126,31.3,0.3379999999999999,37,0
10,94,72,18,0,23.1,0.595,56,0
3,130,64,0,0,23.1,0.314,22,0
2,122,70,27,0,36.8,0.34,27,0
9,91,68,0,0,24.2,0.2,58,0
3,128,78,0,0,21.1,0.268,55,0
2,112,78,50,140,39.4,0.175,24,0
2,98,60,17,120,34.7,0.198,22,0
4,145,82,18,0,32.5,0.235,70,1
7,107,74,0,0,29.6,0.254,31,1
5,162,104,0,0,37.7,0.151,52,1
7,187,50,33,392,33.9,0.826,34,1
0,131,88,0,0,31.6,0.743,32,1
7,97,76,32,91,40.9,0.871,32,1
1,149,68,29,127,29.3,0.349,42,1
7,103,66,32,0,39.1,0.344,31,1
8,108,70,0,0,30.5,0.955,33,1
8,125,96,0,0,0.0,0.2319999999999999,54,1
5,115,76,0,0,31.2,0.3429999999999999,44,1
4,115,72,0,0,28.9,0.376,46,1
2,94,68,18,76,26.0,0.561,21,0
1,146,56,0,0,29.7,0.564,29,0
8,194,80,0,0,26.1,0.551,67,0
1,88,78,29,76,32.0,0.365,29,0
10,122,78,31,0,27.6,0.512,45,0
7,105,0,0,0,0.0,0.305,24,0
2,94,76,18,66,31.6,0.649,23,0
1,112,80,45,132,34.8,0.217,24,0
2,99,70,16,44,20.4,0.235,27,0
0,114,80,34,285,44.2,0.1669999999999999,27,0
0,165,76,43,255,47.9,0.259,26,0
2,90,80,14,55,24.4,0.249,24,0
4,117,64,27,120,33.2,0.23,24,0
6,80,80,36,0,39.8,0.177,28,0
3,111,62,0,0,22.6,0.142,21,0
1,136,74,50,204,37.4,0.3989999999999999,24,0
5,78,48,0,0,33.7,0.654,25,0
0,97,64,36,100,36.8,0.6,25,0
1,144,82,40,0,41.3,0.607,28,0
1,193,50,16,375,25.9,0.655,24,0
2,141,58,34,128,25.4,0.6990000000000001,24,0
4,147,74,25,293,34.9,0.385,30,0
5,117,92,0,0,34.1,0.337,38,0
7,119,0,0,0,25.2,0.209,37,0
