Preg,Plas,Pres,Skin,Insu,Mass,Pedi,Age,TARGET
14,175,62,30,0,33.6,0.212,38,1
15,136,70,32,110,37.1,0.153,43,1
3,107,62,13,48,22.9,0.6779999999999999,23,1
3,169,74,19,125,29.9,0.268,31,1
3,162,52,38,0,37.2,0.652,24,1
4,146,92,0,0,31.2,0.539,61,1
4,171,72,0,0,43.6,0.479,26,1
2,155,52,27,540,38.7,0.24,25,1
9,145,80,46,130,37.9,0.637,40,1
0,189,104,25,0,34.3,0.435,41,1
9,112,82,32,175,34.2,0.26,36,1
1,168,88,29,0,35.0,0.905,52,1
5,109,62,41,129,35.8,0.514,25,1
0,146,70,0,0,37.9,0.3339999999999999,28,1
2,102,86,36,120,45.5,0.127,23,1
8,167,106,46,231,37.6,0.165,43,1
12,92,62,7,258,27.6,0.926,44,1
3,129,92,49,155,36.4,0.968,32,1
5,96,74,18,67,33.6,0.997,43,0
2,127,58,24,275,27.7,1.6,25,0
7,133,88,15,155,32.4,0.262,37,0
2,108,52,26,63,32.5,0.318,22,0
8,85,55,20,0,24.4,0.136,42,0
3,84,68,30,106,31.9,0.591,25,0
1,153,82,42,485,40.6,0.687,23,0
1,108,88,19,0,27.1,0.4,24,0
7,62,78,0,0,32.6,0.391,41,0
10,162,84,0,0,27.7,0.182,54,0
6,93,50,30,64,28.7,0.356,23,0
4,118,70,0,0,44.5,0.904,26,0
5,126,78,27,22,29.6,0.439,40,0
6,80,66,30,0,26.2,0.313,41,0
5,73,60,0,0,26.8,0.268,27,0
12,140,85,33,0,37.4,0.244,41,0
0,74,52,10,36,27.8,0.2689999999999999,22,0
3,150,76,0,0,21.0,0.207,37,0
3,80,0,0,0,0.0,0.174,22,0
6,137,61,0,0,24.2,0.151,55,0
5,95,72,33,0,37.7,0.37,27,0
13,106,72,54,0,36.6,0.178,45,0
1,88,62,24,44,29.9,0.422,23,0
2,112,75,32,0,35.7,0.148,21,0
0,67,76,0,0,45.3,0.1939999999999999,46,0
4,99,68,38,0,32.8,0.145,33,0
7,83,78,26,71,29.3,0.767,36,0
5,108,72,43,75,36.1,0.263,33,0
8,154,78,32,0,32.4,0.4429999999999999,45,1
13,158,114,0,0,42.3,0.257,44,1
3,173,82,48,465,38.4,2.137,25,1
1,122,90,51,220,49.7,0.325,31,1
5,0,80,32,0,41.0,0.346,37,1
0,188,82,14,185,32.0,0.682,22,1
13,126,90,0,0,43.4,0.583,42,1
0,131,66,40,0,34.3,0.196,22,1
0,198,66,32,274,41.3,0.502,28,1
4,95,64,0,0,32.0,0.161,31,1
4,184,78,39,277,37.0,0.264,31,1
9,171,110,24,240,45.4,0.721,54,1
3,193,70,31,0,34.9,0.241,25,1
10,90,85,32,0,34.9,0.825,56,1
7,136,90,0,0,29.9,0.21,50,0
0,120,74,18,63,30.5,0.285,26,0
1,95,60,18,58,23.9,0.26,22,0
4,90,88,47,54,37.7,0.362,29,0
1,93,56,11,0,22.5,0.417,22,0
0,101,65,28,0,24.6,0.237,22,0
9,123,70,44,94,33.1,0.374,40,0
0,127,80,37,210,36.3,0.804,23,0
0,123,88,37,0,35.2,0.1969999999999999,29,0
1,90,62,18,59,25.1,1.268,25,0
4,110,76,20,100,28.4,0.118,27,0
2,108,62,10,278,25.3,0.8809999999999999,22,0
7,179,95,31,0,34.2,0.1639999999999999,60,0
1,109,58,18,116,28.5,0.2189999999999999,22,0
0,117,0,0,0,33.8,0.932,44,0
7,114,76,17,110,23.8,0.466,31,0
0,107,76,0,0,45.3,0.6859999999999999,24,0
0,102,78,40,90,34.5,0.238,24,0
2,90,70,17,0,27.3,0.085,22,0
0,93,60,0,0,35.3,0.263,25,0
2,92,76,20,0,24.2,1.6980000000000002,28,0
3,83,58,31,18,34.3,0.336,25,0
1,97,64,19,82,18.2,0.299,21,0
1,89,76,34,37,31.2,0.192,23,0
2,87,0,23,0,28.9,0.773,25,0
2,120,54,0,0,26.8,0.455,27,0
3,128,72,25,190,32.4,0.5489999999999999,27,1
7,106,60,24,0,26.5,0.296,29,1
11,136,84,35,130,28.3,0.26,42,1
1,88,30,42,99,55.0,0.496,26,1
8,197,74,0,0,25.9,1.1909999999999998,39,1
1,119,86,39,220,45.6,0.8079999999999999,29,1
0,124,70,20,0,27.4,0.254,36,1
5,158,84,41,210,39.4,0.395,29,1
0,138,60,35,167,34.6,0.534,21,1
5,168,64,0,0,32.9,0.135,41,1
1,113,64,35,0,33.6,0.5429999999999999,21,1
1,181,78,42,293,40.0,1.258,22,1
1,90,62,12,43,27.2,0.58,24,0
10,101,76,48,180,32.9,0.171,63,0
3,99,80,11,64,19.3,0.284,30,0
7,159,64,0,0,27.4,0.294,40,0
3,88,58,11,54,24.8,0.267,22,0
6,111,64,39,0,34.2,0.26,24,0
1,87,60,37,75,37.2,0.509,22,0
3,100,68,23,81,31.6,0.949,28,0
0,119,66,27,0,38.8,0.259,22,0
1,93,70,31,0,30.4,0.315,23,0
0,91,68,32,210,39.9,0.381,25,0
2,120,76,37,105,39.7,0.215,29,0
5,111,72,28,0,23.9,0.407,27,0
5,88,66,21,23,24.4,0.342,30,0
10,115,98,0,0,24.0,1.022,34,0
7,136,74,26,135,26.0,0.647,51,0
1,139,62,41,480,40.7,0.536,21,0
0,91,80,0,0,32.4,0.601,27,0
1,85,66,29,0,26.6,0.351,31,0
6,129,90,7,326,19.6,0.5820000000000001,60,0
0,102,52,0,0,25.1,0.078,21,0
0,135,68,42,250,42.3,0.365,24,1
1,180,0,0,0,43.3,0.282,41,1
5,187,76,27,207,43.6,1.034,53,1
12,84,72,31,0,29.7,0.297,46,1
7,184,84,33,0,35.5,0.355,41,1
0,177,60,29,478,34.6,1.072,21,1
6,147,80,0,0,29.5,0.178,50,1
2,118,80,0,0,42.9,0.693,21,1
4,134,72,0,0,23.8,0.2769999999999999,60,1
1,99,72,30,18,38.6,0.412,21,0
6,117,96,0,0,28.7,0.157,30,0
2,68,70,32,66,25.0,0.187,25,0
2,129,0,0,0,38.5,0.304,41,0
0,161,50,0,0,21.9,0.254,65,0
6,92,62,32,126,32.0,0.085,46,0
2,127,46,21,335,34.4,0.176,22,0
11,85,74,0,0,30.1,0.3,35,0
7,81,78,40,48,46.7,0.261,42,0
1,124,60,32,0,35.8,0.514,21,0
0,126,84,29,215,30.7,0.52,24,0
4,103,60,33,192,24.0,0.966,33,0
2,100,54,28,105,37.8,0.498,24,0
0,102,75,23,0,0.0,0.5720000000000001,21,0
1,111,94,0,0,32.8,0.265,45,0
2,75,64,24,55,29.7,0.37,33,0
2,81,72,15,76,30.1,0.547,25,0
1,117,60,23,106,33.8,0.466,27,0
4,151,90,38,0,29.7,0.294,36,0
9,154,78,30,100,30.9,0.1639999999999999,45,0
12,88,74,40,54,35.3,0.3779999999999999,48,0
1,105,58,0,0,24.3,0.187,21,0
2,157,74,35,440,39.4,0.134,30,0
4,120,68,0,0,29.6,0.7090000000000001,34,0
1,71,48,18,76,20.4,0.3229999999999999,22,0
3,142,80,15,0,32.4,0.2,63,0
4,95,70,32,0,32.1,0.612,24,0
9,156,86,0,0,24.8,0.23,53,1
0,162,76,56,100,53.2,0.759,25,1
8,188,78,0,0,47.9,0.1369999999999999,43,1
6,190,92,0,0,35.5,0.278,66,1
5,144,82,26,285,32.0,0.452,58,1
8,133,72,0,0,32.9,0.27,39,1
2,128,78,37,182,43.3,1.224,31,1
7,187,68,39,304,37.7,0.254,41,1
7,109,80,31,0,35.9,1.127,43,1
0,123,72,0,0,36.3,0.258,52,1
7,152,88,44,0,50.0,0.337,36,1
7,196,90,0,0,39.8,0.451,41,1
2,144,58,33,135,31.6,0.422,25,1
0,104,64,37,64,33.6,0.51,22,1
1,122,64,32,156,35.1,0.6920000000000001,30,1
1,96,122,0,0,22.4,0.207,27,0
2,130,96,0,0,22.6,0.268,21,0
3,111,90,12,78,28.4,0.495,29,0
2,110,74,29,125,32.4,0.698,27,0
5,88,78,30,0,27.6,0.258,37,0
2,122,52,43,158,36.2,0.816,28,0
1,112,72,30,176,34.4,0.528,25,0
1,73,50,10,0,23.0,0.248,21,0
5,109,75,26,0,36.0,0.546,60,0
0,86,68,32,0,35.8,0.238,25,0
5,143,78,0,0,45.0,0.19,47,0
10,75,82,0,0,33.3,0.263,38,0
1,135,54,0,0,26.7,0.687,62,0
8,91,82,0,0,35.6,0.5870000000000001,68,0
6,99,60,19,54,26.9,0.497,32,0
7,102,74,40,105,37.2,0.204,45,0
1,114,66,36,200,38.1,0.289,21,0
0,146,82,0,0,40.5,1.781,44,0
8,100,76,0,0,38.7,0.19,42,0
0,101,62,0,0,21.9,0.336,25,0
12,100,84,33,105,30.0,0.488,46,0
0,102,86,17,105,29.3,0.695,27,0
2,128,64,42,0,40.0,1.101,24,0
10,139,80,0,0,27.1,1.4409999999999998,57,0
0,140,65,26,130,42.6,0.431,24,1
9,145,88,34,165,30.3,0.7709999999999999,53,1
1,133,102,28,140,32.8,0.2339999999999999,45,1
1,128,88,39,110,36.5,1.057,37,1
6,115,60,39,0,33.7,0.245,40,1
3,173,84,33,474,35.7,0.258,22,1
10,111,70,27,0,27.5,0.141,40,1
0,181,88,44,510,43.3,0.222,26,1
3,141,0,0,0,30.0,0.7609999999999999,27,1
5,130,82,0,0,39.1,0.956,37,1
7,100,0,0,0,30.0,0.484,32,1
8,100,74,40,215,39.4,0.6609999999999999,43,1
1,108,60,46,178,35.5,0.415,24,0
0,100,88,60,110,46.8,0.962,31,0
2,114,68,22,0,28.7,0.092,25,0
7,106,92,18,0,22.7,0.235,48,0
3,108,62,24,0,26.0,0.223,25,0
0,93,60,25,92,28.7,0.532,22,0
2,112,66,22,0,25.0,0.307,24,0
0,57,60,0,0,21.7,0.735,67,0
2,99,52,15,94,24.6,0.637,21,0
6,85,78,0,0,31.2,0.382,42,0
9,57,80,37,0,32.8,0.096,41,0
8,84,74,31,0,38.3,0.457,39,0
2,92,62,28,0,31.6,0.13,24,0
4,91,70,32,88,33.1,0.446,22,0
2,84,0,0,0,0.0,0.304,21,0
2,125,60,20,140,33.8,0.088,31,0
0,94,0,0,0,0.0,0.256,25,0
6,144,72,27,228,33.9,0.255,40,0
4,97,60,23,0,28.2,0.4429999999999999,22,0
6,165,68,26,168,33.6,0.631,49,0
10,115,0,0,0,35.3,0.134,29,0
3,84,72,32,0,37.2,0.267,28,0
4,197,70,39,744,36.7,2.329,31,0
3,74,68,28,45,29.7,0.293,23,0
4,85,58,22,49,27.8,0.306,28,0
13,152,90,33,29,26.8,0.731,43,1
3,176,86,27,156,33.3,1.154,52,1
3,182,74,0,0,30.5,0.345,29,1
0,118,84,47,230,45.8,0.551,31,1
0,107,62,30,74,36.6,0.757,25,1
1,167,74,17,144,23.4,0.447,33,1
7,168,88,42,321,38.2,0.787,40,1
2,146,70,38,360,28.0,0.337,29,1
9,164,84,21,0,30.8,0.831,32,1
4,117,62,12,0,29.7,0.38,30,1
1,196,76,36,249,36.5,0.875,29,1
4,111,72,47,207,37.1,1.39,56,1
8,124,76,24,600,28.7,0.687,52,1
1,91,54,25,100,25.2,0.2339999999999999,23,0
2,85,65,0,0,39.6,0.93,27,0
1,124,74,36,0,27.8,0.1,30,0
1,97,70,15,0,18.2,0.147,21,0
1,0,48,20,0,24.7,0.14,22,0
1,82,64,13,95,21.2,0.415,23,0
0,129,80,0,0,31.2,0.703,29,0
2,89,90,30,0,33.5,0.292,42,0
8,107,80,0,0,24.6,0.856,34,0
1,90,68,8,0,24.5,1.138,36,0
0,137,84,27,0,27.3,0.231,59,0
4,131,68,21,166,33.1,0.16,28,0
7,94,64,25,79,33.3,0.738,41,0
1,118,58,36,94,33.3,0.261,23,0
2,91,62,0,0,27.3,0.525,22,0
3,82,70,0,0,21.1,0.389,25,0
0,137,68,14,148,24.8,0.143,21,0
1,121,78,39,74,39.0,0.261,28,0
3,191,68,15,130,30.9,0.299,34,0
0,125,68,0,0,24.7,0.206,21,0
4,127,88,11,155,34.5,0.598,28,0
2,111,60,0,0,26.2,0.3429999999999999,23,0
1,0,68,35,0,32.0,0.389,22,0
3,61,82,28,0,34.4,0.243,46,0
1,138,82,0,0,40.1,0.236,28,0
1,84,64,23,115,36.9,0.471,28,0
2,108,64,0,0,30.8,0.158,21,0
6,102,82,0,0,30.8,0.18,36,1
7,178,84,0,0,39.9,0.331,41,1
5,85,74,22,0,29.0,1.224,32,1
10,148,84,48,237,37.6,1.001,51,1
6,134,80,37,370,46.2,0.238,46,1
5,139,80,35,160,31.6,0.361,25,1
11,111,84,40,0,46.8,0.925,45,1
5,124,74,0,0,34.0,0.22,38,1
8,181,68,36,495,30.1,0.615,60,1
1,128,98,41,58,32.0,1.321,33,1
5,166,72,19,175,25.8,0.5870000000000001,51,1
9,184,85,15,0,30.0,1.213,49,1
1,117,88,24,145,34.5,0.4029999999999999,40,1
2,90,68,42,0,38.2,0.503,27,1
6,104,74,18,156,29.9,0.722,41,1
4,132,86,31,0,28.0,0.419,63,0
9,106,52,0,0,31.2,0.38,42,0
2,101,58,17,265,24.2,0.614,23,0
8,95,72,0,0,36.8,0.485,57,0
2,123,48,32,165,42.1,0.52,26,0
1,116,70,28,0,27.4,0.204,21,0
11,127,106,0,0,39.0,0.19,51,0
2,99,0,0,0,22.2,0.108,23,0
10,68,106,23,49,35.5,0.285,47,0
3,115,66,39,140,38.1,0.15,28,0
3,113,44,13,0,22.4,0.14,22,0
3,120,70,30,135,42.9,0.452,30,0
1,139,46,19,83,28.7,0.654,22,0
0,134,58,20,291,26.4,0.352,21,0
6,91,0,0,0,29.8,0.501,31,0
0,132,78,0,0,32.4,0.3929999999999999,21,0
3,106,72,0,0,25.8,0.207,27,0
0,107,60,25,0,26.4,0.133,23,0
4,137,84,0,0,31.2,0.252,30,0
0,98,82,15,84,25.2,0.299,22,0
1,126,56,29,152,28.7,0.8009999999999999,21,0
12,106,80,0,0,23.6,0.1369999999999999,44,0
2,56,56,28,45,24.2,0.332,22,0
2,88,58,26,16,28.4,0.7659999999999999,22,0
11,138,74,26,144,36.1,0.557,50,1
4,109,64,44,99,34.8,0.905,26,1
7,195,70,33,145,25.1,0.163,55,1
8,143,66,0,0,34.9,0.129,41,1
4,148,60,27,318,30.9,0.15,29,1
5,97,76,27,0,35.6,0.3779999999999999,52,1
0,167,0,0,0,32.3,0.8390000000000001,30,1
7,142,90,24,480,30.4,0.128,43,1
11,120,80,37,150,42.3,0.785,48,1
7,160,54,32,175,30.5,0.588,39,1
5,189,64,33,325,31.2,0.583,29,1
8,179,72,42,130,32.7,0.7190000000000001,36,1
4,90,0,0,0,28.0,0.61,31,0
3,122,78,0,0,23.0,0.254,40,0
11,103,68,40,0,46.2,0.126,42,0
9,72,78,25,0,31.6,0.28,38,0
2,90,60,0,0,23.5,0.191,25,0
8,126,88,36,108,38.5,0.349,49,0
1,97,70,40,0,38.1,0.218,30,0
0,173,78,32,265,46.5,1.159,58,0
4,189,110,31,0,28.5,0.68,37,0
8,118,72,19,0,23.1,1.476,46,0
7,142,60,33,190,28.8,0.687,61,0
3,124,80,33,130,33.2,0.305,26,0
4,116,72,12,87,22.1,0.4629999999999999,37,0
1,89,66,23,94,28.1,0.1669999999999999,21,0
6,108,44,20,130,24.0,0.813,35,0
5,99,54,28,83,34.0,0.499,30,0
3,87,60,18,0,21.8,0.444,21,0
2,95,54,14,88,26.1,0.748,22,0
7,125,86,0,0,37.6,0.304,51,0
1,151,60,0,0,26.1,0.179,22,0
3,130,64,0,0,23.1,0.314,22,0
3,128,78,0,0,21.1,0.268,55,0
1,109,56,21,135,25.2,0.833,23,0
2,98,60,17,120,34.7,0.198,22,0
10,108,66,0,0,32.4,0.272,42,1
7,107,74,0,0,29.6,0.254,31,1
0,131,88,0,0,31.6,0.743,32,1
3,132,80,0,0,34.4,0.402,44,1
1,149,68,29,127,29.3,0.349,42,1
0,180,90,26,90,36.5,0.314,35,1
5,112,66,0,0,37.8,0.261,41,1
0,105,84,0,0,27.9,0.741,62,1
8,108,70,0,0,30.5,0.955,33,1
5,115,76,0,0,31.2,0.3429999999999999,44,1
4,115,72,0,0,28.9,0.376,46,1
1,147,94,41,0,49.3,0.358,27,1
7,129,68,49,125,38.5,0.439,43,1
4,92,80,0,0,42.2,0.237,29,0
2,94,68,18,76,26.0,0.561,21,0
1,146,56,0,0,29.7,0.564,29,0
1,87,78,27,32,34.6,0.1009999999999999,22,0
8,194,80,0,0,26.1,0.551,67,0
7,105,0,0,0,0.0,0.305,24,0
1,97,66,15,140,23.2,0.487,22,0
1,79,60,42,48,43.5,0.6779999999999999,23,0
1,112,80,45,132,34.8,0.217,24,0
2,99,70,16,44,20.4,0.235,27,0
1,96,64,27,87,33.2,0.289,21,0
4,117,64,27,120,33.2,0.23,24,0
4,154,62,31,284,32.8,0.237,23,0
11,138,76,0,0,33.2,0.42,35,0
3,111,62,0,0,22.6,0.142,21,0
1,193,50,16,375,25.9,0.655,24,0
3,99,62,19,74,21.8,0.2789999999999999,26,0
5,147,75,0,0,29.9,0.434,28,0
1,103,80,11,82,19.4,0.491,22,0
1,86,66,52,65,41.3,0.917,29,0
6,92,92,0,0,19.9,0.188,28,0
5,117,92,0,0,34.1,0.337,38,0
4,83,86,19,0,29.3,0.317,34,0
1,95,66,13,38,19.6,0.3339999999999999,25,0
1,181,64,30,180,34.1,0.3279999999999999,38,1
