Sbp,Tobacco,Ldl,Adiposity,Famhist,Typea,Obesity,Alcohol,Age,TARGET
118,0.08,3.48,32.28,1,52,29.14,3.81,46,0
134,13.6,3.5,27.78,1,60,25.99,57.34,49,1
132,6.2,6.47,36.21,1,62,30.77,14.14,45,0
142,4.05,3.38,16.2,0,59,20.81,2.62,38,0
132,0.0,5.8,30.96,1,69,30.11,0.0,53,1
134,14.1,4.44,22.39,1,65,23.09,0.0,40,1
117,1.53,2.44,28.95,1,35,25.89,30.03,46,0
124,14.0,6.23,35.96,1,45,30.09,0.0,59,1
132,7.9,2.85,26.5,1,51,26.16,25.71,44,0
150,0.3,6.38,33.99,1,62,24.64,0.0,50,0
142,18.2,4.34,24.38,0,61,26.19,0.0,50,0
124,4.0,12.42,31.29,1,54,23.23,2.06,42,1
145,9.1,5.24,27.55,0,59,20.96,21.6,61,1
144,4.09,5.55,31.4,1,60,29.43,5.55,56,0
146,0.0,6.62,25.69,0,60,28.07,8.23,63,1
136,2.52,3.95,25.63,0,51,21.86,0.0,45,1
122,4.26,4.44,13.04,0,57,19.49,48.99,28,1
110,4.64,4.55,30.46,0,48,30.9,15.22,46,0
130,0.0,2.82,19.63,1,70,24.86,0.0,29,0
136,11.2,5.81,31.85,1,75,27.68,22.94,58,1
118,0.28,5.8,33.7,1,60,30.98,0.0,41,1
144,0.04,3.38,23.61,0,30,23.75,4.66,30,0
120,0.0,1.07,16.02,0,47,22.15,0.0,15,0
130,2.61,2.72,22.99,1,51,26.29,13.37,51,1
114,0.0,2.99,9.74,0,54,46.58,0.0,17,0
128,4.65,3.31,22.74,0,62,22.95,0.51,48,0
162,7.4,8.55,24.65,1,64,25.71,5.86,58,1
116,1.91,7.56,26.45,1,52,30.01,3.6,33,1
126,3.8,3.88,31.79,0,57,30.53,0.0,30,0
134,2.5,3.66,30.9,0,52,27.19,23.66,49,0
156,3.0,1.82,27.55,0,60,23.91,54.0,53,0
152,5.99,7.99,32.48,0,45,26.57,100.32,48,0
126,5.1,2.96,26.5,0,55,25.52,12.34,38,1
103,0.03,4.21,18.96,0,48,22.94,2.62,18,0
142,0.28,1.8,21.03,0,57,23.65,2.93,33,0
138,1.15,5.09,27.87,1,61,25.65,2.34,44,0
152,10.1,4.71,24.65,1,65,26.21,24.53,57,0
140,0.45,4.3,24.33,0,41,27.23,10.08,38,0
136,7.36,2.19,28.11,1,61,25.0,61.71,54,0
112,0.41,1.88,10.29,0,39,22.08,20.98,27,0
126,0.09,5.03,13.27,1,50,17.75,4.63,20,0
128,0.4,6.17,26.35,0,64,27.86,11.11,34,0
134,0.0,5.9,30.84,0,49,29.16,0.0,55,0
108,0.4,5.91,22.92,1,57,25.72,72.0,39,0
114,3.0,7.04,22.64,1,55,22.59,0.0,45,1
140,8.14,4.93,42.49,0,53,45.72,6.43,53,1
148,12.2,3.79,34.15,0,57,26.38,14.4,57,1
128,0.0,2.43,13.15,1,63,20.75,0.0,17,0
130,0.56,3.3,30.86,0,49,27.52,33.33,45,0
120,3.7,4.02,39.66,0,61,30.57,0.0,64,1
143,0.46,2.4,22.87,0,62,29.17,15.43,29,0
118,4.0,3.95,18.96,0,54,25.15,8.33,49,1
194,1.7,6.32,33.67,0,47,30.16,0.19,56,0
134,3.0,4.37,23.07,0,56,20.54,9.65,62,0
138,2.16,4.9,24.83,1,39,26.06,28.29,29,0
136,0.0,5.0,27.58,1,49,27.59,1.47,39,0
122,3.2,11.32,35.36,1,55,27.07,0.0,51,1
136,8.0,7.85,23.81,1,51,22.69,2.78,50,0
166,0.07,4.03,29.29,0,53,28.37,0.0,27,0
128,0.42,4.6,26.68,0,41,30.97,10.33,31,0
170,7.6,5.5,37.83,1,42,37.41,6.17,54,1
118,1.0,5.76,22.1,0,62,23.48,7.71,42,0
114,0.0,8.01,21.64,0,66,25.51,2.49,16,0
134,2.0,3.66,14.69,0,52,21.03,2.06,37,0
128,0.0,10.58,31.81,1,46,28.41,14.66,48,0
150,3.5,6.99,25.39,1,50,23.35,23.48,61,1
130,0.0,3.92,25.55,0,68,28.02,0.68,27,0
128,2.0,6.13,21.31,0,66,22.86,11.83,60,0
120,1.4,6.25,20.47,0,60,25.85,8.51,28,0
120,0.0,5.01,26.13,0,64,26.21,12.24,33,0
153,7.8,3.96,25.73,0,54,25.91,27.03,45,0
123,8.6,11.17,35.28,1,70,33.14,0.0,59,1
152,12.18,4.04,37.83,1,63,34.57,4.17,64,0
132,2.0,3.08,35.39,0,45,31.44,79.82,58,1
134,6.0,3.3,28.45,0,65,26.09,58.11,40,0
122,4.18,9.05,29.27,1,44,24.05,19.34,52,1
116,2.7,3.69,13.52,0,55,21.13,18.51,32,0
160,14.0,5.9,37.12,0,58,33.87,3.52,54,1
128,2.8,5.53,14.29,0,64,24.97,0.51,38,0
109,1.2,6.14,29.26,0,47,24.72,10.46,40,0
144,0.0,3.84,18.72,0,56,22.1,4.8,40,0
136,3.46,6.38,32.25,1,43,28.73,3.13,43,1
136,1.5,6.06,26.54,0,54,29.38,14.5,33,1
124,15.5,5.05,24.06,0,46,23.22,0.0,61,1
128,6.6,3.58,20.71,0,55,24.15,0.0,52,0
122,0.28,4.19,19.97,0,61,25.63,0.0,24,0
108,0.0,2.74,11.17,0,53,22.61,0.95,20,0
127,0.0,2.81,15.7,0,42,22.03,1.03,17,0
174,9.45,5.13,35.54,0,55,30.71,59.79,53,0
122,0.0,3.05,23.51,0,46,25.81,0.0,38,0
144,6.75,5.45,29.81,0,53,25.62,26.23,43,1
126,1.8,6.22,19.71,0,65,24.81,0.69,31,0
208,27.4,3.12,26.63,0,66,27.45,33.07,62,1
122,0.0,3.08,16.3,0,43,22.13,0.0,16,0
160,1.52,8.12,29.3,1,54,25.87,12.86,43,1
126,0.54,4.39,21.13,1,45,25.99,0.0,25,0
162,5.3,7.95,33.58,1,58,36.06,8.23,48,0
194,2.55,6.89,33.88,1,69,29.33,0.0,41,0
118,0.75,2.58,20.25,0,59,24.46,0.0,32,0
124,0.0,4.79,34.71,0,49,26.09,9.26,47,0
128,0.0,2.51,29.35,1,53,22.05,1.37,62,0
132,2.0,2.7,21.57,1,50,27.95,9.26,37,0
120,0.0,2.42,16.66,0,46,20.16,0.0,17,0
128,0.04,8.22,28.17,0,65,26.24,11.73,24,0
156,4.0,2.05,19.48,1,50,21.48,27.77,39,1
116,8.0,6.73,28.81,1,41,26.74,40.94,48,1
150,20.0,6.4,35.04,0,53,28.88,8.33,63,0
142,0.0,3.72,25.68,0,48,24.37,5.25,40,1
162,2.92,3.63,31.33,0,62,31.59,18.51,42,0
160,3.0,9.19,26.47,1,39,28.25,14.4,54,1
136,3.15,4.37,20.22,1,59,25.12,47.16,31,1
134,2.75,5.51,26.17,0,57,29.87,8.33,33,0
128,0.73,3.97,23.52,0,54,23.81,19.2,64,0
122,3.2,3.59,22.49,1,45,24.96,36.17,58,0
152,3.0,4.64,31.29,0,41,29.34,4.53,40,0
162,0.0,5.09,24.6,1,64,26.71,3.81,18,0
124,4.0,6.65,30.84,1,54,28.4,33.51,60,0
136,5.8,5.9,27.55,0,65,25.71,14.4,59,0
134,0.05,8.03,27.95,0,48,26.88,0.0,60,0
116,3.0,3.05,30.31,0,41,23.63,0.86,44,0
160,7.77,8.07,34.8,0,64,31.15,0.0,62,1
180,0.52,4.23,16.38,0,55,22.56,14.77,45,1
124,0.81,6.16,11.61,0,35,21.47,10.49,26,0
138,0.0,3.14,12.0,0,54,20.28,0.0,16,0
144,2.4,8.13,35.61,0,46,27.38,13.37,60,0
136,7.5,7.39,28.04,1,50,25.01,0.0,45,1
132,7.28,3.52,12.33,0,60,19.48,2.06,56,0
143,5.04,4.86,23.59,0,58,24.69,18.72,42,0
112,4.46,7.18,26.25,1,69,27.29,0.0,32,1
138,2.0,5.11,31.4,1,49,27.25,2.06,64,1
188,0.0,5.47,32.44,1,71,28.99,7.41,50,1
122,0.0,3.76,24.59,0,56,24.36,0.0,30,0
138,0.0,3.24,27.68,0,60,25.7,88.66,29,0
126,5.5,3.78,34.15,0,55,28.85,3.18,61,0
128,6.0,4.37,22.98,1,50,26.01,0.0,47,0
190,4.18,5.05,24.83,0,45,26.09,82.85,41,0
144,0.76,10.53,35.66,0,63,34.35,0.0,55,1
136,0.4,3.91,21.1,1,63,22.3,0.0,56,1
124,6.0,5.21,33.02,1,64,29.37,7.61,58,1
158,6.17,8.12,30.75,0,46,27.84,92.62,48,0
128,0.0,6.34,11.87,0,57,23.14,0.0,17,0
166,3.0,3.82,26.75,0,45,20.86,0.0,63,1
146,7.5,7.21,25.93,1,55,22.51,0.51,42,0
118,0.0,2.39,12.13,0,49,18.46,0.26,17,1
136,5.0,4.19,23.99,1,68,27.8,25.86,35,0
118,0.12,4.16,9.37,0,57,19.61,0.0,17,0
136,2.2,4.16,38.02,0,65,37.24,4.11,41,1
108,0.8,2.47,17.53,0,47,22.18,0.0,55,1
124,4.25,8.22,30.77,0,56,25.8,0.0,43,0
106,1.08,4.37,26.08,0,67,24.07,17.74,28,1
206,0.0,4.17,33.23,0,69,27.36,6.17,50,1
126,0.21,3.95,15.11,0,61,22.17,2.42,17,0
112,0.6,5.28,25.71,0,55,27.02,27.77,38,1
112,0.0,1.71,15.96,0,42,22.03,3.5,16,0
170,2.6,7.22,28.69,1,71,27.87,37.65,56,1
142,0.0,4.19,18.04,0,56,23.65,20.78,42,1
132,0.1,3.28,10.73,0,73,20.42,0.0,17,0
132,12.0,4.51,21.93,0,61,26.07,64.8,46,1
138,2.27,6.41,29.07,0,58,30.22,2.93,32,1
170,0.0,3.12,37.15,0,47,35.42,0.0,53,0
128,0.0,8.41,28.82,1,60,26.86,0.0,59,1
128,0.0,3.22,26.55,1,39,26.59,16.71,49,0
150,14.4,5.04,26.52,1,60,28.84,0.0,45,0
142,2.4,2.55,23.89,0,54,26.09,59.14,37,0
190,5.15,6.03,36.59,0,42,30.31,72.0,50,0
154,1.4,1.72,18.86,0,58,22.67,43.2,59,0
142,3.72,4.24,32.57,0,52,24.98,7.61,51,0
154,0.0,4.81,28.11,1,56,25.67,75.77,59,0
146,4.36,4.31,18.44,1,47,24.72,10.8,38,0
136,1.7,3.53,20.13,0,56,19.44,14.4,55,0
106,5.6,3.2,12.3,0,49,20.29,0.0,39,0
144,0.4,4.64,30.09,0,30,27.39,0.74,55,0
154,0.31,2.33,16.48,0,33,24.0,11.83,17,0
126,3.1,2.01,32.97,1,56,28.63,26.74,45,0
152,19.45,4.22,29.81,0,28,23.95,0.0,59,1
162,6.94,4.55,33.36,1,52,27.09,32.06,43,0
130,7.28,3.56,23.29,1,20,26.8,51.87,58,1
116,4.28,7.02,19.99,1,68,23.31,0.0,52,1
198,0.52,11.89,27.68,1,48,28.4,78.99,26,1
154,4.5,4.75,23.52,1,43,25.76,0.0,53,1
130,0.08,5.59,25.42,1,50,24.98,6.27,43,1
136,3.99,2.58,16.38,1,53,22.41,27.67,36,0
176,1.2,8.28,36.16,1,42,27.81,11.6,58,1
122,1.7,5.28,32.23,1,51,24.08,0.0,54,0
132,4.05,5.15,26.51,1,31,26.67,16.3,50,0
152,1.68,3.58,25.43,0,50,27.03,0.0,32,0
132,12.3,5.96,32.79,1,57,30.12,21.5,62,1
124,0.4,3.67,25.76,0,43,28.08,20.57,34,0
166,0.6,2.42,34.03,1,53,26.96,54.0,60,0
156,3.02,5.35,25.72,1,53,25.22,28.11,52,1
150,0.0,4.99,27.73,0,57,30.92,8.33,24,0
126,3.4,4.87,15.16,1,65,22.01,11.11,38,0
148,0.5,5.97,32.88,0,54,29.27,6.43,42,0
132,6.0,5.97,25.73,1,66,24.18,145.29,41,0
140,0.0,2.4,27.89,1,70,30.74,144.0,29,0
114,3.6,4.16,22.58,0,60,24.49,65.31,31,0
118,1.25,4.69,31.58,1,52,27.16,4.11,53,0
126,0.96,4.99,29.74,0,66,33.35,58.32,38,0
154,4.5,4.68,39.97,0,61,33.17,1.54,64,1
112,1.44,2.71,22.92,0,59,24.81,0.0,52,0
140,8.0,4.42,33.15,1,47,32.77,66.86,44,0
160,4.2,6.76,37.99,1,61,32.91,3.09,54,1
148,4.5,10.49,33.27,0,50,25.92,2.06,53,1
146,0.0,4.92,18.53,0,57,24.2,34.97,26,0
130,0.54,3.63,22.03,1,69,24.34,12.86,39,1
154,2.4,5.63,42.17,1,59,35.07,12.86,50,1
134,6.1,4.77,26.08,0,47,23.82,1.03,49,0
178,5.5,3.79,23.92,1,45,21.26,6.17,62,1
160,1.15,10.19,39.71,0,31,31.65,20.52,57,0
180,25.01,3.7,38.11,1,57,30.54,0.0,61,1
200,19.2,4.43,40.6,1,55,32.04,36.0,60,1
120,0.0,3.1,26.97,0,41,24.8,0.0,16,0
146,6.4,5.62,33.05,1,57,31.03,0.74,46,0
158,16.0,5.56,29.35,0,36,25.92,58.32,60,0
126,0.0,4.55,29.18,0,48,24.94,36.0,41,0
174,0.0,3.86,21.73,0,42,23.37,0.0,63,0
176,6.0,3.98,17.2,1,52,21.07,4.11,61,1
146,1.16,2.28,34.53,0,50,28.71,45.0,49,0
132,7.2,3.65,17.16,1,56,23.25,0.0,34,0
108,0.0,1.43,26.26,0,42,19.38,0.0,16,0
130,1.22,3.3,13.65,0,50,21.4,3.81,31,0
166,6.0,8.8,37.89,0,39,28.7,43.2,52,0
134,0.57,4.75,23.07,0,67,26.33,0.0,37,0
144,4.0,5.03,25.78,1,57,27.55,90.0,48,1
136,1.81,3.31,6.74,0,63,19.57,24.94,24,0
154,5.53,3.2,28.81,1,61,26.15,42.79,42,0
124,1.6,7.22,39.68,1,36,31.5,0.0,51,1
128,2.24,2.83,26.48,0,48,23.96,47.42,27,1
170,0.4,4.11,42.06,1,56,33.1,2.06,57,0
214,0.4,5.98,31.72,0,64,28.45,0.0,58,0
118,5.4,11.61,30.79,0,64,27.35,23.97,40,0
