Sbp,Tobacco,Ldl,Adiposity,Famhist,Typea,Obesity,Alcohol,Age,TARGET
160,12.0,5.73,23.11,1,49,25.3,97.2,52,1
170,7.5,6.41,38.03,1,51,31.99,24.26,58,1
132,6.2,6.47,36.21,1,62,30.77,14.14,45,0
114,4.08,4.59,14.6,1,62,23.11,6.72,58,1
206,6.0,2.95,32.27,0,72,26.81,56.06,60,1
132,0.0,1.87,17.21,0,49,23.63,0.97,15,0
117,1.53,2.44,28.95,1,35,25.89,30.03,46,0
120,7.5,15.33,22.0,0,60,25.31,34.49,49,0
158,2.6,7.46,34.07,1,61,29.3,53.28,62,1
124,14.0,6.23,35.96,1,45,30.09,0.0,59,1
106,1.61,1.74,12.32,0,74,20.92,13.37,20,1
132,7.9,2.85,26.5,1,51,26.16,25.71,44,0
142,18.2,4.34,24.38,0,61,26.19,0.0,50,0
118,6.0,9.65,33.91,0,60,38.8,0.0,48,0
146,0.0,6.62,25.69,0,60,28.07,8.23,63,1
136,2.52,3.95,25.63,0,51,21.86,0.0,45,1
158,1.02,6.33,23.88,0,66,22.13,24.99,46,1
126,8.75,6.53,34.02,0,49,30.25,0.0,41,1
110,4.64,4.55,30.46,0,48,30.9,15.22,46,0
118,0.28,5.8,33.7,1,60,30.98,0.0,41,1
120,0.0,1.07,16.02,0,47,22.15,0.0,15,0
130,2.61,2.72,22.99,1,51,26.29,13.37,51,1
114,0.0,2.99,9.74,0,54,46.58,0.0,17,0
128,4.65,3.31,22.74,0,62,22.95,0.51,48,0
162,7.4,8.55,24.65,1,64,25.71,5.86,58,1
116,1.91,7.56,26.45,1,52,30.01,3.6,33,1
126,3.8,3.88,31.79,0,57,30.53,0.0,30,0
122,0.0,5.75,30.9,1,46,29.01,4.11,42,0
134,2.5,3.66,30.9,0,52,27.19,23.66,49,0
134,8.08,1.55,17.5,1,56,22.65,66.65,31,1
118,0.0,2.99,16.17,0,49,23.83,3.22,28,0
126,5.1,2.96,26.5,0,55,25.52,12.34,38,1
121,0.8,5.29,18.95,1,47,22.51,0.0,61,0
142,0.28,1.8,21.03,0,57,23.65,2.93,33,0
152,10.1,4.71,24.65,1,65,26.21,24.53,57,0
130,0.0,1.82,10.45,0,57,22.07,2.06,17,0
118,4.46,7.27,29.13,1,48,29.01,11.11,33,0
122,0.0,3.37,16.1,0,67,21.06,0.0,32,1
130,5.6,3.37,24.8,0,58,25.76,43.2,36,0
136,0.0,4.12,17.42,0,52,21.66,12.86,40,0
134,0.0,5.9,30.84,0,49,29.16,0.0,55,0
140,0.6,5.56,33.39,1,58,27.19,0.0,55,1
108,0.4,5.91,22.92,1,57,25.72,72.0,39,0
114,3.0,7.04,22.64,1,55,22.59,0.0,45,1
148,4.8,6.09,36.55,1,63,25.44,0.88,55,1
148,12.2,3.79,34.15,0,57,26.38,14.4,57,1
130,0.56,3.3,30.86,0,49,27.52,33.33,45,0
140,0.0,5.08,27.33,1,41,27.83,1.25,38,0
134,3.0,4.37,23.07,0,56,20.54,9.65,62,0
136,0.0,5.0,27.58,1,49,27.59,1.47,39,0
164,12.0,3.91,19.59,0,51,23.44,19.75,39,0
136,8.0,7.85,23.81,1,51,22.69,2.78,50,0
166,0.07,4.03,29.29,0,53,28.37,0.0,27,0
118,1.5,5.38,25.84,0,64,28.63,3.89,29,0
118,1.0,5.76,22.1,0,62,23.48,7.71,42,0
124,0.0,3.04,17.33,0,49,22.04,0.0,18,0
134,2.0,3.66,14.69,0,52,21.03,2.06,37,0
116,31.2,3.17,14.99,0,47,19.4,49.06,59,1
128,0.0,10.58,31.81,1,46,28.41,14.66,48,0
154,0.7,5.91,25.0,0,13,20.6,0.0,42,0
150,3.5,6.99,25.39,1,50,23.35,23.48,61,1
138,4.5,2.85,30.11,0,55,24.78,24.89,56,1
123,8.6,11.17,35.28,1,70,33.14,0.0,59,1
148,4.04,3.99,20.69,0,60,27.78,1.75,28,0
136,3.96,2.76,30.28,1,50,34.42,18.51,38,0
134,8.8,7.41,26.84,0,35,29.44,29.52,60,1
152,12.18,4.04,37.83,1,63,34.57,4.17,64,0
134,1.5,3.73,21.53,0,41,24.7,11.11,30,1
122,4.18,9.05,29.27,1,44,24.05,19.34,52,1
128,0.5,3.7,12.81,1,66,21.25,22.73,28,0
130,2.78,4.89,9.39,1,63,19.3,17.47,25,1
130,4.5,5.86,37.43,0,61,31.21,32.3,58,0
109,1.2,6.14,29.26,0,47,24.72,10.46,40,0
118,1.05,3.16,12.98,1,46,22.09,16.35,31,0
136,3.46,6.38,32.25,1,43,28.73,3.13,43,1
138,8.8,3.12,22.41,1,63,23.33,120.03,55,1
127,0.0,2.81,15.7,0,42,22.03,1.03,17,0
122,0.0,3.05,23.51,0,46,25.81,0.0,38,0
144,6.75,5.45,29.81,0,53,25.62,26.23,43,1
126,1.8,6.22,19.71,0,65,24.81,0.69,31,0
148,0.0,3.84,17.26,0,70,20.0,0.0,21,0
122,0.0,3.08,16.3,0,43,22.13,0.0,16,0
160,1.52,8.12,29.3,1,54,25.87,12.86,43,1
194,2.55,6.89,33.88,1,69,29.33,0.0,41,0
118,0.75,2.58,20.25,0,59,24.46,0.0,32,0
124,0.0,4.79,34.71,0,49,26.09,9.26,47,0
160,0.0,2.42,34.46,0,48,29.83,1.03,61,0
122,4.0,5.24,27.89,1,45,26.52,0.0,61,1
120,0.0,2.42,16.66,0,46,20.16,0.0,17,0
128,0.04,8.22,28.17,0,65,26.24,11.73,24,0
108,15.0,4.91,34.65,0,41,27.96,14.4,56,0
152,0.0,6.06,41.05,1,51,40.34,0.0,51,0
156,4.0,2.05,19.48,1,50,21.48,27.77,39,1
150,20.0,6.4,35.04,0,53,28.88,8.33,63,0
134,4.8,6.58,29.89,1,55,24.73,23.66,63,0
142,0.0,3.72,25.68,0,48,24.37,5.25,40,1
128,0.7,4.9,37.42,1,72,35.94,3.09,49,1
102,0.4,3.41,17.22,1,56,23.59,2.06,39,1
138,0.05,2.79,10.35,0,46,21.62,0.0,18,0
138,0.0,1.96,11.82,1,54,22.01,8.13,21,0
162,2.92,3.63,31.33,0,62,31.59,18.51,42,0
124,0.16,2.44,16.67,0,65,24.58,74.91,23,0
134,2.75,5.51,26.17,0,57,29.87,8.33,33,0
128,0.73,3.97,23.52,0,54,23.81,19.2,64,0
152,3.0,4.64,31.29,0,41,29.34,4.53,40,0
124,4.0,6.65,30.84,1,54,28.4,33.51,60,0
136,5.8,5.9,27.55,0,65,25.71,14.4,59,0
136,8.8,4.26,32.03,1,52,31.44,34.35,60,0
134,0.05,8.03,27.95,0,48,26.88,0.0,60,0
122,1.0,5.88,34.81,1,69,31.27,15.94,40,1
132,0.0,0.98,21.39,0,62,26.75,0.0,53,0
160,7.77,8.07,34.8,0,64,31.15,0.0,62,1
180,0.52,4.23,16.38,0,55,22.56,14.77,45,1
114,0.0,4.97,9.69,0,26,22.6,0.0,25,0
138,0.0,3.14,12.0,0,54,20.28,0.0,16,0
132,7.28,3.52,12.33,0,60,19.48,2.06,56,0
143,5.04,4.86,23.59,0,58,24.69,18.72,42,0
134,10.0,3.79,34.72,0,42,28.33,28.8,52,1
188,0.0,5.47,32.44,1,71,28.99,7.41,50,1
110,2.35,3.36,26.72,1,54,26.08,109.8,58,1
136,13.2,7.18,35.95,0,48,29.19,0.0,62,0
130,1.75,5.46,34.34,0,53,29.42,0.0,58,1
122,0.0,3.76,24.59,0,56,24.36,0.0,30,0
138,0.0,3.24,27.68,0,60,25.7,88.66,29,0
126,5.5,3.78,34.15,0,55,28.85,3.18,61,0
176,5.76,4.89,26.1,1,46,27.3,19.44,57,0
124,0.0,3.23,9.64,0,59,22.7,0.0,16,0
140,5.2,3.58,29.26,0,70,27.29,20.17,45,1
128,6.0,4.37,22.98,1,50,26.01,0.0,47,0
190,4.18,5.05,24.83,0,45,26.09,82.85,41,0
144,0.76,10.53,35.66,0,63,34.35,0.0,55,1
128,0.0,2.63,23.88,0,45,21.59,6.54,57,0
160,0.6,6.94,30.53,0,36,25.68,1.42,64,0
124,6.0,5.21,33.02,1,64,29.37,7.61,58,1
158,6.17,8.12,30.75,0,46,27.84,92.62,48,0
128,0.0,6.34,11.87,0,57,23.14,0.0,17,0
146,7.5,7.21,25.93,1,55,22.51,0.51,42,0
146,5.08,7.03,27.41,1,63,36.46,24.48,37,1
142,4.48,3.57,19.75,1,51,23.54,3.29,49,0
118,0.0,2.39,12.13,0,49,18.46,0.26,17,1
118,0.12,4.16,9.37,0,57,19.61,0.0,17,0
130,0.0,4.16,39.43,1,46,30.01,0.0,55,1
136,2.2,4.16,38.02,0,65,37.24,4.11,41,1
154,4.2,5.59,25.02,0,58,25.02,1.54,43,0
108,0.8,2.47,17.53,0,47,22.18,0.0,55,1
174,2.02,6.57,31.9,1,50,28.75,11.83,64,1
114,0.0,2.63,9.69,0,45,17.89,0.0,16,0
118,0.12,3.26,12.26,0,55,22.65,0.0,16,0
106,1.08,4.37,26.08,0,67,24.07,17.74,28,1
146,3.6,3.51,22.67,0,51,22.29,43.71,42,0
134,3.0,3.17,17.91,0,35,26.37,15.12,27,0
148,15.0,4.98,36.94,1,72,31.83,66.27,41,1
126,0.21,3.95,15.11,0,61,22.17,2.42,17,0
134,0.02,2.8,18.84,0,45,24.82,0.0,17,0
123,0.05,4.61,13.69,0,51,23.23,2.78,16,0
101,0.48,7.26,13.0,0,50,19.82,5.19,16,0
150,0.18,4.14,14.4,0,53,23.43,7.71,44,0
142,0.0,4.19,18.04,0,56,23.65,20.78,42,1
132,0.1,3.28,10.73,0,73,20.42,0.0,17,0
132,12.0,4.51,21.93,0,61,26.07,64.8,46,1
128,0.0,8.41,28.82,1,60,26.86,0.0,59,1
142,2.4,2.55,23.89,0,54,26.09,59.14,37,0
174,3.5,5.26,21.97,1,36,22.04,8.33,59,1
174,0.0,3.27,35.4,0,58,37.71,24.95,44,0
168,11.4,5.08,26.66,1,56,27.04,2.61,59,1
142,3.72,4.24,32.57,0,52,24.98,7.61,51,0
146,4.36,4.31,18.44,1,47,24.72,10.8,38,0
166,6.0,3.02,29.3,0,35,24.38,38.06,61,0
156,0.0,3.47,21.1,0,73,28.4,0.0,36,1
132,0.0,6.63,29.58,1,37,29.41,2.57,62,0
128,0.0,2.98,12.59,0,65,20.74,2.06,19,0
144,0.4,4.64,30.09,0,30,27.39,0.74,55,0
154,0.31,2.33,16.48,0,33,24.0,11.83,17,0
126,3.1,2.01,32.97,1,56,28.63,26.74,45,0
152,19.45,4.22,29.81,0,28,23.95,0.0,59,1
130,7.28,3.56,23.29,1,20,26.8,51.87,58,1
138,6.0,7.24,37.05,0,38,28.69,0.0,59,0
148,0.0,5.32,26.71,1,52,32.21,32.78,27,0
137,1.2,3.14,23.87,0,66,24.13,45.0,37,0
198,0.52,11.89,27.68,1,48,28.4,78.99,26,1
162,5.6,4.24,22.53,0,29,22.91,5.66,60,0
120,10.5,2.7,29.87,1,54,24.5,16.46,49,0
134,11.79,4.01,26.57,1,38,21.79,38.88,61,1
134,0.9,3.18,23.66,1,52,23.26,27.36,58,1
134,0.0,2.43,22.24,0,52,26.49,41.66,24,0
152,1.68,3.58,25.43,0,50,27.03,0.0,32,0
166,0.6,2.42,34.03,1,53,26.96,54.0,60,0
148,0.5,5.97,32.88,0,54,29.27,6.43,42,0
148,8.2,7.75,34.46,1,46,26.53,6.04,64,1
126,0.0,5.29,27.64,0,25,27.62,2.06,45,0
154,4.5,4.68,39.97,0,61,33.17,1.54,64,1
140,8.0,4.42,33.15,1,47,32.77,66.86,44,0
128,2.6,4.94,21.36,0,61,21.3,0.0,31,0
126,19.6,6.03,34.99,0,49,26.99,55.89,44,0
154,2.4,5.63,42.17,1,59,35.07,12.86,50,1
178,0.95,4.75,21.06,0,49,23.74,24.69,61,0
180,3.57,3.57,36.1,0,36,26.7,19.95,64,0
134,12.5,2.73,39.35,0,48,35.58,0.0,48,0
142,0.0,3.54,16.64,0,58,25.97,8.36,27,0
218,11.2,2.77,30.79,0,38,24.86,90.93,48,1
126,0.0,3.57,26.01,0,61,26.3,7.97,47,0
132,0.0,4.17,36.57,0,57,30.61,18.0,49,0
178,5.5,3.79,23.92,1,45,21.26,6.17,62,1
208,5.04,5.19,20.71,1,52,25.12,24.27,58,1
160,1.15,10.19,39.71,0,31,31.65,20.52,57,0
116,2.38,5.67,29.01,1,54,27.26,15.77,51,0
112,4.2,3.58,27.14,0,52,26.83,2.06,40,0
216,0.92,2.66,19.85,1,49,20.58,0.51,63,1
174,0.0,3.86,21.73,0,42,23.37,0.0,63,0
176,6.0,3.98,17.2,1,52,21.07,4.11,61,1
142,2.2,3.29,22.7,0,44,23.66,5.66,42,1
132,7.2,3.65,17.16,1,56,23.25,0.0,34,0
118,0.0,3.89,15.96,0,65,20.18,0.0,16,0
136,0.0,4.0,19.06,0,40,21.94,2.06,16,0
120,0.0,2.46,13.39,0,47,22.01,0.51,18,0
136,0.0,1.77,20.37,0,45,21.51,2.06,16,0
138,0.0,1.86,18.35,1,59,25.38,6.51,17,0
138,0.06,4.15,20.66,0,49,22.59,2.49,16,0
130,1.22,3.3,13.65,0,50,21.4,3.81,31,0
130,4.0,2.4,17.42,0,60,22.05,0.0,40,0
110,0.0,7.14,28.28,0,57,29.0,0.0,32,0
120,0.0,3.98,13.19,1,47,21.89,0.0,16,0
166,6.0,8.8,37.89,0,39,28.7,43.2,52,0
134,0.57,4.75,23.07,0,67,26.33,0.0,37,0
142,3.0,3.69,25.1,0,60,30.08,38.88,27,0
142,0.0,4.32,25.22,0,47,28.92,6.53,34,1
144,4.0,5.03,25.78,1,57,27.55,90.0,48,1
136,1.81,3.31,6.74,0,63,19.57,24.94,24,0
154,5.53,3.2,28.81,1,61,26.15,42.79,42,0
108,3.0,1.59,15.23,0,40,20.09,26.64,55,0
132,0.0,4.82,33.41,1,62,14.7,0.0,46,1
