TT,SpeakerNumber,Sex,F0,F1,F2,F3,F4,F5,F6,F7,F8,F9,TARGET
0,0,0,-3.639,0.418,-0.67,1.779,-0.168,1.6269999999999998,-0.3879999999999999,0.529,-0.8740000000000001,-0.8140000000000001,0
0,0,0,-3.327,0.496,-0.6940000000000001,1.365,-0.265,1.933,-0.363,0.51,-0.621,-0.488,1
0,0,0,-2.852,1.914,-0.755,0.825,-1.588,0.855,0.217,-0.246,0.238,-0.365,5
0,0,0,-3.941,2.305,0.124,1.771,-1.815,0.593,-0.435,0.992,0.575,-0.301,7
0,0,0,-3.032,1.739,-1.141,0.737,-0.8340000000000001,1.386,-0.575,0.679,-0.018,-0.823,10
0,0,0,-3.653,0.373,-0.6,1.705,-0.222,1.765,-0.353,0.537,-0.797,-0.813,0
0,0,0,-3.237,0.436,-0.86,1.3630000000000002,-0.251,1.915,-0.395,0.7509999999999999,-0.774,-0.327,1
0,0,0,-2.135,0.954,-1.632,0.121,-0.7040000000000001,1.6,-0.628,0.713,-0.903,-0.027,2
0,0,0,-2.3040000000000003,1.784,-1.506,0.981,-0.961,0.8059999999999999,-0.294,-0.002,0.119,-0.76,3
0,0,0,-2.826,2.003,-0.738,0.8009999999999999,-1.669,0.939,0.245,-0.257,0.256,-0.4579999999999999,5
0,0,0,-3.951,2.25,0.127,1.7719999999999998,-1.906,0.5670000000000001,-0.432,1.045,0.598,-0.293,7
0,0,0,-3.783,1.974,-1.2,0.606,-0.65,1.504,-0.134,0.528,0.392,-0.58,8
0,0,0,-2.946,1.649,-1.167,0.7879999999999999,-0.909,1.3,-0.562,0.902,-0.07,-0.8420000000000001,10
0,0,0,-2.312,1.746,-1.51,1.019,-0.99,0.941,-0.488,0.208,0.033,-0.847,3
0,0,0,-2.635,2.147,-1.129,0.911,-1.4069999999999998,1.095,-0.071,0.118,0.139,-0.685,4
0,0,0,-2.887,2.131,-0.83,0.682,-1.557,0.818,0.4479999999999999,-0.382,0.207,-0.402,5
0,0,0,-3.635,2.25,-0.3939999999999999,1.012,-1.693,0.1169999999999999,0.665,0.281,0.3429999999999999,-0.003,6
0,0,0,-3.74,1.832,-1.384,1.587,0.049,1.642,-0.516,0.7070000000000001,-0.1689999999999999,-0.522,9
0,0,0,-2.859,1.6269999999999998,-1.14,0.769,-0.948,1.39,-0.608,0.956,-0.204,-0.727,10
0,0,0,-2.289,1.845,-1.616,0.987,-0.8759999999999999,1.044,-0.5489999999999999,0.196,-0.07,-0.8140000000000001,3
0,0,0,-3.015,2.232,-0.899,0.574,-1.331,0.546,0.61,-0.452,0.035,-0.156,5
0,0,0,-3.559,2.126,-0.445,1.053,-1.765,0.349,0.546,0.321,0.4429999999999999,-0.118,6
0,0,0,-4.074,2.281,0.152,1.556,-1.6130000000000002,-0.047,0.222,0.252,0.775,0.125,7
0,0,0,-3.687,1.784,-1.5930000000000002,1.6030000000000002,0.123,1.4240000000000002,-0.225,0.441,0.206,-0.7140000000000001,9
0,0,0,-2.69,1.652,-1.261,0.674,-0.964,1.449,-0.593,1.005,-0.303,-0.541,10
0,0,0,-3.0460000000000003,0.387,-1.165,0.94,-0.386,1.978,-0.186,0.8109999999999999,-0.3939999999999999,-0.198,1
0,0,0,-2.299,1.848,-1.695,1.065,-0.861,1.047,-0.607,0.313,-0.253,-0.759,3
0,0,0,-3.089,2.339,-0.973,0.4629999999999999,-1.169,0.5429999999999999,0.598,-0.45,-0.08,-0.039,5
0,0,0,-4.208,2.447,0.049,1.331,-2.088,0.585,-0.05,0.82,0.606,-0.302,7
0,0,0,-3.684,1.774,-1.7280000000000002,1.611,0.1,1.393,-0.193,0.5539999999999999,0.245,-0.919,9
0,0,0,-3.604,0.235,-0.836,1.786,-0.153,1.642,-0.096,0.488,-0.524,-1.003,0
0,0,0,-2.3680000000000003,1.727,-1.556,1.162,-0.8190000000000001,0.941,-0.5720000000000001,0.345,-0.2789999999999999,-0.736,3
0,0,0,-3.141,1.873,-1.131,0.941,-0.759,1.224,-0.354,0.016,-0.218,-0.568,4
0,1,0,-1.372,-0.03,-1.003,-0.3879999999999999,-0.471,1.141,0.654,0.823,0.5579999999999999,0.043,1
0,1,0,-2.654,2.39,-0.008,0.07,-1.063,0.304,-0.105,0.281,0.488,-0.382,4
0,1,0,-3.141,3.314,-0.996,-0.3939999999999999,-0.19,-0.312,0.1369999999999999,0.631,0.547,-0.247,6
0,1,0,-3.941,3.353,0.486,-0.506,-1.12,0.1009999999999999,0.297,0.711,-0.078,0.648,7
0,1,0,-4.1610000000000005,2.937,0.157,0.336,-0.968,0.6409999999999999,0.088,0.237,0.565,0.823,8
0,1,0,-1.709,0.486,-0.953,-0.346,0.02,0.7859999999999999,0.145,0.564,-0.2289999999999999,-0.322,2
0,1,0,-3.902,3.5860000000000003,0.3339999999999999,-0.669,-1.087,0.255,0.461,0.812,-0.185,0.535,7
0,1,0,-4.65,2.455,0.013,0.6809999999999999,-0.8,1.4340000000000002,0.126,0.036,0.382,0.278,9
0,1,0,-3.03,1.185,0.314,-0.121,-0.591,0.965,0.353,-0.1369999999999999,-0.221,0.075,10
0,1,0,-1.976,0.389,-0.947,-0.25,-0.065,0.949,0.127,0.478,-0.3229999999999999,-0.345,2
0,1,0,-2.5540000000000003,1.117,0.42,-0.022,-0.645,0.02,0.145,-0.327,0.66,0.073,5
0,1,0,-3.84,3.745,0.121,-0.6559999999999999,-1.0659999999999998,0.3289999999999999,0.7340000000000001,0.875,-0.295,0.418,7
0,1,0,-4.323,2.853,0.385,0.209,-1.096,0.431,0.119,0.268,0.131,0.654,8
0,1,0,-4.676,2.537,0.075,0.73,-0.933,1.493,0.049,0.076,0.254,0.276,9
0,1,0,-4.477,0.246,1.087,1.108,0.682,1.057,0.424,-0.264,-1.195,-0.52,0
0,1,0,-1.945,0.352,-1.053,-0.228,-0.12,0.927,0.088,0.509,-0.2789999999999999,-0.246,2
0,1,0,-1.912,1.554,-1.455,-0.017,-0.118,0.27,-0.037,0.163,-0.027,-0.474,3
0,1,0,-2.724,2.998,-0.56,-0.077,-0.944,0.5479999999999999,-0.08,0.4,0.144,-0.63,4
0,1,0,-3.092,3.014,-0.307,-0.016,-0.956,0.195,-0.2269999999999999,0.367,0.958,-0.092,6
0,1,0,-4.232,3.035,0.428,0.497,-1.374,0.5489999999999999,0.133,0.2319999999999999,0.129,0.487,8
0,1,0,-4.759,2.696,0.104,0.6970000000000001,-0.787,1.114,0.205,-0.066,0.369,0.306,9
0,1,0,-2.945,1.724,-0.312,-0.239,-0.447,1.36,0.0139999999999999,-0.102,0.021,-0.564,10
0,1,0,-2.748,3.217,-0.976,-0.213,-0.792,0.7709999999999999,-0.032,0.223,0.043,-0.825,4
0,1,0,-4.88,3.064,0.06,0.434,-0.575,0.897,0.25,0.085,0.093,0.445,9
0,1,0,-3.082,1.633,-0.118,-0.147,-0.484,1.176,-0.086,-0.072,0.086,-0.564,10
0,1,0,-2.441,0.191,-0.8140000000000001,0.255,0.411,1.636,0.395,0.7609999999999999,-0.005,-0.564,1
0,1,0,-1.672,0.3279999999999999,-0.833,-0.5770000000000001,-0.363,0.84,0.18,0.682,-0.124,-0.109,2
0,1,0,-2.489,1.773,-0.18,-0.152,-0.353,0.133,-0.186,0.207,0.7879999999999999,-0.285,5
0,1,0,-3.065,3.139,-0.461,-0.221,-0.759,-0.045,0.068,0.2739999999999999,0.999,-0.331,6
0,1,0,-3.0580000000000003,1.6780000000000002,-0.351,-0.255,0.038,0.6920000000000001,-0.173,0.226,0.2019999999999999,-0.593,10
0,2,0,-1.077,0.511,-2.006,0.305,-0.584,1.962,0.089,1.406,-0.669,-0.027,1
0,2,0,-1.768,0.7859999999999999,-1.4680000000000002,1.077,-0.347,1.704,-0.171,1.0759999999999998,-0.691,-0.06,2
0,2,0,-1.737,1.789,-1.046,1.071,-0.775,1.041,-0.025,0.925,-0.452,0.0069999999999999,3
0,2,0,-2.125,1.952,-0.415,1.4580000000000002,-0.985,0.52,-0.344,1.249,-0.37,0.145,5
0,2,0,-2.607,2.406,-0.088,1.586,-1.477,0.1639999999999999,-0.527,1.551,0.033,0.522,6
0,2,0,-3.813,3.705,-0.157,1.561,-1.503,-0.366,-0.581,1.412,0.29,-0.099,7
0,2,0,-3.05,1.6,-0.6859999999999999,1.543,-1.149,-0.043,0.297,0.727,0.598,0.4579999999999999,8
0,2,0,-2.979,1.795,-0.87,1.4269999999999998,-0.93,1.3230000000000002,-0.212,1.286,-0.135,-0.496,10
0,2,0,-1.298,-0.295,-2.4330000000000003,0.955,-0.278,2.252,0.285,0.915,-1.569,-0.562,0
0,2,0,-1.012,0.516,-2.041,0.32,-0.634,1.969,0.0409999999999999,1.414,-0.687,0.047,1
0,2,0,-2.3080000000000003,2.023,-0.203,1.493,-1.223,0.379,-0.481,1.403,-0.045,0.402,4
0,2,0,-3.834,3.749,-0.183,1.518,-1.585,-0.281,-0.3339999999999999,1.1909999999999998,0.425,-0.104,7
0,2,0,-0.941,0.539,-2.02,0.314,-0.679,1.897,0.0279999999999999,1.504,-0.632,0.111,1
0,2,0,-2.227,1.993,-0.156,1.554,-1.19,0.332,-0.5479999999999999,1.362,-0.013,0.369,4
0,2,0,-2.043,1.95,-0.435,1.341,-1.0490000000000002,0.5579999999999999,-0.237,1.237,-0.283,0.306,5
0,2,0,-2.679,1.731,-0.09,2.003,-1.009,0.038,-0.8220000000000001,1.232,0.128,0.72,6
0,2,0,-3.836,3.699,-0.225,1.52,-1.729,-0.184,0.064,0.97,0.5,-0.13,7
0,2,0,-4.333,2.438,-0.2189999999999999,1.372,-0.7609999999999999,0.306,0.594,-0.022,1.103,0.19,9
0,2,0,-1.4169999999999998,-0.319,-2.254,1.072,-0.221,2.268,0.43,0.923,-1.486,-0.698,0
0,2,0,-4.373,2.463,-0.171,1.501,-0.639,0.292,0.518,-0.114,1.127,0.332,9
0,2,0,-1.123,0.415,-1.954,0.563,-0.465,1.983,0.027,1.614,-0.568,0.0069999999999999,1
0,2,0,-1.28,0.7979999999999999,-1.6469999999999998,0.968,-0.418,1.609,-0.031,1.224,-0.374,0.044,2
0,2,0,-1.475,1.557,-1.009,1.202,-0.846,0.883,-0.138,0.8220000000000001,-0.165,0.198,3
0,2,0,-2.205,1.804,-0.1989999999999999,1.773,-1.089,0.312,-0.621,1.247,0.1369999999999999,0.406,4
0,2,0,-1.824,1.682,-0.669,1.483,-1.036,0.711,-0.249,1.193,-0.2739999999999999,0.2239999999999999,5
0,2,0,-2.574,1.814,-0.1669999999999999,1.826,-1.156,0.12,-0.609,1.543,0.11,0.75,6
0,2,0,-3.693,3.067,-0.273,1.619,-1.905,0.045,0.006,1.347,0.346,0.36,7
0,2,0,-1.215,-0.288,-2.423,0.8340000000000001,-0.379,2.266,0.503,1.337,-1.36,-0.682,0
0,2,0,-1.5119999999999998,1.492,-1.053,1.262,-0.809,0.941,-0.122,0.807,-0.206,0.145,3
0,2,0,-2.274,1.653,-0.226,1.857,-0.971,0.327,-0.605,1.121,0.121,0.291,4
0,2,0,-4.376,2.216,-0.2689999999999999,1.32,-0.66,0.159,0.7190000000000001,0.008,1.058,0.472,9
0,2,0,-2.52,1.52,-0.959,1.296,-1.103,1.149,-0.268,1.249,0.092,-0.682,10
0,3,0,-1.548,-0.4,-1.659,0.244,-0.1009999999999999,1.5619999999999998,0.551,1.248,0.129,-0.456,0
0,3,0,-1.891,0.988,-1.06,0.119,0.59,0.263,0.372,0.39,-0.376,-0.655,2
0,3,0,-2.55,2.629,0.084,-0.159,-0.882,0.093,-0.19,0.961,0.032,-0.589,4
0,3,0,-3.6010000000000004,0.742,-0.238,0.332,-0.561,1.275,-0.0139999999999999,0.8440000000000001,0.5579999999999999,0.659,9
0,3,0,-2.439,0.789,0.0819999999999999,0.242,-0.693,0.595,-0.353,0.7020000000000001,0.413,0.098,10
0,3,0,-1.507,-0.457,-1.7280000000000002,0.256,-0.081,1.571,0.556,1.291,0.121,-0.456,0
0,3,0,-1.814,0.923,-0.931,0.12,0.425,0.5539999999999999,0.237,0.426,-0.184,-0.727,2
0,3,0,-2.007,1.814,-0.581,-0.027,0.127,0.081,0.089,-0.016,0.115,-0.7190000000000001,3
0,3,0,-2.559,2.3,0.408,-0.001,-1.077,0.125,-0.254,0.975,0.07,-0.47,4
0,3,0,-2.431,1.873,0.208,0.123,-0.634,0.178,0.04,0.612,0.446,-0.562,5
0,3,0,-3.24,1.749,0.959,1.071,-1.188,0.018,-1.024,0.664,1.007,0.4429999999999999,6
0,3,0,-3.198,1.3730000000000002,0.392,0.423,-1.203,0.6559999999999999,-0.428,0.994,0.5760000000000001,0.865,8
0,3,0,-2.434,0.87,0.127,0.2239999999999999,-0.8109999999999999,0.6659999999999999,-0.233,0.705,0.408,0.136,10
0,3,0,-1.764,0.888,-1.001,0.1969999999999999,0.3,0.66,0.159,0.557,-0.301,-0.65,2
0,3,0,-2.026,1.75,-0.526,-0.131,0.266,-0.055,0.084,0.063,0.047,-0.691,3
0,3,0,-2.531,1.802,0.7390000000000001,0.236,-1.169,-0.069,-0.349,0.903,0.123,-0.119,4
0,3,0,-2.375,1.642,0.308,0.255,-0.82,0.225,-0.092,0.8740000000000001,0.367,-0.525,5
0,3,0,-3.179,1.346,0.988,1.32,-0.852,-0.008,-1.234,0.347,1.02,0.7709999999999999,6
0,3,0,-3.169,1.041,0.509,0.693,-1.185,0.6729999999999999,-0.352,0.877,0.434,1.009,8
0,3,0,-4.066,1.05,-0.049,0.4579999999999999,-0.357,1.331,-0.129,0.848,0.509,0.317,9
0,3,0,-2.089,1.695,-0.528,-0.2319999999999999,0.385,-0.1369999999999999,0.033,0.071,0.033,-0.7440000000000001,3
0,3,0,-3.576,1.357,0.912,1.878,-1.166,0.039,-1.537,0.6579999999999999,0.843,1.087,7
0,3,0,-2.052,1.483,-0.488,0.0409999999999999,-0.131,0.273,-0.1119999999999999,-0.064,0.307,-0.8,3
0,3,0,-2.507,1.528,0.852,0.331,-1.231,-0.259,-0.265,0.856,0.07,0.069,4
0,3,0,-2.9330000000000003,0.7170000000000001,0.8290000000000001,1.508,-0.517,0.069,-1.163,0.021,0.866,1.0659999999999998,6
0,3,0,-4.394,1.162,0.157,0.608,-0.409,1.352,-0.243,0.758,0.447,0.096,9
0,3,0,-2.704,0.917,0.267,0.314,-0.7559999999999999,0.818,-0.114,0.6729999999999999,0.261,0.0559999999999999,10
0,3,0,-1.537,0.043,-1.125,-0.213,-0.3779999999999999,1.265,0.33,0.87,0.293,-0.3929999999999999,1
0,3,0,-2.5540000000000003,1.5319999999999998,0.812,0.367,-1.208,-0.352,-0.252,0.894,0.05,0.084,4
0,3,0,-2.343,0.7879999999999999,0.373,0.492,-0.667,0.2789999999999999,-0.24,0.8270000000000001,0.589,-0.267,5
0,3,0,-3.2460000000000004,0.7120000000000001,0.39,0.82,-1.352,1.074,0.1969999999999999,0.857,-0.0559999999999999,0.485,8
0,3,0,-2.804,1.021,0.254,0.331,-0.654,0.8540000000000001,-0.085,0.6779999999999999,0.259,-0.031,10
0,4,1,-3.1180000000000003,0.356,0.377,1.4469999999999998,0.868,0.407,-0.915,-0.546,-0.637,0.1689999999999999,1
0,4,1,-2.758,2.067,-0.31,-0.5429999999999999,-0.687,0.091,0.8809999999999999,0.172,-0.4539999999999999,-0.093,4
0,4,1,-3.533,2.319,1.085,0.247,-1.053,-0.429,-0.026,1.305,-0.243,-0.6709999999999999,6
0,4,1,-3.893,3.69,0.079,-0.151,-1.093,-0.518,0.198,1.5830000000000002,-0.257,-0.1689999999999999,7
0,4,1,-4.079,2.6630000000000003,-0.048,-0.315,0.2339999999999999,0.861,0.335,0.435,-0.546,-0.928,8
0,4,1,-4.16,2.814,0.557,0.604,0.584,0.477,-0.272,0.784,-0.999,-0.7809999999999999,9
0,4,1,-3.224,0.487,0.8220000000000001,1.324,0.753,0.352,-0.976,-0.562,-0.489,0.172,1
0,4,1,-2.861,2.091,-0.411,-0.4379999999999999,-0.643,0.317,0.8170000000000001,0.104,-0.481,-0.252,4
0,4,1,-3.406,2.403,1.025,0.108,-1.1,-0.316,0.099,1.541,-0.304,-0.6709999999999999,6
0,4,1,-3.958,3.922,0.15,-0.265,-1.2009999999999998,-0.249,0.2019999999999999,1.163,-0.049,-0.039,7
0,4,1,-4.071000000000001,2.754,-0.2319999999999999,-0.262,0.356,0.6940000000000001,0.381,0.5,-0.721,-0.8590000000000001,8
0,4,1,-4.188,2.637,0.502,0.552,0.735,0.395,-0.026,0.8029999999999999,-0.8740000000000001,-0.913,9
0,4,1,-1.693,0.807,-0.038,-0.051,-0.174,-0.372,0.1169999999999999,0.053,-0.611,0.3,3
0,4,1,-4.067,3.908,-0.065,-0.3779999999999999,-1.163,0.065,0.508,1.003,0.03,-0.187,7
0,4,1,-4.314,2.322,0.58,0.2789999999999999,0.7020000000000001,0.532,-0.068,0.8140000000000001,-0.917,-1.109,9
0,4,1,-3.049,0.084,0.981,1.193,0.7609999999999999,0.495,-0.7140000000000001,-0.466,-0.568,-0.149,1
0,4,1,-2.837,0.528,0.241,1.629,0.23,-0.545,-0.643,-0.231,-0.186,0.45,2
0,4,1,-1.611,0.831,-0.0559999999999999,-0.048,-0.044,-0.423,0.289,-0.092,-0.633,0.221,3
0,4,1,-4.087,2.555,0.123,-0.151,0.118,0.474,0.365,0.495,-0.473,-0.8859999999999999,8
0,4,1,-4.442,2.607,0.596,0.191,0.636,0.679,-0.14,0.774,-0.828,-1.122,9
0,4,1,-2.9760000000000004,1.033,-0.222,-0.099,0.081,0.052,0.479,0.517,-1.105,-0.125,10
0,4,1,-3.278,0.324,1.047,1.152,0.725,0.168,-0.8390000000000001,-0.381,-0.687,0.013,1
0,4,1,-3.249,1.042,0.589,1.408,0.023,-0.821,-0.581,0.031,0.068,0.325,2
0,4,1,-1.596,0.885,-0.1989999999999999,0.1989999999999999,-0.115,-0.474,0.428,-0.113,-0.61,0.131,3
0,4,1,-3.682,3.672,0.0409999999999999,-0.508,-0.905,0.0279999999999999,0.492,0.654,-0.722,-0.318,6
0,4,1,-4.21,3.869,0.1639999999999999,-0.047,-1.251,-0.102,0.276,0.919,0.091,-0.159,7
0,4,1,-4.129,2.6860000000000004,0.308,-0.125,0.1169999999999999,0.3929999999999999,0.1989999999999999,0.308,-0.478,-0.909,8
0,4,1,-4.497,3.018,0.609,0.115,0.6729999999999999,0.7090000000000001,-0.03,0.861,-0.7040000000000001,-1.038,9
0,4,1,-2.846,1.01,-0.2189999999999999,-0.083,0.091,0.076,0.442,0.509,-1.181,-0.021,10
0,4,1,-3.693,-0.568,0.727,1.236,0.612,1.5019999999999998,-0.804,-0.763,-0.346,0.7879999999999999,0
0,4,1,-3.293,0.93,0.522,1.48,0.249,-0.6609999999999999,-0.643,-0.094,-0.132,0.198,2
0,4,1,-2.942,2.091,-0.353,-0.364,-0.61,0.401,0.8640000000000001,0.191,-0.764,-0.235,4
0,4,1,-3.661,3.266,-0.1169999999999999,-0.237,-0.755,0.092,0.6859999999999999,0.381,-0.58,-0.687,6
0,5,1,-3.844,1.056,-0.19,1.685,0.617,1.245,-0.8109999999999999,-0.506,-1.128,0.076,1
0,5,1,-2.905,2.311,-0.6579999999999999,0.022,-1.121,0.25,0.467,0.484,-0.157,-0.6759999999999999,4
0,5,1,-2.685,1.971,-0.857,0.033,-0.638,0.484,0.143,0.159,-0.218,-0.3429999999999999,5
0,5,1,-3.389,2.762,-0.71,-0.026,-0.6409999999999999,0.1119999999999999,0.775,0.4429999999999999,-0.11,-0.979,6
0,5,1,-4.243,3.354,-0.415,0.898,-1.027,-0.281,0.5760000000000001,0.48,0.564,-0.085,7
0,5,1,-4.694,3.229,-1.153,0.7020000000000001,0.452,0.298,0.4539999999999999,0.001,-0.264,-1.399,9
0,5,1,-3.268,-0.079,-0.693,0.763,1.043,1.194,0.892,-1.293,-1.033,0.1989999999999999,0
0,5,1,-3.618,0.916,-0.4,1.771,0.6659999999999999,1.535,-0.389,-0.342,-1.279,-0.109,1
0,5,1,-2.882,2.165,-0.589,0.173,-1.165,0.0139999999999999,0.5710000000000001,0.502,-0.093,-0.616,4
0,5,1,-2.591,1.809,-0.659,-0.016,-0.6729999999999999,0.588,0.084,0.182,-0.094,-0.372,5
0,5,1,-3.354,2.85,-0.887,0.01,-0.551,0.293,0.901,0.32,-0.302,-1.023,6
0,5,1,-4.228,3.111,-0.38,1.16,-1.188,-0.362,0.516,0.507,0.669,-0.074,7
0,5,1,-3.901,2.485,-0.95,0.7020000000000001,-0.47,1.146,-0.109,1.597,0.146,-1.197,8
0,5,1,-3.0,1.524,-0.866,1.015,-0.4,0.861,0.174,0.938,-0.216,-1.01,10
0,5,1,-3.518,0.716,-0.365,1.788,0.584,1.6780000000000002,-0.109,-0.016,-1.501,0.002,1
0,5,1,-2.875,0.868,-0.728,1.439,0.355,0.846,-0.3779999999999999,-0.233,-1.072,0.505,2
0,5,1,-3.236,2.745,-0.8059999999999999,-0.2,-0.386,0.358,0.889,0.516,-0.297,-1.075,6
0,5,1,-3.594,-0.1369999999999999,-0.0279999999999999,1.018,1.069,0.723,0.695,-0.982,-1.433,0.249,0
0,5,1,-3.426,0.584,-0.469,1.776,0.5660000000000001,1.686,0.07,0.081,-1.483,-0.141,1
0,5,1,-2.75,1.475,-0.848,0.364,-0.275,0.02,-0.003,-0.782,-0.291,0.1669999999999999,3
0,5,1,-2.511,1.511,-0.555,0.226,-0.735,0.631,-0.006,0.52,-0.138,-0.6509999999999999,5
0,5,1,-3.124,2.733,-0.857,-0.3339999999999999,-0.312,0.5870000000000001,0.8490000000000001,0.475,-0.174,-0.899,6
0,5,1,-3.006,1.4069999999999998,-0.875,0.945,-0.495,0.721,0.212,0.75,-0.037,-1.054,10
0,5,1,-3.781,-0.011,0.102,1.115,1.036,0.6509999999999999,0.615,-1.082,-1.272,0.05,0
0,5,1,-3.394,0.557,-0.573,1.704,0.608,1.644,0.109,0.2,-1.507,-0.225,1
0,5,1,-2.85,1.446,-0.792,0.482,-0.365,0.046,-0.0289999999999999,-0.7609999999999999,-0.251,0.113,3
0,5,1,-2.884,2.424,-0.764,-0.108,-1.015,0.361,0.7120000000000001,0.133,-0.017,-0.847,4
0,5,1,-4.172,3.188,-0.375,1.028,-1.41,0.008,0.513,0.635,0.802,-0.28,7
0,5,1,-3.862,1.801,-0.7170000000000001,1.133,-0.23,0.922,-0.223,1.264,0.1939999999999999,-0.935,8
0,5,1,-2.9730000000000003,1.304,-0.8490000000000001,0.984,-0.508,0.59,0.248,0.728,0.073,-1.107,10
0,5,1,-3.858,0.115,0.05,1.17,0.975,0.703,0.585,-1.1909999999999998,-1.172,-0.076,0
0,5,1,-2.952,0.777,-0.74,1.311,0.424,0.853,-0.319,-0.0819999999999999,-1.456,0.616,2
0,5,1,-2.906,1.102,-0.491,0.575,-0.386,0.7709999999999999,-0.134,0.977,-0.54,-0.604,5
0,5,1,-3.462,2.648,-0.447,-0.0,-0.416,0.767,0.569,-0.072,-0.08,-0.7979999999999999,6
0,5,1,-4.0760000000000005,3.3360000000000003,-0.688,0.677,-1.472,0.461,0.682,0.7240000000000001,0.7170000000000001,-0.409,7
0,5,1,-3.846,1.426,-0.607,1.4340000000000002,-0.072,1.13,-0.535,1.159,-0.123,-0.385,8
0,5,1,-4.885,3.967,-0.948,0.373,0.255,-0.121,0.43,-0.013,0.018,-1.518,9
0,6,1,-3.208,-0.608,-0.516,1.098,1.529,1.069,0.186,-0.947,-0.248,-0.059,0
0,6,1,-2.569,-0.11,-0.841,0.732,1.112,0.961,-0.075,0.148,-0.893,0.314,1
0,6,1,-2.21,0.6609999999999999,-0.581,1.139,0.238,0.074,-0.625,-0.366,-0.326,0.557,2
0,6,1,-1.885,2.214,-0.6729999999999999,0.147,-0.148,-0.4,0.252,-0.098,-0.8740000000000001,0.245,3
0,6,1,-2.488,2.822,-0.239,-0.33,-1.355,0.284,0.1009999999999999,0.934,-0.966,-0.31,4
0,6,1,-2.715,2.325,0.701,0.239,-1.426,-0.218,-0.317,1.516,-0.162,-0.703,6
0,6,1,-4.21,3.289,-0.106,-1.247,-0.6829999999999999,0.539,0.579,0.8320000000000001,-0.035,-0.764,7
0,6,1,-2.528,1.288,-0.144,-0.171,-0.077,0.26,-0.045,0.6809999999999999,-1.399,-0.066,10
0,6,1,-3.431,-0.5,-0.362,1.173,1.59,0.956,0.162,-0.853,-0.364,0.084,0
0,6,1,-2.659,-0.1009999999999999,-0.687,0.6970000000000001,1.081,1.045,-0.149,0.184,-0.927,0.327,1
0,6,1,-1.926,2.172,-0.5710000000000001,0.257,-0.159,-0.493,0.27,-0.153,-0.6729999999999999,-0.005,3
0,6,1,-2.353,2.897,-0.433,-0.193,-0.715,0.359,0.26,0.273,-1.206,0.36,5
0,6,1,-4.341,3.514,-0.4529999999999999,-1.047,-0.469,0.51,0.618,0.8009999999999999,-0.3989999999999999,-0.777,7
0,6,1,-4.045,2.193,0.2,-0.745,0.215,0.387,0.625,1.477,-1.207,-0.27,8
0,6,1,-2.665,1.633,-0.384,-0.111,-0.001,0.2339999999999999,0.033,0.478,-1.558,0.2189999999999999,10
0,6,1,-3.5860000000000003,-0.38,-0.359,1.307,1.587,0.99,0.18,-0.831,-0.471,0.198,0
0,6,1,-2.889,-0.039,-0.494,0.7190000000000001,1.104,1.003,-0.415,0.0969999999999999,-0.855,0.356,1
0,6,1,-2.282,0.6729999999999999,-0.7979999999999999,1.286,0.308,0.01,-0.411,-0.61,-0.266,0.584,2
0,6,1,-2.563,2.829,-0.283,-0.368,-1.5930000000000002,0.408,0.121,0.933,-0.946,-0.356,4
0,6,1,-2.415,2.517,-0.285,0.085,-0.902,0.283,0.302,0.247,-1.207,0.371,5
0,6,1,-2.776,2.563,0.532,0.2769999999999999,-1.47,-0.368,-0.278,1.479,-0.1639999999999999,-0.797,6
0,6,1,-4.107,2.17,0.206,-0.8109999999999999,0.3339999999999999,0.633,0.402,1.097,-1.327,-0.04,8
0,6,1,-5.069,2.119,0.826,-0.2739999999999999,0.5760000000000001,0.145,0.308,1.001,-1.412,-0.306,9
0,6,1,-2.5580000000000003,0.755,-0.66,1.366,0.038,-0.011,-0.4429999999999999,-0.531,-0.062,0.418,2
0,6,1,-2.922,2.6210000000000004,0.214,0.122,-1.477,-0.173,0.045,1.38,-0.635,-0.757,6
0,6,1,-4.417,3.765,-1.225,-0.853,0.0409999999999999,0.536,0.885,0.5329999999999999,-0.757,-0.789,7
0,6,1,-4.07,2.254,-0.28,-0.722,0.696,0.6829999999999999,0.243,0.6890000000000001,-1.45,0.19,8
0,6,1,-5.08,2.241,0.971,-0.374,0.501,0.226,0.144,0.851,-1.319,-0.3,9
0,6,1,-2.93,2.014,-0.7,0.206,-0.088,0.153,0.142,-0.031,-1.4369999999999998,0.615,10
0,6,1,-4.247,-0.034,0.248,1.372,1.831,1.167,0.087,-0.518,-0.316,0.347,0
0,6,1,-3.1830000000000003,0.154,-0.413,0.923,1.091,0.5820000000000001,-0.447,-0.085,-0.904,0.693,1
0,6,1,-2.041,2.119,-0.585,0.5489999999999999,-0.43,-0.291,-0.002,-0.2339999999999999,-0.7509999999999999,0.253,3
0,6,1,-2.64,2.704,-0.345,-0.23,-1.649,0.064,0.275,0.952,-0.6509999999999999,-0.5710000000000001,4
0,6,1,-4.415,3.737,-1.3130000000000002,-0.815,0.168,0.59,0.975,0.42,-0.825,-0.748,7
0,6,1,-5.158,2.488,1.064,-0.3429999999999999,0.352,0.18,-0.05,0.8170000000000001,-1.308,-0.249,9
0,6,1,-2.907,1.992,-0.904,0.205,0.011,0.346,-0.031,-0.148,-1.262,0.487,10
0,6,1,-4.687,0.406,0.889,1.464,1.618,1.021,-0.121,-0.3979999999999999,-0.307,0.293,0
0,6,1,-2.452,0.2789999999999999,-0.805,1.141,0.239,0.176,-0.104,-0.752,-0.3339999999999999,0.731,2
0,6,1,-2.081,2.043,-0.521,0.578,-0.4629999999999999,-0.246,-0.0409999999999999,-0.162,-0.8140000000000001,0.425,3
0,6,1,-2.982,2.001,-0.915,0.188,0.035,0.467,-0.13,-0.6890000000000001,-0.684,0.664,5
0,6,1,-4.4030000000000005,3.602,-0.945,-0.934,0.0409999999999999,0.409,1.003,0.47,-0.477,-0.621,7
0,6,1,-4.2,2.201,-0.31,-0.392,0.968,0.7,-0.3279999999999999,0.129,-0.8959999999999999,0.15,8
0,6,1,-5.211,2.544,0.82,-0.3329999999999999,0.447,0.226,0.127,0.89,-1.389,-0.304,9
0,7,1,-2.813,2.327,-1.246,-0.184,-0.755,0.491,1.202,-0.5579999999999999,-0.669,0.054,4
0,7,1,-3.749,3.018,-0.755,-0.452,-0.6659999999999999,0.209,0.741,0.9,-1.6130000000000002,0.128,6
0,7,1,-3.654,1.222,-0.574,0.248,-0.299,0.158,0.154,0.5529999999999999,-0.58,0.617,3
0,7,1,-3.0010000000000003,2.263,-1.178,-0.1159999999999999,-0.922,0.536,1.286,-0.506,-0.5660000000000001,-0.102,4
0,7,1,-3.417,1.984,-1.148,0.2339999999999999,-0.778,0.411,0.494,0.13,-0.7040000000000001,0.764,5
0,7,1,-4.474,4.569,-1.069,-1.409,0.1369999999999999,1.0490000000000002,0.071,0.877,-1.355,-0.1669999999999999,7
0,7,1,-4.471,4.096,-0.809,-0.8809999999999999,0.6459999999999999,0.539,0.04,0.142,-1.555,-0.023,8
0,7,1,-4.173,2.299,-0.298,-0.13,0.122,0.319,-0.3879999999999999,-0.3279999999999999,-0.48,0.99,10
0,7,1,-3.631,1.195,-0.7190000000000001,0.13,-0.065,0.348,-0.061,0.555,-0.594,0.8059999999999999,3
0,7,1,-3.975,3.0660000000000003,-0.506,-0.8270000000000001,-0.478,0.434,0.356,0.939,-1.3090000000000002,0.204,6
0,7,1,-4.497,4.5,-1.446,-1.127,0.4429999999999999,0.986,0.136,0.597,-1.087,-0.073,7
0,7,1,-5.125,2.077,1.283,2.003,-0.7340000000000001,-0.513,-0.557,0.055,0.295,0.2689999999999999,0
0,7,1,-3.82,1.705,-1.13,0.45,-0.471,0.665,0.298,-0.175,-0.473,0.848,5
0,7,1,-3.949,2.99,-0.643,-0.986,-0.175,0.768,0.249,0.8029999999999999,-1.479,0.168,6
0,7,1,-4.471,4.461,-1.887,-0.799,0.7190000000000001,0.938,0.239,0.342,-1.036,-0.06,7
0,7,1,-4.58,4.1160000000000005,-0.753,-0.8490000000000001,0.516,0.498,0.1169999999999999,0.181,-1.256,-0.119,8
0,7,1,-4.115,1.856,-0.738,0.132,0.6579999999999999,0.3289999999999999,-0.252,-0.123,-0.53,0.456,10
0,7,1,-4.316,1.272,-0.087,1.285,0.126,-0.128,-0.286,-0.4629999999999999,-0.294,0.691,2
0,7,1,-3.622,1.111,-0.972,0.3989999999999999,-0.402,0.527,0.271,0.373,-0.716,0.943,3
0,7,1,-3.962,1.724,-1.29,0.531,-0.17,0.528,0.282,-0.149,-0.603,1.139,5
0,7,1,-5.04,5.074,-1.721,-0.264,0.2789999999999999,0.176,0.003,-0.609,-0.177,0.422,9
0,7,1,-5.105,1.968,1.14,1.719,-0.4429999999999999,-0.432,-0.969,-0.173,0.551,0.176,0
0,7,1,-4.426,1.167,0.008,1.315,0.1889999999999999,-0.297,-0.124,-0.244,-0.423,0.684,2
0,7,1,-3.622,0.988,-1.108,0.685,-0.693,0.754,0.442,0.166,-0.4579999999999999,0.738,3
0,7,1,-3.597,2.146,-1.492,-0.142,-0.297,0.815,0.87,-0.49,-0.471,0.41,4
0,7,1,-4.651,4.246,-0.823,-0.831,0.6659999999999999,0.546,-0.3,0.094,-1.3430000000000002,0.185,8
0,7,1,-5.034,4.993,-1.633,-0.285,0.3979999999999999,0.181,-0.211,-0.508,-0.283,0.304,9
1,8,0,-1.149,-0.904,-1.988,0.7390000000000001,-0.06,1.206,0.8640000000000001,1.196,-0.3,-0.467,0
1,8,0,-2.613,-0.092,-0.54,0.484,0.389,1.741,0.198,0.257,-0.375,-0.604,1
1,8,0,-2.505,0.632,-0.593,0.304,0.496,0.8240000000000001,-0.162,0.181,-0.363,-0.764,2
1,8,0,-2.509,1.3259999999999998,0.354,0.6629999999999999,-0.7240000000000001,0.418,-0.496,0.713,0.638,-0.204,5
1,8,0,-2.764,1.111,0.727,1.54,-0.855,0.261,-1.11,0.2269999999999999,0.42,0.991,6
1,8,0,-3.839,1.248,0.83,0.982,-1.11,0.617,-0.7509999999999999,0.084,0.309,1.125,8
1,8,0,-4.982,1.538,0.96,1.253,-0.64,0.588,-0.484,-0.31,-0.246,1.18,9
1,8,0,-2.895,0.682,-0.151,0.218,-0.6890000000000001,1.118,-0.264,0.922,0.757,0.327,10
1,8,0,-1.093,-0.922,-2.091,0.8440000000000001,0.009,1.247,0.8909999999999999,1.453,-0.089,-0.4,0
1,8,0,-2.696,3.129,-0.52,0.294,-0.989,0.019,-0.066,1.106,0.361,-0.396,4
1,8,0,-2.733,1.088,0.7609999999999999,1.694,-0.833,0.292,-1.069,0.266,0.369,1.034,6
1,8,0,-1.784,-1.074,-1.661,1.324,0.289,1.3030000000000002,0.924,1.307,-0.346,-0.521,0
1,8,0,-1.89,0.207,-1.161,0.027,-0.047,1.581,0.2769999999999999,1.129,0.366,-0.25,1
1,8,0,-1.716,1.186,-0.809,-0.515,-0.35,0.29,-0.4039999999999999,0.6779999999999999,0.172,-0.212,3
1,8,0,-2.625,1.551,0.298,0.324,-1.05,0.746,0.067,0.603,0.342,-0.413,5
1,8,0,-2.632,0.8809999999999999,0.71,1.8,-0.75,0.33,-1.128,0.177,0.3389999999999999,1.166,6
1,8,0,-3.888,3.085,0.436,0.142,-1.526,-0.052,-0.503,1.085,0.511,0.976,7
1,8,0,-3.824,1.832,1.093,1.024,-1.09,0.56,-0.336,0.299,0.126,1.005,8
1,8,0,-2.698,-1.027,-0.94,1.796,0.392,1.33,0.866,0.7809999999999999,-0.838,-0.6629999999999999,0
1,8,0,-2.594,0.621,-0.292,0.521,0.26,1.204,-0.337,0.261,-0.332,-0.51,2
1,8,0,-2.92,2.697,-0.1159999999999999,0.451,-0.8590000000000001,-0.035,-0.307,0.8740000000000001,0.622,-0.301,4
1,8,0,-3.776,1.7519999999999998,0.92,0.722,-1.164,0.774,-0.01,0.657,0.248,1.055,8
1,8,0,-4.717,0.8290000000000001,0.853,1.98,-0.546,0.688,-0.434,-0.424,-0.636,1.245,9
1,8,0,-3.108,0.926,-0.389,0.249,-0.461,0.816,-0.226,0.818,0.387,0.303,10
1,8,0,-3.366,-0.826,-0.405,1.643,0.603,1.226,0.524,0.293,-0.858,-0.6679999999999999,0
1,8,0,-1.817,0.5589999999999999,-0.8009999999999999,0.2339999999999999,0.011,1.215,-0.161,0.809,0.018,-0.382,2
1,8,0,-3.0380000000000003,2.475,0.024,0.508,-0.737,-0.102,-0.358,0.706,0.6,-0.209,4
1,8,0,-2.889,1.418,0.409,0.61,-1.018,0.992,0.005,0.518,-0.027,-0.326,5
1,8,0,-2.71,0.809,0.754,1.903,-0.764,0.3779999999999999,-1.123,0.162,0.405,1.163,6
1,8,0,-3.375,1.779,-0.8220000000000001,0.382,-0.019,0.845,0.123,0.767,0.223,-0.337,10
1,8,0,-2.073,0.088,-0.73,0.296,-0.286,1.75,0.154,1.078,0.294,-0.174,1
1,8,0,-1.222,0.491,-0.716,0.004,-0.3229999999999999,1.108,-0.148,0.773,0.387,-0.073,2
1,8,0,-2.295,0.883,-0.619,-0.0409999999999999,0.143,0.3779999999999999,-0.602,0.335,-0.114,-0.391,3
1,8,0,-2.784,1.43,0.145,0.309,-0.931,1.342,0.017,0.589,-0.044,-0.273,5
1,8,0,-3.073,1.5319999999999998,0.949,1.541,-1.058,0.272,-0.961,0.449,0.619,0.969,6
1,9,0,-3.262,0.956,-0.7909999999999999,1.528,-0.021,0.977,-0.121,0.499,-0.99,-0.621,1
1,9,0,-2.045,0.8190000000000001,-1.46,0.652,-0.701,0.352,-0.087,0.7929999999999999,-0.5670000000000001,-0.013,2
1,9,0,-2.765,2.817,-2.02,0.213,-0.772,0.852,0.252,-0.193,-0.2019999999999999,-0.093,4
1,9,0,-2.55,2.391,-1.137,0.09,-0.948,0.217,0.051,0.723,-0.5579999999999999,-0.204,5
1,9,0,-4.047,3.899,-0.423,0.147,-1.273,0.203,0.317,0.531,0.584,-0.11,7
1,9,0,-3.339,1.004,-0.747,1.505,-0.068,1.007,-0.017,0.377,-0.775,-0.899,1
1,9,0,-2.008,0.785,-1.489,0.654,-0.685,0.313,-0.085,0.856,-0.516,-0.053,2
1,9,0,-1.951,1.6840000000000002,-1.039,0.586,-1.166,0.345,0.33,-0.108,-0.198,-0.609,3
1,9,0,-2.785,2.792,-1.924,0.225,-0.985,1.0759999999999998,0.07,-0.071,-0.257,-0.135,4
1,9,0,-4.033,4.071000000000001,-0.586,0.127,-1.4469999999999998,0.62,0.1969999999999999,0.711,0.48,-0.306,7
1,9,0,-4.13,3.105,-1.141,0.183,-0.498,1.324,-0.3989999999999999,0.675,-0.3389999999999999,-0.6940000000000001,8
1,9,0,-4.718,3.281,-0.203,0.6509999999999999,-0.883,1.413,-0.6629999999999999,0.583,0.237,-0.307,9
1,9,0,-2.9730000000000003,0.036,-1.273,1.519,0.195,1.98,0.131,0.8320000000000001,-1.157,-0.547,0
1,9,0,-3.485,1.092,-0.674,1.395,-0.027,1.039,-0.047,0.384,-0.7609999999999999,-0.934,1
1,9,0,-1.929,0.777,-1.415,0.598,-0.579,0.215,-0.061,0.733,-0.3329999999999999,-0.235,2
1,9,0,-2.521,2.283,-0.954,0.2319999999999999,-0.918,0.253,-0.094,0.833,-0.7040000000000001,-0.092,5
1,9,0,-4.13,3.2910000000000004,-1.4240000000000002,0.359,-0.273,1.297,-0.4539999999999999,0.62,-0.527,-0.7090000000000001,8
1,9,0,-3.725,1.904,-0.737,0.433,-0.369,1.047,0.12,0.425,-0.6779999999999999,-0.391,10
1,9,0,-3.0,0.042,-1.238,1.529,0.187,2.028,0.104,0.759,-1.18,-0.634,0
1,9,0,-3.587,1.193,-0.617,1.34,-0.022,1.103,-0.072,0.368,-0.8540000000000001,-0.767,1
1,9,0,-1.895,0.755,-1.388,0.638,-0.614,0.246,-0.033,0.693,-0.27,-0.346,2
1,9,0,-1.925,1.517,-0.999,0.634,-1.27,0.207,0.385,0.004,-0.141,-0.624,3
1,9,0,-4.138999999999999,3.363,-1.464,0.4589999999999999,-0.066,1.045,-0.146,0.172,-0.124,-0.8640000000000001,8
1,9,0,-3.731,1.927,-0.705,0.4529999999999999,-0.372,1.149,0.046,0.3229999999999999,-0.627,-0.331,10
1,9,0,-3.055,0.088,-1.217,1.5619999999999998,0.186,2.059,0.054,0.639,-1.121,-0.757,0
1,9,0,-1.948,1.536,-1.012,0.537,-1.229,0.183,0.46,-0.002,-0.178,-0.5760000000000001,3
1,9,0,-2.8,2.609,-1.726,0.036,-0.941,1.039,0.191,0.044,-0.165,-0.2339999999999999,4
1,9,0,-4.174,3.54,-1.43,0.417,0.267,0.918,-0.118,-0.267,-0.162,-0.71,8
1,9,0,-4.827,3.391,-0.099,0.599,-0.723,0.741,0.089,-0.214,0.518,-0.074,9
1,9,0,-3.735,2.096,-0.818,0.4629999999999999,-0.221,1.144,0.023,0.2239999999999999,-0.745,-0.325,10
1,9,0,-3.117,0.146,-1.228,1.635,0.223,2.026,0.036,0.569,-1.15,-0.767,0
1,9,0,-3.871,1.694,-0.606,1.4280000000000002,0.044,0.8440000000000001,-0.013,0.126,-1.218,-0.5529999999999999,1
1,9,0,-2.029,0.698,-1.482,0.813,-0.6809999999999999,0.422,0.016,0.7509999999999999,-0.3,-0.237,2
1,9,0,-1.998,1.497,-1.005,0.519,-1.236,0.3979999999999999,0.273,0.151,-0.319,-0.49,3
1,9,0,-2.914,2.541,-1.567,0.067,-1.051,1.207,0.006,0.289,-0.325,-0.3429999999999999,4
1,9,0,-4.235,3.775,-1.5930000000000002,0.8140000000000001,0.288,0.805,-0.5660000000000001,-0.247,-0.409,-0.556,8
1,10,0,-4.066,0.3979999999999999,-0.382,1.679,0.121,1.617,0.504,-0.315,-0.226,-0.873,0
1,10,0,-2.482,1.896,-1.289,0.1119999999999999,0.285,0.096,0.022,0.8320000000000001,-0.3329999999999999,-0.764,3
1,10,0,-2.742,2.729,-0.129,-0.49,-0.573,0.868,0.07,0.7709999999999999,0.053,-0.939,4
1,10,0,-2.434,2.903,-1.341,-0.411,0.372,0.843,-0.022,0.336,0.123,-0.747,5
1,10,0,-3.863,3.245,-0.996,0.486,-0.348,0.19,0.5579999999999999,1.342,0.176,-0.318,8
1,10,0,-4.052,0.35,-0.314,1.734,0.127,1.6669999999999998,0.512,-0.377,-0.358,-0.855,0
1,10,0,-3.034,0.6940000000000001,-1.007,1.453,0.155,1.48,0.179,1.005,-0.54,-0.563,1
1,10,0,-2.667,1.132,-1.054,0.2319999999999999,0.537,0.352,0.163,0.55,-0.688,-0.295,2
1,10,0,-2.758,2.839,-0.282,-0.449,-0.485,0.7879999999999999,0.12,0.792,0.023,-0.949,4
1,10,0,-2.464,2.755,-0.975,-0.6509999999999999,0.158,1.047,-0.145,0.203,0.246,-0.745,5
1,10,0,-3.045,3.312,0.171,-0.605,-1.027,0.924,0.353,0.897,0.365,-0.871,6
1,10,0,-4.089,3.712,0.315,-0.05,-0.929,0.018,-0.35,1.77,0.244,-0.301,7
1,10,0,-4.602,3.043,-0.959,0.828,-0.298,0.315,0.423,0.57,0.387,-0.617,9
1,10,0,-3.707,1.486,-0.494,0.402,0.183,0.186,0.2339999999999999,1.029,-0.856,-0.408,10
1,10,0,-3.894,0.1169999999999999,-0.407,1.973,0.043,1.891,0.411,-0.095,-0.436,-1.015,0
1,10,0,-2.615,1.185,-1.162,0.395,0.4589999999999999,0.345,0.298,0.456,-0.62,-0.307,2
1,10,0,-3.983,3.695,0.096,-0.3329999999999999,-1.01,0.1689999999999999,-0.108,1.6740000000000002,0.262,-0.231,7
1,10,0,-3.676,-0.185,-0.563,2.377,0.096,1.854,0.303,0.296,-0.358,-1.205,0
1,10,0,-3.033,0.7,-1.077,1.266,0.196,1.453,0.317,0.947,-0.324,-0.828,1
1,10,0,-2.6,1.219,-1.315,0.589,0.311,0.364,0.451,0.35,-0.556,-0.314,2
1,10,0,-2.316,2.007,-1.365,0.181,0.206,0.071,0.037,0.8140000000000001,-0.332,-0.753,3
1,10,0,-3.896,2.768,-0.816,-0.0139999999999999,-0.125,0.168,0.307,1.203,0.246,-0.118,8
1,10,0,-4.717,3.059,-0.682,0.532,-0.48,0.731,0.174,0.493,0.635,-0.473,9
1,10,0,-3.689,1.367,-0.389,0.376,0.136,0.3429999999999999,0.156,1.01,-0.611,-0.551,10
1,10,0,-2.382,1.984,-1.096,-0.103,0.369,0.204,-0.125,0.752,-0.136,-0.959,3
1,10,0,-2.505,2.358,-0.184,-0.792,-0.316,1.3630000000000002,0.302,-0.121,0.214,-0.622,5
1,10,0,-3.979,3.661,0.1689999999999999,-0.598,-1.412,0.569,0.009,1.939,0.094,-0.149,7
1,10,0,-4.083,2.315,-0.375,0.52,-0.019,-0.211,-0.172,1.054,0.387,0.168,8
1,10,0,-3.337,-0.347,-0.79,2.129,-0.0579999999999999,2.079,0.295,0.246,-0.687,-1.241,0
1,10,0,-3.0,0.217,-0.855,0.8029999999999999,-0.008,1.795,-0.01,1.07,-0.061,-1.046,1
1,10,0,-4.122,3.177,0.529,-0.176,-1.307,0.132,-0.2789999999999999,1.3530000000000002,0.4579999999999999,-0.009,7
1,10,0,-4.047,2.6260000000000003,-0.597,0.823,-0.266,0.048,0.049,0.882,0.359,-0.203,8
1,11,0,-2.463,-0.1969999999999999,-1.264,1.15,0.2339999999999999,1.833,0.066,0.738,-1.382,-0.498,0
1,11,0,-3.008,2.882,-0.9,0.214,-0.565,-0.1969999999999999,0.449,0.305,0.413,-0.3,6
1,11,0,-3.209,1.85,-0.3939999999999999,0.555,0.425,0.313,0.067,0.077,-0.163,-0.944,10
1,11,0,-2.9610000000000003,0.7659999999999999,-0.8,0.962,0.6579999999999999,1.012,0.347,-0.015,-0.425,-0.746,1
1,11,0,-2.207,1.09,-0.627,0.024,0.912,0.662,0.241,0.348,-0.7020000000000001,-0.912,2
1,11,0,-3.117,2.8760000000000003,-0.746,-0.047,-0.427,-0.053,0.4529999999999999,0.305,0.541,-0.489,6
1,11,0,-3.911,3.703,-1.965,0.132,-0.209,0.929,0.8109999999999999,0.495,-0.142,-0.519,7
1,11,0,-2.306,1.086,-0.59,0.106,0.931,0.733,0.213,0.2739999999999999,-0.684,-0.911,2
1,11,0,-2.458,1.586,-0.359,0.376,-0.244,0.134,-0.163,0.298,0.444,-0.711,5
1,11,0,-3.242,2.901,-0.632,-0.332,-0.421,0.226,0.536,0.142,0.623,-0.616,6
1,11,0,-4.093999999999999,3.5860000000000003,-0.845,-0.026,-0.5379999999999999,0.964,0.6659999999999999,0.647,-0.412,-0.477,8
1,11,0,-4.138,1.128,-0.601,1.5530000000000002,-0.019,2.039,-0.176,0.262,-0.551,-0.362,9
1,11,0,-3.242,1.802,-0.482,0.6990000000000001,0.424,0.337,0.115,0.272,-0.205,-1.074,10
1,11,0,-2.289,1.106,-0.816,0.228,0.867,0.616,0.3379999999999999,0.298,-0.843,-0.8320000000000001,2
1,11,0,-2.175,1.631,-0.331,-0.203,-0.159,0.246,0.18,-0.093,-0.351,-0.267,3
1,11,0,-2.7230000000000003,1.975,-0.636,0.336,-0.677,0.156,-0.342,0.479,0.381,-0.7290000000000001,4
1,11,0,-3.3110000000000004,2.946,-0.8079999999999999,-0.3,-0.457,0.324,0.515,0.149,0.5329999999999999,-0.718,6
1,11,0,-4.052,3.747,-1.24,-0.299,-0.426,0.917,0.517,0.716,-0.21,-0.125,7
1,11,0,-4.319,1.338,-0.5489999999999999,1.6780000000000002,0.027,1.922,-0.228,0.161,-0.47,-0.442,9
1,11,0,-3.329,1.788,-0.517,0.597,0.503,0.278,0.121,0.176,-0.159,-0.98,10
1,11,0,-2.904,0.4579999999999999,-0.6559999999999999,0.8320000000000001,0.61,0.805,0.568,0.0409999999999999,-0.114,-0.615,1
1,11,0,-2.318,1.097,-0.8320000000000001,0.26,0.821,0.588,0.402,0.327,-0.852,-0.773,2
1,11,0,-3.338,3.033,-1.189,-0.2689999999999999,-0.364,0.544,0.491,0.148,0.365,-0.931,6
1,11,0,-4.142,3.454,-0.653,0.271,-0.598,0.7929999999999999,0.563,0.52,-0.118,-0.33,8
1,11,0,-3.407,1.821,-0.675,0.765,0.256,0.469,-0.09,0.322,-0.387,-0.968,10
1,11,0,-2.385,1.01,-0.754,0.37,0.785,0.471,0.415,0.318,-0.797,-0.679,2
1,11,0,-2.104,1.6,-0.297,-0.071,-0.172,0.285,0.152,-0.089,-0.296,-0.37,3
1,11,0,-2.855,1.587,-0.03,0.2019999999999999,0.165,0.445,0.207,-0.067,-0.013,-0.7120000000000001,5
1,11,0,-3.339,3.011,-1.264,-0.3429999999999999,-0.119,0.498,0.589,0.078,0.221,-0.8220000000000001,6
1,11,0,-4.172,3.07,-0.7809999999999999,0.516,-0.627,1.006,0.531,0.441,-0.102,-0.456,8
1,11,0,-4.494,1.535,-0.495,1.715,0.044,1.892,-0.367,0.362,-0.583,-0.291,9
1,12,1,-2.814,1.515,-0.088,0.597,-0.033,-0.29,-0.445,0.113,-0.136,0.662,2
1,12,1,-2.027,2.157,-0.297,-0.211,-0.266,0.086,-0.176,-0.179,-0.283,0.292,3
1,12,1,-2.594,2.584,-0.37,-0.524,-0.177,0.515,-0.1369999999999999,0.095,-0.731,0.072,5
1,12,1,-3.44,3.2030000000000003,-0.698,-0.86,-0.542,1.503,0.922,0.467,-0.183,-0.919,7
1,12,1,-3.012,2.252,-0.8059999999999999,0.389,-0.11,0.649,-0.3279999999999999,0.321,-0.5589999999999999,0.2339999999999999,10
1,12,1,-3.303,0.7020000000000001,-0.209,1.6269999999999998,0.818,0.287,-0.541,-0.198,-0.7170000000000001,0.768,1
1,12,1,-2.64,1.3219999999999998,-0.111,0.861,0.026,-0.354,-0.425,0.083,-0.235,0.7809999999999999,2
1,12,1,-2.489,2.401,-0.44,-0.367,-0.069,0.5329999999999999,0.011,0.118,-0.621,-0.188,5
1,12,1,-2.776,3.557,-0.435,-1.044,-0.5720000000000001,1.273,0.221,0.295,-0.986,-0.04,6
1,12,1,-3.3560000000000003,3.236,-0.653,-0.9,-0.6609999999999999,1.43,0.901,0.395,-0.139,-0.726,7
1,12,1,-2.898,3.393,-0.409,-0.993,-0.5870000000000001,1.3219999999999998,0.24,0.231,-1.068,-0.094,6
1,12,1,-4.283,2.829,0.296,0.086,-0.544,0.501,-0.317,0.995,-0.34,-1.113,9
1,12,1,-3.49,-0.474,0.187,1.747,0.733,1.307,-0.816,-0.787,-0.222,0.41,0
1,12,1,-2.577,2.449,-0.38,0.174,-0.41,0.3829999999999999,0.19,0.0969999999999999,-0.489,-0.084,5
1,12,1,-2.919,3.48,-0.823,-0.7509999999999999,-0.416,1.045,0.609,0.18,-1.172,0.123,6
1,12,1,-4.299,2.775,0.244,0.177,-0.436,0.261,-0.308,1.175,-0.2269999999999999,-1.115,9
1,12,1,-2.852,-0.805,-0.313,1.565,0.688,1.467,-0.664,-0.916,-0.2789999999999999,0.489,0
1,12,1,-3.39,3.422,-0.718,-0.667,-0.871,0.7879999999999999,0.959,0.555,-0.482,-0.7240000000000001,7
1,12,1,-4.513,3.08,0.068,0.05,-0.484,0.341,-0.257,1.3019999999999998,-0.517,-1.057,9
1,12,1,-3.292,2.595,-0.578,0.42,-0.233,0.391,-0.241,0.437,-0.541,-0.021,10
1,12,1,-3.498,1.669,0.076,1.53,0.38,-0.135,-0.8140000000000001,-0.208,-0.307,1.053,1
1,12,1,-2.879,2.662,-0.5720000000000001,0.425,-0.248,0.213,0.176,-0.281,-0.4039999999999999,0.605,5
1,12,1,-3.3960000000000004,3.867,-1.029,-0.603,-0.573,0.78,1.209,0.228,-0.6729999999999999,-0.562,7
1,12,1,-4.5680000000000005,3.344,-0.005,-0.092,-0.546,0.479,-0.168,1.186,-0.565,-1.025,9
1,12,1,-3.35,2.713,-0.472,0.4,-0.196,0.248,-0.2239999999999999,0.53,-0.358,-0.091,10
1,13,1,-4.711,1.166,1.244,1.746,0.311,-0.305,-0.691,-0.1369999999999999,-0.288,1.023,0
1,13,1,-4.057,1.925,0.521,1.331,0.273,-0.1669999999999999,-0.365,-0.665,-0.512,0.716,1
1,13,1,-3.097,1.385,-0.173,1.392,-0.613,-0.143,-0.0139999999999999,-0.565,-0.065,1.129,2
1,13,1,-3.065,1.781,-0.915,0.698,0.175,0.662,-0.086,-0.361,-0.774,0.951,5
1,13,1,-3.318,3.395,-1.706,0.753,-0.214,1.431,-0.0,-0.192,-1.33,0.03,6
1,13,1,-4.039,2.061,-0.727,0.888,0.302,0.413,-0.381,-0.1939999999999999,-0.614,0.41,8
1,13,1,-4.08,2.242,-0.28,1.876,0.72,-0.292,-0.537,-0.54,-0.6629999999999999,0.238,9
1,13,1,-3.483,2.628,-0.3829999999999999,0.838,0.2,0.102,-0.162,-0.547,-0.7909999999999999,1.018,10
1,13,1,-4.013,2.101,0.295,1.2919999999999998,0.45,-0.024,-0.565,-0.588,-0.3429999999999999,0.695,1
1,13,1,-3.029,1.747,-0.899,0.674,-1.046,0.5579999999999999,0.204,-0.155,-0.237,0.655,3
1,13,1,-2.926,2.673,-1.242,0.396,-1.029,1.548,0.05,-0.5920000000000001,-0.331,0.595,4
1,13,1,-4.045,2.377,-0.3,2.002,0.826,-0.18,-0.768,-0.408,-0.787,0.156,9
1,13,1,-3.455,2.5610000000000004,-0.421,0.847,0.33,0.057,-0.177,-0.494,-0.7859999999999999,0.951,10
1,13,1,-3.999,2.138,0.295,1.086,0.6990000000000001,-0.127,-0.634,-0.4,-0.505,0.856,1
1,13,1,-2.967,2.781,-1.277,0.354,-0.936,1.505,-0.004,-0.418,-0.56,0.725,4
1,13,1,-3.2060000000000004,1.899,-0.933,0.733,0.261,0.565,-0.225,-0.3389999999999999,-0.677,0.765,5
1,13,1,-3.492,3.446,-1.734,0.705,-0.23,1.339,0.092,-0.698,-1.143,-0.05,6
1,13,1,-3.847,4.268,-1.521,-0.465,-0.23,1.067,-0.02,0.005,-0.5770000000000001,-0.509,7
1,13,1,-4.052,2.335,-0.415,0.732,0.2339999999999999,0.426,-0.49,-0.218,-0.618,0.34,8
1,13,1,-4.001,2.2840000000000003,-0.365,2.106,1.006,-0.0279999999999999,-0.825,-0.39,-0.898,0.099,9
1,13,1,-4.763,1.305,1.231,1.548,0.308,-0.152,-0.792,-0.124,-0.107,0.885,0
1,13,1,-3.99,2.008,0.503,0.845,0.774,-0.114,-0.6409999999999999,-0.282,-0.7340000000000001,0.877,1
1,13,1,-3.055,1.4,-0.6859999999999999,0.964,-1.29,0.545,0.337,-0.299,-0.173,0.69,3
1,13,1,-2.964,2.8110000000000004,-1.317,0.324,-0.7809999999999999,1.369,0.127,-0.368,-0.677,0.493,4
1,13,1,-3.3710000000000004,2.007,-0.919,0.843,0.221,0.541,-0.317,-0.37,-0.5,0.652,5
1,13,1,-4.754,1.329,1.09,1.765,0.217,-0.198,-0.782,-0.154,0.023,0.85,0
1,13,1,-2.928,2.83,-1.361,0.3229999999999999,-0.7390000000000001,1.431,0.002,-0.172,-0.939,0.607,4
1,13,1,-3.4560000000000004,2.027,-0.862,0.887,0.281,0.435,-0.307,-0.387,-0.6,0.725,5
1,13,1,-4.062,2.358,-0.31,1.895,1.095,0.049,-0.87,-0.524,-0.98,-0.065,9
1,13,1,-3.591,2.78,-0.301,0.812,-0.008,-0.019,-0.268,-0.564,-0.7879999999999999,0.948,10
1,13,1,-4.687,1.152,1.089,1.915,0.201,-0.296,-0.6920000000000001,-0.105,-0.143,0.884,0
1,13,1,-3.917,1.925,0.267,1.361,0.4529999999999999,-0.19,-0.242,-0.633,-0.62,1.039,1
1,13,1,-3.004,1.09,-0.3279999999999999,1.652,-0.679,0.287,-0.297,-0.695,-0.145,0.71,2
1,13,1,-3.341,1.714,-0.773,0.7709999999999999,-0.976,0.625,0.078,-0.4379999999999999,-0.084,0.607,3
1,13,1,-2.902,2.7960000000000003,-1.199,0.2339999999999999,-0.821,1.257,0.263,-0.075,-1.103,0.417,4
1,13,1,-3.792,4.29,-1.531,-0.125,-0.312,0.624,0.324,-0.053,-0.942,-0.301,7
1,13,1,-3.862,2.109,-0.65,0.99,0.7240000000000001,0.6409999999999999,-0.293,-0.519,-1.055,0.653,8
1,13,1,-3.636,2.719,-0.178,0.665,0.099,-0.084,-0.3329999999999999,-0.362,-1.0490000000000002,0.978,10
1,14,1,-3.119,3.135,-1.466,-0.352,-0.023,0.752,0.143,-0.231,-0.376,0.721,4
1,14,1,-2.8710000000000004,3.13,-1.3,0.008,-0.288,0.483,0.258,-0.342,-0.614,0.83,5
1,14,1,-3.059,2.895,-0.847,-0.364,-0.484,1.025,0.502,0.506,-0.733,0.078,6
1,14,1,-3.642,3.582,-1.031,-0.7609999999999999,0.046,1.255,0.841,0.512,-0.259,-0.447,7
1,14,1,-3.977,2.9760000000000004,0.309,-0.259,0.026,0.816,-0.317,0.492,-0.674,-0.659,8
1,14,1,-4.008,2.141,-0.18,1.041,0.688,0.7120000000000001,-0.879,-0.201,-1.0659999999999998,-0.5489999999999999,9
1,14,1,-3.451,2.257,-0.845,0.432,0.486,0.266,-0.215,0.006,-1.082,0.759,10
1,14,1,-3.836,0.508,0.645,1.721,0.28,0.303,-0.911,-0.5920000000000001,-0.631,1.023,0
1,14,1,-2.627,2.089,-1.4340000000000002,0.937,-0.615,0.43,-0.311,-0.203,0.038,0.933,3
1,14,1,-3.074,3.062,-1.47,-0.379,0.233,0.789,-0.099,-0.135,-0.395,0.5720000000000001,4
1,14,1,-2.902,2.988,-1.152,0.057,-0.477,0.622,0.3379999999999999,-0.368,-0.6890000000000001,0.7929999999999999,5
1,14,1,-3.924,2.7260000000000004,0.414,-0.155,-0.02,0.893,-0.188,0.552,-0.507,-0.617,8
1,14,1,-3.661,0.3,0.53,1.816,0.3329999999999999,0.444,-0.858,-0.732,-0.809,0.995,0
1,14,1,-3.242,1.615,-0.8290000000000001,1.589,0.09,0.051,-0.504,-0.211,-0.513,1.005,2
1,14,1,-2.634,2.076,-1.32,0.833,-0.547,0.287,-0.173,-0.203,-0.001,0.802,3
1,14,1,-2.918,2.897,-1.069,-0.077,-0.261,0.55,0.317,-0.322,-0.7759999999999999,0.79,5
1,14,1,-3.572,0.228,0.52,1.791,0.382,0.573,-0.961,-0.74,-0.936,1.007,0
1,14,1,-3.584,1.252,-0.062,1.646,0.787,1.134,0.096,-0.292,-1.133,0.472,1
1,14,1,-2.643,2.021,-1.265,0.759,-0.442,0.159,-0.032,-0.145,-0.1639999999999999,0.86,3
1,14,1,-3.946,2.545,0.447,-0.001,0.043,0.7879999999999999,-0.102,0.68,-0.637,-0.545,8
1,14,1,-3.32,1.5530000000000002,-0.586,1.6880000000000002,-0.262,0.392,-0.478,-0.461,-0.522,0.929,2
1,14,1,-2.71,1.943,-1.247,0.772,-0.345,0.107,-0.062,0.04,-0.322,1.018,3
1,14,1,-3.018,3.014,-1.486,-0.105,-0.131,0.929,0.226,-0.4629999999999999,-0.555,0.598,4
1,14,1,-3.952,2.489,0.287,0.012,0.141,0.892,-0.087,0.613,-0.685,-0.623,8
1,14,1,-4.211,2.8110000000000004,0.016,0.799,0.514,0.496,-1.219,-0.238,-0.7979999999999999,-0.392,9
1,14,1,-3.62,1.0659999999999998,0.158,1.393,0.879,1.02,-0.09,0.087,-1.3330000000000002,0.585,1
1,14,1,-3.468,1.81,-0.39,1.55,-0.084,-0.008,-0.482,-0.231,-0.7240000000000001,0.967,2
1,14,1,-3.002,2.944,-1.379,-0.188,-0.131,0.957,0.346,-0.392,-0.711,0.617,4
1,14,1,-3.239,3.083,-1.4269999999999998,-0.2019999999999999,-0.282,1.421,0.5760000000000001,0.068,-0.914,0.147,6
1,14,1,-3.753,3.605,-0.899,-0.747,-0.401,1.765,0.62,0.754,-0.835,-0.301,7
1,14,1,-3.98,2.459,0.068,0.023,0.237,1.029,-0.1889999999999999,0.521,-0.773,-0.5,8
