TT,SpeakerNumber,Sex,F0,F1,F2,F3,F4,F5,F6,F7,F8,F9,TARGET
0,0,0,-2.287,1.809,-1.4980000000000002,1.012,-1.053,1.06,-0.5670000000000001,0.235,-0.091,-0.795,3
0,0,0,-2.5980000000000003,1.938,-0.846,1.062,-1.633,0.764,0.3939999999999999,-0.15,0.2769999999999999,-0.396,4
0,0,0,-3.482,2.524,-0.433,1.048,-1.995,0.902,0.322,0.45,0.377,-0.366,6
0,0,0,-3.941,2.305,0.124,1.771,-1.815,0.593,-0.435,0.992,0.575,-0.301,7
0,0,0,-3.653,0.373,-0.6,1.705,-0.222,1.765,-0.353,0.537,-0.797,-0.813,0
0,0,0,-3.237,0.436,-0.86,1.3630000000000002,-0.251,1.915,-0.395,0.7509999999999999,-0.774,-0.327,1
0,0,0,-2.135,0.954,-1.632,0.121,-0.7040000000000001,1.6,-0.628,0.713,-0.903,-0.027,2
0,0,0,-2.3040000000000003,1.784,-1.506,0.981,-0.961,0.8059999999999999,-0.294,-0.002,0.119,-0.76,3
0,0,0,-2.54,2.144,-1.024,0.933,-1.567,1.024,0.188,-0.047,0.309,-0.633,4
0,0,0,-3.951,2.25,0.127,1.7719999999999998,-1.906,0.5670000000000001,-0.432,1.045,0.598,-0.293,7
0,0,0,-3.783,1.974,-1.2,0.606,-0.65,1.504,-0.134,0.528,0.392,-0.58,8
0,0,0,-3.673,1.811,-1.405,1.621,0.044,1.5719999999999998,-0.4529999999999999,0.745,-0.066,-0.733,9
0,0,0,-2.105,1.035,-1.705,0.231,-0.5579999999999999,1.554,-0.649,0.71,-0.855,-0.151,2
0,0,0,-2.312,1.746,-1.51,1.019,-0.99,0.941,-0.488,0.208,0.033,-0.847,3
0,0,0,-3.986,2.325,0.102,1.633,-2.014,0.5760000000000001,-0.344,1.003,0.5660000000000001,-0.245,7
0,0,0,-2.859,1.6269999999999998,-1.14,0.769,-0.948,1.39,-0.608,0.956,-0.204,-0.727,10
0,0,0,-3.062,0.351,-1.071,1.061,-0.355,1.99,-0.21,0.7959999999999999,-0.358,-0.299,1
0,0,0,-2.081,1.05,-1.778,0.411,-0.518,1.46,-0.5760000000000001,0.735,-0.866,-0.172,2
0,0,0,-2.289,1.845,-1.616,0.987,-0.8759999999999999,1.044,-0.5489999999999999,0.196,-0.07,-0.8140000000000001,3
0,0,0,-2.724,2.067,-1.142,0.923,-1.157,1.17,-0.276,0.172,-0.008,-0.649,4
0,0,0,-3.015,2.232,-0.899,0.574,-1.331,0.546,0.61,-0.452,0.035,-0.156,5
0,0,0,-3.687,1.784,-1.5930000000000002,1.6030000000000002,0.123,1.4240000000000002,-0.225,0.441,0.206,-0.7140000000000001,9
0,0,0,-2.69,1.652,-1.261,0.674,-0.964,1.449,-0.593,1.005,-0.303,-0.541,10
0,0,0,-3.593,0.29,-0.782,1.707,-0.175,1.662,-0.1369999999999999,0.493,-0.492,-0.926,0
0,0,0,-3.0460000000000003,0.387,-1.165,0.94,-0.386,1.978,-0.186,0.8109999999999999,-0.3939999999999999,-0.198,1
0,0,0,-2.255,0.902,-1.723,0.4539999999999999,-0.524,1.453,-0.614,0.7609999999999999,-0.885,-0.118,2
0,0,0,-2.299,1.848,-1.695,1.065,-0.861,1.047,-0.607,0.313,-0.253,-0.759,3
0,0,0,-3.459,2.086,-0.595,0.937,-1.841,0.6,0.457,0.4,0.473,-0.211,6
0,0,0,-3.543,1.391,-1.22,0.6990000000000001,-0.769,1.579,-0.379,1.158,0.181,-0.178,8
0,0,0,-3.684,1.774,-1.7280000000000002,1.611,0.1,1.393,-0.193,0.5539999999999999,0.245,-0.919,9
0,0,0,-2.596,1.56,-1.249,0.6559999999999999,-1.095,1.2919999999999998,-0.55,1.006,-0.15,-0.5529999999999999,10
0,0,0,-3.604,0.235,-0.836,1.786,-0.153,1.642,-0.096,0.488,-0.524,-1.003,0
0,0,0,-2.3680000000000003,1.727,-1.556,1.162,-0.8190000000000001,0.941,-0.5720000000000001,0.345,-0.2789999999999999,-0.736,3
0,0,0,-3.065,2.372,-1.002,0.496,-1.295,0.86,0.327,-0.4039999999999999,0.067,-0.155,5
0,0,0,-4.238,2.437,0.036,1.158,-2.127,0.5539999999999999,0.12,0.823,0.565,-0.293,7
0,0,0,-3.869,1.86,-1.646,1.612,0.044,1.531,-0.493,0.862,-0.106,-1.001,9
0,0,0,-2.6660000000000004,1.516,-1.198,0.741,-1.0659999999999998,1.24,-0.574,0.965,-0.13,-0.711,10
0,1,0,-4.102,0.209,0.414,0.423,0.985,1.4340000000000002,0.6629999999999999,0.036,-0.784,-0.6679999999999999,0
0,1,0,-3.141,3.314,-0.996,-0.3939999999999999,-0.19,-0.312,0.1369999999999999,0.631,0.547,-0.247,6
0,1,0,-4.1610000000000005,2.937,0.157,0.336,-0.968,0.6409999999999999,0.088,0.237,0.565,0.823,8
0,1,0,-4.275,0.162,0.728,0.662,0.94,1.269,0.711,0.073,-0.8270000000000001,-0.655,0
0,1,0,-2.67,2.696,-0.231,-0.0279999999999999,-1.014,0.486,-0.1369999999999999,0.4479999999999999,0.285,-0.482,4
0,1,0,-2.441,1.415,0.386,-0.335,-0.187,-0.079,-0.0,-0.175,0.792,-0.026,5
0,1,0,-4.65,2.455,0.013,0.6809999999999999,-0.8,1.4340000000000002,0.126,0.036,0.382,0.278,9
0,1,0,-3.03,1.185,0.314,-0.121,-0.591,0.965,0.353,-0.1369999999999999,-0.221,0.075,10
0,1,0,-4.473,0.373,0.858,0.919,0.778,1.272,0.653,-0.216,-0.8909999999999999,-0.627,0
0,1,0,-1.856,0.063,-1.011,-0.238,-0.152,1.461,0.5720000000000001,0.775,0.154,-0.31,1
0,1,0,-3.84,3.745,0.121,-0.6559999999999999,-1.0659999999999998,0.3289999999999999,0.7340000000000001,0.875,-0.295,0.418,7
0,1,0,-4.323,2.853,0.385,0.209,-1.096,0.431,0.119,0.268,0.131,0.654,8
0,1,0,-2.724,2.998,-0.56,-0.077,-0.944,0.5479999999999999,-0.08,0.4,0.144,-0.63,4
0,1,0,-2.385,1.241,0.272,-0.04,-0.6920000000000001,0.16,-0.061,-0.1889999999999999,0.7440000000000001,0.088,5
0,1,0,-4.759,2.696,0.104,0.6970000000000001,-0.787,1.114,0.205,-0.066,0.369,0.306,9
0,1,0,-2.351,1.53,0.086,-0.075,-0.426,0.125,-0.1969999999999999,0.033,0.848,-0.038,5
0,1,0,-3.105,2.9160000000000004,-0.207,0.031,-0.897,0.021,-0.2289999999999999,0.256,1.073,-0.065,6
0,1,0,-3.082,1.633,-0.118,-0.147,-0.484,1.176,-0.086,-0.072,0.086,-0.564,10
0,1,0,-4.158,-0.342,0.9,1.09,0.56,0.955,0.395,-0.3279999999999999,-1.52,-0.498,0
0,1,0,-2.441,0.191,-0.8140000000000001,0.255,0.411,1.636,0.395,0.7609999999999999,-0.005,-0.564,1
0,1,0,-1.672,0.3279999999999999,-0.833,-0.5770000000000001,-0.363,0.84,0.18,0.682,-0.124,-0.109,2
0,1,0,-2.7880000000000003,3.194,-1.142,-0.313,-0.58,0.357,0.281,0.0819999999999999,0.109,-0.858,4
0,1,0,-2.489,1.773,-0.18,-0.152,-0.353,0.133,-0.186,0.207,0.7879999999999999,-0.285,5
0,1,0,-3.963,3.938,0.466,-0.564,-1.042,-0.064,0.241,0.888,-0.032,0.7979999999999999,7
0,1,0,-4.944,3.325,0.015,0.079,-0.593,1.047,0.337,0.296,-0.4529999999999999,0.371,9
0,1,0,-3.0580000000000003,1.6780000000000002,-0.351,-0.255,0.038,0.6920000000000001,-0.173,0.226,0.2019999999999999,-0.593,10
0,2,0,-1.202,-0.253,-2.487,0.809,-0.367,2.169,0.32,1.034,-1.385,-0.706,0
0,2,0,-1.077,0.511,-2.006,0.305,-0.584,1.962,0.089,1.406,-0.669,-0.027,1
0,2,0,-1.768,0.7859999999999999,-1.4680000000000002,1.077,-0.347,1.704,-0.171,1.0759999999999998,-0.691,-0.06,2
0,2,0,-2.432,2.126,-0.218,1.422,-1.169,0.41,-0.3929999999999999,1.3259999999999998,-0.067,0.225,4
0,2,0,-3.813,3.705,-0.157,1.561,-1.503,-0.366,-0.581,1.412,0.29,-0.099,7
0,2,0,-3.05,1.6,-0.6859999999999999,1.543,-1.149,-0.043,0.297,0.727,0.598,0.4579999999999999,8
0,2,0,-3.972,2.279,-0.62,0.954,-1.09,0.7190000000000001,0.7170000000000001,0.3,1.3090000000000002,0.171,9
0,2,0,-2.979,1.795,-0.87,1.4269999999999998,-0.93,1.3230000000000002,-0.212,1.286,-0.135,-0.496,10
0,2,0,-1.298,-0.295,-2.4330000000000003,0.955,-0.278,2.252,0.285,0.915,-1.569,-0.562,0
0,2,0,-2.3080000000000003,2.023,-0.203,1.493,-1.223,0.379,-0.481,1.403,-0.045,0.402,4
0,2,0,-2.155,2.027,-0.3929999999999999,1.354,-1.045,0.6459999999999999,-0.246,1.279,-0.396,0.177,5
0,2,0,-2.867,1.391,-0.8170000000000001,1.595,-0.883,1.143,-0.427,1.159,0.17,-0.456,10
0,2,0,-4.333,2.438,-0.2189999999999999,1.372,-0.7609999999999999,0.306,0.594,-0.022,1.103,0.19,9
0,2,0,-2.704,1.285,-0.908,1.57,-0.84,1.044,-0.3989999999999999,0.951,0.345,-0.695,10
0,2,0,-2.176,1.952,-0.144,1.659,-1.128,0.28,-0.6579999999999999,1.346,0.008,0.505,4
0,2,0,-2.624,1.653,-0.156,2.023,-1.052,0.086,-0.752,1.341,0.196,0.71,6
0,2,0,-4.373,2.463,-0.171,1.501,-0.639,0.292,0.518,-0.114,1.127,0.332,9
0,2,0,-1.384,-0.321,-2.266,0.937,-0.289,2.29,0.4629999999999999,1.096,-1.436,-0.701,0
0,2,0,-1.28,0.7979999999999999,-1.6469999999999998,0.968,-0.418,1.609,-0.031,1.224,-0.374,0.044,2
0,2,0,-2.205,1.804,-0.1989999999999999,1.773,-1.089,0.312,-0.621,1.247,0.1369999999999999,0.406,4
0,2,0,-3.693,3.067,-0.273,1.619,-1.905,0.045,0.006,1.347,0.346,0.36,7
0,2,0,-4.386,2.271,-0.157,1.536,-0.614,0.23,0.57,-0.1169999999999999,1.074,0.397,9
0,2,0,-2.53,1.492,-0.936,1.21,-1.154,1.3159999999999998,-0.267,1.149,0.226,-0.77,10
0,2,0,-1.215,-0.288,-2.423,0.8340000000000001,-0.379,2.266,0.503,1.337,-1.36,-0.682,0
0,2,0,-1.494,0.6629999999999999,-1.58,1.1909999999999998,-0.252,1.777,-0.072,1.189,-0.409,0.09,2
0,2,0,-2.274,1.653,-0.226,1.857,-0.971,0.327,-0.605,1.121,0.121,0.291,4
0,2,0,-1.804,1.556,-0.8029999999999999,1.388,-0.989,0.7509999999999999,-0.0289999999999999,0.963,-0.228,0.297,5
0,2,0,-3.425,1.724,-0.638,1.5730000000000002,-1.041,1.204,-0.124,1.258,0.5479999999999999,-0.507,8
0,2,0,-2.52,1.52,-0.959,1.296,-1.103,1.149,-0.268,1.249,0.092,-0.682,10
0,3,0,-2.03,1.764,-0.386,-0.249,0.18,0.1169999999999999,0.096,-0.121,0.067,-0.552,3
0,3,0,-2.55,2.629,0.084,-0.159,-0.882,0.093,-0.19,0.961,0.032,-0.589,4
0,3,0,-3.193,2.026,0.83,0.813,-1.205,0.036,-0.95,0.7859999999999999,1.045,0.21,6
0,3,0,-3.5660000000000003,1.504,0.94,1.829,-1.224,0.178,-1.454,0.92,0.767,1.0590000000000002,7
0,3,0,-3.299,1.73,0.187,0.121,-1.251,0.7959999999999999,-0.366,1.091,0.493,0.436,8
0,3,0,-3.6010000000000004,0.742,-0.238,0.332,-0.561,1.275,-0.0139999999999999,0.8440000000000001,0.5579999999999999,0.659,9
0,3,0,-1.507,-0.457,-1.7280000000000002,0.256,-0.081,1.571,0.556,1.291,0.121,-0.456,0
0,3,0,-3.24,1.749,0.959,1.071,-1.188,0.018,-1.024,0.664,1.007,0.4429999999999999,6
0,3,0,-3.565,1.3630000000000002,0.958,1.976,-1.268,0.091,-1.3630000000000002,0.72,0.738,1.145,7
0,3,0,-3.198,1.3730000000000002,0.392,0.423,-1.203,0.6559999999999999,-0.428,0.994,0.5760000000000001,0.865,8
0,3,0,-3.772,0.904,-0.195,0.317,-0.473,1.31,-0.043,0.898,0.536,0.503,9
0,3,0,-1.656,-0.496,-1.719,0.363,-0.002,1.6369999999999998,0.535,1.319,-0.012,-0.49,0
0,3,0,-2.026,1.75,-0.526,-0.131,0.266,-0.055,0.084,0.063,0.047,-0.691,3
0,3,0,-2.531,1.802,0.7390000000000001,0.236,-1.169,-0.069,-0.349,0.903,0.123,-0.119,4
0,3,0,-3.179,1.346,0.988,1.32,-0.852,-0.008,-1.234,0.347,1.02,0.7709999999999999,6
0,3,0,-3.57,1.366,0.97,1.957,-1.262,0.002,-1.275,0.585,0.754,0.993,7
0,3,0,-3.169,1.041,0.509,0.693,-1.185,0.6729999999999999,-0.352,0.877,0.434,1.009,8
0,3,0,-4.066,1.05,-0.049,0.4579999999999999,-0.357,1.331,-0.129,0.848,0.509,0.317,9
0,3,0,-2.483,0.81,0.185,0.284,-0.917,0.73,-0.111,0.613,0.373,0.184,10
0,3,0,-1.823,-0.578,-1.624,0.52,0.052,1.711,0.535,1.318,-0.115,-0.505,0
0,3,0,-1.45,0.1989999999999999,-1.127,-0.281,-0.372,1.287,0.369,0.855,0.303,-0.385,1
0,3,0,-2.475,1.4980000000000002,0.8640000000000001,0.397,-1.17,-0.2339999999999999,-0.3879999999999999,0.825,0.16,0.057,4
0,3,0,-2.314,1.494,0.294,0.245,-0.769,0.05,-0.068,0.8190000000000001,0.618,-0.5720000000000001,5
0,3,0,-3.155,1.021,0.455,0.624,-1.306,0.8420000000000001,-0.123,0.909,0.3279999999999999,0.8759999999999999,8
0,3,0,-1.495,0.1169999999999999,-1.134,-0.249,-0.37,1.286,0.348,0.8540000000000001,0.313,-0.376,1
0,3,0,-1.921,0.7190000000000001,-0.95,0.299,0.222,0.7859999999999999,0.128,0.588,-0.462,-0.491,2
0,3,0,-2.052,1.483,-0.488,0.0409999999999999,-0.131,0.273,-0.1119999999999999,-0.064,0.307,-0.8,3
0,3,0,-2.507,1.528,0.852,0.331,-1.231,-0.259,-0.265,0.856,0.07,0.069,4
0,3,0,-2.9330000000000003,0.7170000000000001,0.8290000000000001,1.508,-0.517,0.069,-1.163,0.021,0.866,1.0659999999999998,6
0,3,0,-3.145,0.863,0.416,0.6990000000000001,-1.378,0.892,0.02,0.89,0.221,0.8340000000000001,8
0,3,0,-2.0580000000000003,-0.61,-1.497,0.696,0.072,1.802,0.626,1.3030000000000002,-0.192,-0.5379999999999999,0
0,3,0,-2.343,0.7879999999999999,0.373,0.492,-0.667,0.2789999999999999,-0.24,0.8270000000000001,0.589,-0.267,5
0,3,0,-2.834,0.654,0.733,1.4340000000000002,-0.716,-0.0279999999999999,-0.841,0.239,0.92,0.885,6
0,3,0,-4.521,1.43,0.162,0.58,-0.351,1.339,-0.259,0.81,0.431,-0.102,9
0,3,0,-2.804,1.021,0.254,0.331,-0.654,0.8540000000000001,-0.085,0.6779999999999999,0.259,-0.031,10
0,4,1,-3.1180000000000003,0.356,0.377,1.4469999999999998,0.868,0.407,-0.915,-0.546,-0.637,0.1689999999999999,1
0,4,1,-1.5659999999999998,0.93,-0.181,-0.155,-0.1639999999999999,-0.2769999999999999,0.144,-0.047,-0.6940000000000001,0.282,3
0,4,1,-2.497,1.607,-0.621,-0.446,-0.226,-0.152,1.16,0.122,-0.809,0.495,5
0,4,1,-4.079,2.6630000000000003,-0.048,-0.315,0.2339999999999999,0.861,0.335,0.435,-0.546,-0.928,8
0,4,1,-4.16,2.814,0.557,0.604,0.584,0.477,-0.272,0.784,-0.999,-0.7809999999999999,9
0,4,1,-3.162,-1.137,0.3,1.44,0.688,1.645,-0.447,-0.518,-0.52,0.6409999999999999,0
0,4,1,-1.577,0.907,-0.291,0.0069999999999999,-0.256,-0.233,0.187,-0.052,-0.627,0.238,3
0,4,1,-4.071000000000001,2.754,-0.2319999999999999,-0.262,0.356,0.6940000000000001,0.381,0.5,-0.721,-0.8590000000000001,8
0,4,1,-4.188,2.637,0.502,0.552,0.735,0.395,-0.026,0.8029999999999999,-0.8740000000000001,-0.913,9
0,4,1,-2.689,0.528,0.157,1.501,0.349,-0.412,-0.49,-0.512,-0.2769999999999999,0.422,2
0,4,1,-2.927,2.202,-0.532,-0.486,-0.519,0.585,0.813,-0.133,-0.475,-0.349,4
0,4,1,-3.439,2.7110000000000003,1.067,0.0289999999999999,-1.12,-0.212,0.062,1.44,-0.353,-0.42,6
0,4,1,-4.067,3.908,-0.065,-0.3779999999999999,-1.163,0.065,0.508,1.003,0.03,-0.187,7
0,4,1,-3.02,1.033,-0.238,-0.286,0.088,0.235,0.372,0.563,-1.027,-0.151,10
0,4,1,-2.837,0.528,0.241,1.629,0.23,-0.545,-0.643,-0.231,-0.186,0.45,2
0,4,1,-2.939,2.157,-0.451,-0.209,-0.88,0.6970000000000001,0.823,-0.035,-0.7440000000000001,-0.193,4
0,4,1,-3.587,3.128,0.885,-0.188,-1.164,-0.215,0.051,1.344,-0.6409999999999999,-0.253,6
0,4,1,-3.278,0.324,1.047,1.152,0.725,0.168,-0.8390000000000001,-0.381,-0.687,0.013,1
0,4,1,-1.596,0.885,-0.1989999999999999,0.1989999999999999,-0.115,-0.474,0.428,-0.113,-0.61,0.131,3
0,4,1,-2.986,2.072,-0.311,-0.083,-0.878,0.449,0.916,0.0819999999999999,-0.905,-0.109,4
0,4,1,-3.682,3.672,0.0409999999999999,-0.508,-0.905,0.0279999999999999,0.492,0.654,-0.722,-0.318,6
0,4,1,-4.21,3.869,0.1639999999999999,-0.047,-1.251,-0.102,0.276,0.919,0.091,-0.159,7
0,4,1,-4.497,3.018,0.609,0.115,0.6729999999999999,0.7090000000000001,-0.03,0.861,-0.7040000000000001,-1.038,9
0,4,1,-3.693,-0.568,0.727,1.236,0.612,1.5019999999999998,-0.804,-0.763,-0.346,0.7879999999999999,0
0,4,1,-3.543,0.624,0.674,1.413,0.653,-0.445,-0.8029999999999999,-0.256,-0.65,0.423,1
0,4,1,-3.293,0.93,0.522,1.48,0.249,-0.6609999999999999,-0.643,-0.094,-0.132,0.198,2
0,4,1,-1.7080000000000002,0.944,-0.14,0.151,-0.092,-0.481,0.22,0.034,-0.6920000000000001,0.19,3
0,4,1,-3.253,1.025,-0.286,0.713,-0.036,0.539,0.476,-0.1159999999999999,-0.945,-0.108,5
0,4,1,-4.216,3.638,0.192,-0.023,-1.231,-0.32,0.128,1.03,0.061,-0.179,7
0,4,1,-4.077,2.542,0.039,0.0819999999999999,0.218,0.3929999999999999,0.324,0.3989999999999999,-0.6579999999999999,-0.964,8
0,4,1,-4.544,3.0460000000000003,1.028,-0.016,0.447,0.884,-0.094,0.885,-0.4589999999999999,-1.099,9
0,4,1,-2.7110000000000003,0.971,-0.023,0.053,0.1009999999999999,-0.148,0.382,0.476,-1.05,-0.256,10
0,5,1,-3.844,1.056,-0.19,1.685,0.617,1.245,-0.8109999999999999,-0.506,-1.128,0.076,1
0,5,1,-2.665,0.772,-1.009,1.307,0.287,0.855,-0.466,-0.19,-0.721,0.407,2
0,5,1,-2.905,2.311,-0.6579999999999999,0.022,-1.121,0.25,0.467,0.484,-0.157,-0.6759999999999999,4
0,5,1,-2.685,1.971,-0.857,0.033,-0.638,0.484,0.143,0.159,-0.218,-0.3429999999999999,5
0,5,1,-3.389,2.762,-0.71,-0.026,-0.6409999999999999,0.1119999999999999,0.775,0.4429999999999999,-0.11,-0.979,6
0,5,1,-4.243,3.354,-0.415,0.898,-1.027,-0.281,0.5760000000000001,0.48,0.564,-0.085,7
0,5,1,-3.741,2.7,-1.5930000000000002,0.782,-0.298,1.378,0.184,1.4580000000000002,-0.134,-1.297,8
0,5,1,-3.268,-0.079,-0.693,0.763,1.043,1.194,0.892,-1.293,-1.033,0.1989999999999999,0
0,5,1,-3.618,0.916,-0.4,1.771,0.6659999999999999,1.535,-0.389,-0.342,-1.279,-0.109,1
0,5,1,-2.693,0.7709999999999999,-0.87,1.341,0.317,0.925,-0.3279999999999999,-0.1689999999999999,-0.936,0.3989999999999999,2
0,5,1,-2.515,1.34,-0.84,0.511,-0.492,0.098,0.047,-0.68,-0.283,0.168,3
0,5,1,-2.591,1.809,-0.659,-0.016,-0.6729999999999999,0.588,0.084,0.182,-0.094,-0.372,5
0,5,1,-4.228,3.111,-0.38,1.16,-1.188,-0.362,0.516,0.507,0.669,-0.074,7
0,5,1,-3.901,2.485,-0.95,0.7020000000000001,-0.47,1.146,-0.109,1.597,0.146,-1.197,8
0,5,1,-3.347,-0.159,-0.414,0.922,0.973,0.978,0.929,-1.211,-1.268,0.278,0
0,5,1,-3.518,0.716,-0.365,1.788,0.584,1.6780000000000002,-0.109,-0.016,-1.501,0.002,1
0,5,1,-2.875,0.868,-0.728,1.439,0.355,0.846,-0.3779999999999999,-0.233,-1.072,0.505,2
0,5,1,-2.612,1.403,-0.87,0.47,-0.4479999999999999,0.172,-0.06,-0.6559999999999999,-0.3339999999999999,0.087,3
0,5,1,-2.497,1.692,-0.607,0.02,-0.71,0.612,0.093,0.272,-0.06,-0.507,5
0,5,1,-3.236,2.745,-0.8059999999999999,-0.2,-0.386,0.358,0.889,0.516,-0.297,-1.075,6
0,5,1,-4.188,3.229,-0.456,1.077,-1.385,-0.104,0.4589999999999999,0.5579999999999999,0.701,-0.32,7
0,5,1,-4.744,3.385,-0.8859999999999999,0.5710000000000001,0.235,0.183,0.357,0.04,0.203,-1.68,9
0,5,1,-3.0460000000000003,1.462,-0.823,0.935,-0.44,0.8490000000000001,0.085,0.865,-0.178,-0.954,10
0,5,1,-3.426,0.584,-0.469,1.776,0.5660000000000001,1.686,0.07,0.081,-1.483,-0.141,1
0,5,1,-2.75,1.475,-0.848,0.364,-0.275,0.02,-0.003,-0.782,-0.291,0.1669999999999999,3
0,5,1,-2.846,2.43,-0.78,-0.153,-0.905,0.24,0.746,0.14,-0.114,-0.746,4
0,5,1,-2.511,1.511,-0.555,0.226,-0.735,0.631,-0.006,0.52,-0.138,-0.6509999999999999,5
0,5,1,-3.124,2.733,-0.857,-0.3339999999999999,-0.312,0.5870000000000001,0.8490000000000001,0.475,-0.174,-0.899,6
0,5,1,-4.175,3.32,-0.446,0.988,-1.48,0.133,0.507,0.605,0.691,-0.462,7
0,5,1,-4.788,3.632,-0.71,0.3,0.366,-0.121,0.4029999999999999,-0.016,0.124,-1.32,9
0,5,1,-3.394,0.557,-0.573,1.704,0.608,1.644,0.109,0.2,-1.507,-0.225,1
0,5,1,-3.091,0.935,-0.574,1.36,0.416,0.764,-0.48,-0.144,-1.295,0.696,2
0,5,1,-2.656,1.263,-0.527,0.4639999999999999,-0.612,0.6679999999999999,-0.16,0.857,-0.416,-0.596,5
0,5,1,-3.862,1.801,-0.7170000000000001,1.133,-0.23,0.922,-0.223,1.264,0.1939999999999999,-0.935,8
0,5,1,-3.858,0.115,0.05,1.17,0.975,0.703,0.585,-1.1909999999999998,-1.172,-0.076,0
0,5,1,-4.0760000000000005,3.3360000000000003,-0.688,0.677,-1.472,0.461,0.682,0.7240000000000001,0.7170000000000001,-0.409,7
0,5,1,-4.885,3.967,-0.948,0.373,0.255,-0.121,0.43,-0.013,0.018,-1.518,9
0,5,1,-2.98,1.29,-0.8420000000000001,0.955,-0.491,0.5720000000000001,0.267,0.6920000000000001,0.084,-1.1,10
0,6,1,-2.569,-0.11,-0.841,0.732,1.112,0.961,-0.075,0.148,-0.893,0.314,1
0,6,1,-2.21,0.6609999999999999,-0.581,1.139,0.238,0.074,-0.625,-0.366,-0.326,0.557,2
0,6,1,-2.715,2.325,0.701,0.239,-1.426,-0.218,-0.317,1.516,-0.162,-0.703,6
0,6,1,-4.964,2.78,0.474,0.047,0.417,-0.3279999999999999,0.3339999999999999,0.474,-1.26,-0.221,9
0,6,1,-2.659,-0.1009999999999999,-0.687,0.6970000000000001,1.081,1.045,-0.149,0.184,-0.927,0.327,1
0,6,1,-2.103,0.655,-0.84,1.195,0.377,0.135,-0.504,-0.5489999999999999,-0.4039999999999999,0.602,2
0,6,1,-1.926,2.172,-0.5710000000000001,0.257,-0.159,-0.493,0.27,-0.153,-0.6729999999999999,-0.005,3
0,6,1,-2.512,2.826,-0.171,-0.385,-1.495,0.381,0.067,0.899,-0.902,-0.412,4
0,6,1,-2.708,2.396,0.728,0.336,-1.4369999999999998,-0.344,-0.411,1.469,-0.022,-0.7170000000000001,6
0,6,1,-4.341,3.514,-0.4529999999999999,-1.047,-0.469,0.51,0.618,0.8009999999999999,-0.3989999999999999,-0.777,7
0,6,1,-5.02,2.551,0.562,-0.136,0.531,-0.064,0.373,0.631,-1.4069999999999998,-0.267,9
0,6,1,-2.665,1.633,-0.384,-0.111,-0.001,0.2339999999999999,0.033,0.478,-1.558,0.2189999999999999,10
0,6,1,-2.889,-0.039,-0.494,0.7190000000000001,1.104,1.003,-0.415,0.0969999999999999,-0.855,0.356,1
0,6,1,-2.563,2.829,-0.283,-0.368,-1.5930000000000002,0.408,0.121,0.933,-0.946,-0.356,4
0,6,1,-4.384,3.721,-0.905,-0.965,-0.16,0.498,0.809,0.66,-0.613,-0.831,7
0,6,1,-3.76,-0.32,-0.24,1.273,1.751,1.125,0.23,-0.723,-0.501,0.315,0
0,6,1,-2.5580000000000003,0.755,-0.66,1.366,0.038,-0.011,-0.4429999999999999,-0.531,-0.062,0.418,2
0,6,1,-2.01,2.164,-0.626,0.389,-0.24,-0.441,0.103,-0.27,-0.647,0.165,3
0,6,1,-2.521,2.271,-0.2769999999999999,0.27,-0.909,0.2739999999999999,0.348,-0.0279999999999999,-1.177,0.432,5
0,6,1,-4.07,2.254,-0.28,-0.722,0.696,0.6829999999999999,0.243,0.6890000000000001,-1.45,0.19,8
0,6,1,-5.08,2.241,0.971,-0.374,0.501,0.226,0.144,0.851,-1.319,-0.3,9
0,6,1,-3.1830000000000003,0.154,-0.413,0.923,1.091,0.5820000000000001,-0.447,-0.085,-0.904,0.693,1
0,6,1,-3.025,2.7110000000000003,-0.147,-0.034,-1.34,0.049,0.364,1.099,-1.02,-0.652,6
0,6,1,-4.0360000000000005,2.141,-0.355,-0.602,0.8370000000000001,0.6629999999999999,-0.013,0.507,-1.412,0.21,8
0,6,1,-5.158,2.488,1.064,-0.3429999999999999,0.352,0.18,-0.05,0.8170000000000001,-1.308,-0.249,9
0,6,1,-3.096,0.103,-0.452,0.879,1.067,0.497,-0.296,-0.067,-0.973,0.711,1
0,6,1,-2.452,0.2789999999999999,-0.805,1.141,0.239,0.176,-0.104,-0.752,-0.3339999999999999,0.731,2
0,6,1,-2.658,2.739,-0.382,-0.31,-1.64,0.081,0.276,0.884,-0.535,-0.5479999999999999,4
0,6,1,-3.0980000000000003,2.525,-0.316,-0.322,-1.082,0.285,0.445,0.847,-0.951,-0.7070000000000001,6
0,6,1,-4.4030000000000005,3.602,-0.945,-0.934,0.0409999999999999,0.409,1.003,0.47,-0.477,-0.621,7
0,6,1,-4.2,2.201,-0.31,-0.392,0.968,0.7,-0.3279999999999999,0.129,-0.8959999999999999,0.15,8
0,7,1,-5.058,2.236,1.381,1.885,-0.259,-0.483,-0.562,0.123,-0.063,0.6629999999999999,0
0,7,1,-3.753,0.828,-0.042,1.406,0.209,-0.53,-0.52,-0.4,-0.386,1.07,2
0,7,1,-3.494,1.207,-0.607,0.242,-0.43,0.131,0.236,0.545,-0.593,0.6779999999999999,3
0,7,1,-2.813,2.327,-1.246,-0.184,-0.755,0.491,1.202,-0.5579999999999999,-0.669,0.054,4
0,7,1,-4.902,4.49,-0.564,-0.536,-0.1639999999999999,-0.298,0.8420000000000001,-0.158,-0.906,0.358,9
0,7,1,-4.125,2.3,-0.1669999999999999,-0.27,0.103,0.32,-0.467,-0.254,-0.415,0.863,10
0,7,1,-4.393,2.137,0.57,1.3969999999999998,0.293,-0.836,-0.966,-0.461,-0.2769999999999999,1.1840000000000002,1
0,7,1,-3.654,1.222,-0.574,0.248,-0.299,0.158,0.154,0.5529999999999999,-0.58,0.617,3
0,7,1,-3.417,1.984,-1.148,0.2339999999999999,-0.778,0.411,0.494,0.13,-0.7040000000000001,0.764,5
0,7,1,-3.887,3.172,-0.7390000000000001,-0.69,-0.5479999999999999,0.33,0.569,0.98,-1.609,0.283,6
0,7,1,-4.173,2.299,-0.298,-0.13,0.122,0.319,-0.3879999999999999,-0.3279999999999999,-0.48,0.99,10
0,7,1,-5.131,2.192,1.364,1.936,-0.591,-0.354,-0.677,0.15,0.178,0.38,0
0,7,1,-4.395,1.864,0.503,1.7180000000000002,0.241,-0.8170000000000001,-0.672,-0.687,-0.449,1.396,1
0,7,1,-3.631,1.195,-0.7190000000000001,0.13,-0.065,0.348,-0.061,0.555,-0.594,0.8059999999999999,3
0,7,1,-3.434,2.26,-1.065,-0.122,-0.795,0.363,1.403,-0.507,-0.375,0.015,4
0,7,1,-4.497,4.5,-1.446,-1.127,0.4429999999999999,0.986,0.136,0.597,-1.087,-0.073,7
0,7,1,-4.151,2.069,-0.605,0.111,0.41,0.354,-0.284,-0.381,-0.507,0.737,10
0,7,1,-4.316,1.409,0.441,1.819,0.5,-0.617,-0.633,-0.621,-0.6709999999999999,1.193,1
0,7,1,-4.149,1.129,-0.008,1.215,0.39,-0.474,-0.4,-0.3429999999999999,-0.344,0.8859999999999999,2
0,7,1,-3.82,1.705,-1.13,0.45,-0.471,0.665,0.298,-0.175,-0.473,0.848,5
0,7,1,-4.471,4.461,-1.887,-0.799,0.7190000000000001,0.938,0.239,0.342,-1.036,-0.06,7
0,7,1,-4.58,4.1160000000000005,-0.753,-0.8490000000000001,0.516,0.498,0.1169999999999999,0.181,-1.256,-0.119,8
0,7,1,-4.115,1.856,-0.738,0.132,0.6579999999999999,0.3289999999999999,-0.252,-0.123,-0.53,0.456,10
0,7,1,-4.4030000000000005,1.409,0.551,1.496,0.6729999999999999,-0.616,-0.787,-0.382,-0.696,1.139,1
0,7,1,-4.316,1.272,-0.087,1.285,0.126,-0.128,-0.286,-0.4629999999999999,-0.294,0.691,2
0,7,1,-3.622,1.111,-0.972,0.3989999999999999,-0.402,0.527,0.271,0.373,-0.716,0.943,3
0,7,1,-3.85,2.28,-1.055,-0.335,-0.1639999999999999,0.41,0.913,-0.391,-0.3379999999999999,0.26,4
0,7,1,-3.962,1.724,-1.29,0.531,-0.17,0.528,0.282,-0.149,-0.603,1.139,5
0,7,1,-3.894,2.91,-0.968,-0.6709999999999999,-0.131,0.519,0.591,0.708,-1.515,0.121,6
0,7,1,-4.468999999999999,4.348,-1.74,-0.8859999999999999,0.447,0.883,0.374,0.5770000000000001,-0.908,-0.089,7
0,7,1,-4.6610000000000005,4.235,-0.497,-1.021,0.295,0.457,-0.019,0.345,-1.355,0.062,8
0,7,1,-4.169,1.7990000000000002,-0.621,0.025,0.706,0.362,-0.3429999999999999,-0.049,-0.3389999999999999,0.22,10
0,7,1,-4.544,1.672,0.643,1.281,0.504,-0.8029999999999999,-0.7090000000000001,-0.2289999999999999,-0.546,1.058,1
0,7,1,-3.622,0.988,-1.108,0.685,-0.693,0.754,0.442,0.166,-0.4579999999999999,0.738,3
0,7,1,-4.122,1.735,-1.34,0.615,0.03,0.353,0.345,-0.104,-0.54,0.988,5
0,7,1,-4.065,2.8760000000000003,-0.856,-0.221,-0.5329999999999999,0.2319999999999999,0.855,0.633,-1.452,0.272,6
0,7,1,-4.513,4.265,-1.477,-1.09,0.215,0.8290000000000001,0.342,0.693,-0.601,-0.0559999999999999,7
0,7,1,-5.034,4.993,-1.633,-0.285,0.3979999999999999,0.181,-0.211,-0.508,-0.283,0.304,9
1,8,0,-1.768,1.769,-1.142,-0.7390000000000001,-0.086,0.12,-0.23,0.217,-0.009,-0.2789999999999999,3
1,8,0,-2.509,1.3259999999999998,0.354,0.6629999999999999,-0.7240000000000001,0.418,-0.496,0.713,0.638,-0.204,5
1,8,0,-3.839,1.248,0.83,0.982,-1.11,0.617,-0.7509999999999999,0.084,0.309,1.125,8
1,8,0,-2.633,0.672,-0.372,0.439,0.437,0.907,-0.402,-0.04,-0.366,-0.741,2
1,8,0,-1.707,1.652,-1.012,-0.622,-0.293,0.2789999999999999,-0.276,0.477,0.05,-0.2,3
1,8,0,-2.696,3.129,-0.52,0.294,-0.989,0.019,-0.066,1.106,0.361,-0.396,4
1,8,0,-2.733,1.088,0.7609999999999999,1.694,-0.833,0.292,-1.069,0.266,0.369,1.034,6
1,8,0,-3.835,3.339,0.29,-0.126,-1.68,0.195,-0.368,1.328,0.523,0.861,7
1,8,0,-4.848,1.115,0.932,1.615,-0.589,0.5920000000000001,-0.446,-0.366,-0.447,1.294,9
1,8,0,-1.784,-1.074,-1.661,1.324,0.289,1.3030000000000002,0.924,1.307,-0.346,-0.521,0
1,8,0,-1.89,0.207,-1.161,0.027,-0.047,1.581,0.2769999999999999,1.129,0.366,-0.25,1
1,8,0,-2.677,0.486,-0.061,0.517,0.222,1.102,-0.425,-0.096,-0.373,-0.484,2
1,8,0,-2.632,0.8809999999999999,0.71,1.8,-0.75,0.33,-1.128,0.177,0.3389999999999999,1.166,6
1,8,0,-3.888,3.085,0.436,0.142,-1.526,-0.052,-0.503,1.085,0.511,0.976,7
1,8,0,-3.824,1.832,1.093,1.024,-1.09,0.56,-0.336,0.299,0.126,1.005,8
1,8,0,-4.813,1.042,0.887,1.661,-0.534,0.747,-0.513,-0.4479999999999999,-0.412,1.214,9
1,8,0,-2.971,0.4629999999999999,-0.195,0.3229999999999999,-0.625,0.941,-0.327,0.78,0.552,0.436,10
1,8,0,-2.698,-1.027,-0.94,1.796,0.392,1.33,0.866,0.7809999999999999,-0.838,-0.6629999999999999,0
1,8,0,-1.358,0.136,-1.082,-0.148,-0.609,1.464,0.144,1.149,0.481,0.119,1
1,8,0,-2.594,0.621,-0.292,0.521,0.26,1.204,-0.337,0.261,-0.332,-0.51,2
1,8,0,-2.92,2.697,-0.1159999999999999,0.451,-0.8590000000000001,-0.035,-0.307,0.8740000000000001,0.622,-0.301,4
1,8,0,-2.696,1.26,0.436,0.657,-1.161,0.805,0.062,0.575,0.182,-0.3339999999999999,5
1,8,0,-3.989,3.049,0.304,0.209,-1.26,-0.205,-0.735,0.862,0.551,1.114,7
1,8,0,-3.776,1.7519999999999998,0.92,0.722,-1.164,0.774,-0.01,0.657,0.248,1.055,8
1,8,0,-3.108,0.926,-0.389,0.249,-0.461,0.816,-0.226,0.818,0.387,0.303,10
1,8,0,-1.969,0.835,-0.6709999999999999,-0.27,0.0279999999999999,0.4,-0.444,0.53,0.061,-0.3429999999999999,3
1,8,0,-4.683,0.773,0.888,2.302,-0.562,0.395,-0.401,-0.289,-0.8390000000000001,1.165,9
1,8,0,-3.375,1.779,-0.8220000000000001,0.382,-0.019,0.845,0.123,0.767,0.223,-0.337,10
1,8,0,-3.312,-0.7759999999999999,-0.504,1.39,0.86,1.257,0.222,0.314,-0.715,-0.765,0
1,8,0,-2.073,0.088,-0.73,0.296,-0.286,1.75,0.154,1.078,0.294,-0.174,1
1,8,0,-2.295,0.883,-0.619,-0.0409999999999999,0.143,0.3779999999999999,-0.602,0.335,-0.114,-0.391,3
1,8,0,-2.968,2.149,0.13,0.6759999999999999,-0.79,0.1119999999999999,-0.507,0.762,0.625,-0.272,4
1,8,0,-3.947,2.102,0.305,0.462,-0.765,1.037,-0.618,0.741,0.345,0.2689999999999999,8
1,8,0,-4.756,0.965,0.959,2.287,-0.527,0.4539999999999999,-0.41,-0.362,-0.862,1.088,9
1,9,0,-3.137,0.077,-1.157,1.589,0.204,1.898,0.17,0.6759999999999999,-1.033,-0.635,0
1,9,0,-2.55,2.391,-1.137,0.09,-0.948,0.217,0.051,0.723,-0.5579999999999999,-0.204,5
1,9,0,-4.047,3.899,-0.423,0.147,-1.273,0.203,0.317,0.531,0.584,-0.11,7
1,9,0,-3.339,1.004,-0.747,1.505,-0.068,1.007,-0.017,0.377,-0.775,-0.899,1
1,9,0,-1.951,1.6840000000000002,-1.039,0.586,-1.166,0.345,0.33,-0.108,-0.198,-0.609,3
1,9,0,-2.5380000000000003,2.351,-1.029,0.146,-0.922,0.201,-0.0579999999999999,0.835,-0.7120000000000001,-0.074,5
1,9,0,-4.033,4.071000000000001,-0.586,0.127,-1.4469999999999998,0.62,0.1969999999999999,0.711,0.48,-0.306,7
1,9,0,-4.13,3.105,-1.141,0.183,-0.498,1.324,-0.3989999999999999,0.675,-0.3389999999999999,-0.6940000000000001,8
1,9,0,-2.9730000000000003,0.036,-1.273,1.519,0.195,1.98,0.131,0.8320000000000001,-1.157,-0.547,0
1,9,0,-1.928,1.578,-0.997,0.672,-1.287,0.381,0.249,0.006,-0.1669999999999999,-0.637,3
1,9,0,-4.049,4.039,-0.5579999999999999,0.064,-1.676,1.024,0.047,1.024,-0.091,-0.283,7
1,9,0,-4.753,3.4210000000000003,-0.1889999999999999,0.6559999999999999,-0.984,1.443,-0.652,0.546,0.123,-0.326,9
1,9,0,-3.725,1.904,-0.737,0.433,-0.369,1.047,0.12,0.425,-0.6779999999999999,-0.391,10
1,9,0,-1.925,1.517,-0.999,0.634,-1.27,0.207,0.385,0.004,-0.141,-0.624,3
1,9,0,-2.5610000000000004,2.191,-0.955,0.214,-0.841,0.386,-0.083,0.74,-0.612,-0.196,5
1,9,0,-4.064,4.106,-0.545,0.03,-1.645,0.904,0.103,0.907,0.05,-0.322,7
1,9,0,-4.138999999999999,3.363,-1.464,0.4589999999999999,-0.066,1.045,-0.146,0.172,-0.124,-0.8640000000000001,8
1,9,0,-4.782,3.325,-0.071,0.6629999999999999,-0.913,1.012,-0.033,-0.103,0.483,-0.2019999999999999,9
1,9,0,-3.731,1.927,-0.705,0.4529999999999999,-0.372,1.149,0.046,0.3229999999999999,-0.627,-0.331,10
1,9,0,-1.926,0.6890000000000001,-1.433,0.716,-0.588,0.2689999999999999,-0.044,0.716,-0.245,-0.285,2
1,9,0,-1.948,1.536,-1.012,0.537,-1.229,0.183,0.46,-0.002,-0.178,-0.5760000000000001,3
1,9,0,-2.8,2.609,-1.726,0.036,-0.941,1.039,0.191,0.044,-0.165,-0.2339999999999999,4
1,9,0,-2.6910000000000003,2.111,-1.067,0.174,-0.649,0.431,-0.017,0.655,-0.498,-0.292,5
1,9,0,-4.174,3.54,-1.43,0.417,0.267,0.918,-0.118,-0.267,-0.162,-0.71,8
1,9,0,-1.998,1.497,-1.005,0.519,-1.236,0.3979999999999999,0.273,0.151,-0.319,-0.49,3
1,9,0,-3.239,2.9160000000000004,-1.406,-0.455,-0.4539999999999999,1.219,0.078,0.3829999999999999,-0.7759999999999999,-0.413,6
1,9,0,-4.069,4.205,-0.614,-0.06,-1.462,0.476,0.381,0.589,0.405,-0.259,7
1,9,0,-4.235,3.775,-1.5930000000000002,0.8140000000000001,0.288,0.805,-0.5660000000000001,-0.247,-0.409,-0.556,8
1,10,0,-2.434,2.903,-1.341,-0.411,0.372,0.843,-0.022,0.336,0.123,-0.747,5
1,10,0,-3.034,0.6940000000000001,-1.007,1.453,0.155,1.48,0.179,1.005,-0.54,-0.563,1
1,10,0,-2.395,1.929,-1.496,0.372,0.065,0.009,0.149,0.813,-0.484,-0.672,3
1,10,0,-2.464,2.755,-0.975,-0.6509999999999999,0.158,1.047,-0.145,0.203,0.246,-0.745,5
1,10,0,-3.045,3.312,0.171,-0.605,-1.027,0.924,0.353,0.897,0.365,-0.871,6
1,10,0,-3.989,3.582,-1.1,0.374,-0.12,0.291,0.6629999999999999,0.96,0.023,-0.477,8
1,10,0,-3.894,0.1169999999999999,-0.407,1.973,0.043,1.891,0.411,-0.095,-0.436,-1.015,0
1,10,0,-2.615,1.185,-1.162,0.395,0.4589999999999999,0.345,0.298,0.456,-0.62,-0.307,2
1,10,0,-2.303,1.954,-1.493,0.305,0.047,0.0559999999999999,0.026,0.902,-0.522,-0.645,3
1,10,0,-2.79,2.665,0.036,-0.44,-0.604,0.8109999999999999,0.098,0.723,0.134,-0.91,4
1,10,0,-3.024,3.26,0.35,-0.5770000000000001,-1.183,0.872,0.556,0.762,0.395,-0.665,6
1,10,0,-3.96,3.373,-1.235,0.152,0.031,0.664,0.5579999999999999,0.841,-0.133,-0.317,8
1,10,0,-3.789,1.42,-0.372,0.568,0.123,0.185,0.078,1.006,-0.722,-0.391,10
1,10,0,-3.676,-0.185,-0.563,2.377,0.096,1.854,0.303,0.296,-0.358,-1.205,0
1,10,0,-2.444,2.529,-0.487,-0.8140000000000001,-0.151,1.285,0.077,-0.064,0.287,-0.638,5
1,10,0,-2.969,3.128,0.504,-0.487,-1.371,0.7040000000000001,0.66,0.6759999999999999,0.469,-0.525,6
1,10,0,-3.689,1.367,-0.389,0.376,0.136,0.3429999999999999,0.156,1.01,-0.611,-0.551,10
1,10,0,-3.644,-0.215,-0.579,2.307,0.046,1.945,0.28,0.272,-0.539,-1.226,0
1,10,0,-3.034,0.452,-0.946,0.931,0.128,1.514,0.142,0.932,-0.104,-0.974,1
1,10,0,-2.505,2.358,-0.184,-0.792,-0.316,1.3630000000000002,0.302,-0.121,0.214,-0.622,5
1,10,0,-2.7030000000000003,2.066,0.205,-0.63,-0.345,1.229,0.4029999999999999,-0.032,0.247,-0.696,5
1,10,0,-3.015,2.219,0.996,-0.455,-1.514,0.047,0.8640000000000001,0.4679999999999999,0.657,-0.3429999999999999,6
1,10,0,-3.664,1.119,-0.4589999999999999,0.482,0.0819999999999999,0.221,0.185,0.861,-0.237,-0.413,10
1,11,0,-2.463,-0.1969999999999999,-1.264,1.15,0.2339999999999999,1.833,0.066,0.738,-1.382,-0.498,0
1,11,0,-2.9130000000000003,0.757,-0.8190000000000001,1.245,0.419,1.17,0.051,0.3279999999999999,-0.96,-0.614,1
1,11,0,-2.012,1.134,-1.029,0.205,0.6609999999999999,0.359,0.456,0.372,-0.939,-0.613,2
1,11,0,-2.565,1.871,-0.2689999999999999,0.187,-0.6559999999999999,0.267,-0.3279999999999999,0.184,0.348,-0.511,4
1,11,0,-3.008,2.882,-0.9,0.214,-0.565,-0.1969999999999999,0.449,0.305,0.413,-0.3,6
1,11,0,-4.022,0.941,-0.623,1.461,0.02,1.904,-0.074,0.4639999999999999,-0.541,-0.211,9
1,11,0,-2.207,1.09,-0.627,0.024,0.912,0.662,0.241,0.348,-0.7020000000000001,-0.912,2
1,11,0,-2.131,1.487,-0.302,-0.272,0.012,0.067,0.149,0.022,-0.133,-0.322,3
1,11,0,-2.596,1.867,-0.208,0.208,-0.574,0.146,-0.214,0.1159999999999999,0.395,-0.541,4
1,11,0,-2.378,1.568,-0.243,0.407,-0.428,0.2289999999999999,-0.293,0.297,0.372,-0.512,5
1,11,0,-3.117,2.8760000000000003,-0.746,-0.047,-0.427,-0.053,0.4529999999999999,0.305,0.541,-0.489,6
1,11,0,-3.911,3.703,-1.965,0.132,-0.209,0.929,0.8109999999999999,0.495,-0.142,-0.519,7
1,11,0,-4.135,3.651,-0.7509999999999999,-0.066,-0.789,1.131,0.496,0.7879999999999999,-0.883,-0.351,8
1,11,0,-2.458,1.586,-0.359,0.376,-0.244,0.134,-0.163,0.298,0.444,-0.711,5
1,11,0,-3.242,2.901,-0.632,-0.332,-0.421,0.226,0.536,0.142,0.623,-0.616,6
1,11,0,-3.977,3.684,-1.242,-0.364,-0.217,0.594,0.759,0.6,0.069,-0.25,7
1,11,0,-4.093999999999999,3.5860000000000003,-0.845,-0.026,-0.5379999999999999,0.964,0.6659999999999999,0.647,-0.412,-0.477,8
1,11,0,-4.138,1.128,-0.601,1.5530000000000002,-0.019,2.039,-0.176,0.262,-0.551,-0.362,9
1,11,0,-3.242,1.802,-0.482,0.6990000000000001,0.424,0.337,0.115,0.272,-0.205,-1.074,10
1,11,0,-2.4530000000000003,-0.32,-1.368,1.04,0.174,1.985,0.158,0.59,-1.318,-0.5870000000000001,0
1,11,0,-2.957,0.596,-0.7559999999999999,0.89,0.58,0.836,0.5429999999999999,0.036,-0.2319999999999999,-0.579,1
1,11,0,-2.7230000000000003,1.975,-0.636,0.336,-0.677,0.156,-0.342,0.479,0.381,-0.7290000000000001,4
1,11,0,-3.3110000000000004,2.946,-0.8079999999999999,-0.3,-0.457,0.324,0.515,0.149,0.5329999999999999,-0.718,6
1,11,0,-4.052,3.747,-1.24,-0.299,-0.426,0.917,0.517,0.716,-0.21,-0.125,7
1,11,0,-4.039,3.506,-0.964,0.0409999999999999,-0.4,0.976,0.65,0.659,-0.216,-0.327,8
1,11,0,-4.319,1.338,-0.5489999999999999,1.6780000000000002,0.027,1.922,-0.228,0.161,-0.47,-0.442,9
1,11,0,-3.329,1.788,-0.517,0.597,0.503,0.278,0.121,0.176,-0.159,-0.98,10
1,11,0,-2.46,-0.325,-1.404,0.928,0.122,2.049,0.2739999999999999,0.532,-1.113,-0.769,0
1,11,0,-2.904,0.4579999999999999,-0.6559999999999999,0.8320000000000001,0.61,0.805,0.568,0.0409999999999999,-0.114,-0.615,1
1,11,0,-2.318,1.097,-0.8320000000000001,0.26,0.821,0.588,0.402,0.327,-0.852,-0.773,2
1,11,0,-4.048,3.753,-1.15,-0.209,-0.53,0.871,0.445,0.716,-0.131,0.139,7
1,11,0,-4.457,1.5119999999999998,-0.514,1.764,0.063,1.86,-0.332,0.1889999999999999,-0.521,-0.415,9
1,11,0,-3.407,1.821,-0.675,0.765,0.256,0.469,-0.09,0.322,-0.387,-0.968,10
1,11,0,-2.385,1.01,-0.754,0.37,0.785,0.471,0.415,0.318,-0.797,-0.679,2
1,11,0,-2.855,1.587,-0.03,0.2019999999999999,0.165,0.445,0.207,-0.067,-0.013,-0.7120000000000001,5
1,11,0,-3.339,3.011,-1.264,-0.3429999999999999,-0.119,0.498,0.589,0.078,0.221,-0.8220000000000001,6
1,11,0,-4.039,3.689,-1.007,-0.139,-0.542,0.5870000000000001,0.535,0.465,0.1939999999999999,0.168,7
1,11,0,-4.172,3.07,-0.7809999999999999,0.516,-0.627,1.006,0.531,0.441,-0.102,-0.456,8
1,11,0,-3.285,1.547,-0.897,0.917,0.127,0.402,-0.011,0.502,-0.557,-0.715,10
1,12,1,-2.814,1.515,-0.088,0.597,-0.033,-0.29,-0.445,0.113,-0.136,0.662,2
1,12,1,-2.263,3.344,-1.165,-0.625,-0.159,0.926,0.13,-0.33,-0.7829999999999999,0.31,4
1,12,1,-2.594,2.584,-0.37,-0.524,-0.177,0.515,-0.1369999999999999,0.095,-0.731,0.072,5
1,12,1,-2.702,3.596,-0.57,-1.041,-0.7090000000000001,1.009,0.4029999999999999,0.426,-1.013,-0.009,6
1,12,1,-4.471,3.192,-0.161,0.1169999999999999,-0.327,0.406,-0.201,0.919,-0.716,-0.933,9
1,12,1,-3.705,-0.204,0.2739999999999999,1.569,0.883,1.366,-0.94,-0.691,-0.162,0.598,0
1,12,1,-2.64,1.3219999999999998,-0.111,0.861,0.026,-0.354,-0.425,0.083,-0.235,0.7809999999999999,2
1,12,1,-1.948,2.143,-0.068,-0.211,-0.238,0.263,-0.27,-0.238,-0.342,0.147,3
1,12,1,-3.3560000000000003,3.236,-0.653,-0.9,-0.6609999999999999,1.43,0.901,0.395,-0.139,-0.726,7
1,12,1,-3.909,3.674,-0.648,0.088,-0.365,0.1989999999999999,0.424,0.336,-0.012,-0.252,8
1,12,1,-3.067,2.549,-0.851,0.505,0.044,0.574,-0.377,0.147,-0.606,0.1889999999999999,10
1,12,1,-2.676,1.411,-0.098,1.047,-0.04,-0.131,-0.56,-0.03,-0.192,0.705,2
1,12,1,-2.305,3.625,-1.203,-0.665,-0.296,0.775,0.1969999999999999,-0.282,-0.8420000000000001,0.188,4
1,12,1,-3.189,2.62,-0.833,0.45,0.009,0.444,-0.348,0.126,-0.614,0.081,10
1,12,1,-3.49,-0.474,0.187,1.747,0.733,1.307,-0.816,-0.787,-0.222,0.41,0
1,12,1,-2.762,1.51,-0.145,1.157,-0.256,0.0409999999999999,-0.647,-0.324,-0.128,0.8059999999999999,2
1,12,1,-2.364,3.743,-1.393,-0.361,-0.354,1.004,0.208,-0.376,-1.046,0.722,4
1,12,1,-4.299,2.775,0.244,0.177,-0.436,0.261,-0.308,1.175,-0.2269999999999999,-1.115,9
1,12,1,-3.379,0.95,-0.06,1.47,0.5379999999999999,0.051,-0.6809999999999999,-0.098,-0.405,0.912,1
1,12,1,-2.8360000000000003,1.561,-0.076,1.229,-0.291,-0.036,-0.369,-0.3929999999999999,-0.181,0.85,2
1,12,1,-2.021,2.4930000000000003,-0.416,-0.1159999999999999,0.094,-0.033,-0.4,-0.08,-0.136,0.069,3
1,12,1,-2.883,3.576,-1.198,-0.562,-0.162,0.974,0.764,-0.03,-1.023,0.346,6
1,12,1,-3.972,3.24,-0.8290000000000001,0.069,-0.617,0.977,0.532,0.498,-0.191,-0.91,8
1,12,1,-4.513,3.08,0.068,0.05,-0.484,0.341,-0.257,1.3019999999999998,-0.517,-1.057,9
1,12,1,-3.292,2.595,-0.578,0.42,-0.233,0.391,-0.241,0.437,-0.541,-0.021,10
1,12,1,-2.8510000000000004,1.412,-0.184,1.281,0.0,-0.146,-0.172,-0.419,-0.307,0.8740000000000001,2
1,12,1,-2.46,3.706,-1.304,-0.3389999999999999,-0.487,1.125,0.187,-0.211,-1.068,0.944,4
1,12,1,-2.818,3.685,-1.413,-0.5579999999999999,0.025,0.871,0.688,-0.144,-0.93,0.282,6
1,12,1,-3.3960000000000004,3.867,-1.029,-0.603,-0.573,0.78,1.209,0.228,-0.6729999999999999,-0.562,7
1,12,1,-3.905,3.147,-1.259,0.304,-0.216,1.055,0.578,0.353,-0.517,-0.871,8
1,12,1,-3.35,2.713,-0.472,0.4,-0.196,0.248,-0.2239999999999999,0.53,-0.358,-0.091,10
1,13,1,-4.057,1.925,0.521,1.331,0.273,-0.1669999999999999,-0.365,-0.665,-0.512,0.716,1
1,13,1,-2.931,1.85,-0.8959999999999999,0.685,-1.0,0.504,0.212,-0.276,-0.203,0.595,3
1,13,1,-2.942,2.642,-1.217,0.384,-0.994,1.467,0.134,-0.4579999999999999,-0.465,0.6459999999999999,4
1,13,1,-4.689,1.015,1.3119999999999998,1.802,0.313,-0.405,-0.6629999999999999,0.106,-0.325,0.838,0
1,13,1,-2.972,1.151,-0.293,1.609,-0.7240000000000001,0.123,-0.087,-0.8009999999999999,0.04,1.07,2
1,13,1,-3.029,1.747,-0.899,0.674,-1.046,0.5579999999999999,0.204,-0.155,-0.237,0.655,3
1,13,1,-2.926,2.673,-1.242,0.396,-1.029,1.548,0.05,-0.5920000000000001,-0.331,0.595,4
1,13,1,-4.083,2.193,-0.492,0.695,0.251,0.423,-0.5579999999999999,-0.123,-0.53,0.376,8
1,13,1,-4.045,2.377,-0.3,2.002,0.826,-0.18,-0.768,-0.408,-0.787,0.156,9
1,13,1,-3.455,2.5610000000000004,-0.421,0.847,0.33,0.057,-0.177,-0.494,-0.7859999999999999,0.951,10
1,13,1,-4.756,1.197,1.431,1.54,0.262,-0.2769999999999999,-0.741,0.075,-0.26,0.8759999999999999,0
1,13,1,-3.999,2.138,0.295,1.086,0.6990000000000001,-0.127,-0.634,-0.4,-0.505,0.856,1
1,13,1,-2.964,1.154,-0.373,1.511,-0.583,0.152,-0.012,-0.949,-0.054,1.16,2
1,13,1,-3.053,1.518,-0.7290000000000001,0.828,-1.211,0.499,0.326,-0.136,-0.263,0.75,3
1,13,1,-3.2060000000000004,1.899,-0.933,0.733,0.261,0.565,-0.225,-0.3389999999999999,-0.677,0.765,5
1,13,1,-3.492,3.446,-1.734,0.705,-0.23,1.339,0.092,-0.698,-1.143,-0.05,6
1,13,1,-4.763,1.305,1.231,1.548,0.308,-0.152,-0.792,-0.124,-0.107,0.885,0
1,13,1,-3.99,2.008,0.503,0.845,0.774,-0.114,-0.6409999999999999,-0.282,-0.7340000000000001,0.877,1
1,13,1,-2.965,1.124,-0.349,1.581,-0.6659999999999999,0.125,-0.025,-0.887,-0.13,1.11,2
1,13,1,-3.055,1.4,-0.6859999999999999,0.964,-1.29,0.545,0.337,-0.299,-0.173,0.69,3
1,13,1,-2.964,2.8110000000000004,-1.317,0.324,-0.7809999999999999,1.369,0.127,-0.368,-0.677,0.493,4
1,13,1,-3.554,3.386,-1.703,0.555,-0.072,1.073,0.237,-0.625,-1.067,-0.176,6
1,13,1,-3.852,4.214,-1.556,-0.336,-0.305,1.133,-0.152,0.237,-0.915,-0.445,7
1,13,1,-3.963,2.272,-0.534,0.977,0.3289999999999999,0.514,-0.363,-0.425,-0.7120000000000001,0.41,8
1,13,1,-3.985,2.192,-0.426,2.1630000000000003,1.114,0.016,-0.846,-0.4679999999999999,-0.858,0.037,9
1,13,1,-3.966,2.003,0.391,1.034,0.659,-0.191,-0.4479999999999999,-0.397,-0.769,0.969,1
1,13,1,-3.194,1.589,-0.774,0.8140000000000001,-1.087,0.618,0.218,-0.45,-0.003,0.526,3
1,13,1,-3.4560000000000004,2.027,-0.862,0.887,0.281,0.435,-0.307,-0.387,-0.6,0.725,5
1,13,1,-3.52,3.318,-1.867,0.691,0.263,0.8220000000000001,0.14,-0.62,-1.098,0.083,6
1,13,1,-3.838,4.252,-1.621,-0.2189999999999999,-0.281,0.856,0.154,0.133,-0.92,-0.4539999999999999,7
1,13,1,-3.591,2.78,-0.301,0.812,-0.008,-0.019,-0.268,-0.564,-0.7879999999999999,0.948,10
1,13,1,-3.917,1.925,0.267,1.361,0.4529999999999999,-0.19,-0.242,-0.633,-0.62,1.039,1
1,13,1,-3.567,2.081,-0.579,0.845,0.126,0.381,-0.179,-0.51,-0.846,0.987,5
1,13,1,-3.57,3.41,-1.5759999999999998,0.563,0.002,0.759,0.285,-0.466,-1.409,0.586,6
1,14,1,-4.047,0.913,0.7340000000000001,1.479,0.258,0.206,-1.117,-0.423,-0.336,0.982,0
1,14,1,-2.8710000000000004,3.13,-1.3,0.008,-0.288,0.483,0.258,-0.342,-0.614,0.83,5
1,14,1,-3.977,2.9760000000000004,0.309,-0.259,0.026,0.816,-0.317,0.492,-0.674,-0.659,8
1,14,1,-3.451,2.257,-0.845,0.432,0.486,0.266,-0.215,0.006,-1.082,0.759,10
1,14,1,-3.836,0.508,0.645,1.721,0.28,0.303,-0.911,-0.5920000000000001,-0.631,1.023,0
1,14,1,-3.709,1.665,0.138,1.551,0.975,0.923,-0.396,-0.2339999999999999,-1.154,0.736,1
1,14,1,-3.369,1.784,-0.603,1.3030000000000002,0.0069999999999999,-0.044,-0.4589999999999999,-0.012,-0.591,1.047,2
1,14,1,-2.902,2.988,-1.152,0.057,-0.477,0.622,0.3379999999999999,-0.368,-0.6890000000000001,0.7929999999999999,5
1,14,1,-3.924,2.7260000000000004,0.414,-0.155,-0.02,0.893,-0.188,0.552,-0.507,-0.617,8
1,14,1,-4.049,2.2230000000000003,-0.076,0.928,0.6920000000000001,0.731,-0.931,-0.141,-1.087,-0.584,9
1,14,1,-3.661,0.3,0.53,1.816,0.3329999999999999,0.444,-0.858,-0.732,-0.809,0.995,0
1,14,1,-3.674,1.513,0.038,1.604,0.907,1.045,-0.166,-0.295,-1.13,0.594,1
1,14,1,-3.242,1.615,-0.8290000000000001,1.589,0.09,0.051,-0.504,-0.211,-0.513,1.005,2
1,14,1,-2.634,2.076,-1.32,0.833,-0.547,0.287,-0.173,-0.203,-0.001,0.802,3
1,14,1,-3.052,3.059,-1.668,-0.208,0.466,0.7240000000000001,-0.237,-0.175,-0.315,0.411,4
1,14,1,-3.048,2.817,-0.703,-0.396,-0.639,0.92,0.674,0.6859999999999999,-0.611,-0.053,6
1,14,1,-3.3960000000000004,2.257,-0.602,0.407,0.204,0.366,0.067,0.044,-1.352,0.871,10
1,14,1,-3.572,0.228,0.52,1.791,0.382,0.573,-0.961,-0.74,-0.936,1.007,0
1,14,1,-3.584,1.252,-0.062,1.646,0.787,1.134,0.096,-0.292,-1.133,0.472,1
1,14,1,-3.232,1.551,-0.8320000000000001,1.6740000000000002,-0.042,0.296,-0.5529999999999999,-0.4429999999999999,-0.413,0.96,2
1,14,1,-3.05,3.055,-1.598,-0.12,0.144,0.757,0.119,-0.397,-0.396,0.477,4
1,14,1,-2.938,2.782,-1.111,-0.076,0.0,0.5820000000000001,0.252,-0.4,-0.773,0.838,5
1,14,1,-3.706,3.627,-0.889,-0.789,-0.093,1.223,0.8140000000000001,0.563,0.062,-0.449,7
1,14,1,-3.946,2.545,0.447,-0.001,0.043,0.7879999999999999,-0.102,0.68,-0.637,-0.545,8
1,14,1,-3.4610000000000003,0.04,0.5529999999999999,1.854,0.386,0.568,-1.003,-0.638,-1.04,1.051,0
1,14,1,-3.5460000000000003,1.064,-0.006,1.455,0.847,1.117,0.073,-0.025,-1.318,0.557,1
1,14,1,-3.32,1.5530000000000002,-0.586,1.6880000000000002,-0.262,0.392,-0.478,-0.461,-0.522,0.929,2
1,14,1,-2.71,1.943,-1.247,0.772,-0.345,0.107,-0.062,0.04,-0.322,1.018,3
1,14,1,-3.018,3.014,-1.486,-0.105,-0.131,0.929,0.226,-0.4629999999999999,-0.555,0.598,4
1,14,1,-2.904,2.741,-1.123,0.0139999999999999,0.071,0.654,0.212,-0.4539999999999999,-0.815,0.752,5
1,14,1,-3.176,2.997,-1.098,-0.371,-0.418,1.318,0.48,0.472,-0.8140000000000001,0.106,6
1,14,1,-3.952,2.489,0.287,0.012,0.141,0.892,-0.087,0.613,-0.685,-0.623,8
1,14,1,-4.211,2.8110000000000004,0.016,0.799,0.514,0.496,-1.219,-0.238,-0.7979999999999999,-0.392,9
1,14,1,-3.5,0.068,0.5329999999999999,1.876,0.363,0.542,-0.982,-0.6709999999999999,-1.006,1.101,0
1,14,1,-2.795,1.957,-1.259,0.79,-0.2739999999999999,0.078,-0.114,0.005,-0.309,1.142,3
1,14,1,-3.002,2.944,-1.379,-0.188,-0.131,0.957,0.346,-0.392,-0.711,0.617,4
1,14,1,-2.924,2.7310000000000003,-1.138,0.066,0.1,0.6829999999999999,0.162,-0.3989999999999999,-0.882,0.8270000000000001,5
1,14,1,-3.239,3.083,-1.4269999999999998,-0.2019999999999999,-0.282,1.421,0.5760000000000001,0.068,-0.914,0.147,6
1,14,1,-3.753,3.605,-0.899,-0.747,-0.401,1.765,0.62,0.754,-0.835,-0.301,7
1,14,1,-3.2910000000000004,2.324,-0.679,0.285,0.441,0.557,-0.2269999999999999,0.115,-1.046,0.6970000000000001,10
