TT,SpeakerNumber,Sex,F0,F1,F2,F3,F4,F5,F6,F7,F8,F9,TARGET
0,0,0,-3.639,0.418,-0.67,1.779,-0.168,1.6269999999999998,-0.3879999999999999,0.529,-0.8740000000000001,-0.8140000000000001,0
0,0,0,-3.327,0.496,-0.6940000000000001,1.365,-0.265,1.933,-0.363,0.51,-0.621,-0.488,1
0,0,0,-2.287,1.809,-1.4980000000000002,1.012,-1.053,1.06,-0.5670000000000001,0.235,-0.091,-0.795,3
0,0,0,-2.5980000000000003,1.938,-0.846,1.062,-1.633,0.764,0.3939999999999999,-0.15,0.2769999999999999,-0.396,4
0,0,0,-2.852,1.914,-0.755,0.825,-1.588,0.855,0.217,-0.246,0.238,-0.365,5
0,0,0,-3.86,2.116,-0.939,0.688,-0.675,1.679,-0.512,0.928,-0.1669999999999999,-0.434,8
0,0,0,-3.648,1.812,-1.378,1.578,0.065,1.577,-0.466,0.7020000000000001,0.06,-0.836,9
0,0,0,-3.032,1.739,-1.141,0.737,-0.8340000000000001,1.386,-0.575,0.679,-0.018,-0.823,10
0,0,0,-3.237,0.436,-0.86,1.3630000000000002,-0.251,1.915,-0.395,0.7509999999999999,-0.774,-0.327,1
0,0,0,-2.3040000000000003,1.784,-1.506,0.981,-0.961,0.8059999999999999,-0.294,-0.002,0.119,-0.76,3
0,0,0,-3.673,1.811,-1.405,1.621,0.044,1.5719999999999998,-0.4529999999999999,0.745,-0.066,-0.733,9
0,0,0,-3.665,0.337,-0.6409999999999999,1.791,-0.1939999999999999,1.686,-0.359,0.57,-0.6759999999999999,-0.841,0
0,0,0,-3.165,0.408,-0.971,1.207,-0.298,1.921,-0.215,0.723,-0.492,-0.425,1
0,0,0,-2.312,1.746,-1.51,1.019,-0.99,0.941,-0.488,0.208,0.033,-0.847,3
0,0,0,-2.635,2.147,-1.129,0.911,-1.4069999999999998,1.095,-0.071,0.118,0.139,-0.685,4
0,0,0,-2.887,2.131,-0.83,0.682,-1.557,0.818,0.4479999999999999,-0.382,0.207,-0.402,5
0,0,0,-3.635,2.25,-0.3939999999999999,1.012,-1.693,0.1169999999999999,0.665,0.281,0.3429999999999999,-0.003,6
0,0,0,-3.712,1.816,-1.171,0.647,-0.767,1.6980000000000002,-0.347,0.92,0.159,-0.359,8
0,0,0,-3.74,1.832,-1.384,1.587,0.049,1.642,-0.516,0.7070000000000001,-0.1689999999999999,-0.522,9
0,0,0,-3.062,0.351,-1.071,1.061,-0.355,1.99,-0.21,0.7959999999999999,-0.358,-0.299,1
0,0,0,-2.081,1.05,-1.778,0.411,-0.518,1.46,-0.5760000000000001,0.735,-0.866,-0.172,2
0,0,0,-3.687,1.784,-1.5930000000000002,1.6030000000000002,0.123,1.4240000000000002,-0.225,0.441,0.206,-0.7140000000000001,9
0,0,0,-3.0460000000000003,0.387,-1.165,0.94,-0.386,1.978,-0.186,0.8109999999999999,-0.3939999999999999,-0.198,1
0,0,0,-3.459,2.086,-0.595,0.937,-1.841,0.6,0.457,0.4,0.473,-0.211,6
0,0,0,-3.604,0.235,-0.836,1.786,-0.153,1.642,-0.096,0.488,-0.524,-1.003,0
0,0,0,-2.3680000000000003,1.727,-1.556,1.162,-0.8190000000000001,0.941,-0.5720000000000001,0.345,-0.2789999999999999,-0.736,3
0,0,0,-3.141,1.873,-1.131,0.941,-0.759,1.224,-0.354,0.016,-0.218,-0.568,4
0,0,0,-3.4730000000000003,2.178,-0.82,0.706,-1.71,0.779,0.422,0.351,0.426,-0.267,6
0,0,0,-4.238,2.437,0.036,1.158,-2.127,0.5539999999999999,0.12,0.823,0.565,-0.293,7
0,0,0,-3.5460000000000003,1.258,-1.227,0.823,-0.7020000000000001,1.734,-0.397,1.3330000000000002,-0.2769999999999999,0.013,8
0,1,0,-1.372,-0.03,-1.003,-0.3879999999999999,-0.471,1.141,0.654,0.823,0.5579999999999999,0.043,1
0,1,0,-1.816,0.4579999999999999,-0.947,-0.341,0.085,0.75,0.144,0.462,-0.24,-0.266,2
0,1,0,-1.954,1.595,-1.5930000000000002,0.37,-0.136,0.022,0.034,0.321,-0.19,-0.491,3
0,1,0,-2.654,2.39,-0.008,0.07,-1.063,0.304,-0.105,0.281,0.488,-0.382,4
0,1,0,-2.321,1.3030000000000002,0.32,-0.085,-0.278,0.001,-0.094,-0.283,0.852,0.022,5
0,1,0,-3.141,3.314,-0.996,-0.3939999999999999,-0.19,-0.312,0.1369999999999999,0.631,0.547,-0.247,6
0,1,0,-3.941,3.353,0.486,-0.506,-1.12,0.1009999999999999,0.297,0.711,-0.078,0.648,7
0,1,0,-4.1610000000000005,2.937,0.157,0.336,-0.968,0.6409999999999999,0.088,0.237,0.565,0.823,8
0,1,0,-1.952,1.469,-1.375,0.105,-0.154,0.17,-0.047,0.336,-0.098,-0.41,3
0,1,0,-2.441,1.415,0.386,-0.335,-0.187,-0.079,-0.0,-0.175,0.792,-0.026,5
0,1,0,-3.1460000000000004,3.076,-0.6829999999999999,-0.032,-0.693,-0.06,-0.267,0.476,0.982,-0.352,6
0,1,0,-4.267,3.01,0.172,0.0279999999999999,-0.8270000000000001,0.532,0.099,0.326,0.34,0.696,8
0,1,0,-4.65,2.455,0.013,0.6809999999999999,-0.8,1.4340000000000002,0.126,0.036,0.382,0.278,9
0,1,0,-4.473,0.373,0.858,0.919,0.778,1.272,0.653,-0.216,-0.8909999999999999,-0.627,0
0,1,0,-1.856,0.063,-1.011,-0.238,-0.152,1.461,0.5720000000000001,0.775,0.154,-0.31,1
0,1,0,-1.976,0.389,-0.947,-0.25,-0.065,0.949,0.127,0.478,-0.3229999999999999,-0.345,2
0,1,0,-2.7,2.83,-0.389,0.032,-0.958,0.44,-0.168,0.519,0.1689999999999999,-0.525,4
0,1,0,-3.054,3.104,-0.513,-0.085,-0.952,0.299,-0.2689999999999999,0.4589999999999999,0.892,-0.308,6
0,1,0,-3.84,3.745,0.121,-0.6559999999999999,-1.0659999999999998,0.3289999999999999,0.7340000000000001,0.875,-0.295,0.418,7
0,1,0,-4.323,2.853,0.385,0.209,-1.096,0.431,0.119,0.268,0.131,0.654,8
0,1,0,-2.922,1.516,-0.002,-0.353,-0.4639999999999999,1.1840000000000002,0.3829999999999999,-0.175,-0.346,-0.033,10
0,1,0,-4.477,0.246,1.087,1.108,0.682,1.057,0.424,-0.264,-1.195,-0.52,0
0,1,0,-1.895,-0.012,-0.97,-0.152,-0.161,1.509,0.487,0.809,0.044,-0.264,1
0,1,0,-1.945,0.352,-1.053,-0.228,-0.12,0.927,0.088,0.509,-0.2789999999999999,-0.246,2
0,1,0,-1.912,1.554,-1.455,-0.017,-0.118,0.27,-0.037,0.163,-0.027,-0.474,3
0,1,0,-2.724,2.998,-0.56,-0.077,-0.944,0.5479999999999999,-0.08,0.4,0.144,-0.63,4
0,1,0,-2.385,1.241,0.272,-0.04,-0.6920000000000001,0.16,-0.061,-0.1889999999999999,0.7440000000000001,0.088,5
0,1,0,-3.092,3.014,-0.307,-0.016,-0.956,0.195,-0.2269999999999999,0.367,0.958,-0.092,6
0,1,0,-4.232,3.035,0.428,0.497,-1.374,0.5489999999999999,0.133,0.2319999999999999,0.129,0.487,8
0,1,0,-1.978,1.5419999999999998,-1.487,-0.096,-0.025,0.32,-0.063,0.0969999999999999,-0.073,-0.381,3
0,1,0,-2.748,3.217,-0.976,-0.213,-0.792,0.7709999999999999,-0.032,0.223,0.043,-0.825,4
0,1,0,-2.351,1.53,0.086,-0.075,-0.426,0.125,-0.1969999999999999,0.033,0.848,-0.038,5
0,1,0,-4.16,3.329,0.275,0.3939999999999999,-1.287,0.693,0.483,0.121,0.286,0.153,8
0,1,0,-4.88,3.064,0.06,0.434,-0.575,0.897,0.25,0.085,0.093,0.445,9
0,1,0,-4.158,-0.342,0.9,1.09,0.56,0.955,0.395,-0.3279999999999999,-1.52,-0.498,0
0,1,0,-2.441,0.191,-0.8140000000000001,0.255,0.411,1.636,0.395,0.7609999999999999,-0.005,-0.564,1
0,1,0,-1.672,0.3279999999999999,-0.833,-0.5770000000000001,-0.363,0.84,0.18,0.682,-0.124,-0.109,2
0,1,0,-2.051,1.508,-1.641,-0.0579999999999999,-0.102,0.346,-0.021,0.109,-0.147,-0.298,3
0,1,0,-2.7880000000000003,3.194,-1.142,-0.313,-0.58,0.357,0.281,0.0819999999999999,0.109,-0.858,4
0,1,0,-2.489,1.773,-0.18,-0.152,-0.353,0.133,-0.186,0.207,0.7879999999999999,-0.285,5
0,1,0,-3.065,3.139,-0.461,-0.221,-0.759,-0.045,0.068,0.2739999999999999,0.999,-0.331,6
0,1,0,-3.963,3.938,0.466,-0.564,-1.042,-0.064,0.241,0.888,-0.032,0.7979999999999999,7
0,1,0,-3.0580000000000003,1.6780000000000002,-0.351,-0.255,0.038,0.6920000000000001,-0.173,0.226,0.2019999999999999,-0.593,10
0,2,0,-1.737,1.789,-1.046,1.071,-0.775,1.041,-0.025,0.925,-0.452,0.0069999999999999,3
0,2,0,-2.125,1.952,-0.415,1.4580000000000002,-0.985,0.52,-0.344,1.249,-0.37,0.145,5
0,2,0,-2.607,2.406,-0.088,1.586,-1.477,0.1639999999999999,-0.527,1.551,0.033,0.522,6
0,2,0,-3.813,3.705,-0.157,1.561,-1.503,-0.366,-0.581,1.412,0.29,-0.099,7
0,2,0,-3.972,2.279,-0.62,0.954,-1.09,0.7190000000000001,0.7170000000000001,0.3,1.3090000000000002,0.171,9
0,2,0,-2.979,1.795,-0.87,1.4269999999999998,-0.93,1.3230000000000002,-0.212,1.286,-0.135,-0.496,10
0,2,0,-1.501,0.847,-1.619,0.92,-0.488,1.616,-0.161,1.127,-0.613,-0.051,2
0,2,0,-2.3080000000000003,2.023,-0.203,1.493,-1.223,0.379,-0.481,1.403,-0.045,0.402,4
0,2,0,-3.33,1.529,-0.552,2.023,-0.845,0.016,0.049,0.512,0.396,0.386,8
0,2,0,-0.941,0.539,-2.02,0.314,-0.679,1.897,0.0279999999999999,1.504,-0.632,0.111,1
0,2,0,-1.332,0.848,-1.665,0.97,-0.4629999999999999,1.5219999999999998,-0.159,1.101,-0.541,-0.05,2
0,2,0,-3.836,3.699,-0.225,1.52,-1.729,-0.184,0.064,0.97,0.5,-0.13,7
0,2,0,-1.4169999999999998,-0.319,-2.254,1.072,-0.221,2.268,0.43,0.923,-1.486,-0.698,0
0,2,0,-1.22,0.831,-1.6740000000000002,0.94,-0.425,1.463,-0.063,1.135,-0.422,0.06,2
0,2,0,-2.624,1.653,-0.156,2.023,-1.052,0.086,-0.752,1.341,0.196,0.71,6
0,2,0,-3.549,1.905,-0.509,1.963,-1.2,0.847,-0.157,0.8420000000000001,0.625,-0.586,8
0,2,0,-1.123,0.415,-1.954,0.563,-0.465,1.983,0.027,1.614,-0.568,0.0069999999999999,1
0,2,0,-1.28,0.7979999999999999,-1.6469999999999998,0.968,-0.418,1.609,-0.031,1.224,-0.374,0.044,2
0,2,0,-2.205,1.804,-0.1989999999999999,1.773,-1.089,0.312,-0.621,1.247,0.1369999999999999,0.406,4
0,2,0,-1.824,1.682,-0.669,1.483,-1.036,0.711,-0.249,1.193,-0.2739999999999999,0.2239999999999999,5
0,2,0,-2.574,1.814,-0.1669999999999999,1.826,-1.156,0.12,-0.609,1.543,0.11,0.75,6
0,2,0,-3.693,3.067,-0.273,1.619,-1.905,0.045,0.006,1.347,0.346,0.36,7
0,2,0,-4.386,2.271,-0.157,1.536,-0.614,0.23,0.57,-0.1169999999999999,1.074,0.397,9
0,2,0,-1.215,-0.288,-2.423,0.8340000000000001,-0.379,2.266,0.503,1.337,-1.36,-0.682,0
0,2,0,-1.494,0.6629999999999999,-1.58,1.1909999999999998,-0.252,1.777,-0.072,1.189,-0.409,0.09,2
0,2,0,-1.5119999999999998,1.492,-1.053,1.262,-0.809,0.941,-0.122,0.807,-0.206,0.145,3
0,2,0,-2.447,1.914,-0.208,1.641,-1.159,0.104,-0.539,1.58,0.0579999999999999,0.7859999999999999,6
0,2,0,-4.376,2.216,-0.2689999999999999,1.32,-0.66,0.159,0.7190000000000001,0.008,1.058,0.472,9
0,3,0,-1.614,0.287,-1.195,-0.252,-0.257,1.251,0.281,0.898,0.188,-0.423,1
0,3,0,-2.464,1.968,0.026,0.078,-0.542,0.074,0.051,0.596,0.26,-0.437,5
0,3,0,-3.193,2.026,0.83,0.813,-1.205,0.036,-0.95,0.7859999999999999,1.045,0.21,6
0,3,0,-3.5660000000000003,1.504,0.94,1.829,-1.224,0.178,-1.454,0.92,0.767,1.0590000000000002,7
0,3,0,-3.299,1.73,0.187,0.121,-1.251,0.7959999999999999,-0.366,1.091,0.493,0.436,8
0,3,0,-1.507,-0.457,-1.7280000000000002,0.256,-0.081,1.571,0.556,1.291,0.121,-0.456,0
0,3,0,-1.425,0.256,-1.13,-0.284,-0.3939999999999999,1.253,0.306,0.893,0.272,-0.3779999999999999,1
0,3,0,-3.565,1.3630000000000002,0.958,1.976,-1.268,0.091,-1.3630000000000002,0.72,0.738,1.145,7
0,3,0,-3.198,1.3730000000000002,0.392,0.423,-1.203,0.6559999999999999,-0.428,0.994,0.5760000000000001,0.865,8
0,3,0,-2.434,0.87,0.127,0.2239999999999999,-0.8109999999999999,0.6659999999999999,-0.233,0.705,0.408,0.136,10
0,3,0,-1.388,0.215,-1.105,-0.295,-0.39,1.2819999999999998,0.356,0.816,0.292,-0.376,1
0,3,0,-3.179,1.346,0.988,1.32,-0.852,-0.008,-1.234,0.347,1.02,0.7709999999999999,6
0,3,0,-3.57,1.366,0.97,1.957,-1.262,0.002,-1.275,0.585,0.754,0.993,7
0,3,0,-2.483,0.81,0.185,0.284,-0.917,0.73,-0.111,0.613,0.373,0.184,10
0,3,0,-1.45,0.1989999999999999,-1.127,-0.281,-0.372,1.287,0.369,0.855,0.303,-0.385,1
0,3,0,-2.089,1.695,-0.528,-0.2319999999999999,0.385,-0.1369999999999999,0.033,0.071,0.033,-0.7440000000000001,3
0,3,0,-2.475,1.4980000000000002,0.8640000000000001,0.397,-1.17,-0.2339999999999999,-0.3879999999999999,0.825,0.16,0.057,4
0,3,0,-2.314,1.494,0.294,0.245,-0.769,0.05,-0.068,0.8190000000000001,0.618,-0.5720000000000001,5
0,3,0,-3.062,1.008,0.935,1.443,-0.579,0.068,-1.3330000000000002,0.106,0.958,0.979,6
0,3,0,-3.155,1.021,0.455,0.624,-1.306,0.8420000000000001,-0.123,0.909,0.3279999999999999,0.8759999999999999,8
0,3,0,-4.316,1.147,0.088,0.593,-0.314,1.3159999999999998,-0.255,0.7609999999999999,0.492,0.133,9
0,3,0,-2.608,0.8390000000000001,0.203,0.305,-0.851,0.78,-0.143,0.607,0.344,0.106,10
0,3,0,-1.921,0.7190000000000001,-0.95,0.299,0.222,0.7859999999999999,0.128,0.588,-0.462,-0.491,2
0,3,0,-2.507,1.528,0.852,0.331,-1.231,-0.259,-0.265,0.856,0.07,0.069,4
0,3,0,-2.291,1.146,0.352,0.354,-0.7140000000000001,0.08,-0.181,0.787,0.7090000000000001,-0.409,5
0,3,0,-2.704,0.917,0.267,0.314,-0.7559999999999999,0.818,-0.114,0.6729999999999999,0.261,0.0559999999999999,10
0,3,0,-2.0580000000000003,-0.61,-1.497,0.696,0.072,1.802,0.626,1.3030000000000002,-0.192,-0.5379999999999999,0
0,3,0,-1.537,0.043,-1.125,-0.213,-0.3779999999999999,1.265,0.33,0.87,0.293,-0.3929999999999999,1
0,3,0,-1.933,0.728,-1.015,0.27,0.1989999999999999,0.78,0.192,0.706,-0.446,-0.595,2
0,3,0,-2.343,0.7879999999999999,0.373,0.492,-0.667,0.2789999999999999,-0.24,0.8270000000000001,0.589,-0.267,5
0,3,0,-4.521,1.43,0.162,0.58,-0.351,1.339,-0.259,0.81,0.431,-0.102,9
0,3,0,-2.804,1.021,0.254,0.331,-0.654,0.8540000000000001,-0.085,0.6779999999999999,0.259,-0.031,10
0,4,1,-3.1180000000000003,0.356,0.377,1.4469999999999998,0.868,0.407,-0.915,-0.546,-0.637,0.1689999999999999,1
0,4,1,-2.611,0.434,0.231,1.3430000000000002,0.3229999999999999,-0.3779999999999999,-0.618,-0.2189999999999999,-0.285,0.347,2
0,4,1,-1.5659999999999998,0.93,-0.181,-0.155,-0.1639999999999999,-0.2769999999999999,0.144,-0.047,-0.6940000000000001,0.282,3
0,4,1,-3.533,2.319,1.085,0.247,-1.053,-0.429,-0.026,1.305,-0.243,-0.6709999999999999,6
0,4,1,-3.893,3.69,0.079,-0.151,-1.093,-0.518,0.198,1.5830000000000002,-0.257,-0.1689999999999999,7
0,4,1,-4.16,2.814,0.557,0.604,0.584,0.477,-0.272,0.784,-0.999,-0.7809999999999999,9
0,4,1,-3.224,0.487,0.8220000000000001,1.324,0.753,0.352,-0.976,-0.562,-0.489,0.172,1
0,4,1,-2.681,0.531,0.252,1.239,0.469,-0.3389999999999999,-0.652,-0.417,-0.246,0.412,2
0,4,1,-1.577,0.907,-0.291,0.0069999999999999,-0.256,-0.233,0.187,-0.052,-0.627,0.238,3
0,4,1,-2.861,2.091,-0.411,-0.4379999999999999,-0.643,0.317,0.8170000000000001,0.104,-0.481,-0.252,4
0,4,1,-2.445,1.503,-0.677,-0.46,-0.14,-0.002,1.014,0.061,-0.599,0.175,5
0,4,1,-3.406,2.403,1.025,0.108,-1.1,-0.316,0.099,1.541,-0.304,-0.6709999999999999,6
0,4,1,-3.958,3.922,0.15,-0.265,-1.2009999999999998,-0.249,0.2019999999999999,1.163,-0.049,-0.039,7
0,4,1,-4.071000000000001,2.754,-0.2319999999999999,-0.262,0.356,0.6940000000000001,0.381,0.5,-0.721,-0.8590000000000001,8
0,4,1,-2.923,0.919,-0.231,-0.307,0.075,0.265,0.4029999999999999,0.691,-1.012,-0.157,10
0,4,1,-3.128,0.28,0.955,1.264,0.753,0.437,-0.841,-0.517,-0.473,0.0,1
0,4,1,-1.693,0.807,-0.038,-0.051,-0.174,-0.372,0.1169999999999999,0.053,-0.611,0.3,3
0,4,1,-2.555,1.421,-0.8,-0.233,-0.078,0.244,0.7709999999999999,-0.1119999999999999,-0.7070000000000001,0.165,5
0,4,1,-3.439,2.7110000000000003,1.067,0.0289999999999999,-1.12,-0.212,0.062,1.44,-0.353,-0.42,6
0,4,1,-2.837,0.528,0.241,1.629,0.23,-0.545,-0.643,-0.231,-0.186,0.45,2
0,4,1,-2.939,2.157,-0.451,-0.209,-0.88,0.6970000000000001,0.823,-0.035,-0.7440000000000001,-0.193,4
0,4,1,-4.087,2.555,0.123,-0.151,0.118,0.474,0.365,0.495,-0.473,-0.8859999999999999,8
0,4,1,-2.9760000000000004,1.033,-0.222,-0.099,0.081,0.052,0.479,0.517,-1.105,-0.125,10
0,4,1,-3.278,0.324,1.047,1.152,0.725,0.168,-0.8390000000000001,-0.381,-0.687,0.013,1
0,4,1,-3.249,1.042,0.589,1.408,0.023,-0.821,-0.581,0.031,0.068,0.325,2
0,4,1,-2.986,2.072,-0.311,-0.083,-0.878,0.449,0.916,0.0819999999999999,-0.905,-0.109,4
0,4,1,-3.682,3.672,0.0409999999999999,-0.508,-0.905,0.0279999999999999,0.492,0.654,-0.722,-0.318,6
0,4,1,-3.293,0.93,0.522,1.48,0.249,-0.6609999999999999,-0.643,-0.094,-0.132,0.198,2
0,4,1,-2.942,2.091,-0.353,-0.364,-0.61,0.401,0.8640000000000001,0.191,-0.764,-0.235,4
0,4,1,-3.661,3.266,-0.1169999999999999,-0.237,-0.755,0.092,0.6859999999999999,0.381,-0.58,-0.687,6
0,4,1,-4.544,3.0460000000000003,1.028,-0.016,0.447,0.884,-0.094,0.885,-0.4589999999999999,-1.099,9
0,4,1,-2.7110000000000003,0.971,-0.023,0.053,0.1009999999999999,-0.148,0.382,0.476,-1.05,-0.256,10
0,5,1,-3.322,-0.303,-0.5,0.963,0.921,0.981,1.0590000000000002,-1.079,-1.004,0.1119999999999999,0
0,5,1,-2.665,0.772,-1.009,1.307,0.287,0.855,-0.466,-0.19,-0.721,0.407,2
0,5,1,-2.4930000000000003,1.382,-0.929,0.465,-0.369,0.002,0.187,-0.696,-0.31,0.348,3
0,5,1,-4.694,3.229,-1.153,0.7020000000000001,0.452,0.298,0.4539999999999999,0.001,-0.264,-1.399,9
0,5,1,-3.012,1.628,-0.8340000000000001,0.975,-0.299,0.926,0.174,0.836,-0.239,-1.144,10
0,5,1,-3.268,-0.079,-0.693,0.763,1.043,1.194,0.892,-1.293,-1.033,0.1989999999999999,0
0,5,1,-3.618,0.916,-0.4,1.771,0.6659999999999999,1.535,-0.389,-0.342,-1.279,-0.109,1
0,5,1,-2.515,1.34,-0.84,0.511,-0.492,0.098,0.047,-0.68,-0.283,0.168,3
0,5,1,-2.591,1.809,-0.659,-0.016,-0.6729999999999999,0.588,0.084,0.182,-0.094,-0.372,5
0,5,1,-4.708,3.269,-1.121,0.701,0.437,0.176,0.552,0.004,-0.168,-1.484,9
0,5,1,-3.0,1.524,-0.866,1.015,-0.4,0.861,0.174,0.938,-0.216,-1.01,10
0,5,1,-3.518,0.716,-0.365,1.788,0.584,1.6780000000000002,-0.109,-0.016,-1.501,0.002,1
0,5,1,-2.612,1.403,-0.87,0.47,-0.4479999999999999,0.172,-0.06,-0.6559999999999999,-0.3339999999999999,0.087,3
0,5,1,-2.859,2.255,-0.6759999999999999,0.098,-1.086,0.0409999999999999,0.732,0.305,-0.141,-0.636,4
0,5,1,-3.0460000000000003,1.462,-0.823,0.935,-0.44,0.8490000000000001,0.085,0.865,-0.178,-0.954,10
0,5,1,-2.846,2.43,-0.78,-0.153,-0.905,0.24,0.746,0.14,-0.114,-0.746,4
0,5,1,-2.511,1.511,-0.555,0.226,-0.735,0.631,-0.006,0.52,-0.138,-0.6509999999999999,5
0,5,1,-3.124,2.733,-0.857,-0.3339999999999999,-0.312,0.5870000000000001,0.8490000000000001,0.475,-0.174,-0.899,6
0,5,1,-3.777,2.064,-0.983,0.846,-0.373,0.96,-0.04,1.331,0.247,-1.09,8
0,5,1,-4.788,3.632,-0.71,0.3,0.366,-0.121,0.4029999999999999,-0.016,0.124,-1.32,9
0,5,1,-3.006,1.4069999999999998,-0.875,0.945,-0.495,0.721,0.212,0.75,-0.037,-1.054,10
0,5,1,-3.781,-0.011,0.102,1.115,1.036,0.6509999999999999,0.615,-1.082,-1.272,0.05,0
0,5,1,-3.394,0.557,-0.573,1.704,0.608,1.644,0.109,0.2,-1.507,-0.225,1
0,5,1,-2.884,2.424,-0.764,-0.108,-1.015,0.361,0.7120000000000001,0.133,-0.017,-0.847,4
0,5,1,-3.2460000000000004,2.7960000000000003,-0.867,-0.205,-0.316,0.8079999999999999,0.8240000000000001,0.062,-0.118,-0.7490000000000001,6
0,5,1,-3.862,1.801,-0.7170000000000001,1.133,-0.23,0.922,-0.223,1.264,0.1939999999999999,-0.935,8
0,5,1,-4.836,3.871,-0.684,0.182,0.349,-0.176,0.317,0.059,-0.024,-1.13,9
0,5,1,-2.9730000000000003,1.304,-0.8490000000000001,0.984,-0.508,0.59,0.248,0.728,0.073,-1.107,10
0,5,1,-3.858,0.115,0.05,1.17,0.975,0.703,0.585,-1.1909999999999998,-1.172,-0.076,0
0,5,1,-2.952,0.777,-0.74,1.311,0.424,0.853,-0.319,-0.0819999999999999,-1.456,0.616,2
0,5,1,-3.005,1.472,-0.716,0.535,-0.392,0.054,-0.054,-0.6859999999999999,-0.29,0.153,3
0,5,1,-2.898,2.421,-0.81,-0.043,-1.164,0.4479999999999999,0.69,0.218,-0.078,-0.8759999999999999,4
0,5,1,-2.906,1.102,-0.491,0.575,-0.386,0.7709999999999999,-0.134,0.977,-0.54,-0.604,5
0,5,1,-3.462,2.648,-0.447,-0.0,-0.416,0.767,0.569,-0.072,-0.08,-0.7979999999999999,6
0,5,1,-4.0760000000000005,3.3360000000000003,-0.688,0.677,-1.472,0.461,0.682,0.7240000000000001,0.7170000000000001,-0.409,7
0,5,1,-3.846,1.426,-0.607,1.4340000000000002,-0.072,1.13,-0.535,1.159,-0.123,-0.385,8
0,5,1,-4.885,3.967,-0.948,0.373,0.255,-0.121,0.43,-0.013,0.018,-1.518,9
0,5,1,-2.98,1.29,-0.8420000000000001,0.955,-0.491,0.5720000000000001,0.267,0.6920000000000001,0.084,-1.1,10
0,6,1,-3.208,-0.608,-0.516,1.098,1.529,1.069,0.186,-0.947,-0.248,-0.059,0
0,6,1,-2.21,0.6609999999999999,-0.581,1.139,0.238,0.074,-0.625,-0.366,-0.326,0.557,2
0,6,1,-2.488,2.822,-0.239,-0.33,-1.355,0.284,0.1009999999999999,0.934,-0.966,-0.31,4
0,6,1,-2.335,2.8960000000000004,-0.295,-0.42,-0.645,0.351,0.12,0.447,-1.126,0.11,5
0,6,1,-2.715,2.325,0.701,0.239,-1.426,-0.218,-0.317,1.516,-0.162,-0.703,6
0,6,1,-4.21,3.289,-0.106,-1.247,-0.6829999999999999,0.539,0.579,0.8320000000000001,-0.035,-0.764,7
0,6,1,-3.984,2.29,-0.103,-0.7070000000000001,0.297,0.317,0.857,1.403,-1.253,-0.298,8
0,6,1,-4.964,2.78,0.474,0.047,0.417,-0.3279999999999999,0.3339999999999999,0.474,-1.26,-0.221,9
0,6,1,-2.528,1.288,-0.144,-0.171,-0.077,0.26,-0.045,0.6809999999999999,-1.399,-0.066,10
0,6,1,-3.431,-0.5,-0.362,1.173,1.59,0.956,0.162,-0.853,-0.364,0.084,0
0,6,1,-2.659,-0.1009999999999999,-0.687,0.6970000000000001,1.081,1.045,-0.149,0.184,-0.927,0.327,1
0,6,1,-1.926,2.172,-0.5710000000000001,0.257,-0.159,-0.493,0.27,-0.153,-0.6729999999999999,-0.005,3
0,6,1,-2.512,2.826,-0.171,-0.385,-1.495,0.381,0.067,0.899,-0.902,-0.412,4
0,6,1,-2.353,2.897,-0.433,-0.193,-0.715,0.359,0.26,0.273,-1.206,0.36,5
0,6,1,-2.708,2.396,0.728,0.336,-1.4369999999999998,-0.344,-0.411,1.469,-0.022,-0.7170000000000001,6
0,6,1,-4.341,3.514,-0.4529999999999999,-1.047,-0.469,0.51,0.618,0.8009999999999999,-0.3989999999999999,-0.777,7
0,6,1,-4.045,2.193,0.2,-0.745,0.215,0.387,0.625,1.477,-1.207,-0.27,8
0,6,1,-5.02,2.551,0.562,-0.136,0.531,-0.064,0.373,0.631,-1.4069999999999998,-0.267,9
0,6,1,-3.5860000000000003,-0.38,-0.359,1.307,1.587,0.99,0.18,-0.831,-0.471,0.198,0
0,6,1,-2.889,-0.039,-0.494,0.7190000000000001,1.104,1.003,-0.415,0.0969999999999999,-0.855,0.356,1
0,6,1,-2.563,2.829,-0.283,-0.368,-1.5930000000000002,0.408,0.121,0.933,-0.946,-0.356,4
0,6,1,-2.776,2.563,0.532,0.2769999999999999,-1.47,-0.368,-0.278,1.479,-0.1639999999999999,-0.797,6
0,6,1,-4.384,3.721,-0.905,-0.965,-0.16,0.498,0.809,0.66,-0.613,-0.831,7
0,6,1,-4.107,2.17,0.206,-0.8109999999999999,0.3339999999999999,0.633,0.402,1.097,-1.327,-0.04,8
0,6,1,-5.069,2.119,0.826,-0.2739999999999999,0.5760000000000001,0.145,0.308,1.001,-1.412,-0.306,9
0,6,1,-2.812,1.954,-0.6609999999999999,0.109,-0.011,0.11,0.187,0.096,-1.538,0.5920000000000001,10
0,6,1,-3.152,0.086,-0.325,0.868,1.084,0.753,-0.522,-0.005,-0.821,0.483,1
0,6,1,-2.922,2.6210000000000004,0.214,0.122,-1.477,-0.173,0.045,1.38,-0.635,-0.757,6
0,6,1,-4.417,3.765,-1.225,-0.853,0.0409999999999999,0.536,0.885,0.5329999999999999,-0.757,-0.789,7
0,6,1,-4.07,2.254,-0.28,-0.722,0.696,0.6829999999999999,0.243,0.6890000000000001,-1.45,0.19,8
0,6,1,-2.93,2.014,-0.7,0.206,-0.088,0.153,0.142,-0.031,-1.4369999999999998,0.615,10
0,6,1,-4.247,-0.034,0.248,1.372,1.831,1.167,0.087,-0.518,-0.316,0.347,0
0,6,1,-2.041,2.119,-0.585,0.5489999999999999,-0.43,-0.291,-0.002,-0.2339999999999999,-0.7509999999999999,0.253,3
0,6,1,-2.729,2.104,-0.505,0.138,-0.5329999999999999,0.455,0.148,-0.407,-1.0590000000000002,0.625,5
0,6,1,-2.907,1.992,-0.904,0.205,0.011,0.346,-0.031,-0.148,-1.262,0.487,10
0,6,1,-4.687,0.406,0.889,1.464,1.618,1.021,-0.121,-0.3979999999999999,-0.307,0.293,0
0,6,1,-2.452,0.2789999999999999,-0.805,1.141,0.239,0.176,-0.104,-0.752,-0.3339999999999999,0.731,2
0,6,1,-3.0980000000000003,2.525,-0.316,-0.322,-1.082,0.285,0.445,0.847,-0.951,-0.7070000000000001,6
0,6,1,-4.4030000000000005,3.602,-0.945,-0.934,0.0409999999999999,0.409,1.003,0.47,-0.477,-0.621,7
0,6,1,-5.211,2.544,0.82,-0.3329999999999999,0.447,0.226,0.127,0.89,-1.389,-0.304,9
0,6,1,-2.752,1.778,-0.718,0.057,-0.009,0.402,0.121,0.05,-1.435,0.281,10
0,7,1,-5.058,2.236,1.381,1.885,-0.259,-0.483,-0.562,0.123,-0.063,0.6629999999999999,0
0,7,1,-4.181,1.646,0.736,1.286,0.7240000000000001,-0.511,-1.126,-0.45,-0.648,0.995,1
0,7,1,-3.753,0.828,-0.042,1.406,0.209,-0.53,-0.52,-0.4,-0.386,1.07,2
0,7,1,-4.373,4.643,-0.792,-1.332,-0.2019999999999999,0.597,0.192,1.133,-1.131,-0.28,7
0,7,1,-4.468,4.121,-0.42,-1.197,0.3379999999999999,0.6,-0.11,0.314,-1.248,-0.012,8
0,7,1,-3.961,1.078,0.11,1.232,0.21,-0.67,-0.536,-0.33,-0.268,1.098,2
0,7,1,-3.654,1.222,-0.574,0.248,-0.299,0.158,0.154,0.5529999999999999,-0.58,0.617,3
0,7,1,-3.417,1.984,-1.148,0.2339999999999999,-0.778,0.411,0.494,0.13,-0.7040000000000001,0.764,5
0,7,1,-4.471,4.096,-0.809,-0.8809999999999999,0.6459999999999999,0.539,0.04,0.142,-1.555,-0.023,8
0,7,1,-4.173,2.299,-0.298,-0.13,0.122,0.319,-0.3879999999999999,-0.3279999999999999,-0.48,0.99,10
0,7,1,-3.631,1.195,-0.7190000000000001,0.13,-0.065,0.348,-0.061,0.555,-0.594,0.8059999999999999,3
0,7,1,-3.434,2.26,-1.065,-0.122,-0.795,0.363,1.403,-0.507,-0.375,0.015,4
0,7,1,-4.497,4.5,-1.446,-1.127,0.4429999999999999,0.986,0.136,0.597,-1.087,-0.073,7
0,7,1,-5.011,4.976,-0.868,-1.215,0.17,-0.018,0.5429999999999999,0.154,-0.841,0.7070000000000001,9
0,7,1,-5.125,2.077,1.283,2.003,-0.7340000000000001,-0.513,-0.557,0.055,0.295,0.2689999999999999,0
0,7,1,-4.316,1.409,0.441,1.819,0.5,-0.617,-0.633,-0.621,-0.6709999999999999,1.193,1
0,7,1,-4.149,1.129,-0.008,1.215,0.39,-0.474,-0.4,-0.3429999999999999,-0.344,0.8859999999999999,2
0,7,1,-3.5810000000000004,1.188,-0.958,0.1889999999999999,-0.077,0.451,0.049,0.449,-0.6759999999999999,0.919,3
0,7,1,-3.82,1.705,-1.13,0.45,-0.471,0.665,0.298,-0.175,-0.473,0.848,5
0,7,1,-4.471,4.461,-1.887,-0.799,0.7190000000000001,0.938,0.239,0.342,-1.036,-0.06,7
0,7,1,-4.58,4.1160000000000005,-0.753,-0.8490000000000001,0.516,0.498,0.1169999999999999,0.181,-1.256,-0.119,8
0,7,1,-3.622,1.111,-0.972,0.3989999999999999,-0.402,0.527,0.271,0.373,-0.716,0.943,3
0,7,1,-3.962,1.724,-1.29,0.531,-0.17,0.528,0.282,-0.149,-0.603,1.139,5
0,7,1,-4.6610000000000005,4.235,-0.497,-1.021,0.295,0.457,-0.019,0.345,-1.355,0.062,8
0,7,1,-3.622,0.988,-1.108,0.685,-0.693,0.754,0.442,0.166,-0.4579999999999999,0.738,3
0,7,1,-3.597,2.146,-1.492,-0.142,-0.297,0.815,0.87,-0.49,-0.471,0.41,4
0,7,1,-5.034,4.993,-1.633,-0.285,0.3979999999999999,0.181,-0.211,-0.508,-0.283,0.304,9
1,8,0,-2.613,-0.092,-0.54,0.484,0.389,1.741,0.198,0.257,-0.375,-0.604,1
1,8,0,-3.816,3.426,0.2239999999999999,-0.384,-1.733,0.434,-0.322,1.3330000000000002,0.653,0.5770000000000001,7
1,8,0,-3.839,1.248,0.83,0.982,-1.11,0.617,-0.7509999999999999,0.084,0.309,1.125,8
1,8,0,-4.982,1.538,0.96,1.253,-0.64,0.588,-0.484,-0.31,-0.246,1.18,9
1,8,0,-1.093,-0.922,-2.091,0.8440000000000001,0.009,1.247,0.8909999999999999,1.453,-0.089,-0.4,0
1,8,0,-1.707,1.652,-1.012,-0.622,-0.293,0.2789999999999999,-0.276,0.477,0.05,-0.2,3
1,8,0,-2.696,3.129,-0.52,0.294,-0.989,0.019,-0.066,1.106,0.361,-0.396,4
1,8,0,-2.592,1.617,0.267,0.38,-0.777,0.487,-0.206,0.733,0.5920000000000001,-0.4029999999999999,5
1,8,0,-2.733,1.088,0.7609999999999999,1.694,-0.833,0.292,-1.069,0.266,0.369,1.034,6
1,8,0,-3.915,2.158,0.7809999999999999,0.643,-1.023,0.598,-0.718,0.2739999999999999,0.376,0.77,8
1,8,0,-1.784,-1.074,-1.661,1.324,0.289,1.3030000000000002,0.924,1.307,-0.346,-0.521,0
1,8,0,-1.89,0.207,-1.161,0.027,-0.047,1.581,0.2769999999999999,1.129,0.366,-0.25,1
1,8,0,-2.769,2.906,-0.1939999999999999,0.349,-0.958,0.089,-0.245,1.004,0.6,-0.336,4
1,8,0,-2.625,1.551,0.298,0.324,-1.05,0.746,0.067,0.603,0.342,-0.413,5
1,8,0,-3.888,3.085,0.436,0.142,-1.526,-0.052,-0.503,1.085,0.511,0.976,7
1,8,0,-1.793,0.925,-0.7390000000000001,-0.396,-0.211,0.3289999999999999,-0.4029999999999999,0.604,0.1969999999999999,-0.251,3
1,8,0,-2.92,2.697,-0.1159999999999999,0.451,-0.8590000000000001,-0.035,-0.307,0.8740000000000001,0.622,-0.301,4
1,8,0,-2.484,0.5589999999999999,0.624,1.951,-0.6459999999999999,0.381,-1.106,0.036,0.24,1.291,6
1,8,0,-3.989,3.049,0.304,0.209,-1.26,-0.205,-0.735,0.862,0.551,1.114,7
1,8,0,-3.776,1.7519999999999998,0.92,0.722,-1.164,0.774,-0.01,0.657,0.248,1.055,8
1,8,0,-4.717,0.8290000000000001,0.853,1.98,-0.546,0.688,-0.434,-0.424,-0.636,1.245,9
1,8,0,-3.108,0.926,-0.389,0.249,-0.461,0.816,-0.226,0.818,0.387,0.303,10
1,8,0,-3.366,-0.826,-0.405,1.643,0.603,1.226,0.524,0.293,-0.858,-0.6679999999999999,0
1,8,0,-1.969,0.835,-0.6709999999999999,-0.27,0.0279999999999999,0.4,-0.444,0.53,0.061,-0.3429999999999999,3
1,8,0,-3.0380000000000003,2.475,0.024,0.508,-0.737,-0.102,-0.358,0.706,0.6,-0.209,4
1,8,0,-2.71,0.809,0.754,1.903,-0.764,0.3779999999999999,-1.123,0.162,0.405,1.163,6
1,8,0,-3.81,1.91,0.527,0.478,-0.972,0.945,-0.28,0.7190000000000001,0.482,0.8290000000000001,8
1,8,0,-4.683,0.773,0.888,2.302,-0.562,0.395,-0.401,-0.289,-0.8390000000000001,1.165,9
1,8,0,-3.375,1.779,-0.8220000000000001,0.382,-0.019,0.845,0.123,0.767,0.223,-0.337,10
1,8,0,-3.312,-0.7759999999999999,-0.504,1.39,0.86,1.257,0.222,0.314,-0.715,-0.765,0
1,8,0,-2.073,0.088,-0.73,0.296,-0.286,1.75,0.154,1.078,0.294,-0.174,1
1,8,0,-1.222,0.491,-0.716,0.004,-0.3229999999999999,1.108,-0.148,0.773,0.387,-0.073,2
1,8,0,-2.968,2.149,0.13,0.6759999999999999,-0.79,0.1119999999999999,-0.507,0.762,0.625,-0.272,4
1,8,0,-4.756,0.965,0.959,2.287,-0.527,0.4539999999999999,-0.41,-0.362,-0.862,1.088,9
1,8,0,-3.366,1.952,-0.898,0.258,0.282,0.835,0.29,0.6809999999999999,0.431,-0.461,10
1,9,0,-2.045,0.8190000000000001,-1.46,0.652,-0.701,0.352,-0.087,0.7929999999999999,-0.5670000000000001,-0.013,2
1,9,0,-2.765,2.817,-2.02,0.213,-0.772,0.852,0.252,-0.193,-0.2019999999999999,-0.093,4
1,9,0,-2.55,2.391,-1.137,0.09,-0.948,0.217,0.051,0.723,-0.5579999999999999,-0.204,5
1,9,0,-4.101,2.84,-0.802,0.062,-0.733,1.304,-0.145,0.4429999999999999,0.049,-0.611,8
1,9,0,-4.6930000000000005,3.1460000000000004,-0.136,0.5870000000000001,-0.731,1.055,-0.104,-0.021,0.637,-0.192,9
1,9,0,-3.73,1.872,-0.8009999999999999,0.555,-0.427,0.7909999999999999,0.196,0.65,-0.7440000000000001,-0.372,10
1,9,0,-3.019,0.0579999999999999,-1.265,1.497,0.171,1.997,0.178,0.847,-1.16,-0.5479999999999999,0
1,9,0,-2.5380000000000003,2.351,-1.029,0.146,-0.922,0.201,-0.0579999999999999,0.835,-0.7120000000000001,-0.074,5
1,9,0,-3.2310000000000003,3.003,-1.161,-0.315,-0.816,0.87,0.311,0.677,-0.565,-0.7,6
1,9,0,-4.033,4.071000000000001,-0.586,0.127,-1.4469999999999998,0.62,0.1969999999999999,0.711,0.48,-0.306,7
1,9,0,-4.13,3.105,-1.141,0.183,-0.498,1.324,-0.3989999999999999,0.675,-0.3389999999999999,-0.6940000000000001,8
1,9,0,-4.718,3.281,-0.203,0.6509999999999999,-0.883,1.413,-0.6629999999999999,0.583,0.237,-0.307,9
1,9,0,-3.485,1.092,-0.674,1.395,-0.027,1.039,-0.047,0.384,-0.7609999999999999,-0.934,1
1,9,0,-1.928,1.578,-0.997,0.672,-1.287,0.381,0.249,0.006,-0.1669999999999999,-0.637,3
1,9,0,-2.823,2.7430000000000003,-2.012,0.2339999999999999,-0.919,1.103,0.091,-0.177,-0.143,-0.09,4
1,9,0,-4.049,4.039,-0.5579999999999999,0.064,-1.676,1.024,0.047,1.024,-0.091,-0.283,7
1,9,0,-4.13,3.2910000000000004,-1.4240000000000002,0.359,-0.273,1.297,-0.4539999999999999,0.62,-0.527,-0.7090000000000001,8
1,9,0,-4.753,3.4210000000000003,-0.1889999999999999,0.6559999999999999,-0.984,1.443,-0.652,0.546,0.123,-0.326,9
1,9,0,-3.0,0.042,-1.238,1.529,0.187,2.028,0.104,0.759,-1.18,-0.634,0
1,9,0,-2.797,2.7060000000000004,-1.936,0.147,-0.921,1.24,-0.0819999999999999,-0.006,-0.214,-0.064,4
1,9,0,-4.064,4.106,-0.545,0.03,-1.645,0.904,0.103,0.907,0.05,-0.322,7
1,9,0,-4.138999999999999,3.363,-1.464,0.4589999999999999,-0.066,1.045,-0.146,0.172,-0.124,-0.8640000000000001,8
1,9,0,-4.782,3.325,-0.071,0.6629999999999999,-0.913,1.012,-0.033,-0.103,0.483,-0.2019999999999999,9
1,9,0,-3.731,1.927,-0.705,0.4529999999999999,-0.372,1.149,0.046,0.3229999999999999,-0.627,-0.331,10
1,9,0,-3.055,0.088,-1.217,1.5619999999999998,0.186,2.059,0.054,0.639,-1.121,-0.757,0
1,9,0,-1.926,0.6890000000000001,-1.433,0.716,-0.588,0.2689999999999999,-0.044,0.716,-0.245,-0.285,2
1,9,0,-2.6910000000000003,2.111,-1.067,0.174,-0.649,0.431,-0.017,0.655,-0.498,-0.292,5
1,9,0,-4.074,4.187,-0.555,0.052,-1.6030000000000002,0.73,-0.061,0.981,0.249,-0.25,7
1,9,0,-4.827,3.391,-0.099,0.599,-0.723,0.741,0.089,-0.214,0.518,-0.074,9
1,9,0,-3.117,0.146,-1.228,1.635,0.223,2.026,0.036,0.569,-1.15,-0.767,0
1,9,0,-2.029,0.698,-1.482,0.813,-0.6809999999999999,0.422,0.016,0.7509999999999999,-0.3,-0.237,2
1,9,0,-1.998,1.497,-1.005,0.519,-1.236,0.3979999999999999,0.273,0.151,-0.319,-0.49,3
1,9,0,-2.914,2.541,-1.567,0.067,-1.051,1.207,0.006,0.289,-0.325,-0.3429999999999999,4
1,9,0,-2.937,2.1830000000000003,-1.291,0.355,-0.372,0.57,0.045,0.452,-0.705,-0.263,5
1,9,0,-3.239,2.9160000000000004,-1.406,-0.455,-0.4539999999999999,1.219,0.078,0.3829999999999999,-0.7759999999999999,-0.413,6
1,9,0,-4.069,4.205,-0.614,-0.06,-1.462,0.476,0.381,0.589,0.405,-0.259,7
1,9,0,-4.884,3.63,-0.2789999999999999,0.496,-0.67,0.792,-0.005,-0.1369999999999999,0.532,-0.184,9
1,9,0,-3.756,2.204,-0.716,0.529,-0.284,1.121,0.022,0.127,-0.782,-0.3939999999999999,10
1,10,0,-4.066,0.3979999999999999,-0.382,1.679,0.121,1.617,0.504,-0.315,-0.226,-0.873,0
1,10,0,-2.966,0.659,-1.057,1.36,0.152,1.435,0.1969999999999999,0.926,-0.45,-0.637,1
1,10,0,-2.742,2.729,-0.129,-0.49,-0.573,0.868,0.07,0.7709999999999999,0.053,-0.939,4
1,10,0,-4.611000000000001,2.962,-0.856,1.161,-0.612,0.469,0.162,0.705,0.37,-0.916,9
1,10,0,-3.548,1.611,-0.85,0.374,0.168,0.318,0.4629999999999999,0.863,-1.131,-0.3339999999999999,10
1,10,0,-3.034,0.6940000000000001,-1.007,1.453,0.155,1.48,0.179,1.005,-0.54,-0.563,1
1,10,0,-2.667,1.132,-1.054,0.2319999999999999,0.537,0.352,0.163,0.55,-0.688,-0.295,2
1,10,0,-2.395,1.929,-1.496,0.372,0.065,0.009,0.149,0.813,-0.484,-0.672,3
1,10,0,-3.989,3.582,-1.1,0.374,-0.12,0.291,0.6629999999999999,0.96,0.023,-0.477,8
1,10,0,-2.303,1.954,-1.493,0.305,0.047,0.0559999999999999,0.026,0.902,-0.522,-0.645,3
1,10,0,-3.024,3.26,0.35,-0.5770000000000001,-1.183,0.872,0.556,0.762,0.395,-0.665,6
1,10,0,-4.617,3.033,-0.909,0.604,-0.341,0.636,0.294,0.527,0.48,-0.5579999999999999,9
1,10,0,-3.676,-0.185,-0.563,2.377,0.096,1.854,0.303,0.296,-0.358,-1.205,0
1,10,0,-3.033,0.7,-1.077,1.266,0.196,1.453,0.317,0.947,-0.324,-0.828,1
1,10,0,-2.316,2.007,-1.365,0.181,0.206,0.071,0.037,0.8140000000000001,-0.332,-0.753,3
1,10,0,-2.444,2.529,-0.487,-0.8140000000000001,-0.151,1.285,0.077,-0.064,0.287,-0.638,5
1,10,0,-2.969,3.128,0.504,-0.487,-1.371,0.7040000000000001,0.66,0.6759999999999999,0.469,-0.525,6
1,10,0,-3.878,3.816,-0.155,-0.6679999999999999,-1.207,0.541,0.022,1.972,-0.0289999999999999,-0.29,7
1,10,0,-2.951,2.64,0.8320000000000001,-0.387,-1.5019999999999998,0.272,0.7559999999999999,0.5379999999999999,0.616,-0.3989999999999999,6
1,10,0,-3.979,3.661,0.1689999999999999,-0.598,-1.412,0.569,0.009,1.939,0.094,-0.149,7
1,10,0,-4.805,3.228,-0.501,0.602,-0.532,0.745,0.09,0.445,0.7559999999999999,-0.42,9
1,10,0,-3.661,1.2919999999999998,-0.433,0.34,0.098,0.363,0.246,0.911,-0.415,-0.507,10
1,10,0,-3.337,-0.347,-0.79,2.129,-0.0579999999999999,2.079,0.295,0.246,-0.687,-1.241,0
1,10,0,-2.7030000000000003,2.066,0.205,-0.63,-0.345,1.229,0.4029999999999999,-0.032,0.247,-0.696,5
1,10,0,-4.122,3.177,0.529,-0.176,-1.307,0.132,-0.2789999999999999,1.3530000000000002,0.4579999999999999,-0.009,7
1,10,0,-3.664,1.119,-0.4589999999999999,0.482,0.0819999999999999,0.221,0.185,0.861,-0.237,-0.413,10
1,11,0,-2.9130000000000003,0.757,-0.8190000000000001,1.245,0.419,1.17,0.051,0.3279999999999999,-0.96,-0.614,1
1,11,0,-2.012,1.134,-1.029,0.205,0.6609999999999999,0.359,0.456,0.372,-0.939,-0.613,2
1,11,0,-2.565,1.871,-0.2689999999999999,0.187,-0.6559999999999999,0.267,-0.3279999999999999,0.184,0.348,-0.511,4
1,11,0,-3.823,3.536,-2.07,0.245,-0.442,1.125,0.73,0.5379999999999999,-0.006,-0.64,7
1,11,0,-4.019,3.52,-1.058,-0.2,-0.545,1.348,0.351,0.82,-0.868,-0.434,8
1,11,0,-3.209,1.85,-0.3939999999999999,0.555,0.425,0.313,0.067,0.077,-0.163,-0.944,10
1,11,0,-2.377,-0.266,-1.371,1.09,0.24,1.843,0.107,0.7020000000000001,-1.256,-0.62,0
1,11,0,-2.207,1.09,-0.627,0.024,0.912,0.662,0.241,0.348,-0.7020000000000001,-0.912,2
1,11,0,-2.378,1.568,-0.243,0.407,-0.428,0.2289999999999999,-0.293,0.297,0.372,-0.512,5
1,11,0,-4.135,3.651,-0.7509999999999999,-0.066,-0.789,1.131,0.496,0.7879999999999999,-0.883,-0.351,8
1,11,0,-4.0280000000000005,0.982,-0.648,1.4780000000000002,-0.048,2.108,-0.146,0.467,-0.654,-0.193,9
1,11,0,-2.162,1.533,-0.267,-0.287,-0.026,0.122,0.168,-0.024,-0.268,-0.27,3
1,11,0,-2.458,1.586,-0.359,0.376,-0.244,0.134,-0.163,0.298,0.444,-0.711,5
1,11,0,-3.977,3.684,-1.242,-0.364,-0.217,0.594,0.759,0.6,0.069,-0.25,7
1,11,0,-4.138,1.128,-0.601,1.5530000000000002,-0.019,2.039,-0.176,0.262,-0.551,-0.362,9
1,11,0,-3.242,1.802,-0.482,0.6990000000000001,0.424,0.337,0.115,0.272,-0.205,-1.074,10
1,11,0,-2.957,0.596,-0.7559999999999999,0.89,0.58,0.836,0.5429999999999999,0.036,-0.2319999999999999,-0.579,1
1,11,0,-2.289,1.106,-0.816,0.228,0.867,0.616,0.3379999999999999,0.298,-0.843,-0.8320000000000001,2
1,11,0,-2.175,1.631,-0.331,-0.203,-0.159,0.246,0.18,-0.093,-0.351,-0.267,3
1,11,0,-2.7230000000000003,1.975,-0.636,0.336,-0.677,0.156,-0.342,0.479,0.381,-0.7290000000000001,4
1,11,0,-4.319,1.338,-0.5489999999999999,1.6780000000000002,0.027,1.922,-0.228,0.161,-0.47,-0.442,9
1,11,0,-2.904,0.4579999999999999,-0.6559999999999999,0.8320000000000001,0.61,0.805,0.568,0.0409999999999999,-0.114,-0.615,1
1,11,0,-2.318,1.097,-0.8320000000000001,0.26,0.821,0.588,0.402,0.327,-0.852,-0.773,2
1,11,0,-2.147,1.655,-0.355,-0.0819999999999999,-0.1939999999999999,0.296,0.146,-0.083,-0.314,-0.308,3
1,11,0,-3.338,3.033,-1.189,-0.2689999999999999,-0.364,0.544,0.491,0.148,0.365,-0.931,6
1,11,0,-3.407,1.821,-0.675,0.765,0.256,0.469,-0.09,0.322,-0.387,-0.968,10
1,11,0,-2.919,0.4629999999999999,-0.716,0.957,0.635,0.833,0.501,0.048,-0.134,-0.638,1
1,11,0,-2.104,1.6,-0.297,-0.071,-0.172,0.285,0.152,-0.089,-0.296,-0.37,3
1,11,0,-2.7060000000000004,2.07,-0.691,0.31,-0.745,0.266,-0.413,0.602,0.36,-0.713,4
1,11,0,-3.339,3.011,-1.264,-0.3429999999999999,-0.119,0.498,0.589,0.078,0.221,-0.8220000000000001,6
1,11,0,-4.039,3.689,-1.007,-0.139,-0.542,0.5870000000000001,0.535,0.465,0.1939999999999999,0.168,7
1,11,0,-4.494,1.535,-0.495,1.715,0.044,1.892,-0.367,0.362,-0.583,-0.291,9
1,11,0,-3.285,1.547,-0.897,0.917,0.127,0.402,-0.011,0.502,-0.557,-0.715,10
1,12,1,-3.415,-0.5379999999999999,0.241,2.0380000000000003,0.622,1.027,-0.701,-0.66,-0.418,0.7809999999999999,0
1,12,1,-3.439,1.007,0.02,1.491,0.777,0.257,-0.777,-0.282,-0.7070000000000001,0.746,1
1,12,1,-2.594,2.584,-0.37,-0.524,-0.177,0.515,-0.1369999999999999,0.095,-0.731,0.072,5
1,12,1,-2.247,3.42,-0.887,-0.823,-0.297,0.774,0.185,-0.242,-0.79,0.046,4
1,12,1,-2.489,2.401,-0.44,-0.367,-0.069,0.5329999999999999,0.011,0.118,-0.621,-0.188,5
1,12,1,-3.909,3.674,-0.648,0.088,-0.365,0.1989999999999999,0.424,0.336,-0.012,-0.252,8
1,12,1,-3.067,2.549,-0.851,0.505,0.044,0.574,-0.377,0.147,-0.606,0.1889999999999999,10
1,12,1,-3.699,-0.251,0.268,1.585,0.85,1.381,-0.867,-0.71,-0.19,0.5670000000000001,0
1,12,1,-2.676,1.411,-0.098,1.047,-0.04,-0.131,-0.56,-0.03,-0.192,0.705,2
1,12,1,-1.899,2.135,0.092,-0.11,-0.145,0.081,-0.067,-0.104,-0.408,-0.099,3
1,12,1,-2.489,2.379,-0.523,-0.158,-0.178,0.406,0.198,0.059,-0.589,-0.256,5
1,12,1,-3.49,-0.474,0.187,1.747,0.733,1.307,-0.816,-0.787,-0.222,0.41,0
1,12,1,-3.155,0.613,-0.285,1.287,0.882,0.337,-0.624,0.067,-0.516,0.8909999999999999,1
1,12,1,-1.959,2.285,-0.089,-0.262,-0.013,0.019,-0.233,-0.068,-0.268,-0.022,3
1,12,1,-3.387,3.286,-0.747,-0.6990000000000001,-0.9,0.8909999999999999,0.875,0.46,-0.457,-0.636,7
1,12,1,-3.269,2.489,-0.76,0.352,-0.092,0.432,-0.27,0.242,-0.523,0.01,10
1,12,1,-2.852,-0.805,-0.313,1.565,0.688,1.467,-0.664,-0.916,-0.2789999999999999,0.489,0
1,12,1,-3.379,0.95,-0.06,1.47,0.5379999999999999,0.051,-0.6809999999999999,-0.098,-0.405,0.912,1
1,12,1,-3.39,3.422,-0.718,-0.667,-0.871,0.7879999999999999,0.959,0.555,-0.482,-0.7240000000000001,7
1,12,1,-3.972,3.24,-0.8290000000000001,0.069,-0.617,0.977,0.532,0.498,-0.191,-0.91,8
1,12,1,-3.292,2.595,-0.578,0.42,-0.233,0.391,-0.241,0.437,-0.541,-0.021,10
1,12,1,-2.8510000000000004,1.412,-0.184,1.281,0.0,-0.146,-0.172,-0.419,-0.307,0.8740000000000001,2
1,12,1,-2.879,2.662,-0.5720000000000001,0.425,-0.248,0.213,0.176,-0.281,-0.4039999999999999,0.605,5
1,12,1,-2.818,3.685,-1.413,-0.5579999999999999,0.025,0.871,0.688,-0.144,-0.93,0.282,6
1,12,1,-3.3960000000000004,3.867,-1.029,-0.603,-0.573,0.78,1.209,0.228,-0.6729999999999999,-0.562,7
1,13,1,-4.711,1.166,1.244,1.746,0.311,-0.305,-0.691,-0.1369999999999999,-0.288,1.023,0
1,13,1,-2.931,1.85,-0.8959999999999999,0.685,-1.0,0.504,0.212,-0.276,-0.203,0.595,3
1,13,1,-2.942,2.642,-1.217,0.384,-0.994,1.467,0.134,-0.4579999999999999,-0.465,0.6459999999999999,4
1,13,1,-3.065,1.781,-0.915,0.698,0.175,0.662,-0.086,-0.361,-0.774,0.951,5
1,13,1,-4.039,2.061,-0.727,0.888,0.302,0.413,-0.381,-0.1939999999999999,-0.614,0.41,8
1,13,1,-4.08,2.242,-0.28,1.876,0.72,-0.292,-0.537,-0.54,-0.6629999999999999,0.238,9
1,13,1,-2.972,1.151,-0.293,1.609,-0.7240000000000001,0.123,-0.087,-0.8009999999999999,0.04,1.07,2
1,13,1,-3.075,1.824,-0.905,0.727,0.155,0.608,-0.075,-0.377,-0.74,0.852,5
1,13,1,-3.4,3.4410000000000003,-1.805,0.8140000000000001,-0.162,1.445,-0.11,-0.499,-1.2009999999999998,-0.046,6
1,13,1,-3.797,4.314,-1.596,-0.476,0.044,0.903,0.129,-0.141,-0.6459999999999999,-0.318,7
1,13,1,-4.045,2.377,-0.3,2.002,0.826,-0.18,-0.768,-0.408,-0.787,0.156,9
1,13,1,-3.455,2.5610000000000004,-0.421,0.847,0.33,0.057,-0.177,-0.494,-0.7859999999999999,0.951,10
1,13,1,-4.756,1.197,1.431,1.54,0.262,-0.2769999999999999,-0.741,0.075,-0.26,0.8759999999999999,0
1,13,1,-2.964,1.154,-0.373,1.511,-0.583,0.152,-0.012,-0.949,-0.054,1.16,2
1,13,1,-2.967,2.781,-1.277,0.354,-0.936,1.505,-0.004,-0.418,-0.56,0.725,4
1,13,1,-3.492,3.446,-1.734,0.705,-0.23,1.339,0.092,-0.698,-1.143,-0.05,6
1,13,1,-3.847,4.268,-1.521,-0.465,-0.23,1.067,-0.02,0.005,-0.5770000000000001,-0.509,7
1,13,1,-3.446,2.44,-0.37,0.926,0.1939999999999999,0.141,-0.098,-0.557,-0.889,0.985,10
1,13,1,-4.763,1.305,1.231,1.548,0.308,-0.152,-0.792,-0.124,-0.107,0.885,0
1,13,1,-2.965,1.124,-0.349,1.581,-0.6659999999999999,0.125,-0.025,-0.887,-0.13,1.11,2
1,13,1,-3.055,1.4,-0.6859999999999999,0.964,-1.29,0.545,0.337,-0.299,-0.173,0.69,3
1,13,1,-3.3710000000000004,2.007,-0.919,0.843,0.221,0.541,-0.317,-0.37,-0.5,0.652,5
1,13,1,-3.852,4.214,-1.556,-0.336,-0.305,1.133,-0.152,0.237,-0.915,-0.445,7
1,13,1,-3.963,2.272,-0.534,0.977,0.3289999999999999,0.514,-0.363,-0.425,-0.7120000000000001,0.41,8
1,13,1,-3.985,2.192,-0.426,2.1630000000000003,1.114,0.016,-0.846,-0.4679999999999999,-0.858,0.037,9
1,13,1,-4.754,1.329,1.09,1.765,0.217,-0.198,-0.782,-0.154,0.023,0.85,0
1,13,1,-3.194,1.589,-0.774,0.8140000000000001,-1.087,0.618,0.218,-0.45,-0.003,0.526,3
1,13,1,-2.928,2.83,-1.361,0.3229999999999999,-0.7390000000000001,1.431,0.002,-0.172,-0.939,0.607,4
1,13,1,-3.52,3.318,-1.867,0.691,0.263,0.8220000000000001,0.14,-0.62,-1.098,0.083,6
1,13,1,-3.838,4.252,-1.621,-0.2189999999999999,-0.281,0.856,0.154,0.133,-0.92,-0.4539999999999999,7
1,13,1,-4.062,2.358,-0.31,1.895,1.095,0.049,-0.87,-0.524,-0.98,-0.065,9
1,13,1,-3.591,2.78,-0.301,0.812,-0.008,-0.019,-0.268,-0.564,-0.7879999999999999,0.948,10
1,13,1,-4.687,1.152,1.089,1.915,0.201,-0.296,-0.6920000000000001,-0.105,-0.143,0.884,0
1,13,1,-3.004,1.09,-0.3279999999999999,1.652,-0.679,0.287,-0.297,-0.695,-0.145,0.71,2
1,13,1,-3.567,2.081,-0.579,0.845,0.126,0.381,-0.179,-0.51,-0.846,0.987,5
1,13,1,-3.57,3.41,-1.5759999999999998,0.563,0.002,0.759,0.285,-0.466,-1.409,0.586,6
1,13,1,-3.792,4.29,-1.531,-0.125,-0.312,0.624,0.324,-0.053,-0.942,-0.301,7
1,14,1,-3.811,2.123,0.278,1.5519999999999998,0.754,0.492,-0.584,-0.433,-0.988,0.652,1
1,14,1,-3.4410000000000003,1.975,-0.395,1.024,-0.052,-0.1669999999999999,-0.445,0.168,-0.684,1.04,2
1,14,1,-3.119,3.135,-1.466,-0.352,-0.023,0.752,0.143,-0.231,-0.376,0.721,4
1,14,1,-2.8710000000000004,3.13,-1.3,0.008,-0.288,0.483,0.258,-0.342,-0.614,0.83,5
1,14,1,-3.059,2.895,-0.847,-0.364,-0.484,1.025,0.502,0.506,-0.733,0.078,6
1,14,1,-3.369,1.784,-0.603,1.3030000000000002,0.0069999999999999,-0.044,-0.4589999999999999,-0.012,-0.591,1.047,2
1,14,1,-3.027,2.903,-0.799,-0.452,-0.503,1.044,0.679,0.483,-0.7759999999999999,-0.062,6
1,14,1,-3.924,2.7260000000000004,0.414,-0.155,-0.02,0.893,-0.188,0.552,-0.507,-0.617,8
1,14,1,-3.661,0.3,0.53,1.816,0.3329999999999999,0.444,-0.858,-0.732,-0.809,0.995,0
1,14,1,-3.674,1.513,0.038,1.604,0.907,1.045,-0.166,-0.295,-1.13,0.594,1
1,14,1,-3.242,1.615,-0.8290000000000001,1.589,0.09,0.051,-0.504,-0.211,-0.513,1.005,2
1,14,1,-2.634,2.076,-1.32,0.833,-0.547,0.287,-0.173,-0.203,-0.001,0.802,3
1,14,1,-2.918,2.897,-1.069,-0.077,-0.261,0.55,0.317,-0.322,-0.7759999999999999,0.79,5
1,14,1,-3.66,3.618,-1.051,-0.748,0.08,1.022,0.914,0.613,0.023,-0.4479999999999999,7
1,14,1,-3.584,1.252,-0.062,1.646,0.787,1.134,0.096,-0.292,-1.133,0.472,1
1,14,1,-3.232,1.551,-0.8320000000000001,1.6740000000000002,-0.042,0.296,-0.5529999999999999,-0.4429999999999999,-0.413,0.96,2
1,14,1,-2.643,2.021,-1.265,0.759,-0.442,0.159,-0.032,-0.145,-0.1639999999999999,0.86,3
1,14,1,-3.706,3.627,-0.889,-0.789,-0.093,1.223,0.8140000000000001,0.563,0.062,-0.449,7
1,14,1,-3.946,2.545,0.447,-0.001,0.043,0.7879999999999999,-0.102,0.68,-0.637,-0.545,8
1,14,1,-3.4610000000000003,0.04,0.5529999999999999,1.854,0.386,0.568,-1.003,-0.638,-1.04,1.051,0
1,14,1,-3.32,1.5530000000000002,-0.586,1.6880000000000002,-0.262,0.392,-0.478,-0.461,-0.522,0.929,2
1,14,1,-3.018,3.014,-1.486,-0.105,-0.131,0.929,0.226,-0.4629999999999999,-0.555,0.598,4
1,14,1,-2.904,2.741,-1.123,0.0139999999999999,0.071,0.654,0.212,-0.4539999999999999,-0.815,0.752,5
1,14,1,-3.952,2.489,0.287,0.012,0.141,0.892,-0.087,0.613,-0.685,-0.623,8
1,14,1,-3.309,2.256,-0.615,0.365,0.251,0.439,0.011,0.119,-1.219,0.695,10
1,14,1,-3.5,0.068,0.5329999999999999,1.876,0.363,0.542,-0.982,-0.6709999999999999,-1.006,1.101,0
1,14,1,-3.468,1.81,-0.39,1.55,-0.084,-0.008,-0.482,-0.231,-0.7240000000000001,0.967,2
1,14,1,-3.002,2.944,-1.379,-0.188,-0.131,0.957,0.346,-0.392,-0.711,0.617,4
1,14,1,-3.98,2.459,0.068,0.023,0.237,1.029,-0.1889999999999999,0.521,-0.773,-0.5,8
1,14,1,-3.2910000000000004,2.324,-0.679,0.285,0.441,0.557,-0.2269999999999999,0.115,-1.046,0.6970000000000001,10
