TT,SpeakerNumber,Sex,F0,F1,F2,F3,F4,F5,F6,F7,F8,F9,TARGET
0,0,0,-3.639,0.418,-0.67,1.779,-0.168,1.6269999999999998,-0.3879999999999999,0.529,-0.8740000000000001,-0.8140000000000001,0
0,0,0,-3.327,0.496,-0.6940000000000001,1.365,-0.265,1.933,-0.363,0.51,-0.621,-0.488,1
0,0,0,-2.12,0.894,-1.5759999999999998,0.147,-0.7070000000000001,1.5590000000000002,-0.579,0.6759999999999999,-0.809,-0.049,2
0,0,0,-2.852,1.914,-0.755,0.825,-1.588,0.855,0.217,-0.246,0.238,-0.365,5
0,0,0,-3.86,2.116,-0.939,0.688,-0.675,1.679,-0.512,0.928,-0.1669999999999999,-0.434,8
0,0,0,-3.648,1.812,-1.378,1.578,0.065,1.577,-0.466,0.7020000000000001,0.06,-0.836,9
0,0,0,-3.032,1.739,-1.141,0.737,-0.8340000000000001,1.386,-0.575,0.679,-0.018,-0.823,10
0,0,0,-2.826,2.003,-0.738,0.8009999999999999,-1.669,0.939,0.245,-0.257,0.256,-0.4579999999999999,5
0,0,0,-3.582,2.374,-0.358,1.162,-1.953,0.621,0.3389999999999999,0.355,0.415,-0.259,6
0,0,0,-2.946,1.649,-1.167,0.7879999999999999,-0.909,1.3,-0.562,0.902,-0.07,-0.8420000000000001,10
0,0,0,-3.665,0.337,-0.6409999999999999,1.791,-0.1939999999999999,1.686,-0.359,0.57,-0.6759999999999999,-0.841,0
0,0,0,-3.165,0.408,-0.971,1.207,-0.298,1.921,-0.215,0.723,-0.492,-0.425,1
0,0,0,-2.635,2.147,-1.129,0.911,-1.4069999999999998,1.095,-0.071,0.118,0.139,-0.685,4
0,0,0,-2.887,2.131,-0.83,0.682,-1.557,0.818,0.4479999999999999,-0.382,0.207,-0.402,5
0,0,0,-3.635,2.25,-0.3939999999999999,1.012,-1.693,0.1169999999999999,0.665,0.281,0.3429999999999999,-0.003,6
0,0,0,-3.712,1.816,-1.171,0.647,-0.767,1.6980000000000002,-0.347,0.92,0.159,-0.359,8
0,0,0,-3.74,1.832,-1.384,1.587,0.049,1.642,-0.516,0.7070000000000001,-0.1689999999999999,-0.522,9
0,0,0,-3.624,0.305,-0.708,1.758,-0.1939999999999999,1.675,-0.273,0.561,-0.5770000000000001,-0.843,0
0,0,0,-3.559,2.126,-0.445,1.053,-1.765,0.349,0.546,0.321,0.4429999999999999,-0.118,6
0,0,0,-4.074,2.281,0.152,1.556,-1.6130000000000002,-0.047,0.222,0.252,0.775,0.125,7
0,0,0,-3.618,1.5759999999999998,-1.14,0.6990000000000001,-0.741,1.633,-0.387,1.086,0.235,-0.3879999999999999,8
0,0,0,-2.911,1.928,-1.131,0.899,-0.911,1.111,-0.208,-0.047,-0.0289999999999999,-0.539,4
0,0,0,-3.089,2.339,-0.973,0.4629999999999999,-1.169,0.5429999999999999,0.598,-0.45,-0.08,-0.039,5
0,0,0,-4.208,2.447,0.049,1.331,-2.088,0.585,-0.05,0.82,0.606,-0.302,7
0,0,0,-3.1710000000000003,0.49,-1.128,0.911,-0.3879999999999999,2.014,-0.212,0.7070000000000001,-0.551,-0.187,1
0,0,0,-2.302,0.85,-1.646,0.455,-0.488,1.491,-0.617,0.8190000000000001,-0.887,-0.08,2
0,0,0,-3.141,1.873,-1.131,0.941,-0.759,1.224,-0.354,0.016,-0.218,-0.568,4
0,0,0,-3.4730000000000003,2.178,-0.82,0.706,-1.71,0.779,0.422,0.351,0.426,-0.267,6
0,0,0,-3.5460000000000003,1.258,-1.227,0.823,-0.7020000000000001,1.734,-0.397,1.3330000000000002,-0.2769999999999999,0.013,8
0,1,0,-1.372,-0.03,-1.003,-0.3879999999999999,-0.471,1.141,0.654,0.823,0.5579999999999999,0.043,1
0,1,0,-1.816,0.4579999999999999,-0.947,-0.341,0.085,0.75,0.144,0.462,-0.24,-0.266,2
0,1,0,-1.954,1.595,-1.5930000000000002,0.37,-0.136,0.022,0.034,0.321,-0.19,-0.491,3
0,1,0,-2.654,2.39,-0.008,0.07,-1.063,0.304,-0.105,0.281,0.488,-0.382,4
0,1,0,-2.321,1.3030000000000002,0.32,-0.085,-0.278,0.001,-0.094,-0.283,0.852,0.022,5
0,1,0,-3.941,3.353,0.486,-0.506,-1.12,0.1009999999999999,0.297,0.711,-0.078,0.648,7
0,1,0,-4.52,2.231,-0.088,0.513,-0.528,1.246,0.198,0.242,0.161,0.769,9
0,1,0,-3.088,1.389,0.048,-0.216,-0.3289999999999999,0.91,0.045,-0.075,0.1009999999999999,-0.134,10
0,1,0,-1.6569999999999998,0.0559999999999999,-1.044,-0.32,-0.316,1.321,0.638,0.8,0.298,-0.159,1
0,1,0,-1.709,0.486,-0.953,-0.346,0.02,0.7859999999999999,0.145,0.564,-0.2289999999999999,-0.322,2
0,1,0,-1.952,1.469,-1.375,0.105,-0.154,0.17,-0.047,0.336,-0.098,-0.41,3
0,1,0,-3.1460000000000004,3.076,-0.6829999999999999,-0.032,-0.693,-0.06,-0.267,0.476,0.982,-0.352,6
0,1,0,-3.902,3.5860000000000003,0.3339999999999999,-0.669,-1.087,0.255,0.461,0.812,-0.185,0.535,7
0,1,0,-4.267,3.01,0.172,0.0279999999999999,-0.8270000000000001,0.532,0.099,0.326,0.34,0.696,8
0,1,0,-1.976,0.389,-0.947,-0.25,-0.065,0.949,0.127,0.478,-0.3229999999999999,-0.345,2
0,1,0,-1.914,1.473,-1.342,-0.013,-0.213,0.253,0.005,0.2289999999999999,-0.009,-0.445,3
0,1,0,-2.7,2.83,-0.389,0.032,-0.958,0.44,-0.168,0.519,0.1689999999999999,-0.525,4
0,1,0,-2.5540000000000003,1.117,0.42,-0.022,-0.645,0.02,0.145,-0.327,0.66,0.073,5
0,1,0,-3.054,3.104,-0.513,-0.085,-0.952,0.299,-0.2689999999999999,0.4589999999999999,0.892,-0.308,6
0,1,0,-4.676,2.537,0.075,0.73,-0.933,1.493,0.049,0.076,0.254,0.276,9
0,1,0,-2.922,1.516,-0.002,-0.353,-0.4639999999999999,1.1840000000000002,0.3829999999999999,-0.175,-0.346,-0.033,10
0,1,0,-4.477,0.246,1.087,1.108,0.682,1.057,0.424,-0.264,-1.195,-0.52,0
0,1,0,-1.895,-0.012,-0.97,-0.152,-0.161,1.509,0.487,0.809,0.044,-0.264,1
0,1,0,-1.945,0.352,-1.053,-0.228,-0.12,0.927,0.088,0.509,-0.2789999999999999,-0.246,2
0,1,0,-1.912,1.554,-1.455,-0.017,-0.118,0.27,-0.037,0.163,-0.027,-0.474,3
0,1,0,-3.092,3.014,-0.307,-0.016,-0.956,0.195,-0.2269999999999999,0.367,0.958,-0.092,6
0,1,0,-3.917,3.4960000000000004,0.409,-0.531,-1.15,0.017,0.605,0.977,-0.3279999999999999,0.447,7
0,1,0,-4.232,3.035,0.428,0.497,-1.374,0.5489999999999999,0.133,0.2319999999999999,0.129,0.487,8
0,1,0,-2.945,1.724,-0.312,-0.239,-0.447,1.36,0.0139999999999999,-0.102,0.021,-0.564,10
0,1,0,-4.314,-0.106,1.044,1.192,0.687,0.763,0.158,-0.193,-1.342,-0.447,0
0,1,0,-2.05,0.065,-0.938,-0.037,0.0819999999999999,1.561,0.3929999999999999,0.835,-0.0289999999999999,-0.3939999999999999,1
0,1,0,-1.804,0.431,-1.0,-0.427,-0.094,0.848,0.084,0.636,-0.275,-0.214,2
0,1,0,-1.978,1.5419999999999998,-1.487,-0.096,-0.025,0.32,-0.063,0.0969999999999999,-0.073,-0.381,3
0,1,0,-2.748,3.217,-0.976,-0.213,-0.792,0.7709999999999999,-0.032,0.223,0.043,-0.825,4
0,1,0,-3.985,3.614,0.584,-0.42,-1.105,-0.174,0.348,0.885,-0.165,0.65,7
0,1,0,-4.16,3.329,0.275,0.3939999999999999,-1.287,0.693,0.483,0.121,0.286,0.153,8
0,1,0,-4.88,3.064,0.06,0.434,-0.575,0.897,0.25,0.085,0.093,0.445,9
0,1,0,-2.051,1.508,-1.641,-0.0579999999999999,-0.102,0.346,-0.021,0.109,-0.147,-0.298,3
0,1,0,-3.065,3.139,-0.461,-0.221,-0.759,-0.045,0.068,0.2739999999999999,0.999,-0.331,6
0,1,0,-4.136,3.582,-0.407,-0.038,-0.687,1.031,0.491,0.157,0.305,0.0279999999999999,8
0,2,0,-1.737,1.789,-1.046,1.071,-0.775,1.041,-0.025,0.925,-0.452,0.0069999999999999,3
0,2,0,-2.125,1.952,-0.415,1.4580000000000002,-0.985,0.52,-0.344,1.249,-0.37,0.145,5
0,2,0,-2.607,2.406,-0.088,1.586,-1.477,0.1639999999999999,-0.527,1.551,0.033,0.522,6
0,2,0,-1.012,0.516,-2.041,0.32,-0.634,1.969,0.0409999999999999,1.414,-0.687,0.047,1
0,2,0,-1.501,0.847,-1.619,0.92,-0.488,1.616,-0.161,1.127,-0.613,-0.051,2
0,2,0,-1.6740000000000002,1.711,-1.04,1.136,-0.8690000000000001,1.036,-0.157,0.946,-0.361,0.02,3
0,2,0,-2.652,2.156,-0.053,1.694,-1.258,0.062,-0.61,1.3969999999999998,0.133,0.602,6
0,2,0,-3.834,3.749,-0.183,1.518,-1.585,-0.281,-0.3339999999999999,1.1909999999999998,0.425,-0.104,7
0,2,0,-3.33,1.529,-0.552,2.023,-0.845,0.016,0.049,0.512,0.396,0.386,8
0,2,0,-4.17,2.232,-0.389,1.211,-1.011,0.57,0.5429999999999999,0.218,1.206,0.044,9
0,2,0,-1.393,-0.305,-2.29,1.1,-0.254,2.327,0.363,0.795,-1.521,-0.7559999999999999,0
0,2,0,-0.941,0.539,-2.02,0.314,-0.679,1.897,0.0279999999999999,1.504,-0.632,0.111,1
0,2,0,-1.332,0.848,-1.665,0.97,-0.4629999999999999,1.5219999999999998,-0.159,1.101,-0.541,-0.05,2
0,2,0,-1.57,1.655,-1.04,1.16,-0.923,0.961,-0.231,0.955,-0.273,0.065,3
0,2,0,-2.227,1.993,-0.156,1.554,-1.19,0.332,-0.5479999999999999,1.362,-0.013,0.369,4
0,2,0,-2.043,1.95,-0.435,1.341,-1.0490000000000002,0.5579999999999999,-0.237,1.237,-0.283,0.306,5
0,2,0,-2.679,1.731,-0.09,2.003,-1.009,0.038,-0.8220000000000001,1.232,0.128,0.72,6
0,2,0,-3.836,3.699,-0.225,1.52,-1.729,-0.184,0.064,0.97,0.5,-0.13,7
0,2,0,-3.478,1.703,-0.557,2.191,-1.043,0.3389999999999999,-0.004,0.5870000000000001,0.45,0.006,8
0,2,0,-1.4169999999999998,-0.319,-2.254,1.072,-0.221,2.268,0.43,0.923,-1.486,-0.698,0
0,2,0,-0.961,0.514,-1.951,0.364,-0.68,1.895,0.047,1.539,-0.63,0.094,1
0,2,0,-1.22,0.831,-1.6740000000000002,0.94,-0.425,1.463,-0.063,1.135,-0.422,0.06,2
0,2,0,-1.501,1.611,-1.003,1.156,-0.883,0.901,-0.1689999999999999,0.862,-0.151,0.1639999999999999,3
0,2,0,-1.891,1.776,-0.518,1.461,-1.05,0.5670000000000001,-0.307,1.152,-0.239,0.325,5
0,2,0,-3.763,3.252,-0.262,1.52,-1.6840000000000002,-0.225,0.235,0.989,0.616,0.046,7
0,2,0,-3.549,1.905,-0.509,1.963,-1.2,0.847,-0.157,0.8420000000000001,0.625,-0.586,8
0,2,0,-2.562,1.361,-0.94,1.3330000000000002,-1.047,1.208,-0.316,1.055,0.354,-0.77,10
0,2,0,-1.123,0.415,-1.954,0.563,-0.465,1.983,0.027,1.614,-0.568,0.0069999999999999,1
0,2,0,-1.475,1.557,-1.009,1.202,-0.846,0.883,-0.138,0.8220000000000001,-0.165,0.198,3
0,2,0,-1.824,1.682,-0.669,1.483,-1.036,0.711,-0.249,1.193,-0.2739999999999999,0.2239999999999999,5
0,2,0,-2.574,1.814,-0.1669999999999999,1.826,-1.156,0.12,-0.609,1.543,0.11,0.75,6
0,2,0,-3.545,1.926,-0.512,1.732,-1.109,1.006,0.021,0.82,0.731,-0.639,8
0,2,0,-1.4,0.316,-1.894,0.83,-0.242,2.0380000000000003,0.003,1.6669999999999998,-0.515,-0.087,1
0,2,0,-1.5119999999999998,1.492,-1.053,1.262,-0.809,0.941,-0.122,0.807,-0.206,0.145,3
0,2,0,-2.447,1.914,-0.208,1.641,-1.159,0.104,-0.539,1.58,0.0579999999999999,0.7859999999999999,6
0,2,0,-3.675,3.132,-0.241,1.587,-1.75,-0.222,0.039,1.052,0.545,0.233,7
0,2,0,-4.376,2.216,-0.2689999999999999,1.32,-0.66,0.159,0.7190000000000001,0.008,1.058,0.472,9
0,3,0,-1.548,-0.4,-1.659,0.244,-0.1009999999999999,1.5619999999999998,0.551,1.248,0.129,-0.456,0
0,3,0,-1.614,0.287,-1.195,-0.252,-0.257,1.251,0.281,0.898,0.188,-0.423,1
0,3,0,-1.891,0.988,-1.06,0.119,0.59,0.263,0.372,0.39,-0.376,-0.655,2
0,3,0,-2.464,1.968,0.026,0.078,-0.542,0.074,0.051,0.596,0.26,-0.437,5
0,3,0,-2.439,0.789,0.0819999999999999,0.242,-0.693,0.595,-0.353,0.7020000000000001,0.413,0.098,10
0,3,0,-1.425,0.256,-1.13,-0.284,-0.3939999999999999,1.253,0.306,0.893,0.272,-0.3779999999999999,1
0,3,0,-1.814,0.923,-0.931,0.12,0.425,0.5539999999999999,0.237,0.426,-0.184,-0.727,2
0,3,0,-2.007,1.814,-0.581,-0.027,0.127,0.081,0.089,-0.016,0.115,-0.7190000000000001,3
0,3,0,-2.559,2.3,0.408,-0.001,-1.077,0.125,-0.254,0.975,0.07,-0.47,4
0,3,0,-2.431,1.873,0.208,0.123,-0.634,0.178,0.04,0.612,0.446,-0.562,5
0,3,0,-2.434,0.87,0.127,0.2239999999999999,-0.8109999999999999,0.6659999999999999,-0.233,0.705,0.408,0.136,10
0,3,0,-1.388,0.215,-1.105,-0.295,-0.39,1.2819999999999998,0.356,0.816,0.292,-0.376,1
0,3,0,-1.764,0.888,-1.001,0.1969999999999999,0.3,0.66,0.159,0.557,-0.301,-0.65,2
0,3,0,-2.375,1.642,0.308,0.255,-0.82,0.225,-0.092,0.8740000000000001,0.367,-0.525,5
0,3,0,-1.79,0.7929999999999999,-1.041,0.214,0.215,0.6940000000000001,0.121,0.583,-0.4029999999999999,-0.487,2
0,3,0,-2.089,1.695,-0.528,-0.2319999999999999,0.385,-0.1369999999999999,0.033,0.071,0.033,-0.7440000000000001,3
0,3,0,-3.062,1.008,0.935,1.443,-0.579,0.068,-1.3330000000000002,0.106,0.958,0.979,6
0,3,0,-3.576,1.357,0.912,1.878,-1.166,0.039,-1.537,0.6579999999999999,0.843,1.087,7
0,3,0,-4.316,1.147,0.088,0.593,-0.314,1.3159999999999998,-0.255,0.7609999999999999,0.492,0.133,9
0,3,0,-2.608,0.8390000000000001,0.203,0.305,-0.851,0.78,-0.143,0.607,0.344,0.106,10
0,3,0,-1.953,-0.596,-1.543,0.619,0.0559999999999999,1.742,0.5920000000000001,1.289,-0.163,-0.523,0
0,3,0,-2.291,1.146,0.352,0.354,-0.7140000000000001,0.08,-0.181,0.787,0.7090000000000001,-0.409,5
0,3,0,-3.53,1.268,0.903,1.887,-1.279,0.008,-1.4409999999999998,0.657,0.873,1.042,7
0,3,0,-4.394,1.162,0.157,0.608,-0.409,1.352,-0.243,0.758,0.447,0.096,9
0,3,0,-2.704,0.917,0.267,0.314,-0.7559999999999999,0.818,-0.114,0.6729999999999999,0.261,0.0559999999999999,10
0,3,0,-1.537,0.043,-1.125,-0.213,-0.3779999999999999,1.265,0.33,0.87,0.293,-0.3929999999999999,1
0,3,0,-1.933,0.728,-1.015,0.27,0.1989999999999999,0.78,0.192,0.706,-0.446,-0.595,2
0,3,0,-2.076,1.413,-0.584,0.19,-0.35,0.518,-0.406,0.313,0.027,-0.7240000000000001,3
0,3,0,-2.5540000000000003,1.5319999999999998,0.812,0.367,-1.208,-0.352,-0.252,0.894,0.05,0.084,4
0,3,0,-3.482,1.127,0.899,1.993,-1.385,-0.05,-1.273,0.647,0.8440000000000001,1.044,7
0,3,0,-3.2460000000000004,0.7120000000000001,0.39,0.82,-1.352,1.074,0.1969999999999999,0.857,-0.0559999999999999,0.485,8
0,4,1,-3.034,-1.274,0.263,1.521,0.66,1.622,-0.361,-0.4679999999999999,-0.74,0.517,0
0,4,1,-2.611,0.434,0.231,1.3430000000000002,0.3229999999999999,-0.3779999999999999,-0.618,-0.2189999999999999,-0.285,0.347,2
0,4,1,-2.758,2.067,-0.31,-0.5429999999999999,-0.687,0.091,0.8809999999999999,0.172,-0.4539999999999999,-0.093,4
0,4,1,-3.533,2.319,1.085,0.247,-1.053,-0.429,-0.026,1.305,-0.243,-0.6709999999999999,6
0,4,1,-3.893,3.69,0.079,-0.151,-1.093,-0.518,0.198,1.5830000000000002,-0.257,-0.1689999999999999,7
0,4,1,-2.91,0.918,-0.138,-0.382,0.115,0.29,0.418,0.757,-0.898,-0.1889999999999999,10
0,4,1,-3.224,0.487,0.8220000000000001,1.324,0.753,0.352,-0.976,-0.562,-0.489,0.172,1
0,4,1,-2.681,0.531,0.252,1.239,0.469,-0.3389999999999999,-0.652,-0.417,-0.246,0.412,2
0,4,1,-2.861,2.091,-0.411,-0.4379999999999999,-0.643,0.317,0.8170000000000001,0.104,-0.481,-0.252,4
0,4,1,-2.445,1.503,-0.677,-0.46,-0.14,-0.002,1.014,0.061,-0.599,0.175,5
0,4,1,-3.406,2.403,1.025,0.108,-1.1,-0.316,0.099,1.541,-0.304,-0.6709999999999999,6
0,4,1,-3.958,3.922,0.15,-0.265,-1.2009999999999998,-0.249,0.2019999999999999,1.163,-0.049,-0.039,7
0,4,1,-2.923,0.919,-0.231,-0.307,0.075,0.265,0.4029999999999999,0.691,-1.012,-0.157,10
0,4,1,-3.39,-0.956,0.476,1.547,0.6579999999999999,1.504,-0.65,-0.604,-0.295,0.616,0
0,4,1,-3.128,0.28,0.955,1.264,0.753,0.437,-0.841,-0.517,-0.473,0.0,1
0,4,1,-1.693,0.807,-0.038,-0.051,-0.174,-0.372,0.1169999999999999,0.053,-0.611,0.3,3
0,4,1,-2.555,1.421,-0.8,-0.233,-0.078,0.244,0.7709999999999999,-0.1119999999999999,-0.7070000000000001,0.165,5
0,4,1,-4.0680000000000005,2.5660000000000003,-0.068,-0.152,0.126,0.5479999999999999,0.4529999999999999,0.5770000000000001,-0.5429999999999999,-0.8959999999999999,8
0,4,1,-4.314,2.322,0.58,0.2789999999999999,0.7020000000000001,0.532,-0.068,0.8140000000000001,-0.917,-1.109,9
0,4,1,-3.485,-0.86,0.5820000000000001,1.501,0.578,1.48,-0.6629999999999999,-0.602,-0.318,0.575,0
0,4,1,-3.049,0.084,0.981,1.193,0.7609999999999999,0.495,-0.7140000000000001,-0.466,-0.568,-0.149,1
0,4,1,-1.611,0.831,-0.0559999999999999,-0.048,-0.044,-0.423,0.289,-0.092,-0.633,0.221,3
0,4,1,-2.842,1.3430000000000002,-0.713,0.003,0.126,0.411,0.5379999999999999,-0.077,-0.995,0.092,5
0,4,1,-4.222,3.886,0.016,-0.144,-1.132,-0.053,0.519,1.024,0.075,-0.226,7
0,4,1,-4.087,2.555,0.123,-0.151,0.118,0.474,0.365,0.495,-0.473,-0.8859999999999999,8
0,4,1,-4.442,2.607,0.596,0.191,0.636,0.679,-0.14,0.774,-0.828,-1.122,9
0,4,1,-2.9760000000000004,1.033,-0.222,-0.099,0.081,0.052,0.479,0.517,-1.105,-0.125,10
0,4,1,-3.689,-0.599,0.6920000000000001,1.307,0.605,1.514,-0.752,-0.6970000000000001,-0.355,0.7020000000000001,0
0,4,1,-3.249,1.042,0.589,1.408,0.023,-0.821,-0.581,0.031,0.068,0.325,2
0,4,1,-3.003,1.163,-0.45,0.3279999999999999,0.0969999999999999,0.574,0.427,-0.017,-1.146,-0.06,5
0,4,1,-4.129,2.6860000000000004,0.308,-0.125,0.1169999999999999,0.3929999999999999,0.1989999999999999,0.308,-0.478,-0.909,8
0,4,1,-2.846,1.01,-0.2189999999999999,-0.083,0.091,0.076,0.442,0.509,-1.181,-0.021,10
0,4,1,-2.942,2.091,-0.353,-0.364,-0.61,0.401,0.8640000000000001,0.191,-0.764,-0.235,4
0,4,1,-3.661,3.266,-0.1169999999999999,-0.237,-0.755,0.092,0.6859999999999999,0.381,-0.58,-0.687,6
0,5,1,-3.322,-0.303,-0.5,0.963,0.921,0.981,1.0590000000000002,-1.079,-1.004,0.1119999999999999,0
0,5,1,-2.4930000000000003,1.382,-0.929,0.465,-0.369,0.002,0.187,-0.696,-0.31,0.348,3
0,5,1,-4.694,3.229,-1.153,0.7020000000000001,0.452,0.298,0.4539999999999999,0.001,-0.264,-1.399,9
0,5,1,-3.012,1.628,-0.8340000000000001,0.975,-0.299,0.926,0.174,0.836,-0.239,-1.144,10
0,5,1,-2.882,2.165,-0.589,0.173,-1.165,0.0139999999999999,0.5710000000000001,0.502,-0.093,-0.616,4
0,5,1,-3.354,2.85,-0.887,0.01,-0.551,0.293,0.901,0.32,-0.302,-1.023,6
0,5,1,-4.708,3.269,-1.121,0.701,0.437,0.176,0.552,0.004,-0.168,-1.484,9
0,5,1,-3.0,1.524,-0.866,1.015,-0.4,0.861,0.174,0.938,-0.216,-1.01,10
0,5,1,-2.859,2.255,-0.6759999999999999,0.098,-1.086,0.0409999999999999,0.732,0.305,-0.141,-0.636,4
0,5,1,-3.775,2.188,-1.017,0.687,-0.4639999999999999,1.189,-0.157,1.673,-0.024,-1.144,8
0,5,1,-3.594,-0.1369999999999999,-0.0279999999999999,1.018,1.069,0.723,0.695,-0.982,-1.433,0.249,0
0,5,1,-3.0860000000000003,1.01,-0.627,1.508,0.3379999999999999,0.747,-0.479,-0.3229999999999999,-1.087,0.645,2
0,5,1,-3.777,2.064,-0.983,0.846,-0.373,0.96,-0.04,1.331,0.247,-1.09,8
0,5,1,-3.006,1.4069999999999998,-0.875,0.945,-0.495,0.721,0.212,0.75,-0.037,-1.054,10
0,5,1,-3.781,-0.011,0.102,1.115,1.036,0.6509999999999999,0.615,-1.082,-1.272,0.05,0
0,5,1,-2.85,1.446,-0.792,0.482,-0.365,0.046,-0.0289999999999999,-0.7609999999999999,-0.251,0.113,3
0,5,1,-2.884,2.424,-0.764,-0.108,-1.015,0.361,0.7120000000000001,0.133,-0.017,-0.847,4
0,5,1,-3.2460000000000004,2.7960000000000003,-0.867,-0.205,-0.316,0.8079999999999999,0.8240000000000001,0.062,-0.118,-0.7490000000000001,6
0,5,1,-4.172,3.188,-0.375,1.028,-1.41,0.008,0.513,0.635,0.802,-0.28,7
0,5,1,-4.836,3.871,-0.684,0.182,0.349,-0.176,0.317,0.059,-0.024,-1.13,9
0,5,1,-2.9730000000000003,1.304,-0.8490000000000001,0.984,-0.508,0.59,0.248,0.728,0.073,-1.107,10
0,5,1,-3.404,0.506,-0.591,1.6269999999999998,0.66,1.456,0.068,0.381,-1.494,-0.4529999999999999,1
0,5,1,-2.952,0.777,-0.74,1.311,0.424,0.853,-0.319,-0.0819999999999999,-1.456,0.616,2
0,5,1,-3.005,1.472,-0.716,0.535,-0.392,0.054,-0.054,-0.6859999999999999,-0.29,0.153,3
0,5,1,-2.898,2.421,-0.81,-0.043,-1.164,0.4479999999999999,0.69,0.218,-0.078,-0.8759999999999999,4
0,5,1,-2.906,1.102,-0.491,0.575,-0.386,0.7709999999999999,-0.134,0.977,-0.54,-0.604,5
0,5,1,-3.462,2.648,-0.447,-0.0,-0.416,0.767,0.569,-0.072,-0.08,-0.7979999999999999,6
0,5,1,-3.846,1.426,-0.607,1.4340000000000002,-0.072,1.13,-0.535,1.159,-0.123,-0.385,8
0,6,1,-3.208,-0.608,-0.516,1.098,1.529,1.069,0.186,-0.947,-0.248,-0.059,0
0,6,1,-1.885,2.214,-0.6729999999999999,0.147,-0.148,-0.4,0.252,-0.098,-0.8740000000000001,0.245,3
0,6,1,-2.488,2.822,-0.239,-0.33,-1.355,0.284,0.1009999999999999,0.934,-0.966,-0.31,4
0,6,1,-2.335,2.8960000000000004,-0.295,-0.42,-0.645,0.351,0.12,0.447,-1.126,0.11,5
0,6,1,-4.21,3.289,-0.106,-1.247,-0.6829999999999999,0.539,0.579,0.8320000000000001,-0.035,-0.764,7
0,6,1,-3.984,2.29,-0.103,-0.7070000000000001,0.297,0.317,0.857,1.403,-1.253,-0.298,8
0,6,1,-2.528,1.288,-0.144,-0.171,-0.077,0.26,-0.045,0.6809999999999999,-1.399,-0.066,10
0,6,1,-3.431,-0.5,-0.362,1.173,1.59,0.956,0.162,-0.853,-0.364,0.084,0
0,6,1,-2.353,2.897,-0.433,-0.193,-0.715,0.359,0.26,0.273,-1.206,0.36,5
0,6,1,-4.045,2.193,0.2,-0.745,0.215,0.387,0.625,1.477,-1.207,-0.27,8
0,6,1,-3.5860000000000003,-0.38,-0.359,1.307,1.587,0.99,0.18,-0.831,-0.471,0.198,0
0,6,1,-2.282,0.6729999999999999,-0.7979999999999999,1.286,0.308,0.01,-0.411,-0.61,-0.266,0.584,2
0,6,1,-1.985,2.161,-0.601,0.424,-0.295,-0.489,0.208,-0.216,-0.562,0.079,3
0,6,1,-2.415,2.517,-0.285,0.085,-0.902,0.283,0.302,0.247,-1.207,0.371,5
0,6,1,-2.776,2.563,0.532,0.2769999999999999,-1.47,-0.368,-0.278,1.479,-0.1639999999999999,-0.797,6
0,6,1,-4.107,2.17,0.206,-0.8109999999999999,0.3339999999999999,0.633,0.402,1.097,-1.327,-0.04,8
0,6,1,-5.069,2.119,0.826,-0.2739999999999999,0.5760000000000001,0.145,0.308,1.001,-1.412,-0.306,9
0,6,1,-2.812,1.954,-0.6609999999999999,0.109,-0.011,0.11,0.187,0.096,-1.538,0.5920000000000001,10
0,6,1,-3.152,0.086,-0.325,0.868,1.084,0.753,-0.522,-0.005,-0.821,0.483,1
0,6,1,-2.6010000000000004,2.735,-0.322,-0.255,-1.67,0.2289999999999999,0.2019999999999999,1.01,-0.871,-0.461,4
0,6,1,-2.922,2.6210000000000004,0.214,0.122,-1.477,-0.173,0.045,1.38,-0.635,-0.757,6
0,6,1,-4.417,3.765,-1.225,-0.853,0.0409999999999999,0.536,0.885,0.5329999999999999,-0.757,-0.789,7
0,6,1,-2.93,2.014,-0.7,0.206,-0.088,0.153,0.142,-0.031,-1.4369999999999998,0.615,10
0,6,1,-4.247,-0.034,0.248,1.372,1.831,1.167,0.087,-0.518,-0.316,0.347,0
0,6,1,-2.514,0.5579999999999999,-0.777,1.2990000000000002,0.027,0.247,-0.487,-0.653,-0.0279999999999999,0.481,2
0,6,1,-2.041,2.119,-0.585,0.5489999999999999,-0.43,-0.291,-0.002,-0.2339999999999999,-0.7509999999999999,0.253,3
0,6,1,-2.64,2.704,-0.345,-0.23,-1.649,0.064,0.275,0.952,-0.6509999999999999,-0.5710000000000001,4
0,6,1,-2.729,2.104,-0.505,0.138,-0.5329999999999999,0.455,0.148,-0.407,-1.0590000000000002,0.625,5
0,6,1,-4.415,3.737,-1.3130000000000002,-0.815,0.168,0.59,0.975,0.42,-0.825,-0.748,7
0,6,1,-2.907,1.992,-0.904,0.205,0.011,0.346,-0.031,-0.148,-1.262,0.487,10
0,6,1,-4.687,0.406,0.889,1.464,1.618,1.021,-0.121,-0.3979999999999999,-0.307,0.293,0
0,6,1,-2.081,2.043,-0.521,0.578,-0.4629999999999999,-0.246,-0.0409999999999999,-0.162,-0.8140000000000001,0.425,3
0,6,1,-2.982,2.001,-0.915,0.188,0.035,0.467,-0.13,-0.6890000000000001,-0.684,0.664,5
0,6,1,-5.211,2.544,0.82,-0.3329999999999999,0.447,0.226,0.127,0.89,-1.389,-0.304,9
0,6,1,-2.752,1.778,-0.718,0.057,-0.009,0.402,0.121,0.05,-1.435,0.281,10
0,7,1,-4.181,1.646,0.736,1.286,0.7240000000000001,-0.511,-1.126,-0.45,-0.648,0.995,1
0,7,1,-3.133,1.983,-1.398,0.254,-0.667,0.532,0.389,-0.178,-0.584,0.8440000000000001,5
0,7,1,-3.749,3.018,-0.755,-0.452,-0.6659999999999999,0.209,0.741,0.9,-1.6130000000000002,0.128,6
0,7,1,-4.373,4.643,-0.792,-1.332,-0.2019999999999999,0.597,0.192,1.133,-1.131,-0.28,7
0,7,1,-4.468,4.121,-0.42,-1.197,0.3379999999999999,0.6,-0.11,0.314,-1.248,-0.012,8
0,7,1,-5.124,2.319,1.413,1.804,-0.2769999999999999,-0.33,-0.746,0.221,0.06,0.46,0
0,7,1,-3.961,1.078,0.11,1.232,0.21,-0.67,-0.536,-0.33,-0.268,1.098,2
0,7,1,-3.0010000000000003,2.263,-1.178,-0.1159999999999999,-0.922,0.536,1.286,-0.506,-0.5660000000000001,-0.102,4
0,7,1,-4.474,4.569,-1.069,-1.409,0.1369999999999999,1.0490000000000002,0.071,0.877,-1.355,-0.1669999999999999,7
0,7,1,-4.471,4.096,-0.809,-0.8809999999999999,0.6459999999999999,0.539,0.04,0.142,-1.555,-0.023,8
0,7,1,-4.947,4.637,-0.444,-0.953,-0.119,-0.249,0.594,0.27,-0.7829999999999999,0.265,9
0,7,1,-4.058,1.072,0.157,1.136,0.385,-0.687,-0.583,-0.185,-0.3,1.177,2
0,7,1,-3.765,1.97,-0.955,0.304,-0.735,0.41,0.38,0.146,-0.536,0.738,5
0,7,1,-3.975,3.0660000000000003,-0.506,-0.8270000000000001,-0.478,0.434,0.356,0.939,-1.3090000000000002,0.204,6
0,7,1,-4.475,4.064,-0.927,-0.6779999999999999,0.599,0.445,0.2239999999999999,0.103,-1.336,-0.192,8
0,7,1,-5.011,4.976,-0.868,-1.215,0.17,-0.018,0.5429999999999999,0.154,-0.841,0.7070000000000001,9
0,7,1,-5.125,2.077,1.283,2.003,-0.7340000000000001,-0.513,-0.557,0.055,0.295,0.2689999999999999,0
0,7,1,-3.5810000000000004,1.188,-0.958,0.1889999999999999,-0.077,0.451,0.049,0.449,-0.6759999999999999,0.919,3
0,7,1,-3.828,2.367,-0.836,-0.3429999999999999,-0.466,0.1159999999999999,1.172,-0.175,-0.275,0.1169999999999999,4
0,7,1,-3.949,2.99,-0.643,-0.986,-0.175,0.768,0.249,0.8029999999999999,-1.479,0.168,6
0,7,1,-5.049,4.846,-0.6779999999999999,-0.877,-0.09,0.005,0.253,-0.078,-0.178,0.131,9
0,7,1,-5.143,2.051,1.216,1.898,-0.555,-0.466,-0.8420000000000001,0.011,0.461,0.193,0
0,7,1,-5.04,5.074,-1.721,-0.264,0.2789999999999999,0.176,0.003,-0.609,-0.177,0.422,9
0,7,1,-5.105,1.968,1.14,1.719,-0.4429999999999999,-0.432,-0.969,-0.173,0.551,0.176,0
0,7,1,-4.426,1.167,0.008,1.315,0.1889999999999999,-0.297,-0.124,-0.244,-0.423,0.684,2
0,7,1,-3.597,2.146,-1.492,-0.142,-0.297,0.815,0.87,-0.49,-0.471,0.41,4
0,7,1,-4.651,4.246,-0.823,-0.831,0.6659999999999999,0.546,-0.3,0.094,-1.3430000000000002,0.185,8
0,7,1,-4.261,1.827,-0.482,-0.1939999999999999,0.731,0.354,-0.478,0.05,-0.1119999999999999,0.321,10
1,8,0,-1.149,-0.904,-1.988,0.7390000000000001,-0.06,1.206,0.8640000000000001,1.196,-0.3,-0.467,0
1,8,0,-2.613,-0.092,-0.54,0.484,0.389,1.741,0.198,0.257,-0.375,-0.604,1
1,8,0,-2.505,0.632,-0.593,0.304,0.496,0.8240000000000001,-0.162,0.181,-0.363,-0.764,2
1,8,0,-2.6710000000000003,3.155,-0.514,0.133,-0.964,0.2339999999999999,-0.071,1.192,0.254,-0.471,4
1,8,0,-2.764,1.111,0.727,1.54,-0.855,0.261,-1.11,0.2269999999999999,0.42,0.991,6
1,8,0,-3.816,3.426,0.2239999999999999,-0.384,-1.733,0.434,-0.322,1.3330000000000002,0.653,0.5770000000000001,7
1,8,0,-4.982,1.538,0.96,1.253,-0.64,0.588,-0.484,-0.31,-0.246,1.18,9
1,8,0,-2.895,0.682,-0.151,0.218,-0.6890000000000001,1.118,-0.264,0.922,0.757,0.327,10
1,8,0,-1.093,-0.922,-2.091,0.8440000000000001,0.009,1.247,0.8909999999999999,1.453,-0.089,-0.4,0
1,8,0,-2.499,0.119,-0.82,0.346,0.347,1.696,0.245,0.6890000000000001,-0.084,-0.596,1
1,8,0,-2.592,1.617,0.267,0.38,-0.777,0.487,-0.206,0.733,0.5920000000000001,-0.4029999999999999,5
1,8,0,-3.915,2.158,0.7809999999999999,0.643,-1.023,0.598,-0.718,0.2739999999999999,0.376,0.77,8
1,8,0,-2.982,0.522,-0.1,0.362,-0.66,1.115,-0.305,0.8590000000000001,0.637,0.344,10
1,8,0,-1.716,1.186,-0.809,-0.515,-0.35,0.29,-0.4039999999999999,0.6779999999999999,0.172,-0.212,3
1,8,0,-2.769,2.906,-0.1939999999999999,0.349,-0.958,0.089,-0.245,1.004,0.6,-0.336,4
1,8,0,-2.625,1.551,0.298,0.324,-1.05,0.746,0.067,0.603,0.342,-0.413,5
1,8,0,-1.793,0.925,-0.7390000000000001,-0.396,-0.211,0.3289999999999999,-0.4029999999999999,0.604,0.1969999999999999,-0.251,3
1,8,0,-2.484,0.5589999999999999,0.624,1.951,-0.6459999999999999,0.381,-1.106,0.036,0.24,1.291,6
1,8,0,-4.717,0.8290000000000001,0.853,1.98,-0.546,0.688,-0.434,-0.424,-0.636,1.245,9
1,8,0,-3.366,-0.826,-0.405,1.643,0.603,1.226,0.524,0.293,-0.858,-0.6679999999999999,0
1,8,0,-1.53,0.0289999999999999,-0.925,0.054,-0.565,1.5930000000000002,0.123,1.117,0.3379999999999999,0.026,1
1,8,0,-1.817,0.5589999999999999,-0.8009999999999999,0.2339999999999999,0.011,1.215,-0.161,0.809,0.018,-0.382,2
1,8,0,-3.0380000000000003,2.475,0.024,0.508,-0.737,-0.102,-0.358,0.706,0.6,-0.209,4
1,8,0,-2.889,1.418,0.409,0.61,-1.018,0.992,0.005,0.518,-0.027,-0.326,5
1,8,0,-2.71,0.809,0.754,1.903,-0.764,0.3779999999999999,-1.123,0.162,0.405,1.163,6
1,8,0,-3.992,3.342,0.1669999999999999,0.086,-1.23,-0.216,-0.8240000000000001,0.8370000000000001,0.521,0.978,7
1,8,0,-3.81,1.91,0.527,0.478,-0.972,0.945,-0.28,0.7190000000000001,0.482,0.8290000000000001,8
1,8,0,-1.222,0.491,-0.716,0.004,-0.3229999999999999,1.108,-0.148,0.773,0.387,-0.073,2
1,8,0,-2.784,1.43,0.145,0.309,-0.931,1.342,0.017,0.589,-0.044,-0.273,5
1,8,0,-3.073,1.5319999999999998,0.949,1.541,-1.058,0.272,-0.961,0.449,0.619,0.969,6
1,8,0,-3.958,4.132,-0.074,-0.19,-1.1840000000000002,-0.11,-0.679,1.198,0.442,0.563,7
1,8,0,-3.366,1.952,-0.898,0.258,0.282,0.835,0.29,0.6809999999999999,0.431,-0.461,10
1,9,0,-3.262,0.956,-0.7909999999999999,1.528,-0.021,0.977,-0.121,0.499,-0.99,-0.621,1
1,9,0,-2.045,0.8190000000000001,-1.46,0.652,-0.701,0.352,-0.087,0.7929999999999999,-0.5670000000000001,-0.013,2
1,9,0,-1.993,1.725,-1.13,0.556,-1.223,0.485,0.211,-0.04,-0.294,-0.5479999999999999,3
1,9,0,-2.765,2.817,-2.02,0.213,-0.772,0.852,0.252,-0.193,-0.2019999999999999,-0.093,4
1,9,0,-3.297,2.88,-0.8590000000000001,-0.301,-1.02,0.7979999999999999,0.288,0.855,-0.528,-0.662,6
1,9,0,-4.101,2.84,-0.802,0.062,-0.733,1.304,-0.145,0.4429999999999999,0.049,-0.611,8
1,9,0,-4.6930000000000005,3.1460000000000004,-0.136,0.5870000000000001,-0.731,1.055,-0.104,-0.021,0.637,-0.192,9
1,9,0,-3.73,1.872,-0.8009999999999999,0.555,-0.427,0.7909999999999999,0.196,0.65,-0.7440000000000001,-0.372,10
1,9,0,-3.019,0.0579999999999999,-1.265,1.497,0.171,1.997,0.178,0.847,-1.16,-0.5479999999999999,0
1,9,0,-2.008,0.785,-1.489,0.654,-0.685,0.313,-0.085,0.856,-0.516,-0.053,2
1,9,0,-2.785,2.792,-1.924,0.225,-0.985,1.0759999999999998,0.07,-0.071,-0.257,-0.135,4
1,9,0,-3.2310000000000003,3.003,-1.161,-0.315,-0.816,0.87,0.311,0.677,-0.565,-0.7,6
1,9,0,-4.718,3.281,-0.203,0.6509999999999999,-0.883,1.413,-0.6629999999999999,0.583,0.237,-0.307,9
1,9,0,-3.7,1.841,-0.675,0.441,-0.3829999999999999,0.89,0.176,0.594,-0.677,-0.408,10
1,9,0,-3.485,1.092,-0.674,1.395,-0.027,1.039,-0.047,0.384,-0.7609999999999999,-0.934,1
1,9,0,-1.929,0.777,-1.415,0.598,-0.579,0.215,-0.061,0.733,-0.3329999999999999,-0.235,2
1,9,0,-2.823,2.7430000000000003,-2.012,0.2339999999999999,-0.919,1.103,0.091,-0.177,-0.143,-0.09,4
1,9,0,-2.521,2.283,-0.954,0.2319999999999999,-0.918,0.253,-0.094,0.833,-0.7040000000000001,-0.092,5
1,9,0,-3.173,3.1660000000000004,-1.501,-0.37,-0.437,0.974,0.179,0.556,-0.794,-0.5489999999999999,6
1,9,0,-4.13,3.2910000000000004,-1.4240000000000002,0.359,-0.273,1.297,-0.4539999999999999,0.62,-0.527,-0.7090000000000001,8
1,9,0,-3.0,0.042,-1.238,1.529,0.187,2.028,0.104,0.759,-1.18,-0.634,0
1,9,0,-3.587,1.193,-0.617,1.34,-0.022,1.103,-0.072,0.368,-0.8540000000000001,-0.767,1
1,9,0,-1.895,0.755,-1.388,0.638,-0.614,0.246,-0.033,0.693,-0.27,-0.346,2
1,9,0,-2.797,2.7060000000000004,-1.936,0.147,-0.921,1.24,-0.0819999999999999,-0.006,-0.214,-0.064,4
1,9,0,-3.152,3.176,-1.5730000000000002,-0.204,-0.485,0.723,0.308,0.652,-0.872,-0.586,6
1,9,0,-3.055,0.088,-1.217,1.5619999999999998,0.186,2.059,0.054,0.639,-1.121,-0.757,0
1,9,0,-3.711,1.3769999999999998,-0.584,1.4280000000000002,-0.033,1.062,-0.127,0.3279999999999999,-1.092,-0.565,1
1,9,0,-3.19,3.1010000000000004,-1.659,-0.182,-0.436,0.828,0.272,0.502,-0.857,-0.516,6
1,9,0,-4.074,4.187,-0.555,0.052,-1.6030000000000002,0.73,-0.061,0.981,0.249,-0.25,7
1,9,0,-4.827,3.391,-0.099,0.599,-0.723,0.741,0.089,-0.214,0.518,-0.074,9
1,9,0,-3.735,2.096,-0.818,0.4629999999999999,-0.221,1.144,0.023,0.2239999999999999,-0.745,-0.325,10
1,9,0,-3.117,0.146,-1.228,1.635,0.223,2.026,0.036,0.569,-1.15,-0.767,0
1,9,0,-3.871,1.694,-0.606,1.4280000000000002,0.044,0.8440000000000001,-0.013,0.126,-1.218,-0.5529999999999999,1
1,9,0,-2.029,0.698,-1.482,0.813,-0.6809999999999999,0.422,0.016,0.7509999999999999,-0.3,-0.237,2
1,9,0,-2.914,2.541,-1.567,0.067,-1.051,1.207,0.006,0.289,-0.325,-0.3429999999999999,4
1,9,0,-2.937,2.1830000000000003,-1.291,0.355,-0.372,0.57,0.045,0.452,-0.705,-0.263,5
1,9,0,-4.884,3.63,-0.2789999999999999,0.496,-0.67,0.792,-0.005,-0.1369999999999999,0.532,-0.184,9
1,9,0,-3.756,2.204,-0.716,0.529,-0.284,1.121,0.022,0.127,-0.782,-0.3939999999999999,10
1,10,0,-4.066,0.3979999999999999,-0.382,1.679,0.121,1.617,0.504,-0.315,-0.226,-0.873,0
1,10,0,-2.966,0.659,-1.057,1.36,0.152,1.435,0.1969999999999999,0.926,-0.45,-0.637,1
1,10,0,-2.695,1.119,-0.986,0.172,0.499,0.372,0.088,0.63,-0.721,-0.256,2
1,10,0,-2.482,1.896,-1.289,0.1119999999999999,0.285,0.096,0.022,0.8320000000000001,-0.3329999999999999,-0.764,3
1,10,0,-2.742,2.729,-0.129,-0.49,-0.573,0.868,0.07,0.7709999999999999,0.053,-0.939,4
1,10,0,-2.9730000000000003,3.557,-0.396,-0.7190000000000001,-0.669,0.923,0.293,1.009,0.14,-1.098,6
1,10,0,-4.103,3.812,0.255,-0.103,-0.994,0.0969999999999999,-0.345,2.039,0.02,-0.43,7
1,10,0,-3.863,3.245,-0.996,0.486,-0.348,0.19,0.5579999999999999,1.342,0.176,-0.318,8
1,10,0,-4.611000000000001,2.962,-0.856,1.161,-0.612,0.469,0.162,0.705,0.37,-0.916,9
1,10,0,-3.548,1.611,-0.85,0.374,0.168,0.318,0.4629999999999999,0.863,-1.131,-0.3339999999999999,10
1,10,0,-4.052,0.35,-0.314,1.734,0.127,1.6669999999999998,0.512,-0.377,-0.358,-0.855,0
1,10,0,-2.667,1.132,-1.054,0.2319999999999999,0.537,0.352,0.163,0.55,-0.688,-0.295,2
1,10,0,-2.758,2.839,-0.282,-0.449,-0.485,0.7879999999999999,0.12,0.792,0.023,-0.949,4
1,10,0,-4.089,3.712,0.315,-0.05,-0.929,0.018,-0.35,1.77,0.244,-0.301,7
1,10,0,-4.602,3.043,-0.959,0.828,-0.298,0.315,0.423,0.57,0.387,-0.617,9
1,10,0,-3.707,1.486,-0.494,0.402,0.183,0.186,0.2339999999999999,1.029,-0.856,-0.408,10
1,10,0,-3.053,0.716,-1.024,1.422,0.184,1.473,0.261,0.983,-0.431,-0.7170000000000001,1
1,10,0,-2.445,2.678,-0.816,-0.743,0.076,1.117,-0.057,0.018,0.281,-0.72,5
1,10,0,-3.983,3.695,0.096,-0.3329999999999999,-1.01,0.1689999999999999,-0.108,1.6740000000000002,0.262,-0.231,7
1,10,0,-4.617,3.033,-0.909,0.604,-0.341,0.636,0.294,0.527,0.48,-0.5579999999999999,9
1,10,0,-3.033,0.7,-1.077,1.266,0.196,1.453,0.317,0.947,-0.324,-0.828,1
1,10,0,-2.6,1.219,-1.315,0.589,0.311,0.364,0.451,0.35,-0.556,-0.314,2
1,10,0,-2.316,2.007,-1.365,0.181,0.206,0.071,0.037,0.8140000000000001,-0.332,-0.753,3
1,10,0,-2.7,2.6860000000000004,-0.043,-0.528,-0.626,0.917,0.1669999999999999,0.652,0.1,-0.937,4
1,10,0,-3.878,3.816,-0.155,-0.6679999999999999,-1.207,0.541,0.022,1.972,-0.0289999999999999,-0.29,7
1,10,0,-3.896,2.768,-0.816,-0.0139999999999999,-0.125,0.168,0.307,1.203,0.246,-0.118,8
1,10,0,-4.717,3.059,-0.682,0.532,-0.48,0.731,0.174,0.493,0.635,-0.473,9
1,10,0,-2.817,1.268,-1.127,0.7070000000000001,0.3989999999999999,0.406,0.289,0.319,-0.691,-0.379,2
1,10,0,-2.382,1.984,-1.096,-0.103,0.369,0.204,-0.125,0.752,-0.136,-0.959,3
1,10,0,-2.54,2.925,-0.377,-0.745,-0.562,0.981,0.303,0.539,0.127,-0.959,4
1,10,0,-2.951,2.64,0.8320000000000001,-0.387,-1.5019999999999998,0.272,0.7559999999999999,0.5379999999999999,0.616,-0.3989999999999999,6
1,10,0,-3.979,3.661,0.1689999999999999,-0.598,-1.412,0.569,0.009,1.939,0.094,-0.149,7
1,10,0,-4.083,2.315,-0.375,0.52,-0.019,-0.211,-0.172,1.054,0.387,0.168,8
1,10,0,-4.805,3.228,-0.501,0.602,-0.532,0.745,0.09,0.445,0.7559999999999999,-0.42,9
1,10,0,-3.661,1.2919999999999998,-0.433,0.34,0.098,0.363,0.246,0.911,-0.415,-0.507,10
1,10,0,-3.337,-0.347,-0.79,2.129,-0.0579999999999999,2.079,0.295,0.246,-0.687,-1.241,0
1,10,0,-3.0,0.217,-0.855,0.8029999999999999,-0.008,1.795,-0.01,1.07,-0.061,-1.046,1
1,10,0,-3.047,1.267,-0.799,0.507,0.524,0.507,0.044,0.302,-0.731,-0.431,2
1,10,0,-2.45,1.993,-1.08,-0.09,0.367,0.324,-0.1639999999999999,0.684,-0.181,-1.013,3
1,10,0,-2.544,2.725,-0.067,-0.787,-0.903,0.97,0.524,0.32,0.283,-0.8220000000000001,4
1,10,0,-4.122,3.177,0.529,-0.176,-1.307,0.132,-0.2789999999999999,1.3530000000000002,0.4579999999999999,-0.009,7
1,10,0,-4.047,2.6260000000000003,-0.597,0.823,-0.266,0.048,0.049,0.882,0.359,-0.203,8
1,10,0,-4.893,3.37,-0.4639999999999999,0.5379999999999999,-0.327,0.496,0.27,0.47,0.742,-0.141,9
1,11,0,-2.101,1.5019999999999998,-0.322,-0.363,0.026,0.1159999999999999,0.162,-0.074,-0.106,-0.397,3
1,11,0,-2.346,1.604,-0.283,0.3929999999999999,-0.416,0.268,-0.4629999999999999,0.387,0.253,-0.504,5
1,11,0,-3.823,3.536,-2.07,0.245,-0.442,1.125,0.73,0.5379999999999999,-0.006,-0.64,7
1,11,0,-4.019,3.52,-1.058,-0.2,-0.545,1.348,0.351,0.82,-0.868,-0.434,8
1,11,0,-3.209,1.85,-0.3939999999999999,0.555,0.425,0.313,0.067,0.077,-0.163,-0.944,10
1,11,0,-2.377,-0.266,-1.371,1.09,0.24,1.843,0.107,0.7020000000000001,-1.256,-0.62,0
1,11,0,-2.9610000000000003,0.7659999999999999,-0.8,0.962,0.6579999999999999,1.012,0.347,-0.015,-0.425,-0.746,1
1,11,0,-4.0280000000000005,0.982,-0.648,1.4780000000000002,-0.048,2.108,-0.146,0.467,-0.654,-0.193,9
1,11,0,-3.265,1.933,-0.316,0.602,0.4379999999999999,0.336,0.048,0.134,-0.16,-0.991,10
1,11,0,-2.382,-0.294,-1.3969999999999998,1.051,0.211,1.901,0.151,0.654,-1.286,-0.609,0
1,11,0,-2.9410000000000003,0.71,-0.855,0.902,0.635,0.924,0.466,0.01,-0.342,-0.588,1
1,11,0,-2.306,1.086,-0.59,0.106,0.931,0.733,0.213,0.2739999999999999,-0.684,-0.911,2
1,11,0,-2.162,1.533,-0.267,-0.287,-0.026,0.122,0.168,-0.024,-0.268,-0.27,3
1,11,0,-2.639,1.88,-0.389,0.204,-0.5710000000000001,0.094,-0.233,0.2789999999999999,0.426,-0.598,4
1,11,0,-2.289,1.106,-0.816,0.228,0.867,0.616,0.3379999999999999,0.298,-0.843,-0.8320000000000001,2
1,11,0,-2.175,1.631,-0.331,-0.203,-0.159,0.246,0.18,-0.093,-0.351,-0.267,3
1,11,0,-2.58,1.608,-0.311,0.273,-0.148,0.262,-0.062,0.1669999999999999,0.337,-0.6920000000000001,5
1,11,0,-2.147,1.655,-0.355,-0.0819999999999999,-0.1939999999999999,0.296,0.146,-0.083,-0.314,-0.308,3
1,11,0,-2.733,2.026,-0.71,0.377,-0.774,0.284,-0.469,0.693,0.205,-0.74,4
1,11,0,-2.729,1.595,-0.15,0.1669999999999999,0.015,0.377,0.083,-0.038,0.166,-0.672,5
1,11,0,-3.338,3.033,-1.189,-0.2689999999999999,-0.364,0.544,0.491,0.148,0.365,-0.931,6
1,11,0,-4.142,3.454,-0.653,0.271,-0.598,0.7929999999999999,0.563,0.52,-0.118,-0.33,8
1,11,0,-2.391,-0.347,-1.474,0.843,0.089,2.021,0.417,0.502,-0.86,-0.978,0
1,11,0,-2.919,0.4629999999999999,-0.716,0.957,0.635,0.833,0.501,0.048,-0.134,-0.638,1
1,11,0,-2.104,1.6,-0.297,-0.071,-0.172,0.285,0.152,-0.089,-0.296,-0.37,3
1,11,0,-2.7060000000000004,2.07,-0.691,0.31,-0.745,0.266,-0.413,0.602,0.36,-0.713,4
1,11,0,-4.494,1.535,-0.495,1.715,0.044,1.892,-0.367,0.362,-0.583,-0.291,9
1,12,1,-3.415,-0.5379999999999999,0.241,2.0380000000000003,0.622,1.027,-0.701,-0.66,-0.418,0.7809999999999999,0
1,12,1,-3.439,1.007,0.02,1.491,0.777,0.257,-0.777,-0.282,-0.7070000000000001,0.746,1
1,12,1,-2.027,2.157,-0.297,-0.211,-0.266,0.086,-0.176,-0.179,-0.283,0.292,3
1,12,1,-3.44,3.2030000000000003,-0.698,-0.86,-0.542,1.503,0.922,0.467,-0.183,-0.919,7
1,12,1,-3.961,4.144,-0.934,-0.089,-0.612,0.787,0.326,0.182,-0.487,-0.7190000000000001,8
1,12,1,-3.012,2.252,-0.8059999999999999,0.389,-0.11,0.649,-0.3279999999999999,0.321,-0.5589999999999999,0.2339999999999999,10
1,12,1,-3.303,0.7020000000000001,-0.209,1.6269999999999998,0.818,0.287,-0.541,-0.198,-0.7170000000000001,0.768,1
1,12,1,-2.247,3.42,-0.887,-0.823,-0.297,0.774,0.185,-0.242,-0.79,0.046,4
1,12,1,-2.489,2.401,-0.44,-0.367,-0.069,0.5329999999999999,0.011,0.118,-0.621,-0.188,5
1,12,1,-2.776,3.557,-0.435,-1.044,-0.5720000000000001,1.273,0.221,0.295,-0.986,-0.04,6
1,12,1,-4.386,3.055,0.075,-0.018,-0.436,0.5660000000000001,-0.288,0.936,-0.5770000000000001,-1.01,9
1,12,1,-3.699,-0.251,0.268,1.585,0.85,1.381,-0.867,-0.71,-0.19,0.5670000000000001,0
1,12,1,-3.266,0.5770000000000001,-0.261,1.481,0.8740000000000001,0.301,-0.496,-0.012,-0.623,0.879,1
1,12,1,-1.899,2.135,0.092,-0.11,-0.145,0.081,-0.067,-0.104,-0.408,-0.099,3
1,12,1,-2.489,2.379,-0.523,-0.158,-0.178,0.406,0.198,0.059,-0.589,-0.256,5
1,12,1,-2.898,3.393,-0.409,-0.993,-0.5870000000000001,1.3219999999999998,0.24,0.231,-1.068,-0.094,6
1,12,1,-3.3760000000000003,3.327,-0.797,-0.8490000000000001,-0.6809999999999999,1.198,0.838,0.244,-0.298,-0.618,7
1,12,1,-3.828,3.188,-0.3879999999999999,0.055,-0.185,-0.0289999999999999,0.503,0.273,0.326,0.1,8
1,12,1,-4.283,2.829,0.296,0.086,-0.544,0.501,-0.317,0.995,-0.34,-1.113,9
1,12,1,-3.155,0.613,-0.285,1.287,0.882,0.337,-0.624,0.067,-0.516,0.8909999999999999,1
1,12,1,-1.959,2.285,-0.089,-0.262,-0.013,0.019,-0.233,-0.068,-0.268,-0.022,3
1,12,1,-2.577,2.449,-0.38,0.174,-0.41,0.3829999999999999,0.19,0.0969999999999999,-0.489,-0.084,5
1,12,1,-2.919,3.48,-0.823,-0.7509999999999999,-0.416,1.045,0.609,0.18,-1.172,0.123,6
1,12,1,-3.387,3.286,-0.747,-0.6990000000000001,-0.9,0.8909999999999999,0.875,0.46,-0.457,-0.636,7
1,12,1,-3.818,3.159,-0.298,-0.0579999999999999,-0.348,0.1939999999999999,0.593,0.211,0.531,-0.0139999999999999,8
1,12,1,-3.269,2.489,-0.76,0.352,-0.092,0.432,-0.27,0.242,-0.523,0.01,10
1,12,1,-2.852,-0.805,-0.313,1.565,0.688,1.467,-0.664,-0.916,-0.2789999999999999,0.489,0
1,12,1,-2.411,3.85,-1.405,-0.302,-0.3979999999999999,1.069,0.216,-0.291,-1.116,1.043,4
1,12,1,-2.708,2.56,-0.439,0.324,-0.348,0.429,0.091,-0.037,-0.434,0.344,5
1,12,1,-3.39,3.422,-0.718,-0.667,-0.871,0.7879999999999999,0.959,0.555,-0.482,-0.7240000000000001,7
1,12,1,-2.527,-0.926,-0.5710000000000001,1.6130000000000002,0.628,1.229,-0.687,-0.8079999999999999,-0.354,0.625,0
1,12,1,-3.498,1.669,0.076,1.53,0.38,-0.135,-0.8140000000000001,-0.208,-0.307,1.053,1
1,12,1,-2.026,2.4330000000000003,-0.411,0.064,0.223,-0.027,-0.424,-0.009,-0.305,0.345,3
1,12,1,-2.879,2.662,-0.5720000000000001,0.425,-0.248,0.213,0.176,-0.281,-0.4039999999999999,0.605,5
1,12,1,-4.5680000000000005,3.344,-0.005,-0.092,-0.546,0.479,-0.168,1.186,-0.565,-1.025,9
1,13,1,-4.711,1.166,1.244,1.746,0.311,-0.305,-0.691,-0.1369999999999999,-0.288,1.023,0
1,13,1,-3.097,1.385,-0.173,1.392,-0.613,-0.143,-0.0139999999999999,-0.565,-0.065,1.129,2
1,13,1,-3.065,1.781,-0.915,0.698,0.175,0.662,-0.086,-0.361,-0.774,0.951,5
1,13,1,-3.318,3.395,-1.706,0.753,-0.214,1.431,-0.0,-0.192,-1.33,0.03,6
1,13,1,-3.747,4.267,-1.847,-0.235,0.38,0.885,-0.049,-0.258,-0.772,-0.11,7
1,13,1,-4.039,2.061,-0.727,0.888,0.302,0.413,-0.381,-0.1939999999999999,-0.614,0.41,8
1,13,1,-4.08,2.242,-0.28,1.876,0.72,-0.292,-0.537,-0.54,-0.6629999999999999,0.238,9
1,13,1,-3.483,2.628,-0.3829999999999999,0.838,0.2,0.102,-0.162,-0.547,-0.7909999999999999,1.018,10
1,13,1,-4.013,2.101,0.295,1.2919999999999998,0.45,-0.024,-0.565,-0.588,-0.3429999999999999,0.695,1
1,13,1,-3.075,1.824,-0.905,0.727,0.155,0.608,-0.075,-0.377,-0.74,0.852,5
1,13,1,-3.4,3.4410000000000003,-1.805,0.8140000000000001,-0.162,1.445,-0.11,-0.499,-1.2009999999999998,-0.046,6
1,13,1,-3.797,4.314,-1.596,-0.476,0.044,0.903,0.129,-0.141,-0.6459999999999999,-0.318,7
1,13,1,-2.967,2.781,-1.277,0.354,-0.936,1.505,-0.004,-0.418,-0.56,0.725,4
1,13,1,-3.847,4.268,-1.521,-0.465,-0.23,1.067,-0.02,0.005,-0.5770000000000001,-0.509,7
1,13,1,-4.052,2.335,-0.415,0.732,0.2339999999999999,0.426,-0.49,-0.218,-0.618,0.34,8
1,13,1,-4.001,2.2840000000000003,-0.365,2.106,1.006,-0.0279999999999999,-0.825,-0.39,-0.898,0.099,9
1,13,1,-3.446,2.44,-0.37,0.926,0.1939999999999999,0.141,-0.098,-0.557,-0.889,0.985,10
1,13,1,-3.3710000000000004,2.007,-0.919,0.843,0.221,0.541,-0.317,-0.37,-0.5,0.652,5
1,13,1,-3.51,2.535,-0.26,0.946,-0.072,0.159,-0.1119999999999999,-0.657,-0.789,0.914,10
1,13,1,-4.754,1.329,1.09,1.765,0.217,-0.198,-0.782,-0.154,0.023,0.85,0
1,13,1,-2.959,1.061,-0.351,1.745,-0.851,0.344,-0.373,-0.7290000000000001,0.048,0.815,2
1,13,1,-2.928,2.83,-1.361,0.3229999999999999,-0.7390000000000001,1.431,0.002,-0.172,-0.939,0.607,4
1,13,1,-3.857,2.133,-0.58,0.996,0.502,0.65,-0.283,-0.4679999999999999,-0.983,0.613,8
1,13,1,-4.062,2.358,-0.31,1.895,1.095,0.049,-0.87,-0.524,-0.98,-0.065,9
1,13,1,-4.687,1.152,1.089,1.915,0.201,-0.296,-0.6920000000000001,-0.105,-0.143,0.884,0
1,13,1,-3.004,1.09,-0.3279999999999999,1.652,-0.679,0.287,-0.297,-0.695,-0.145,0.71,2
1,13,1,-3.341,1.714,-0.773,0.7709999999999999,-0.976,0.625,0.078,-0.4379999999999999,-0.084,0.607,3
1,13,1,-2.902,2.7960000000000003,-1.199,0.2339999999999999,-0.821,1.257,0.263,-0.075,-1.103,0.417,4
1,13,1,-3.792,4.29,-1.531,-0.125,-0.312,0.624,0.324,-0.053,-0.942,-0.301,7
1,13,1,-3.862,2.109,-0.65,0.99,0.7240000000000001,0.6409999999999999,-0.293,-0.519,-1.055,0.653,8
1,13,1,-4.118,2.542,-0.2,1.616,1.106,-0.06,-0.728,-0.544,-0.912,-0.1009999999999999,9
1,13,1,-3.636,2.719,-0.178,0.665,0.099,-0.084,-0.3329999999999999,-0.362,-1.0490000000000002,0.978,10
1,14,1,-3.811,2.123,0.278,1.5519999999999998,0.754,0.492,-0.584,-0.433,-0.988,0.652,1
1,14,1,-3.4410000000000003,1.975,-0.395,1.024,-0.052,-0.1669999999999999,-0.445,0.168,-0.684,1.04,2
1,14,1,-2.584,2.091,-1.4509999999999998,0.889,-0.4639999999999999,0.285,-0.213,-0.245,-0.138,1.206,3
1,14,1,-3.119,3.135,-1.466,-0.352,-0.023,0.752,0.143,-0.231,-0.376,0.721,4
1,14,1,-3.059,2.895,-0.847,-0.364,-0.484,1.025,0.502,0.506,-0.733,0.078,6
1,14,1,-3.642,3.582,-1.031,-0.7609999999999999,0.046,1.255,0.841,0.512,-0.259,-0.447,7
1,14,1,-4.008,2.141,-0.18,1.041,0.688,0.7120000000000001,-0.879,-0.201,-1.0659999999999998,-0.5489999999999999,9
1,14,1,-2.627,2.089,-1.4340000000000002,0.937,-0.615,0.43,-0.311,-0.203,0.038,0.933,3
1,14,1,-3.074,3.062,-1.47,-0.379,0.233,0.789,-0.099,-0.135,-0.395,0.5720000000000001,4
1,14,1,-3.027,2.903,-0.799,-0.452,-0.503,1.044,0.679,0.483,-0.7759999999999999,-0.062,6
1,14,1,-3.634,3.589,-1.075,-0.7090000000000001,0.0579999999999999,1.051,0.878,0.627,-0.111,-0.437,7
1,14,1,-3.432,2.235,-0.753,0.361,0.435,0.425,-0.193,0.012,-1.166,0.794,10
1,14,1,-2.918,2.897,-1.069,-0.077,-0.261,0.55,0.317,-0.322,-0.7759999999999999,0.79,5
1,14,1,-3.66,3.618,-1.051,-0.748,0.08,1.022,0.914,0.613,0.023,-0.4479999999999999,7
1,14,1,-3.919,2.575,0.471,-0.064,-0.042,0.88,-0.128,0.612,-0.504,-0.539,8
1,14,1,-4.093999999999999,2.499,-0.149,1.017,0.6829999999999999,0.536,-1.023,-0.127,-1.142,-0.421,9
1,14,1,-2.643,2.021,-1.265,0.759,-0.442,0.159,-0.032,-0.145,-0.1639999999999999,0.86,3
1,14,1,-3.095,2.8510000000000004,-0.816,-0.396,-0.603,1.09,0.5670000000000001,0.743,-0.677,0.052,6
1,14,1,-4.145,2.739,-0.115,0.907,0.669,0.478,-1.183,-0.24,-0.887,-0.365,9
1,14,1,-3.325,2.141,-0.528,0.439,0.099,0.321,0.217,0.135,-1.388,0.746,10
1,14,1,-3.743,3.629,-0.8740000000000001,-0.79,-0.312,1.759,0.679,0.565,-0.521,-0.485,7
1,14,1,-3.309,2.256,-0.615,0.365,0.251,0.439,0.011,0.119,-1.219,0.695,10
1,14,1,-3.62,1.0659999999999998,0.158,1.393,0.879,1.02,-0.09,0.087,-1.3330000000000002,0.585,1
1,14,1,-3.468,1.81,-0.39,1.55,-0.084,-0.008,-0.482,-0.231,-0.7240000000000001,0.967,2
1,14,1,-3.98,2.459,0.068,0.023,0.237,1.029,-0.1889999999999999,0.521,-0.773,-0.5,8
1,14,1,-4.263999999999999,2.925,0.065,0.794,0.3229999999999999,0.515,-1.2819999999999998,-0.14,-0.863,-0.39,9
