Radius1,Texture1,Perimeter1,Area1,Smoothness1,Compactness1,Concavity1,Concave_points1,Symmetry1,Fractal_dimension1,Radius2,Texture2,Perimeter2,Area2,Smoothness2,Compactness2,Concavity2,Concave_points2,Symmetry2,Fractal_dimension2,Radius3,Texture3,Perimeter3,Area3,Smoothness3,Compactness3,Concavity3,Concave_points3,Symmetry3,Fractal_dimension3,TARGET
20.57,17.77,132.9,1326.0,0.085,0.079,0.087,0.07,0.181,0.057,0.544,0.7340000000000001,3.398,74.08,0.005,0.013,0.019,0.013,0.0139999999999999,0.004,24.99,23.41,158.8,1956.0,0.124,0.187,0.242,0.186,0.275,0.089,1
19.69,21.25,130.0,1203.0,0.11,0.16,0.1969999999999999,0.128,0.207,0.06,0.746,0.787,4.585,94.03,0.006,0.04,0.038,0.021,0.022,0.005,23.57,25.53,152.5,1709.0,0.144,0.424,0.45,0.243,0.361,0.088,1
11.42,20.38,77.58,386.1,0.142,0.284,0.241,0.105,0.26,0.0969999999999999,0.496,1.156,3.445,27.23,0.009,0.075,0.057,0.019,0.06,0.009,14.91,26.5,98.87,567.7,0.21,0.866,0.687,0.258,0.664,0.173,1
12.45,15.7,82.57,477.1,0.128,0.17,0.158,0.081,0.209,0.076,0.3339999999999999,0.89,2.217,27.19,0.008,0.033,0.037,0.011,0.022,0.005,15.47,23.75,103.4,741.6,0.179,0.525,0.536,0.174,0.3979999999999999,0.124,1
13.71,20.83,90.2,577.9,0.119,0.1639999999999999,0.094,0.06,0.22,0.075,0.584,1.3769999999999998,3.856,50.96,0.009,0.03,0.025,0.0139999999999999,0.015,0.005,17.06,28.14,110.6,897.0,0.165,0.368,0.268,0.156,0.32,0.115,1
16.02,23.24,102.7,797.8,0.0819999999999999,0.067,0.033,0.033,0.153,0.057,0.38,1.187,2.466,40.51,0.004,0.009,0.011,0.008,0.015,0.003,19.19,33.88,123.8,1150.0,0.118,0.155,0.146,0.1,0.295,0.085,1
15.85,23.95,103.7,782.7,0.084,0.1,0.099,0.054,0.185,0.053,0.4029999999999999,1.078,2.903,36.58,0.01,0.031,0.051,0.02,0.03,0.003,16.84,27.66,112.0,876.5,0.113,0.192,0.2319999999999999,0.1119999999999999,0.281,0.063,1
13.73,22.61,93.6,578.3,0.113,0.2289999999999999,0.213,0.08,0.207,0.077,0.212,1.169,2.061,19.21,0.006,0.059,0.055,0.016,0.02,0.008,15.03,32.01,108.8,697.7,0.165,0.772,0.6940000000000001,0.221,0.36,0.143,1
14.54,27.54,96.73,658.8,0.114,0.16,0.1639999999999999,0.074,0.23,0.071,0.37,1.033,2.879,32.55,0.006,0.042,0.047,0.011,0.019,0.005,17.46,37.13,124.1,943.2,0.168,0.6579999999999999,0.703,0.171,0.422,0.134,1
14.68,20.13,94.74,684.5,0.099,0.072,0.074,0.053,0.159,0.059,0.473,1.24,3.195,45.4,0.006,0.012,0.02,0.011,0.0139999999999999,0.002,19.07,30.88,123.4,1138.0,0.146,0.187,0.291,0.161,0.303,0.0819999999999999,1
13.54,14.36,87.46,566.3,0.098,0.081,0.067,0.048,0.188,0.0579999999999999,0.27,0.789,2.0580000000000003,23.56,0.008,0.015,0.024,0.013,0.02,0.002,15.11,19.26,99.7,711.2,0.144,0.177,0.239,0.129,0.298,0.073,0
9.504,12.44,60.34,273.9,0.102,0.065,0.03,0.021,0.182,0.069,0.2769999999999999,0.977,1.909,15.7,0.01,0.0139999999999999,0.02,0.0139999999999999,0.02,0.003,10.23,15.66,65.13,314.9,0.132,0.115,0.089,0.062,0.245,0.078,0
15.34,14.26,102.5,704.4,0.107,0.214,0.208,0.098,0.252,0.07,0.439,0.71,3.384,44.91,0.007,0.053,0.064,0.023,0.037,0.004,18.07,19.08,125.1,980.9,0.139,0.595,0.63,0.239,0.467,0.099,1
16.65,21.38,110.0,904.6,0.1119999999999999,0.146,0.152,0.092,0.2,0.063,0.807,0.902,5.455,102.6,0.006,0.019,0.027,0.011,0.015,0.003,26.46,31.56,177.0,2215.0,0.18,0.358,0.47,0.21,0.361,0.096,1
18.61,20.25,122.1,1094.0,0.094,0.107,0.149,0.077,0.17,0.057,0.853,1.849,5.632000000000001,93.54,0.011,0.027,0.051,0.019,0.023,0.004,21.31,27.26,139.9,1403.0,0.134,0.212,0.345,0.149,0.2339999999999999,0.074,1
19.27,26.47,127.9,1162.0,0.094,0.172,0.166,0.076,0.185,0.063,0.556,0.606,3.528,68.17,0.005,0.033,0.035,0.01,0.015,0.004,24.15,30.9,161.4,1813.0,0.151,0.659,0.609,0.178,0.367,0.1119999999999999,1
16.13,17.88,107.0,807.2,0.104,0.156,0.135,0.078,0.2,0.065,0.3339999999999999,0.6859999999999999,2.1830000000000003,35.03,0.004,0.0289999999999999,0.027,0.009,0.017,0.004,20.21,27.26,132.7,1261.0,0.145,0.58,0.527,0.186,0.427,0.123,1
14.25,21.72,93.63,633.0,0.098,0.11,0.132,0.0559999999999999,0.188,0.061,0.286,1.019,2.657,24.91,0.006,0.03,0.048,0.012,0.02,0.004,15.89,30.36,116.2,799.6,0.145,0.424,0.519,0.145,0.359,0.1009999999999999,1
13.03,18.42,82.61,523.8,0.09,0.038,0.026,0.0289999999999999,0.147,0.059,0.184,2.342,1.17,14.16,0.004,0.005,0.013,0.012,0.027,0.002,13.3,22.81,84.46,545.9,0.0969999999999999,0.046,0.048,0.05,0.1989999999999999,0.062,0
13.48,20.82,88.4,559.2,0.102,0.126,0.106,0.054,0.172,0.064,0.213,0.591,1.545,18.52,0.005,0.022,0.03,0.013,0.0139999999999999,0.003,15.53,26.02,107.3,740.4,0.161,0.422,0.503,0.226,0.281,0.107,1
13.44,21.58,86.18,563.0,0.0819999999999999,0.06,0.031,0.02,0.178,0.0559999999999999,0.238,0.826,1.5719999999999998,20.53,0.003,0.011,0.0139999999999999,0.007,0.0139999999999999,0.001,15.93,30.25,102.5,787.9,0.109,0.204,0.208,0.111,0.299,0.071,1
13.28,20.28,87.32,545.2,0.104,0.144,0.098,0.062,0.1969999999999999,0.068,0.37,0.825,2.427,31.33,0.005,0.021,0.022,0.01,0.017,0.003,17.38,28.0,113.1,907.2,0.153,0.372,0.366,0.149,0.374,0.103,1
18.65,17.6,123.7,1076.0,0.11,0.1689999999999999,0.1969999999999999,0.1009999999999999,0.191,0.06,0.629,0.6629999999999999,4.293,71.56,0.006,0.04,0.0559999999999999,0.017,0.024,0.004,22.82,21.32,150.6,1567.0,0.168,0.509,0.7340000000000001,0.238,0.38,0.092,1
13.49,22.3,86.91,561.0,0.088,0.077,0.048,0.034,0.181,0.057,0.2339999999999999,1.3530000000000002,1.735,20.2,0.004,0.0139999999999999,0.021,0.012,0.016,0.002,15.15,31.82,99.0,698.8,0.1159999999999999,0.171,0.228,0.128,0.287,0.069,0
11.76,21.6,74.72,427.9,0.086,0.05,0.017,0.011,0.15,0.059,0.406,1.21,2.635,28.47,0.006,0.01,0.012,0.007,0.024,0.002,12.98,25.72,82.98,516.5,0.108,0.086,0.055,0.037,0.243,0.066,0
11.94,18.24,75.71,437.6,0.083,0.048,0.02,0.013,0.187,0.061,0.2269999999999999,0.633,1.52,17.47,0.007,0.008,0.013,0.008,0.02,0.003,13.1,21.33,83.67,527.2,0.114,0.089,0.092,0.063,0.278,0.074,0
15.1,22.02,97.26,712.8,0.091,0.071,0.053,0.033,0.162,0.057,0.31,0.8340000000000001,2.097,29.91,0.005,0.01,0.016,0.009,0.011,0.002,18.1,31.69,117.7,1030.0,0.139,0.206,0.271,0.153,0.268,0.079,1
13.05,19.31,82.61,527.2,0.081,0.038,0.001,0.004,0.182,0.055,0.4039999999999999,1.214,2.595,32.96,0.007,0.009,0.001,0.004,0.022,0.003,14.23,22.25,90.24,624.1,0.102,0.062,0.002,0.011,0.244,0.063,0
10.17,14.88,64.55,311.9,0.113,0.081,0.011,0.013,0.2739999999999999,0.07,0.516,1.4409999999999998,3.312,34.62,0.008,0.011,0.008,0.008,0.042,0.006,11.02,17.45,69.86,368.6,0.128,0.099,0.022,0.026,0.356,0.08,0
14.25,22.15,96.42,645.7,0.105,0.201,0.214,0.087,0.195,0.073,0.7040000000000001,1.268,5.372999999999999,60.78,0.009,0.071,0.069,0.018,0.017,0.006,17.67,29.51,119.1,959.5,0.1639999999999999,0.625,0.6920000000000001,0.178,0.284,0.113,1
9.173,13.86,59.2,260.9,0.077,0.088,0.06,0.022,0.2339999999999999,0.07,0.41,2.265,2.608,23.52,0.009,0.039,0.043,0.016,0.042,0.006,10.01,19.23,65.59,310.1,0.098,0.168,0.14,0.051,0.3279999999999999,0.085,0
12.68,23.84,82.69,499.0,0.1119999999999999,0.126,0.113,0.069,0.19,0.066,0.426,1.178,2.927,36.46,0.008,0.026,0.03,0.013,0.016,0.004,17.09,33.47,111.8,888.3,0.185,0.406,0.402,0.172,0.3379999999999999,0.103,1
12.78,16.49,81.37,502.5,0.098,0.052,0.037,0.0289999999999999,0.159,0.057,0.237,0.873,1.471,18.33,0.008,0.006,0.016,0.009,0.023,0.002,13.46,19.76,85.67,554.9,0.13,0.071,0.104,0.059,0.238,0.064,0
8.888,14.64,58.79,244.0,0.098,0.153,0.086,0.0289999999999999,0.19,0.09,0.526,0.852,3.168,25.44,0.017,0.094,0.057,0.018,0.025,0.022,9.733,15.67,62.56,284.4,0.121,0.244,0.143,0.048,0.225,0.108,0
13.8,15.79,90.43,584.1,0.1009999999999999,0.128,0.078,0.051,0.166,0.066,0.2789999999999999,0.62,1.957,23.35,0.005,0.021,0.018,0.009,0.012,0.003,16.57,20.86,110.3,812.4,0.141,0.354,0.278,0.138,0.259,0.103,1
18.05,16.15,120.2,1006.0,0.106,0.215,0.168,0.108,0.215,0.067,0.981,0.55,6.311,134.8,0.008,0.0579999999999999,0.047,0.021,0.026,0.007,22.39,18.91,150.1,1610.0,0.148,0.563,0.379,0.21,0.375,0.111,1
14.48,21.46,94.25,648.2,0.094,0.099,0.12,0.049,0.208,0.0559999999999999,0.42,2.22,3.301,38.87,0.009,0.03,0.054,0.018,0.024,0.003,16.21,29.25,108.4,808.9,0.131,0.198,0.335,0.122,0.302,0.068,1
13.27,14.76,84.74,551.7,0.074,0.051,0.033,0.026,0.139,0.053,0.406,1.153,2.701,36.35,0.004,0.01,0.0139999999999999,0.011,0.011,0.001,16.36,22.35,104.5,830.6,0.1009999999999999,0.124,0.135,0.1,0.203,0.062,0
15.06,19.83,100.3,705.6,0.104,0.155,0.17,0.088,0.186,0.063,0.477,0.964,3.706,47.14,0.009,0.037,0.049,0.019,0.015,0.004,18.23,24.23,123.5,1025.0,0.155,0.42,0.52,0.212,0.283,0.0819999999999999,1
20.26,23.03,132.4,1264.0,0.091,0.131,0.146,0.087,0.21,0.0559999999999999,0.758,1.509,4.553999999999999,87.87,0.006,0.035,0.042,0.013,0.027,0.004,24.22,31.59,156.1,1750.0,0.119,0.354,0.41,0.157,0.369,0.084,1
9.787,19.94,62.11,294.5,0.102,0.053,0.007,0.008,0.135,0.069,0.335,2.043,2.132,20.05,0.011,0.015,0.005,0.005,0.018,0.006,10.92,26.29,68.81,366.1,0.132,0.095,0.02,0.024,0.193,0.09,0
13.61,24.98,88.05,582.7,0.095,0.085,0.086,0.045,0.161,0.059,0.456,1.29,2.861,43.14,0.006,0.015,0.026,0.01,0.015,0.002,16.99,35.27,108.6,906.5,0.126,0.1939999999999999,0.317,0.118,0.265,0.074,1
6.981,13.43,43.79,143.5,0.1169999999999999,0.076,0.0,0.0,0.193,0.078,0.2239999999999999,1.508,1.5530000000000002,9.833,0.01,0.011,0.0,0.0,0.027,0.004,7.93,19.54,50.41,185.2,0.158,0.12,0.0,0.0,0.293,0.094,0
13.11,15.56,87.21,530.2,0.14,0.176,0.207,0.096,0.192,0.077,0.391,0.924,2.41,34.66,0.007,0.0289999999999999,0.055,0.0139999999999999,0.015,0.007,16.31,22.4,106.4,827.2,0.186,0.41,0.638,0.1989999999999999,0.315,0.14,1
12.36,18.54,79.01,466.7,0.085,0.068,0.026,0.019,0.16,0.061,0.12,0.894,0.848,9.227,0.003,0.01,0.012,0.006,0.013,0.001,13.29,27.49,85.56,544.1,0.118,0.196,0.1939999999999999,0.084,0.298,0.072,0
22.27,19.67,152.8,1509.0,0.133,0.2769999999999999,0.426,0.182,0.256,0.07,1.215,1.545,10.05,170.0,0.007,0.087,0.104,0.025,0.031,0.005,28.4,28.01,206.8,2360.0,0.17,0.7,0.961,0.291,0.406,0.098,1
14.26,19.65,97.83,629.9,0.078,0.223,0.3,0.078,0.17,0.078,0.363,1.49,3.399,29.25,0.005,0.074,0.144,0.023,0.026,0.013,15.3,23.73,107.0,709.0,0.089,0.419,0.6779999999999999,0.15,0.24,0.108,0
8.726,15.83,55.84,230.9,0.115,0.0819999999999999,0.0409999999999999,0.019,0.165,0.076,0.166,0.586,1.354,8.966000000000001,0.008,0.022,0.033,0.01,0.017,0.004,9.628,19.62,64.48,284.4,0.172,0.236,0.246,0.105,0.293,0.102,0
11.93,21.53,76.53,438.6,0.098,0.078,0.033,0.02,0.1689999999999999,0.062,0.312,0.923,2.0,24.79,0.008,0.025,0.018,0.008,0.013,0.004,13.67,26.15,87.54,583.0,0.15,0.24,0.15,0.072,0.244,0.085,0
14.87,16.67,98.64,682.5,0.1159999999999999,0.165,0.1689999999999999,0.089,0.216,0.068,0.427,0.949,2.989,41.18,0.007,0.026,0.03,0.013,0.016,0.004,18.81,27.37,127.1,1095.0,0.188,0.4479999999999999,0.47,0.203,0.358,0.106,1
15.78,22.91,105.7,782.6,0.1159999999999999,0.175,0.213,0.095,0.21,0.073,0.552,1.072,3.5980000000000003,58.63,0.009,0.04,0.06,0.0139999999999999,0.015,0.006,20.19,30.5,130.3,1272.0,0.186,0.492,0.736,0.203,0.327,0.125,1
17.95,20.01,114.2,982.0,0.084,0.067,0.073,0.0559999999999999,0.213,0.05,0.551,1.214,3.357,54.04,0.004,0.008,0.023,0.01,0.05,0.002,20.58,27.83,129.2,1261.0,0.107,0.12,0.225,0.118,0.488,0.061,1
11.41,10.82,73.34,403.3,0.094,0.067,0.035,0.026,0.1669999999999999,0.061,0.141,0.461,1.103,10.5,0.006,0.015,0.015,0.006,0.013,0.002,12.82,15.97,83.74,510.5,0.155,0.239,0.21,0.09,0.302,0.085,0
24.25,20.2,166.2,1761.0,0.145,0.287,0.427,0.201,0.266,0.069,1.509,3.12,9.807,233.0,0.023,0.098,0.128,0.018,0.045,0.01,26.02,23.99,180.9,2073.0,0.17,0.424,0.58,0.225,0.322,0.08,1
13.37,16.39,86.1,553.5,0.071,0.073,0.081,0.0279999999999999,0.142,0.0579999999999999,0.1639999999999999,1.14,1.223,14.66,0.006,0.033,0.05,0.01,0.012,0.004,14.26,22.75,91.99,632.1,0.102,0.253,0.331,0.09,0.205,0.076,0
13.85,17.21,88.44,588.7,0.088,0.061,0.0139999999999999,0.011,0.161,0.059,0.218,0.856,1.495,17.91,0.005,0.009,0.009,0.005,0.012,0.002,15.49,23.58,100.3,725.9,0.1159999999999999,0.135,0.081,0.051,0.236,0.072,0
13.61,24.69,87.76,572.6,0.093,0.079,0.053,0.031,0.176,0.061,0.231,1.005,1.7519999999999998,19.83,0.004,0.012,0.018,0.007,0.013,0.001,16.89,35.64,113.2,848.7,0.147,0.288,0.38,0.133,0.347,0.079,1
19.0,18.91,123.4,1138.0,0.0819999999999999,0.08,0.093,0.0559999999999999,0.195,0.05,0.69,1.342,5.216,81.23,0.004,0.027,0.04,0.0139999999999999,0.02,0.003,22.32,25.73,148.2,1538.0,0.102,0.226,0.321,0.122,0.284,0.065,1
15.1,16.39,99.58,674.5,0.115,0.181,0.114,0.085,0.2,0.065,0.431,1.068,2.7960000000000003,39.84,0.009,0.042,0.032,0.023,0.024,0.005,16.11,18.33,105.9,762.6,0.139,0.288,0.196,0.142,0.259,0.078,0
19.79,25.12,130.4,1192.0,0.102,0.159,0.254,0.115,0.22,0.061,0.495,1.199,2.765,63.33,0.005,0.032,0.048,0.01,0.016,0.003,22.63,33.58,148.7,1589.0,0.128,0.386,0.5670000000000001,0.173,0.33,0.085,1
15.46,19.48,101.7,748.9,0.109,0.122,0.147,0.081,0.193,0.0579999999999999,0.474,0.7859999999999999,3.094,48.31,0.006,0.015,0.0279999999999999,0.011,0.0139999999999999,0.002,19.26,26.0,124.9,1156.0,0.155,0.239,0.379,0.151,0.284,0.08,1
16.16,21.54,106.2,809.8,0.1009999999999999,0.128,0.104,0.0559999999999999,0.216,0.059,0.433,1.265,2.844,43.68,0.005,0.02,0.022,0.009,0.015,0.002,19.47,31.68,129.7,1175.0,0.14,0.306,0.299,0.131,0.348,0.076,1
18.45,21.91,120.2,1075.0,0.094,0.0969999999999999,0.115,0.068,0.1689999999999999,0.057,0.596,1.202,3.766,68.35,0.006,0.0139999999999999,0.0289999999999999,0.009,0.015,0.002,22.52,31.39,145.6,1590.0,0.146,0.228,0.396,0.138,0.311,0.076,1
11.28,13.39,73.0,384.8,0.1159999999999999,0.114,0.046,0.048,0.177,0.061,0.3379999999999999,1.3430000000000002,1.851,26.33,0.011,0.035,0.022,0.02,0.016,0.003,11.92,15.77,76.53,434.0,0.1369999999999999,0.182,0.087,0.086,0.21,0.068,0
9.738,11.97,61.24,288.5,0.092,0.0409999999999999,0.0,0.0,0.19,0.064,0.1989999999999999,0.496,1.218,12.26,0.006,0.006,0.0,0.0,0.023,0.003,10.62,14.1,66.53,342.9,0.123,0.072,0.0,0.0,0.31,0.0819999999999999,0
11.8,16.58,78.99,432.0,0.109,0.17,0.166,0.074,0.268,0.074,0.32,1.426,2.281,24.72,0.005,0.036,0.046,0.018,0.0559999999999999,0.005,13.74,26.38,91.93,591.7,0.138,0.409,0.45,0.186,0.5770000000000001,0.103,1
14.95,18.77,97.84,689.5,0.081,0.1169999999999999,0.09,0.036,0.174,0.065,0.422,1.909,3.2710000000000004,39.43,0.006,0.049,0.053,0.015,0.034,0.009,16.25,25.47,107.1,809.7,0.1,0.252,0.25,0.084,0.285,0.092,0
13.0,20.78,83.51,519.4,0.114,0.076,0.031,0.026,0.254,0.061,0.42,1.3219999999999998,2.873,34.78,0.007,0.011,0.019,0.012,0.03,0.002,14.16,24.11,90.82,616.7,0.13,0.11,0.081,0.063,0.32,0.064,0
8.219,20.7,53.27,203.9,0.094,0.13,0.132,0.022,0.222,0.083,0.1939999999999999,1.962,1.243,10.21,0.012,0.054,0.078,0.01,0.023,0.012,9.092,29.72,58.08,249.8,0.163,0.431,0.5379999999999999,0.079,0.332,0.149,0
11.15,13.08,70.87,381.9,0.098,0.051,0.02,0.018,0.183,0.061,0.225,0.782,1.429,15.48,0.009,0.009,0.012,0.008,0.024,0.002,11.99,16.3,76.25,440.8,0.134,0.09,0.071,0.055,0.286,0.068,0
13.15,15.34,85.31,538.9,0.094,0.085,0.093,0.035,0.182,0.062,0.271,0.7929999999999999,1.819,22.79,0.009,0.02,0.03,0.01,0.0279999999999999,0.003,14.77,20.5,97.67,677.3,0.148,0.226,0.301,0.0969999999999999,0.385,0.086,0
12.25,17.94,78.27,460.3,0.087,0.067,0.039,0.023,0.1969999999999999,0.062,0.22,0.982,1.484,16.51,0.006,0.016,0.02,0.008,0.018,0.002,13.59,25.22,86.6,564.2,0.122,0.179,0.1939999999999999,0.0819999999999999,0.311,0.081,0
10.9,12.96,68.69,366.8,0.075,0.037,0.003,0.007,0.144,0.057,0.282,0.7609999999999999,1.808,18.54,0.006,0.006,0.002,0.004,0.016,0.003,12.36,18.2,78.07,470.0,0.1169999999999999,0.083,0.019,0.04,0.2739999999999999,0.077,0
12.34,22.22,79.85,464.5,0.1009999999999999,0.102,0.054,0.0279999999999999,0.155,0.068,0.295,1.656,1.955,21.55,0.011,0.032,0.031,0.011,0.019,0.005,13.58,28.68,87.36,553.0,0.145,0.2339999999999999,0.1689999999999999,0.0819999999999999,0.2269999999999999,0.091,0
14.97,19.76,95.5,690.2,0.084,0.054,0.019,0.019,0.152,0.053,0.184,1.065,1.286,16.64,0.004,0.008,0.008,0.006,0.019,0.002,15.98,25.82,102.3,782.1,0.104,0.1,0.078,0.0579999999999999,0.265,0.061,0
16.78,18.8,109.3,886.3,0.089,0.092,0.084,0.066,0.1889999999999999,0.055,0.599,1.391,4.129,67.34,0.006,0.025,0.026,0.016,0.021,0.003,20.05,26.3,130.7,1260.0,0.1169999999999999,0.212,0.2319999999999999,0.147,0.281,0.072,1
12.32,12.39,78.85,464.1,0.103,0.07,0.04,0.037,0.196,0.06,0.236,0.6659999999999999,1.67,17.43,0.008,0.012,0.017,0.012,0.019,0.002,13.5,15.64,86.97,549.1,0.138,0.127,0.124,0.094,0.283,0.068,0
11.08,14.71,70.21,372.7,0.1009999999999999,0.057,0.024,0.026,0.157,0.067,0.207,1.805,1.3769999999999998,19.08,0.015,0.021,0.015,0.016,0.031,0.005,11.35,16.82,72.01,396.5,0.122,0.0819999999999999,0.039,0.043,0.19,0.073,0
9.904,18.06,64.6,302.4,0.0969999999999999,0.129,0.131,0.037,0.1669999999999999,0.081,0.431,2.261,3.132,27.48,0.013,0.088,0.12,0.025,0.039,0.018,11.26,24.39,73.07,390.2,0.13,0.295,0.349,0.099,0.261,0.1159999999999999,0
15.7,20.31,101.2,766.6,0.096,0.088,0.066,0.052,0.162,0.055,0.37,1.15,2.406,40.98,0.005,0.023,0.02,0.01,0.015,0.002,20.11,32.82,129.3,1269.0,0.141,0.355,0.29,0.154,0.344,0.086,1
11.41,14.92,73.53,402.0,0.091,0.0819999999999999,0.062,0.024,0.1169999999999999,0.062,0.3339999999999999,1.108,1.902,22.77,0.007,0.037,0.059,0.017,0.022,0.005,12.37,17.7,79.12,467.2,0.1119999999999999,0.161,0.165,0.063,0.181,0.074,0
15.28,22.41,98.92,710.6,0.091,0.105,0.054,0.033,0.173,0.063,0.205,0.496,1.344,19.53,0.003,0.0139999999999999,0.018,0.006,0.012,0.003,17.8,28.03,113.8,973.1,0.13,0.33,0.363,0.123,0.318,0.098,1
18.31,18.58,118.6,1041.0,0.086,0.085,0.0819999999999999,0.0579999999999999,0.162,0.054,0.258,0.476,1.817,28.92,0.003,0.009,0.0139999999999999,0.007,0.011,0.001,21.31,26.36,139.2,1410.0,0.123,0.244,0.354,0.157,0.321,0.069,1
11.71,17.19,74.68,420.3,0.098,0.061,0.038,0.032,0.152,0.061,0.245,0.7659999999999999,1.742,17.86,0.007,0.009,0.02,0.012,0.019,0.002,13.01,21.39,84.42,521.5,0.132,0.104,0.152,0.11,0.257,0.071,0
12.3,15.9,78.83,463.7,0.081,0.073,0.038,0.017,0.1669999999999999,0.055,0.238,0.836,1.6869999999999998,18.32,0.006,0.022,0.021,0.006,0.02,0.002,13.35,19.59,86.65,546.7,0.11,0.165,0.142,0.048,0.248,0.063,0
12.91,16.33,82.53,516.4,0.079,0.054,0.039,0.024,0.183,0.057,0.1939999999999999,0.909,1.493,15.75,0.005,0.016,0.023,0.008,0.019,0.002,13.88,22.0,90.81,600.6,0.11,0.151,0.176,0.0819999999999999,0.302,0.069,0
14.45,20.22,94.49,642.7,0.099,0.121,0.118,0.06,0.195,0.065,0.209,0.6509999999999999,1.446,19.42,0.004,0.016,0.02,0.007,0.015,0.002,18.33,30.12,117.9,1044.0,0.155,0.406,0.497,0.184,0.475,0.1009999999999999,1
12.23,19.56,78.54,461.0,0.096,0.081,0.042,0.0409999999999999,0.198,0.06,0.353,1.3259999999999998,2.3080000000000003,27.24,0.008,0.018,0.0139999999999999,0.011,0.015,0.003,14.44,28.36,92.15,638.4,0.143,0.204,0.138,0.108,0.267,0.0819999999999999,0
17.54,19.32,115.1,951.6,0.09,0.12,0.104,0.075,0.151,0.055,0.397,0.828,3.088,40.73,0.006,0.026,0.027,0.013,0.016,0.003,20.42,25.84,139.5,1239.0,0.138,0.342,0.351,0.1939999999999999,0.293,0.079,1
23.29,26.67,158.9,1685.0,0.114,0.208,0.352,0.162,0.22,0.062,0.5539999999999999,1.56,4.667,83.16,0.009,0.051,0.09,0.025,0.022,0.005,25.12,32.68,177.0,1986.0,0.154,0.417,0.789,0.273,0.32,0.088,1
12.47,18.6,81.09,481.9,0.1,0.106,0.08,0.038,0.192,0.064,0.396,1.044,2.497,30.29,0.007,0.019,0.027,0.01,0.018,0.004,14.97,24.64,96.05,677.9,0.143,0.238,0.267,0.102,0.301,0.088,0
9.876,17.27,62.92,295.4,0.109,0.072,0.018,0.02,0.193,0.063,0.214,1.342,1.517,12.33,0.01,0.012,0.008,0.008,0.022,0.002,10.42,23.22,67.08,331.6,0.142,0.125,0.062,0.0559999999999999,0.299,0.074,0
17.01,20.26,109.7,904.3,0.088,0.073,0.07,0.054,0.203,0.052,0.586,0.855,4.106,68.46,0.005,0.015,0.019,0.011,0.023,0.003,19.8,25.05,130.0,1210.0,0.111,0.149,0.193,0.11,0.3279999999999999,0.065,1
15.27,12.91,98.17,725.5,0.0819999999999999,0.062,0.059,0.032,0.136,0.055,0.213,0.363,1.525,20.0,0.004,0.012,0.018,0.007,0.01,0.002,17.38,15.92,113.7,932.7,0.122,0.2189999999999999,0.296,0.104,0.2319999999999999,0.075,0
11.84,18.94,75.51,428.0,0.089,0.069,0.027,0.0139999999999999,0.153,0.061,0.222,0.865,1.444,17.12,0.006,0.017,0.02,0.007,0.016,0.003,13.3,24.99,85.22,546.3,0.128,0.188,0.147,0.069,0.254,0.08,0
28.11,18.47,188.5,2499.0,0.114,0.152,0.32,0.16,0.165,0.055,2.873,1.476,21.98,525.6,0.013,0.0279999999999999,0.064,0.0139999999999999,0.048,0.004,28.11,18.47,188.5,2499.0,0.114,0.152,0.32,0.16,0.165,0.055,1
17.42,25.56,114.5,948.0,0.1009999999999999,0.115,0.168,0.066,0.131,0.059,0.53,1.6669999999999998,3.767,58.53,0.031,0.086,0.144,0.039,0.022,0.013,18.07,28.07,120.4,1021.0,0.124,0.179,0.28,0.11,0.16,0.068,1
10.2,17.48,65.05,321.2,0.081,0.059,0.0579999999999999,0.011,0.196,0.063,0.357,1.922,2.747,22.79,0.005,0.031,0.0579999999999999,0.011,0.026,0.005,11.48,24.47,75.4,403.7,0.095,0.14,0.192,0.036,0.287,0.078,0
19.53,32.47,128.0,1223.0,0.084,0.113,0.114,0.066,0.143,0.053,0.7390000000000001,1.321,4.722,109.9,0.006,0.026,0.027,0.011,0.013,0.002,27.9,45.41,180.2,2477.0,0.141,0.41,0.4,0.162,0.271,0.076,1
13.56,13.9,88.59,561.3,0.105,0.119,0.079,0.045,0.196,0.063,0.257,0.498,2.011,21.03,0.006,0.023,0.025,0.008,0.018,0.003,14.98,17.13,101.1,686.6,0.138,0.27,0.258,0.091,0.306,0.0819999999999999,0
10.18,17.53,65.12,313.1,0.106,0.085,0.018,0.019,0.191,0.069,0.247,1.217,1.641,15.05,0.008,0.0139999999999999,0.009,0.008,0.026,0.004,11.17,22.84,71.94,375.6,0.141,0.144,0.066,0.0559999999999999,0.306,0.088,0
12.62,23.97,81.35,496.4,0.079,0.075,0.054,0.02,0.151,0.06,0.245,1.0659999999999998,1.445,18.51,0.005,0.023,0.03,0.009,0.0139999999999999,0.003,14.2,31.31,90.67,624.0,0.123,0.345,0.391,0.118,0.283,0.096,0
12.83,22.33,85.26,503.2,0.109,0.18,0.17,0.069,0.212,0.073,0.306,1.069,2.257,25.13,0.007,0.039,0.047,0.015,0.017,0.006,15.2,30.15,105.3,706.0,0.178,0.534,0.628,0.198,0.341,0.124,1
17.05,19.08,113.4,895.0,0.114,0.157,0.191,0.109,0.213,0.063,0.296,0.679,2.153,31.98,0.006,0.02,0.031,0.0139999999999999,0.012,0.002,19.59,24.89,133.5,1189.0,0.17,0.3929999999999999,0.502,0.254,0.311,0.091,1
11.32,27.08,71.76,395.7,0.069,0.038,0.016,0.003,0.187,0.0559999999999999,0.121,0.893,1.0590000000000002,8.605,0.004,0.016,0.016,0.003,0.015,0.002,12.08,33.75,79.82,452.3,0.092,0.143,0.109,0.021,0.285,0.071,0
11.22,33.81,70.79,386.8,0.078,0.036,0.005,0.006,0.184,0.0579999999999999,0.2239999999999999,1.6469999999999998,1.489,15.46,0.004,0.007,0.003,0.003,0.019,0.003,12.36,41.78,78.44,470.9,0.1,0.069,0.023,0.03,0.291,0.073,0
9.567,15.91,60.21,279.6,0.085,0.0409999999999999,0.017,0.017,0.155,0.064,0.215,0.83,1.215,12.64,0.012,0.01,0.012,0.01,0.024,0.004,10.51,19.16,65.74,335.9,0.15,0.095,0.072,0.072,0.276,0.0819999999999999,0
23.21,26.97,153.5,1670.0,0.095,0.168,0.195,0.124,0.191,0.063,1.058,0.964,7.247000000000001,155.8,0.006,0.0289999999999999,0.045,0.017,0.016,0.003,31.01,34.51,206.0,2944.0,0.148,0.413,0.5820000000000001,0.259,0.31,0.087,1
20.48,21.46,132.5,1306.0,0.084,0.083,0.09,0.06,0.147,0.052,0.687,1.041,5.144,83.5,0.008,0.031,0.043,0.017,0.013,0.004,24.22,26.17,161.7,1750.0,0.123,0.231,0.316,0.144,0.2239999999999999,0.071,1
14.22,27.85,92.55,623.9,0.0819999999999999,0.104,0.11,0.044,0.134,0.061,0.335,2.324,2.105,29.96,0.006,0.0279999999999999,0.038,0.01,0.012,0.004,15.75,40.54,102.5,764.0,0.108,0.243,0.306,0.0819999999999999,0.1889999999999999,0.078,0
13.64,15.6,87.38,575.3,0.094,0.066,0.047,0.037,0.172,0.057,0.324,0.6609999999999999,1.996,27.19,0.006,0.012,0.018,0.011,0.019,0.002,14.85,19.05,94.11,683.4,0.128,0.129,0.153,0.092,0.253,0.065,0
19.4,23.5,129.1,1155.0,0.103,0.156,0.205,0.089,0.198,0.06,0.524,1.802,4.037,60.41,0.011,0.033,0.039,0.016,0.022,0.004,21.65,30.53,144.9,1417.0,0.146,0.297,0.346,0.156,0.292,0.076,1
13.2,17.43,84.13,541.6,0.072,0.045,0.043,0.011,0.149,0.0559999999999999,0.163,1.601,0.873,13.56,0.006,0.016,0.031,0.005,0.02,0.002,13.94,27.82,88.28,602.0,0.11,0.151,0.23,0.05,0.2769999999999999,0.072,0
12.89,14.11,84.95,512.2,0.088,0.135,0.1369999999999999,0.04,0.16,0.064,0.2019999999999999,0.44,2.393,16.35,0.006,0.0559999999999999,0.0819999999999999,0.0139999999999999,0.013,0.008,14.39,17.7,105.0,639.1,0.125,0.585,0.773,0.156,0.264,0.118,0
10.65,25.22,68.01,347.0,0.0969999999999999,0.072,0.024,0.016,0.19,0.063,0.25,1.493,1.497,16.64,0.007,0.01,0.011,0.006,0.022,0.003,12.25,35.19,77.98,455.7,0.15,0.14,0.1119999999999999,0.061,0.341,0.081,0
11.52,14.93,73.87,406.3,0.1009999999999999,0.078,0.043,0.0289999999999999,0.188,0.062,0.256,1.038,1.686,18.62,0.007,0.012,0.021,0.01,0.017,0.003,12.65,21.19,80.88,491.8,0.139,0.158,0.18,0.096,0.266,0.078,0
20.94,23.56,138.9,1364.0,0.1009999999999999,0.161,0.271,0.131,0.22,0.059,1.004,0.821,6.372000000000001,137.9,0.005,0.039,0.095,0.019,0.024,0.005,25.58,27.0,165.3,2010.0,0.121,0.317,0.6990000000000001,0.21,0.313,0.078,1
11.5,18.45,73.28,407.4,0.093,0.06,0.026,0.021,0.183,0.059,0.3929999999999999,0.843,2.684,26.99,0.006,0.011,0.012,0.009,0.023,0.001,12.97,22.46,83.12,508.9,0.118,0.105,0.081,0.065,0.2739999999999999,0.065,0
19.55,28.77,133.6,1207.0,0.093,0.206,0.178,0.114,0.1889999999999999,0.062,0.843,1.199,7.158,106.4,0.006,0.048,0.039,0.015,0.019,0.005,25.05,36.27,178.6,1926.0,0.128,0.5329999999999999,0.425,0.1939999999999999,0.282,0.1,1
15.32,17.27,103.2,713.3,0.134,0.228,0.245,0.124,0.24,0.076,0.659,1.0590000000000002,4.061,59.46,0.01,0.046,0.05,0.021,0.019,0.009,17.73,22.66,119.8,928.8,0.176,0.45,0.4429999999999999,0.223,0.326,0.119,1
15.66,23.2,110.2,773.5,0.111,0.311,0.318,0.138,0.25,0.081,1.2919999999999998,2.454,10.12,138.5,0.012,0.06,0.0819999999999999,0.03,0.023,0.006,19.85,31.64,143.7,1226.0,0.15,0.517,0.618,0.246,0.3279999999999999,0.102,1
17.35,23.06,111.0,933.1,0.087,0.063,0.0289999999999999,0.0279999999999999,0.156,0.053,0.401,1.317,2.577,44.41,0.006,0.011,0.012,0.008,0.0139999999999999,0.002,19.85,31.47,128.2,1218.0,0.124,0.149,0.121,0.0819999999999999,0.245,0.065,1
17.29,22.13,114.4,947.8,0.09,0.127,0.0969999999999999,0.075,0.211,0.055,0.835,1.633,6.146,90.94,0.007,0.06,0.046,0.021,0.027,0.006,20.39,27.24,137.9,1295.0,0.113,0.287,0.23,0.153,0.307,0.075,1
15.61,19.38,100.0,758.6,0.078,0.0559999999999999,0.042,0.0279999999999999,0.155,0.054,0.23,0.999,1.534,22.18,0.003,0.009,0.013,0.005,0.01,0.001,17.91,31.67,115.9,988.6,0.108,0.181,0.226,0.086,0.268,0.068,1
20.73,31.12,135.7,1419.0,0.095,0.114,0.1369999999999999,0.086,0.177,0.057,1.172,1.617,7.749,199.7,0.005,0.015,0.021,0.009,0.0139999999999999,0.002,32.49,47.16,214.0,3432.0,0.14,0.264,0.344,0.166,0.287,0.0819999999999999,1
11.29,13.04,72.23,388.0,0.098,0.076,0.033,0.0279999999999999,0.177,0.063,0.19,0.529,1.164,13.17,0.006,0.011,0.013,0.009,0.017,0.003,12.32,16.18,78.27,457.5,0.136,0.151,0.128,0.088,0.273,0.08,0
9.742,15.67,61.5,289.9,0.09,0.047,0.011,0.0139999999999999,0.208,0.063,0.268,1.409,1.75,16.39,0.0139999999999999,0.011,0.008,0.009,0.018,0.004,10.75,20.88,68.09,355.2,0.147,0.094,0.04,0.052,0.284,0.0819999999999999,0
11.89,17.36,76.2,435.6,0.122,0.072,0.059,0.074,0.2019999999999999,0.059,0.6409999999999999,2.293,4.021,48.84,0.0139999999999999,0.015,0.013,0.019,0.027,0.003,12.4,18.99,79.46,472.4,0.136,0.084,0.072,0.089,0.222,0.06,0
18.81,19.98,120.9,1102.0,0.089,0.059,0.08,0.0579999999999999,0.155,0.05,0.3279999999999999,0.828,2.363,36.74,0.008,0.011,0.026,0.015,0.019,0.002,19.96,24.3,129.0,1236.0,0.124,0.1159999999999999,0.221,0.129,0.257,0.057,1
13.85,15.18,88.99,587.4,0.095,0.077,0.045,0.037,0.211,0.059,0.248,0.92,1.83,19.41,0.004,0.015,0.015,0.01,0.015,0.002,14.98,21.74,98.37,670.0,0.118,0.172,0.146,0.1,0.296,0.069,0
19.4,18.18,127.2,1145.0,0.104,0.144,0.163,0.095,0.1889999999999999,0.059,0.471,0.995,2.903,53.16,0.006,0.022,0.031,0.015,0.016,0.002,23.79,28.65,152.4,1628.0,0.152,0.375,0.432,0.225,0.359,0.078,1
11.26,19.96,73.72,394.1,0.08,0.118,0.093,0.0559999999999999,0.26,0.062,0.487,1.905,2.877,34.68,0.016,0.083,0.081,0.035,0.034,0.007,11.86,22.33,78.27,437.6,0.103,0.184,0.155,0.093,0.296,0.07,0
11.37,18.89,72.17,396.0,0.087,0.05,0.024,0.022,0.201,0.06,0.266,1.974,1.954,17.49,0.007,0.0139999999999999,0.0139999999999999,0.01,0.034,0.003,12.36,26.14,79.29,459.3,0.1119999999999999,0.0969999999999999,0.075,0.062,0.327,0.07,0
14.41,19.73,96.03,651.0,0.088,0.168,0.136,0.066,0.171,0.072,0.8809999999999999,1.77,4.36,77.11,0.008,0.106,0.1,0.0279999999999999,0.0409999999999999,0.023,15.77,22.13,101.7,767.3,0.1,0.247,0.222,0.102,0.2269999999999999,0.088,0
14.96,19.1,97.03,687.3,0.09,0.098,0.059,0.048,0.188,0.059,0.288,0.948,2.171,24.87,0.005,0.021,0.015,0.012,0.015,0.003,16.25,26.19,109.1,809.8,0.131,0.303,0.18,0.149,0.296,0.085,0
11.76,18.14,75.0,431.1,0.1,0.059,0.027,0.035,0.162,0.063,0.645,2.105,4.138,49.11,0.006,0.01,0.013,0.0139999999999999,0.016,0.003,13.36,23.39,85.1,553.6,0.114,0.08,0.061,0.072,0.198,0.069,1
14.26,18.17,91.22,633.1,0.066,0.052,0.025,0.0139999999999999,0.1639999999999999,0.0559999999999999,0.23,0.669,1.661,20.56,0.003,0.0139999999999999,0.011,0.005,0.011,0.002,16.22,25.26,105.8,819.7,0.094,0.217,0.156,0.075,0.264,0.077,0
10.51,23.09,66.85,334.2,0.102,0.068,0.025,0.019,0.17,0.066,0.287,1.143,2.289,20.56,0.01,0.0139999999999999,0.019,0.012,0.035,0.002,10.93,24.22,70.1,362.7,0.114,0.086,0.042,0.031,0.223,0.068,0
11.6,24.49,74.23,417.2,0.075,0.057,0.02,0.013,0.1939999999999999,0.059,0.251,1.786,1.961,18.21,0.006,0.023,0.016,0.007,0.032,0.002,12.44,31.62,81.39,476.5,0.095,0.136,0.072,0.048,0.324,0.067,0
13.2,15.82,84.07,537.3,0.085,0.053,0.001,0.003,0.163,0.059,0.19,0.574,1.204,15.5,0.004,0.008,0.001,0.002,0.013,0.003,14.41,20.45,92.0,636.9,0.113,0.135,0.011,0.025,0.265,0.084,0
9.0,14.4,56.36,246.3,0.07,0.031,0.004,0.003,0.179,0.068,0.175,1.305,1.144,9.789,0.007,0.005,0.004,0.003,0.027,0.002,9.699,20.07,60.9,285.5,0.099,0.052,0.015,0.0139999999999999,0.299,0.078,0
13.5,12.71,85.69,566.2,0.074,0.036,0.003,0.004,0.136,0.053,0.2239999999999999,0.6859999999999999,1.509,20.39,0.003,0.004,0.002,0.003,0.015,0.002,14.97,16.94,95.48,698.7,0.09,0.0579999999999999,0.0139999999999999,0.022,0.2269999999999999,0.062,0
13.05,13.84,82.71,530.6,0.084,0.037,0.005,0.009,0.145,0.055,0.3979999999999999,0.828,2.567,33.01,0.004,0.005,0.003,0.005,0.0139999999999999,0.002,14.73,17.4,93.96,672.4,0.102,0.0579999999999999,0.018,0.035,0.211,0.066,0
18.22,18.87,118.7,1027.0,0.0969999999999999,0.1119999999999999,0.113,0.08,0.181,0.057,0.4039999999999999,0.55,2.547,48.9,0.005,0.017,0.024,0.011,0.013,0.002,21.84,25.0,140.9,1485.0,0.143,0.276,0.385,0.178,0.281,0.0819999999999999,1
12.43,17.0,78.6,477.3,0.076,0.035,0.013,0.017,0.147,0.0559999999999999,0.3779999999999999,2.2,2.487,31.16,0.007,0.011,0.01,0.011,0.034,0.003,12.9,20.21,81.76,515.9,0.084,0.047,0.022,0.0279999999999999,0.19,0.059,0
20.34,21.51,135.9,1264.0,0.1169999999999999,0.188,0.256,0.15,0.257,0.067,0.57,1.023,4.012,69.06,0.005,0.024,0.032,0.0139999999999999,0.0279999999999999,0.003,25.3,31.86,171.1,1938.0,0.159,0.449,0.534,0.268,0.556,0.102,1
12.2,15.21,78.01,457.9,0.087,0.065,0.02,0.017,0.1639999999999999,0.061,0.258,0.807,1.959,19.01,0.005,0.0139999999999999,0.011,0.005,0.013,0.002,13.75,21.38,91.11,583.1,0.126,0.193,0.1169999999999999,0.0559999999999999,0.266,0.08,0
16.27,20.71,106.9,813.7,0.1169999999999999,0.132,0.148,0.085,0.195,0.063,0.4379999999999999,1.232,3.27,44.41,0.007,0.021,0.032,0.0139999999999999,0.015,0.003,19.28,30.38,129.8,1121.0,0.159,0.295,0.36,0.158,0.31,0.0819999999999999,1
16.26,21.88,107.5,826.8,0.1159999999999999,0.128,0.18,0.08,0.187,0.065,0.5710000000000001,1.457,2.9610000000000003,57.72,0.011,0.038,0.0579999999999999,0.012,0.04,0.006,17.73,25.21,113.7,975.2,0.143,0.212,0.3339999999999999,0.105,0.2739999999999999,0.08,1
16.03,15.51,105.8,793.2,0.095,0.1369999999999999,0.12,0.07,0.178,0.06,0.337,0.748,2.629,33.27,0.006,0.032,0.037,0.015,0.015,0.003,18.76,21.98,124.3,1070.0,0.144,0.4479999999999999,0.496,0.198,0.302,0.091,1
12.98,19.35,84.52,514.0,0.096,0.1119999999999999,0.071,0.03,0.176,0.065,0.268,0.5660000000000001,2.465,20.65,0.006,0.033,0.044,0.01,0.0279999999999999,0.005,14.42,21.95,99.21,634.3,0.129,0.325,0.344,0.099,0.36,0.092,0
11.25,14.78,71.38,390.0,0.083,0.045,0.001,0.003,0.177,0.061,0.214,0.996,1.529,15.07,0.006,0.007,0.001,0.003,0.017,0.002,12.76,22.06,82.08,492.7,0.1169999999999999,0.098,0.006,0.017,0.282,0.074,0
12.3,19.02,77.88,464.4,0.083,0.042,0.008,0.009,0.154,0.059,0.184,1.5319999999999998,1.199,13.24,0.008,0.008,0.007,0.007,0.019,0.002,13.35,28.46,84.53,544.3,0.122,0.091,0.036,0.04,0.255,0.072,0
17.06,21.0,111.8,918.6,0.1119999999999999,0.106,0.151,0.099,0.173,0.061,0.816,2.129,6.0760000000000005,87.17,0.006,0.018,0.045,0.017,0.018,0.004,20.99,33.15,143.2,1362.0,0.145,0.205,0.392,0.183,0.262,0.076,1
12.99,14.23,84.08,514.3,0.095,0.1,0.037,0.021,0.165,0.072,0.181,0.6409999999999999,0.922,14.41,0.005,0.023,0.031,0.007,0.016,0.006,13.72,16.91,87.38,576.0,0.114,0.198,0.145,0.0579999999999999,0.243,0.1009999999999999,0
18.77,21.43,122.9,1092.0,0.091,0.14,0.106,0.061,0.195,0.061,0.642,1.53,4.369,88.25,0.008,0.039,0.039,0.018,0.022,0.004,24.54,34.37,161.1,1873.0,0.15,0.483,0.4629999999999999,0.205,0.368,0.099,1
10.05,17.53,64.41,310.8,0.1009999999999999,0.073,0.025,0.018,0.1889999999999999,0.063,0.262,2.015,1.778,16.85,0.008,0.0139999999999999,0.017,0.008,0.021,0.003,11.16,26.84,71.98,384.0,0.14,0.14,0.106,0.065,0.289,0.077,0
23.51,24.27,155.1,1747.0,0.107,0.128,0.231,0.141,0.18,0.055,1.009,0.924,6.462000000000001,164.1,0.006,0.02,0.036,0.013,0.015,0.003,30.67,30.73,202.4,2906.0,0.152,0.268,0.482,0.209,0.259,0.077,1
14.42,16.54,94.15,641.2,0.098,0.114,0.08,0.042,0.191,0.064,0.349,0.7709999999999999,2.677,32.14,0.005,0.031,0.038,0.012,0.019,0.003,16.67,21.51,111.4,862.1,0.129,0.337,0.376,0.141,0.305,0.088,0
9.606,16.84,61.64,280.5,0.085,0.092,0.084,0.023,0.204,0.071,0.184,0.943,1.429,12.07,0.006,0.035,0.05,0.009,0.018,0.004,10.75,23.07,71.25,353.6,0.123,0.342,0.434,0.081,0.298,0.098,0
19.68,21.68,129.9,1194.0,0.098,0.134,0.186,0.11,0.208,0.057,0.623,2.2840000000000003,5.172999999999999,67.66,0.005,0.034,0.043,0.018,0.038,0.003,22.75,34.66,157.6,1540.0,0.122,0.346,0.473,0.226,0.4039999999999999,0.079,1
11.71,15.45,75.03,420.3,0.115,0.073,0.04,0.032,0.201,0.065,0.345,0.74,2.355,24.53,0.01,0.011,0.017,0.011,0.02,0.003,13.06,18.16,84.16,516.4,0.146,0.1119999999999999,0.109,0.079,0.276,0.078,0
12.06,18.9,76.66,445.3,0.084,0.0579999999999999,0.008,0.008,0.156,0.06,0.243,1.152,1.5590000000000002,18.02,0.007,0.011,0.006,0.005,0.02,0.003,13.64,27.06,86.54,562.6,0.129,0.135,0.045,0.051,0.288,0.081,0
11.47,16.03,73.02,402.7,0.091,0.059,0.026,0.023,0.163,0.064,0.171,0.762,1.09,12.25,0.009,0.009,0.009,0.006,0.018,0.003,12.51,20.79,79.67,475.8,0.153,0.1119999999999999,0.098,0.065,0.285,0.088,0
15.75,19.22,107.1,758.6,0.124,0.236,0.291,0.124,0.238,0.076,0.52,1.324,3.477,51.22,0.009,0.066,0.1,0.023,0.055,0.007,17.36,24.17,119.4,915.3,0.155,0.505,0.687,0.214,0.424,0.105,1
25.73,17.46,174.2,2010.0,0.115,0.236,0.337,0.191,0.196,0.061,0.995,0.851,7.222,153.1,0.006,0.042,0.043,0.015,0.023,0.003,33.13,23.58,229.3,3234.0,0.153,0.594,0.645,0.276,0.369,0.088,1
15.08,25.74,98.0,716.6,0.102,0.098,0.124,0.066,0.165,0.065,0.653,1.506,4.174,63.37,0.011,0.024,0.049,0.017,0.021,0.005,18.51,33.22,121.2,1050.0,0.166,0.236,0.4029999999999999,0.153,0.265,0.094,1
11.14,14.07,71.24,384.6,0.073,0.061,0.045,0.015,0.1689999999999999,0.061,0.422,0.809,3.33,28.84,0.006,0.034,0.045,0.015,0.031,0.005,12.12,15.82,79.62,453.5,0.089,0.126,0.12,0.039,0.258,0.07,0
8.878,15.49,56.74,241.0,0.083,0.077,0.047,0.024,0.193,0.066,0.5379999999999999,1.2,4.277,30.18,0.011,0.0289999999999999,0.032,0.015,0.0279999999999999,0.004,9.981,17.7,65.27,302.0,0.102,0.125,0.094,0.048,0.243,0.074,0
9.436,18.32,59.82,278.6,0.1009999999999999,0.06,0.027,0.0139999999999999,0.151,0.07,0.508,1.247,3.267,30.48,0.007,0.009,0.023,0.007,0.019,0.003,12.02,25.02,75.79,439.6,0.133,0.105,0.114,0.051,0.245,0.081,0
12.54,18.07,79.42,491.9,0.074,0.026,0.001,0.005,0.153,0.052,0.351,0.953,2.329,28.3,0.006,0.005,0.001,0.004,0.02,0.001,13.72,20.98,86.82,585.7,0.093,0.043,0.004,0.016,0.223,0.055,0
13.3,21.57,85.24,546.1,0.086,0.064,0.033,0.024,0.182,0.057,0.262,1.539,2.028,20.98,0.005,0.02,0.018,0.006,0.018,0.002,14.2,29.2,92.94,621.2,0.114,0.1669999999999999,0.121,0.0559999999999999,0.264,0.067,0
16.5,18.29,106.6,838.1,0.0969999999999999,0.085,0.059,0.048,0.15,0.0559999999999999,0.3389999999999999,1.439,2.344,33.58,0.007,0.018,0.018,0.01,0.017,0.002,18.13,25.45,117.2,1009.0,0.134,0.168,0.166,0.091,0.239,0.065,0
13.4,16.95,85.48,552.4,0.079,0.057,0.022,0.015,0.165,0.057,0.158,0.612,1.036,13.22,0.004,0.012,0.015,0.005,0.013,0.002,14.73,21.7,93.76,663.5,0.121,0.168,0.136,0.07,0.2739999999999999,0.076,0
21.71,17.25,140.9,1546.0,0.094,0.086,0.1169999999999999,0.085,0.172,0.051,1.207,1.051,7.733,224.1,0.006,0.011,0.021,0.012,0.013,0.002,30.75,26.44,199.5,3143.0,0.136,0.163,0.286,0.182,0.251,0.065,1
16.35,23.29,109.0,840.4,0.0969999999999999,0.15,0.181,0.088,0.218,0.062,0.431,1.022,2.972,45.5,0.006,0.039,0.061,0.017,0.032,0.004,19.38,31.03,129.3,1165.0,0.142,0.466,0.7090000000000001,0.225,0.482,0.096,1
16.17,16.07,106.3,788.5,0.099,0.144,0.067,0.054,0.1989999999999999,0.066,0.174,0.489,1.349,14.91,0.005,0.018,0.02,0.012,0.019,0.004,16.97,19.14,113.1,861.5,0.124,0.255,0.211,0.125,0.315,0.09,0
10.57,20.22,70.15,338.3,0.091,0.166,0.228,0.059,0.2189999999999999,0.084,0.1119999999999999,1.231,2.363,7.228,0.008,0.076,0.154,0.0289999999999999,0.016,0.012,10.85,22.82,76.51,351.9,0.114,0.362,0.603,0.146,0.26,0.12,0
13.46,28.21,85.89,562.1,0.075,0.047,0.013,0.011,0.142,0.0579999999999999,0.1689999999999999,1.15,1.4,14.91,0.005,0.012,0.008,0.005,0.0139999999999999,0.002,14.69,35.63,97.11,680.6,0.111,0.146,0.079,0.0579999999999999,0.2689999999999999,0.071,0
11.08,18.83,73.3,361.6,0.122,0.215,0.1689999999999999,0.064,0.22,0.08,0.211,1.027,1.719,13.99,0.007,0.045,0.046,0.013,0.017,0.004,13.24,32.82,91.76,508.1,0.218,0.938,0.84,0.252,0.415,0.14,1
11.27,12.96,73.16,386.3,0.124,0.111,0.079,0.0559999999999999,0.2019999999999999,0.069,0.256,0.986,1.809,16.04,0.007,0.018,0.021,0.012,0.021,0.004,12.84,20.53,84.93,476.1,0.161,0.243,0.225,0.132,0.3339999999999999,0.092,0
11.04,14.93,70.67,372.7,0.08,0.071,0.035,0.021,0.2,0.062,0.1639999999999999,1.031,1.281,11.68,0.005,0.019,0.017,0.007,0.019,0.002,12.09,20.83,79.73,447.1,0.11,0.198,0.155,0.068,0.32,0.073,0
12.05,22.72,78.75,447.8,0.069,0.107,0.079,0.03,0.12,0.067,0.119,1.4340000000000002,1.778,9.549,0.005,0.046,0.043,0.017,0.025,0.007,12.57,28.71,87.36,488.4,0.088,0.321,0.291,0.109,0.2189999999999999,0.093,0
13.28,13.72,85.79,541.8,0.084,0.086,0.051,0.0289999999999999,0.162,0.0559999999999999,0.183,0.531,1.592,15.26,0.004,0.021,0.0279999999999999,0.008,0.015,0.003,14.24,17.37,96.59,623.7,0.1169999999999999,0.268,0.287,0.092,0.2739999999999999,0.073,0
14.6,23.29,93.97,664.7,0.087,0.066,0.084,0.053,0.163,0.054,0.416,1.6269999999999998,2.914,33.01,0.008,0.017,0.034,0.016,0.017,0.003,15.79,31.71,102.2,758.2,0.131,0.158,0.268,0.136,0.248,0.068,1
12.21,14.09,78.78,462.0,0.081,0.078,0.068,0.025,0.165,0.062,0.267,0.831,2.097,19.96,0.004,0.03,0.043,0.011,0.019,0.005,13.13,19.29,87.65,529.9,0.103,0.243,0.308,0.091,0.268,0.088,0
13.88,16.16,88.37,596.6,0.07,0.048,0.02,0.009,0.161,0.055,0.254,0.622,1.709,23.12,0.004,0.0139999999999999,0.02,0.007,0.016,0.002,15.51,19.97,99.66,745.3,0.085,0.123,0.109,0.045,0.254,0.066,0
10.26,12.22,65.75,321.6,0.1,0.075,0.019,0.02,0.18,0.066,0.191,0.5479999999999999,1.348,11.88,0.006,0.0139999999999999,0.008,0.007,0.019,0.002,11.38,15.65,73.23,394.5,0.134,0.165,0.086,0.067,0.294,0.077,0
8.734,16.84,55.27,234.3,0.104,0.074,0.0,0.0,0.198,0.071,0.517,2.079,3.167,28.85,0.016,0.02,0.0,0.0,0.019,0.007,10.17,22.8,64.01,317.0,0.146,0.131,0.0,0.0,0.244,0.089,0
15.49,19.97,102.4,744.7,0.1159999999999999,0.156,0.1889999999999999,0.091,0.193,0.067,0.647,1.331,4.675,66.91,0.007,0.0289999999999999,0.05,0.016,0.019,0.004,21.2,29.41,142.1,1359.0,0.168,0.391,0.555,0.212,0.319,0.102,1
13.51,18.89,88.1,558.1,0.106,0.115,0.086,0.054,0.181,0.061,0.214,1.332,1.513,19.29,0.005,0.02,0.033,0.0139999999999999,0.013,0.002,14.8,27.2,97.33,675.2,0.143,0.257,0.344,0.145,0.267,0.077,0
12.8,17.46,83.05,508.3,0.08,0.089,0.074,0.0409999999999999,0.157,0.0579999999999999,0.364,1.265,2.668,30.57,0.005,0.035,0.045,0.0139999999999999,0.019,0.004,13.74,21.06,90.72,591.0,0.095,0.181,0.19,0.083,0.1989999999999999,0.071,0
11.06,14.83,70.31,378.2,0.077,0.048,0.027,0.007,0.154,0.062,0.186,0.688,1.263,12.98,0.004,0.015,0.019,0.004,0.012,0.004,12.68,20.35,80.79,496.7,0.1119999999999999,0.188,0.208,0.0559999999999999,0.259,0.092,0
17.91,21.02,124.4,994.0,0.123,0.258,0.319,0.12,0.211,0.071,0.4029999999999999,0.775,3.123,41.51,0.007,0.037,0.062,0.011,0.016,0.005,20.8,27.78,149.6,1304.0,0.187,0.5920000000000001,0.903,0.196,0.324,0.12,1
12.96,18.29,84.18,525.2,0.074,0.079,0.0409999999999999,0.019,0.187,0.059,0.236,1.2990000000000002,2.397,20.21,0.004,0.037,0.035,0.011,0.026,0.004,14.13,24.61,96.31,621.9,0.093,0.2319999999999999,0.16,0.066,0.321,0.072,0
12.94,16.17,83.18,507.6,0.099,0.088,0.033,0.024,0.174,0.062,0.146,0.905,0.998,11.36,0.003,0.013,0.016,0.007,0.019,0.002,13.86,23.02,89.69,580.9,0.1169999999999999,0.196,0.181,0.084,0.33,0.078,0
12.34,14.95,78.29,469.1,0.087,0.046,0.021,0.021,0.157,0.057,0.3829999999999999,0.908,2.602,30.15,0.008,0.008,0.013,0.01,0.03,0.001,13.18,16.85,84.11,533.1,0.105,0.067,0.049,0.048,0.23,0.06,0
10.94,18.59,70.39,370.0,0.1,0.075,0.049,0.0289999999999999,0.149,0.066,0.38,1.743,3.018,25.78,0.01,0.021,0.02,0.012,0.021,0.003,12.4,25.58,82.76,472.4,0.136,0.1639999999999999,0.141,0.079,0.225,0.077,0
16.14,14.86,104.3,800.0,0.095,0.085,0.055,0.045,0.174,0.059,0.239,0.637,1.729,21.83,0.004,0.012,0.018,0.009,0.015,0.002,17.71,19.58,115.9,947.9,0.121,0.172,0.231,0.113,0.278,0.07,0
12.27,17.92,78.41,466.1,0.087,0.065,0.032,0.027,0.1969999999999999,0.0559999999999999,0.3339999999999999,1.781,2.079,25.79,0.006,0.023,0.021,0.011,0.026,0.002,14.1,28.88,89.0,610.2,0.124,0.18,0.138,0.095,0.346,0.069,0
11.04,16.83,70.92,373.2,0.108,0.078,0.03,0.025,0.171,0.063,0.1969999999999999,1.3869999999999998,1.342,13.54,0.005,0.009,0.011,0.007,0.017,0.002,12.41,26.44,79.93,471.4,0.1369999999999999,0.148,0.107,0.074,0.3,0.079,0
9.397,21.68,59.75,268.8,0.08,0.061,0.037,0.005,0.127,0.067,0.119,1.182,1.1740000000000002,6.8020000000000005,0.006,0.027,0.037,0.005,0.02,0.005,9.965,27.99,66.61,301.0,0.109,0.1889999999999999,0.187,0.026,0.238,0.092,0
14.99,22.11,97.53,693.7,0.085,0.102,0.069,0.039,0.1939999999999999,0.059,0.319,1.336,2.31,28.51,0.004,0.0279999999999999,0.033,0.012,0.019,0.004,16.76,31.55,110.2,867.1,0.108,0.3339999999999999,0.311,0.131,0.316,0.093,0
11.57,19.04,74.2,409.7,0.085,0.077,0.055,0.0139999999999999,0.203,0.063,0.286,1.44,2.206,20.3,0.007,0.02,0.044,0.009,0.019,0.003,13.07,26.98,86.43,520.5,0.125,0.1939999999999999,0.256,0.067,0.304,0.083,0
13.66,19.13,89.46,575.3,0.091,0.115,0.0969999999999999,0.048,0.185,0.062,0.2239999999999999,0.895,1.804,19.36,0.004,0.0279999999999999,0.037,0.013,0.016,0.004,15.14,25.5,101.4,708.8,0.115,0.317,0.366,0.141,0.2739999999999999,0.088,0
10.8,21.98,68.79,359.9,0.088,0.057,0.036,0.0139999999999999,0.2019999999999999,0.06,0.308,1.621,2.24,20.2,0.007,0.021,0.03,0.01,0.018,0.003,12.76,32.04,83.69,489.5,0.13,0.17,0.193,0.075,0.296,0.077,0
14.9,22.53,102.1,685.0,0.099,0.222,0.273,0.0969999999999999,0.204,0.069,0.253,0.875,3.466,24.19,0.007,0.062,0.079,0.022,0.015,0.006,16.35,27.57,125.4,832.7,0.142,0.7090000000000001,0.902,0.248,0.287,0.1159999999999999,1
18.82,21.97,123.7,1110.0,0.102,0.139,0.159,0.087,0.1939999999999999,0.061,0.8190000000000001,1.931,4.493,103.9,0.008,0.0409999999999999,0.053,0.018,0.024,0.005,22.66,30.93,145.3,1603.0,0.139,0.346,0.391,0.171,0.301,0.083,1
13.98,19.62,91.12,599.5,0.106,0.113,0.113,0.065,0.1669999999999999,0.065,0.221,0.953,1.602,18.85,0.005,0.018,0.022,0.01,0.012,0.003,17.04,30.8,113.9,869.3,0.161,0.357,0.407,0.183,0.318,0.106,1
12.87,19.54,82.67,509.2,0.091,0.079,0.018,0.021,0.186,0.063,0.366,0.769,2.597,26.5,0.006,0.0139999999999999,0.007,0.007,0.022,0.002,14.45,24.38,95.14,626.9,0.121,0.165,0.071,0.064,0.331,0.077,0
13.85,19.6,88.68,592.6,0.087,0.063,0.013,0.023,0.156,0.057,0.342,1.6780000000000002,2.331,29.63,0.006,0.011,0.006,0.007,0.02,0.002,15.63,28.01,100.9,749.1,0.1119999999999999,0.114,0.048,0.059,0.251,0.069,0
17.27,25.42,112.4,928.8,0.083,0.111,0.12,0.057,0.147,0.054,0.51,1.679,3.283,58.38,0.008,0.043,0.049,0.017,0.016,0.004,20.38,35.46,132.8,1284.0,0.144,0.412,0.504,0.174,0.25,0.079,1
10.57,18.32,66.82,340.9,0.081,0.045,0.02,0.011,0.237,0.0579999999999999,0.182,2.542,1.277,13.12,0.011,0.013,0.02,0.011,0.017,0.004,10.94,23.31,69.35,366.3,0.098,0.065,0.04,0.022,0.27,0.067,0
11.99,24.89,77.61,441.3,0.103,0.092,0.054,0.043,0.182,0.068,0.262,1.204,1.865,19.39,0.008,0.02,0.023,0.017,0.021,0.004,12.98,30.36,84.48,513.9,0.131,0.182,0.161,0.12,0.26,0.083,0
17.75,28.03,117.3,981.6,0.1,0.131,0.17,0.083,0.171,0.059,0.39,1.077,2.873,43.95,0.005,0.02,0.037,0.011,0.012,0.003,21.53,38.54,145.4,1437.0,0.14,0.376,0.64,0.1969999999999999,0.297,0.091,1
19.59,25.0,127.7,1191.0,0.103,0.099,0.166,0.091,0.166,0.054,0.467,1.375,2.9160000000000004,56.18,0.012,0.019,0.049,0.015,0.016,0.002,21.44,30.96,139.8,1421.0,0.153,0.184,0.3979999999999999,0.147,0.2289999999999999,0.061,1
12.62,17.15,80.62,492.9,0.086,0.054,0.03,0.023,0.18,0.0579999999999999,0.1689999999999999,0.667,1.116,13.32,0.004,0.009,0.013,0.007,0.016,0.002,14.34,22.15,91.62,633.5,0.122,0.152,0.1889999999999999,0.099,0.327,0.073,0
13.38,30.72,86.34,557.2,0.092,0.074,0.0279999999999999,0.033,0.138,0.06,0.341,1.924,2.287,28.93,0.006,0.012,0.008,0.009,0.016,0.003,15.05,41.61,96.69,705.6,0.1169999999999999,0.142,0.07,0.078,0.22,0.077,0
13.0,25.13,82.61,520.2,0.084,0.051,0.012,0.018,0.1669999999999999,0.054,0.262,1.232,1.6569999999999998,21.19,0.006,0.009,0.006,0.006,0.012,0.002,14.34,31.88,91.06,628.5,0.122,0.109,0.045,0.059,0.231,0.063,0
9.755,28.2,61.68,290.9,0.08,0.046,0.015,0.01,0.162,0.06,0.178,1.6869999999999998,1.243,11.28,0.007,0.013,0.0139999999999999,0.006,0.016,0.002,10.67,36.92,68.03,349.9,0.111,0.111,0.072,0.049,0.2319999999999999,0.072,0
17.08,27.15,111.2,930.9,0.099,0.111,0.1009999999999999,0.064,0.179,0.063,0.929,1.152,6.051,115.2,0.009,0.022,0.027,0.015,0.02,0.004,22.96,34.49,152.1,1648.0,0.16,0.244,0.264,0.156,0.301,0.091,1
27.42,26.27,186.9,2501.0,0.108,0.1989999999999999,0.364,0.1689999999999999,0.206,0.0559999999999999,2.547,1.306,18.65,542.2,0.008,0.054,0.081,0.026,0.017,0.005,36.04,31.37,251.2,4254.0,0.136,0.426,0.6829999999999999,0.262,0.264,0.074,1
13.17,18.22,84.28,537.3,0.075,0.06,0.049,0.0289999999999999,0.145,0.055,0.2019999999999999,0.685,1.236,16.89,0.006,0.015,0.016,0.008,0.011,0.002,14.9,23.89,95.1,687.6,0.128,0.196,0.188,0.104,0.2239999999999999,0.069,0
13.24,20.13,86.87,542.9,0.083,0.122,0.1009999999999999,0.0279999999999999,0.16,0.064,0.281,0.8140000000000001,3.369,23.81,0.005,0.067,0.077,0.0139999999999999,0.015,0.008,15.44,25.5,115.0,733.5,0.12,0.565,0.6559999999999999,0.136,0.284,0.125,0
13.14,20.74,85.98,536.9,0.087,0.109,0.108,0.035,0.156,0.06,0.315,0.7879999999999999,2.312,27.4,0.007,0.032,0.046,0.013,0.016,0.003,14.8,25.46,100.9,689.1,0.135,0.355,0.45,0.118,0.256,0.0819999999999999,0
12.04,28.14,76.85,449.9,0.088,0.06,0.024,0.024,0.185,0.057,0.606,2.643,4.099,44.96,0.008,0.016,0.015,0.012,0.02,0.004,13.6,33.33,87.24,567.6,0.104,0.0969999999999999,0.055,0.055,0.24,0.066,0
14.92,14.93,96.45,686.9,0.081,0.085,0.055,0.032,0.1689999999999999,0.057,0.245,0.433,1.826,23.31,0.003,0.018,0.023,0.008,0.011,0.002,17.18,18.22,112.0,906.6,0.106,0.2789999999999999,0.315,0.115,0.2689999999999999,0.083,0
12.27,29.97,77.42,465.4,0.077,0.034,0.0,0.0,0.17,0.06,0.446,3.647,2.884,35.13,0.007,0.008,0.0,0.0,0.031,0.003,13.45,38.05,85.08,558.9,0.094,0.052,0.0,0.0,0.241,0.067,0
14.2,20.53,92.41,618.4,0.089,0.111,0.051,0.031,0.151,0.06,0.348,1.018,2.749,31.01,0.004,0.033,0.0279999999999999,0.0139999999999999,0.016,0.003,16.45,27.26,112.1,828.5,0.115,0.3429999999999999,0.251,0.134,0.253,0.079,0
13.9,16.62,88.97,599.4,0.068,0.053,0.022,0.013,0.181,0.055,0.156,0.5760000000000001,1.392,14.03,0.003,0.013,0.01,0.005,0.013,0.002,15.14,21.8,101.2,718.9,0.094,0.201,0.138,0.062,0.268,0.077,0
11.49,14.59,73.99,404.9,0.105,0.0819999999999999,0.053,0.02,0.178,0.066,0.203,1.166,1.567,14.34,0.005,0.021,0.042,0.008,0.018,0.004,12.4,21.9,82.04,467.6,0.135,0.201,0.26,0.074,0.294,0.092,0
12.16,18.03,78.29,455.3,0.091,0.078,0.0289999999999999,0.015,0.146,0.063,0.2189999999999999,1.19,1.6780000000000002,16.26,0.005,0.017,0.0139999999999999,0.005,0.015,0.002,13.34,27.87,88.83,547.4,0.121,0.228,0.162,0.057,0.241,0.077,0
13.9,19.24,88.73,602.9,0.08,0.053,0.03,0.021,0.158,0.0559999999999999,0.332,0.926,2.056,28.41,0.004,0.011,0.015,0.006,0.011,0.002,16.41,26.42,104.4,830.5,0.106,0.142,0.1669999999999999,0.0819999999999999,0.236,0.076,0
13.7,17.64,87.76,571.1,0.1,0.08,0.045,0.032,0.173,0.061,0.243,0.946,1.564,20.64,0.003,0.008,0.017,0.009,0.013,0.002,14.96,23.53,95.78,686.5,0.12,0.135,0.174,0.091,0.252,0.07,0
15.73,11.28,102.8,747.2,0.104,0.13,0.119,0.062,0.178,0.063,0.163,0.387,1.143,13.87,0.006,0.018,0.033,0.011,0.012,0.002,17.01,14.2,112.5,854.3,0.154,0.298,0.4,0.145,0.256,0.0819999999999999,0
12.45,16.41,82.85,476.7,0.095,0.151,0.154,0.048,0.208,0.073,0.392,1.207,5.004,30.19,0.007,0.075,0.111,0.027,0.032,0.01,13.78,21.03,97.82,580.6,0.118,0.406,0.49,0.134,0.3229999999999999,0.103,0
14.64,16.85,94.21,666.0,0.086,0.067,0.052,0.0279999999999999,0.141,0.054,0.22,1.006,1.471,19.98,0.004,0.0139999999999999,0.018,0.006,0.013,0.001,16.46,25.44,106.0,831.0,0.114,0.207,0.244,0.078,0.246,0.066,0
11.68,16.17,75.49,420.5,0.113,0.093,0.043,0.031,0.185,0.064,0.371,1.154,2.5540000000000003,27.57,0.009,0.013,0.019,0.012,0.022,0.003,13.32,21.59,86.57,549.8,0.153,0.148,0.149,0.098,0.28,0.08,0
18.01,20.56,118.4,1007.0,0.1,0.129,0.1169999999999999,0.078,0.212,0.061,0.755,1.288,5.353,89.74,0.008,0.027,0.037,0.016,0.0289999999999999,0.004,21.53,26.06,143.4,1426.0,0.131,0.233,0.254,0.149,0.325,0.076,1
12.46,12.83,78.83,477.3,0.074,0.04,0.007,0.011,0.161,0.06,0.3279999999999999,1.486,2.108,24.6,0.01,0.01,0.006,0.008,0.0289999999999999,0.005,13.19,16.36,83.24,534.0,0.094,0.065,0.017,0.027,0.228,0.07,0
12.65,18.17,82.69,485.6,0.108,0.133,0.08,0.051,0.1639999999999999,0.069,0.2319999999999999,0.633,1.696,18.4,0.006,0.025,0.026,0.01,0.018,0.004,14.38,22.15,95.29,633.7,0.153,0.384,0.358,0.141,0.3229999999999999,0.103,0
18.49,17.52,121.3,1068.0,0.1009999999999999,0.132,0.149,0.092,0.183,0.067,0.792,1.045,4.851,95.77,0.008,0.032,0.044,0.016,0.016,0.005,22.75,22.88,146.4,1600.0,0.141,0.309,0.353,0.166,0.251,0.094,1
20.59,21.24,137.8,1320.0,0.108,0.1639999999999999,0.2189999999999999,0.1119999999999999,0.185,0.062,0.59,1.216,4.206,75.09,0.007,0.0279999999999999,0.0409999999999999,0.015,0.011,0.004,23.86,30.76,163.2,1760.0,0.146,0.36,0.518,0.211,0.248,0.09,1
15.04,16.74,98.73,689.4,0.099,0.136,0.077,0.061,0.1669999999999999,0.069,0.372,0.8420000000000001,2.3040000000000003,34.84,0.004,0.018,0.02,0.01,0.011,0.003,16.76,20.43,109.7,856.9,0.114,0.218,0.186,0.102,0.218,0.085,0
13.82,24.49,92.33,595.9,0.1159999999999999,0.168,0.136,0.068,0.228,0.072,0.475,1.528,2.974,39.05,0.01,0.039,0.035,0.016,0.024,0.007,16.01,32.94,106.0,788.0,0.179,0.397,0.3379999999999999,0.152,0.365,0.118,1
12.54,16.32,81.25,476.3,0.1159999999999999,0.108,0.059,0.033,0.1939999999999999,0.066,0.258,1.095,1.5659999999999998,18.49,0.01,0.016,0.026,0.012,0.0279999999999999,0.002,13.57,21.4,86.67,552.0,0.158,0.175,0.1889999999999999,0.084,0.316,0.075,0
9.268,12.87,61.49,248.7,0.163,0.2239999999999999,0.0969999999999999,0.053,0.238,0.095,0.408,1.093,3.014,20.04,0.01,0.045,0.035,0.022,0.025,0.01,10.28,16.38,69.05,300.2,0.19,0.344,0.21,0.102,0.304,0.125,0
12.22,20.04,79.47,453.1,0.11,0.115,0.0819999999999999,0.022,0.212,0.069,0.181,0.7959999999999999,0.986,12.58,0.006,0.022,0.04,0.01,0.013,0.004,13.16,24.17,85.13,515.3,0.14,0.2319999999999999,0.354,0.081,0.271,0.088,0
11.06,17.12,71.25,366.5,0.119,0.107,0.0409999999999999,0.043,0.195,0.08,0.178,1.03,1.318,12.3,0.013,0.023,0.018,0.013,0.022,0.008,11.69,20.74,76.08,411.1,0.166,0.203,0.126,0.095,0.278,0.1169999999999999,0
14.81,14.7,94.66,680.7,0.085,0.05,0.034,0.025,0.166,0.053,0.218,0.623,1.6769999999999998,20.72,0.007,0.012,0.015,0.011,0.016,0.002,15.61,17.58,101.7,760.2,0.114,0.1009999999999999,0.11,0.08,0.233,0.061,0
13.4,20.52,88.64,556.7,0.111,0.147,0.144,0.0819999999999999,0.212,0.073,0.391,0.931,3.093,33.67,0.005,0.023,0.035,0.013,0.017,0.004,16.41,29.66,113.3,844.4,0.157,0.386,0.511,0.205,0.358,0.111,1
14.58,13.66,94.29,658.8,0.098,0.089,0.0819999999999999,0.043,0.174,0.0559999999999999,0.416,0.624,2.5610000000000004,37.11,0.005,0.018,0.03,0.009,0.015,0.002,16.76,17.24,108.5,862.0,0.122,0.193,0.249,0.092,0.263,0.07,0
15.05,19.07,97.26,701.9,0.092,0.086,0.075,0.043,0.156,0.059,0.386,1.198,2.63,38.49,0.005,0.016,0.03,0.009,0.012,0.002,17.58,28.06,113.8,967.0,0.125,0.21,0.287,0.1119999999999999,0.228,0.07,1
11.34,18.61,72.76,391.2,0.105,0.085,0.043,0.026,0.193,0.062,0.243,1.01,1.491,18.19,0.009,0.016,0.021,0.011,0.024,0.001,12.47,23.03,79.15,478.6,0.148,0.157,0.162,0.085,0.306,0.068,0
18.31,20.58,120.8,1052.0,0.107,0.125,0.157,0.095,0.186,0.059,0.545,0.922,3.218,67.36,0.006,0.019,0.0289999999999999,0.01,0.016,0.003,21.86,26.2,142.2,1493.0,0.149,0.254,0.376,0.151,0.307,0.079,1
12.88,18.22,84.45,493.1,0.122,0.166,0.048,0.053,0.171,0.073,0.4429999999999999,1.169,3.176,34.37,0.005,0.023,0.0139999999999999,0.012,0.018,0.003,15.05,24.37,99.31,674.7,0.146,0.296,0.125,0.11,0.258,0.089,0
12.75,16.7,82.51,493.8,0.1119999999999999,0.1119999999999999,0.039,0.03,0.212,0.066,0.3829999999999999,1.003,2.495,28.62,0.008,0.016,0.02,0.009,0.018,0.004,14.45,21.74,93.63,624.1,0.148,0.198,0.142,0.08,0.307,0.086,0
9.295,13.9,59.96,257.8,0.1369999999999999,0.122,0.033,0.024,0.22,0.077,0.354,1.13,2.388,19.63,0.015,0.025,0.022,0.016,0.04,0.004,10.57,17.84,67.84,326.6,0.185,0.21,0.1,0.073,0.368,0.09,0
13.71,18.68,88.73,571.0,0.099,0.107,0.054,0.038,0.171,0.068,0.319,1.249,2.2840000000000003,26.45,0.007,0.023,0.021,0.0139999999999999,0.019,0.004,15.11,25.63,99.43,701.9,0.142,0.257,0.1939999999999999,0.128,0.285,0.09,0
9.847,15.68,63.0,293.2,0.095,0.084,0.023,0.024,0.139,0.069,0.25,1.216,1.976,15.24,0.009,0.02,0.011,0.007,0.018,0.003,11.24,22.99,74.32,376.5,0.142,0.2239999999999999,0.084,0.065,0.25,0.092,0
12.34,12.27,78.94,468.5,0.09,0.063,0.03,0.026,0.1689999999999999,0.0579999999999999,0.1169999999999999,0.496,0.7709999999999999,8.955,0.004,0.009,0.009,0.006,0.011,0.001,13.61,19.27,87.22,564.9,0.129,0.207,0.179,0.107,0.311,0.076,0
12.07,13.44,77.83,445.2,0.11,0.09,0.038,0.0279999999999999,0.166,0.066,0.251,0.504,1.714,18.54,0.007,0.012,0.018,0.008,0.02,0.002,13.45,15.77,86.92,549.9,0.152,0.163,0.162,0.074,0.278,0.081,0
11.75,17.56,75.89,422.9,0.107,0.0969999999999999,0.053,0.044,0.16,0.067,0.4379999999999999,1.907,3.149,30.66,0.007,0.018,0.017,0.013,0.018,0.002,13.5,27.98,88.52,552.3,0.135,0.185,0.1369999999999999,0.1009999999999999,0.248,0.078,0
11.67,20.02,75.21,416.2,0.102,0.095,0.042,0.022,0.186,0.065,0.207,0.8740000000000001,1.393,15.34,0.005,0.017,0.018,0.005,0.0139999999999999,0.003,13.35,28.81,87.0,550.6,0.155,0.296,0.276,0.081,0.321,0.09,0
13.68,16.33,87.76,575.5,0.093,0.073,0.018,0.019,0.163,0.062,0.205,0.48,1.3730000000000002,17.25,0.004,0.007,0.007,0.005,0.011,0.002,15.85,20.2,101.6,773.4,0.126,0.156,0.121,0.087,0.281,0.078,0
20.47,20.67,134.7,1299.0,0.092,0.131,0.152,0.102,0.217,0.054,0.8340000000000001,1.736,5.167999999999999,100.4,0.005,0.031,0.0409999999999999,0.017,0.0279999999999999,0.003,23.23,27.15,152.0,1645.0,0.11,0.253,0.309,0.161,0.322,0.064,1
10.96,17.62,70.79,365.6,0.0969999999999999,0.098,0.053,0.0279999999999999,0.162,0.064,0.151,1.5830000000000002,1.165,10.09,0.01,0.034,0.044,0.013,0.013,0.004,11.62,26.51,76.43,407.5,0.143,0.251,0.212,0.099,0.2289999999999999,0.083,0
14.27,22.55,93.77,629.8,0.104,0.115,0.146,0.061,0.193,0.06,0.203,1.851,1.895,18.54,0.006,0.026,0.046,0.013,0.015,0.004,15.29,34.27,104.3,728.3,0.138,0.273,0.423,0.136,0.27,0.084,1
11.69,24.44,76.37,406.4,0.124,0.155,0.045,0.045,0.213,0.074,0.296,1.978,2.158,20.95,0.013,0.035,0.019,0.018,0.016,0.006,12.98,32.19,86.12,487.7,0.177,0.325,0.14,0.131,0.28,0.1,0
7.729,25.49,47.98,178.8,0.081,0.049,0.0,0.0,0.187,0.073,0.3779999999999999,1.462,2.492,19.14,0.013,0.01,0.0,0.0,0.0289999999999999,0.007,9.077,30.92,57.17,248.0,0.126,0.083,0.0,0.0,0.306,0.099,0
7.691,25.44,48.34,170.4,0.087,0.12,0.093,0.0139999999999999,0.204,0.078,0.22,1.479,1.445,11.73,0.015,0.065,0.093,0.0139999999999999,0.021,0.008,8.677999999999999,31.89,54.49,223.6,0.16,0.306,0.3389999999999999,0.05,0.2789999999999999,0.107,0
11.54,14.44,74.65,402.9,0.1,0.1119999999999999,0.067,0.026,0.182,0.068,0.278,1.768,1.628,20.86,0.012,0.0409999999999999,0.0559999999999999,0.015,0.018,0.006,12.26,19.68,78.78,457.8,0.134,0.212,0.18,0.069,0.233,0.081,0
14.74,25.42,94.7,668.6,0.083,0.072,0.0409999999999999,0.03,0.184,0.057,0.303,1.385,2.177,27.41,0.005,0.012,0.019,0.013,0.019,0.003,16.51,32.29,107.4,826.4,0.106,0.138,0.161,0.11,0.272,0.07,0
13.21,28.06,84.88,538.4,0.087,0.069,0.03,0.033,0.163,0.0579999999999999,0.235,1.597,1.539,17.85,0.005,0.0139999999999999,0.015,0.009,0.017,0.001,14.37,37.17,92.48,629.6,0.107,0.138,0.106,0.08,0.247,0.064,0
13.62,23.23,87.19,573.2,0.092,0.067,0.03,0.024,0.166,0.0579999999999999,0.346,1.336,2.066,31.24,0.006,0.021,0.02,0.009,0.021,0.003,15.35,29.09,97.58,729.8,0.122,0.152,0.105,0.072,0.264,0.07,0
10.26,16.58,65.85,320.8,0.089,0.081,0.044,0.024,0.1669999999999999,0.067,0.114,1.023,0.989,7.326,0.01,0.031,0.026,0.011,0.023,0.006,10.83,22.04,71.08,357.4,0.146,0.225,0.178,0.083,0.2689999999999999,0.095,0
10.82,24.21,68.89,361.6,0.0819999999999999,0.066,0.015,0.008,0.198,0.063,0.52,1.918,3.564,33.0,0.008,0.019,0.013,0.006,0.025,0.003,13.03,31.45,83.9,505.6,0.12,0.163,0.062,0.033,0.306,0.076,0
11.13,22.44,71.49,378.4,0.096,0.0819999999999999,0.048,0.023,0.203,0.066,0.28,1.467,1.994,17.85,0.003,0.031,0.034,0.01,0.0289999999999999,0.005,12.02,28.26,77.8,436.6,0.109,0.178,0.156,0.064,0.317,0.08,0
9.333,21.94,59.01,264.0,0.092,0.0559999999999999,0.04,0.013,0.1689999999999999,0.066,0.301,1.879,2.121,17.86,0.011,0.018,0.04,0.013,0.038,0.005,9.845,25.05,62.86,295.8,0.11,0.083,0.08,0.026,0.244,0.074,0
12.88,28.92,82.5,514.3,0.081,0.0579999999999999,0.062,0.023,0.157,0.057,0.212,1.36,1.5019999999999998,16.83,0.008,0.022,0.039,0.008,0.017,0.003,13.89,35.74,88.84,595.7,0.123,0.162,0.244,0.065,0.237,0.072,0
10.29,27.61,65.67,321.4,0.09,0.077,0.06,0.027,0.159,0.061,0.22,2.239,1.4369999999999998,14.46,0.012,0.027,0.048,0.017,0.018,0.005,10.84,34.91,69.57,357.6,0.138,0.171,0.2,0.091,0.223,0.083,0
10.16,19.59,64.73,311.7,0.1,0.075,0.005,0.011,0.179,0.063,0.244,2.09,1.648,16.8,0.013,0.022,0.004,0.007,0.026,0.002,10.65,22.88,67.88,347.3,0.126,0.12,0.01,0.022,0.226,0.067,0
14.59,22.68,96.39,657.1,0.085,0.133,0.103,0.037,0.145,0.061,0.225,1.108,2.224,19.54,0.004,0.046,0.066,0.016,0.016,0.004,15.48,27.27,105.9,733.5,0.103,0.317,0.366,0.11,0.226,0.08,0
20.13,28.25,131.2,1261.0,0.098,0.103,0.144,0.098,0.175,0.055,0.7659999999999999,2.463,5.202999999999999,99.04,0.006,0.024,0.04,0.017,0.019,0.002,23.69,38.25,155.0,1731.0,0.1169999999999999,0.192,0.322,0.163,0.257,0.066,1
16.6,28.08,108.3,858.1,0.085,0.102,0.093,0.053,0.159,0.0559999999999999,0.456,1.075,3.425,48.55,0.006,0.037,0.047,0.016,0.013,0.004,18.98,34.12,126.7,1124.0,0.114,0.309,0.34,0.142,0.222,0.078,1
