Hair,Feathers,Eggs,Milk,Airborne,Aquatic,Predator,Toothed,Backbone,Breathes,Venomous,Fins,Legs,Tail,Domestic,Catsize,TARGET
1,0,0,1,0,0,1,1,1,1,0,0,4,1,0,1,1
1,0,0,1,0,1,1,1,1,1,0,1,2,1,0,1,1
0,1,1,0,1,0,0,0,1,1,0,0,2,1,1,0,2
1,0,0,1,0,0,1,1,1,1,0,0,4,1,0,1,1
1,0,1,1,0,1,1,0,1,1,0,0,4,1,0,1,1
0,0,1,0,0,1,0,1,1,0,0,1,0,1,0,0,4
0,1,1,0,1,0,0,0,1,1,0,0,2,1,1,0,2
1,0,0,1,0,0,1,1,1,1,0,0,4,1,0,1,1
1,0,0,1,0,0,1,1,1,1,0,0,4,0,0,1,1
0,0,1,0,0,0,0,0,0,1,0,0,0,0,0,0,7
0,1,1,0,1,1,1,0,1,1,0,0,2,1,0,0,2
0,1,1,0,1,0,1,0,1,1,0,0,2,1,0,1,2
1,0,0,1,0,0,1,1,1,1,0,0,4,1,1,1,1
1,0,0,1,0,0,1,1,1,1,0,0,4,1,0,0,1
1,0,0,1,0,0,1,1,1,1,0,0,4,1,0,1,1
0,0,1,0,0,1,1,0,0,0,0,0,8,0,0,1,7
0,1,1,0,1,0,0,0,1,1,0,0,2,1,0,1,2
0,0,1,0,0,0,0,0,0,1,0,0,6,0,0,0,6
0,0,1,0,0,0,1,1,1,1,0,0,4,1,0,0,3
1,0,0,1,0,0,0,1,1,1,0,0,4,1,1,1,1
1,0,0,1,0,0,1,1,1,1,0,0,4,0,0,1,1
1,0,0,1,1,0,0,1,1,1,0,0,2,1,0,0,1
0,1,1,0,0,1,1,0,1,1,0,0,2,1,0,1,2
0,1,1,0,0,0,1,0,1,1,0,0,2,1,0,1,2
0,0,1,0,0,1,1,1,1,0,0,1,0,1,0,0,4
1,0,0,1,0,0,0,1,1,1,0,0,4,1,0,1,1
1,0,0,1,0,0,1,1,1,1,0,0,4,1,0,1,1
0,0,0,1,0,1,1,1,1,1,0,1,0,1,0,1,1
0,0,1,0,0,1,1,1,1,0,0,1,0,1,0,0,4
0,0,0,0,0,0,1,0,0,1,1,0,8,1,0,0,7
0,1,1,0,0,0,1,0,1,1,0,0,2,1,0,0,2
0,0,1,0,1,0,1,0,0,1,0,0,6,0,0,0,6
0,0,1,0,0,1,1,1,1,0,0,1,0,1,0,1,4
1,0,0,1,0,0,0,1,1,1,0,0,4,1,0,1,1
0,1,1,0,1,0,1,0,1,1,0,0,2,1,0,0,2
0,0,1,0,0,0,0,0,0,1,0,0,6,0,0,0,6
0,0,1,0,0,0,1,1,1,1,0,0,0,1,0,0,3
0,0,1,0,0,0,0,0,1,1,0,0,4,1,0,1,3
0,0,1,0,0,1,1,1,1,1,0,0,4,0,0,0,5
1,0,0,1,0,0,1,1,1,1,0,0,4,1,0,1,1
1,0,0,1,0,0,1,1,1,1,0,0,2,0,1,1,1
1,0,0,1,0,0,1,1,1,1,0,0,4,1,0,1,1
0,0,1,0,0,1,0,1,1,0,0,1,0,1,0,0,4
0,0,1,0,0,0,1,0,0,0,0,0,0,0,0,0,7
0,1,1,0,1,1,0,0,1,1,0,0,2,1,0,1,2
1,0,0,1,0,0,0,1,1,1,0,0,4,1,1,1,1
1,0,1,0,1,0,0,0,0,1,1,0,6,0,1,0,6
0,0,1,0,0,1,0,1,1,1,0,0,4,0,0,0,5
1,0,0,1,0,0,0,1,1,1,0,0,4,1,1,1,1
0,0,1,0,0,1,1,1,1,0,0,1,0,1,0,0,4
0,0,1,0,0,1,1,0,0,0,0,0,6,0,0,0,7
