name,features_count,classes_count,size,category,real
abalone,8,28,4174,1,7
adult,14,1,45222,8,6
balance,4,1,625,0,4
banana,2,1,5300,0,2
breast,9,2,277,9,0
crx,15,2,653,9,6
ecoli,7,1,336,0,7
glass,9,7,214,0,9
heart,13,2,270,0,13
mushroom,22,2,5644,22,0
newthyroid,5,3,215,0,5
pima,8,2,768,0,8
ring,20,2,7400,0,20
saheart,9,2,462,1,8
shuttle,9,7,57999,0,9
spambase,57,2,4597,0,57
spectfheart,44,1,267,0,44
splice,60,3,3190,60,0
thyroid,21,1,7200,0,21
titanic,3,1,2201,0,3
vehicle,18,4,846,0,18
vowel,13,11,990,0,13
wdbc,30,2,569,0,30
wine,13,1,178,0,13
wisconsin,9,1,683,0,9
yeast,8,10,1484,0,8
zoo,16,1,101,16,0
