@relation flare
@attribute LargestSpotSize {A, R, S, X, K, H}
@attribute SpotDistribution {X, O, I, C}
@attribute Activity {1, 2}
@attribute Evolution {1, 2, 3}
@attribute Prev24Hour {1, 2, 3}
@attribute HistComplex {1, 2}
@attribute BecomeHist {1, 2}
@attribute Area {1, 2}
@attribute C-class {0, 1, 2, 3, 4, 5, 6, 7, 8}
@attribute M-class {0, 1, 2, 3, 4, 5}
@attribute X-class {0, 1, 2}
@attribute Class {H, D, C, B, E, F}
@inputs LargestSpotSize, SpotDistribution, Activity, Evolution, Prev24Hour, HistComplex, BecomeHist, Area, C-class, M-class, X-class
@outputs Class
@data
X, O, 1, 3, 1, 1, 2, 1, 0, 0, 0, B
X, O, 1, 3, 1, 1, 2, 1, 0, 0, 0, B
X, O, 1, 1, 1, 2, 2, 1, 0, 0, 0, B
K, I, 2, 3, 1, 2, 2, 1, 2, 0, 0, D
A, O, 2, 3, 3, 2, 2, 1, 2, 0, 0, D
X, O, 1, 2, 1, 1, 2, 1, 0, 0, 0, B
S, O, 1, 2, 1, 2, 2, 1, 0, 0, 0, D
S, O, 1, 2, 1, 2, 2, 1, 0, 0, 0, D
S, O, 1, 2, 1, 1, 2, 1, 0, 0, 0, E
K, O, 1, 2, 1, 1, 2, 1, 2, 0, 0, C
A, I, 1, 3, 1, 2, 2, 1, 0, 0, 0, E
S, X, 1, 2, 1, 1, 1, 1, 0, 0, 0, H
S, X, 1, 2, 1, 1, 2, 1, 0, 0, 0, H
S, O, 1, 2, 1, 1, 2, 1, 0, 0, 0, C
A, O, 2, 2, 3, 2, 2, 1, 0, 0, 0, D
R, O, 1, 3, 1, 1, 2, 1, 1, 0, 0, D
A, I, 1, 2, 1, 2, 2, 1, 0, 0, 0, D
S, X, 1, 3, 1, 1, 2, 1, 0, 0, 0, H
S, O, 1, 1, 1, 2, 2, 1, 0, 0, 0, F
S, X, 1, 2, 1, 2, 1, 1, 0, 0, 0, H
X, O, 1, 3, 1, 1, 2, 1, 0, 0, 0, B
R, O, 1, 1, 1, 1, 2, 1, 0, 0, 0, D
R, O, 1, 2, 1, 2, 2, 1, 0, 0, 0, C
R, X, 1, 1, 1, 1, 2, 1, 0, 0, 0, H
S, O, 2, 2, 3, 2, 2, 1, 1, 0, 0, C
S, X, 1, 3, 1, 2, 2, 1, 0, 0, 0, H
R, X, 1, 3, 1, 1, 2, 1, 0, 0, 0, H
A, I, 2, 3, 1, 2, 2, 1, 1, 0, 0, E
S, X, 2, 2, 1, 2, 2, 1, 0, 0, 0, H
R, I, 2, 3, 2, 2, 2, 1, 0, 0, 0, D
X, I, 1, 3, 1, 2, 2, 1, 0, 0, 0, B
A, X, 1, 2, 1, 2, 2, 1, 0, 0, 0, H
R, O, 1, 2, 1, 2, 2, 1, 0, 0, 0, C
A, I, 1, 3, 1, 1, 2, 1, 0, 0, 0, D
X, O, 1, 2, 1, 1, 2, 1, 0, 0, 0, B
A, I, 2, 2, 3, 2, 2, 1, 0, 0, 0, D
S, O, 1, 3, 1, 1, 2, 1, 0, 0, 0, D
S, O, 1, 2, 1, 2, 2, 1, 0, 0, 0, C
A, I, 2, 3, 3, 1, 2, 1, 1, 0, 0, D
A, O, 1, 1, 1, 1, 2, 1, 0, 0, 0, C
A, C, 2, 2, 3, 2, 2, 1, 0, 0, 0, D
S, X, 1, 3, 1, 1, 1, 1, 0, 0, 0, H
S, X, 1, 3, 1, 1, 1, 1, 0, 0, 0, H
S, X, 1, 2, 1, 1, 1, 1, 1, 0, 0, H
A, I, 1, 1, 1, 2, 2, 1, 0, 0, 0, F
S, O, 1, 1, 1, 1, 2, 1, 0, 0, 0, C
R, O, 1, 3, 1, 1, 2, 1, 0, 0, 0, C
S, O, 1, 2, 1, 1, 2, 1, 0, 0, 0, C
R, X, 1, 2, 1, 1, 2, 1, 0, 0, 0, H
S, O, 1, 3, 1, 1, 2, 1, 0, 0, 0, C
S, I, 1, 3, 1, 2, 2, 1, 2, 0, 0, F
S, O, 1, 2, 1, 1, 2, 1, 0, 0, 0, C
R, C, 2, 3, 1, 1, 2, 1, 1, 0, 0, D
X, O, 1, 3, 1, 1, 2, 1, 0, 0, 0, B
R, X, 1, 3, 1, 2, 2, 1, 0, 0, 0, H
H, O, 2, 2, 2, 2, 2, 1, 0, 0, 0, E
R, X, 1, 3, 1, 1, 2, 1, 0, 0, 0, H
S, X, 1, 3, 1, 2, 2, 1, 0, 0, 0, H
X, O, 1, 2, 1, 1, 2, 1, 0, 0, 0, B
R, X, 1, 3, 1, 1, 2, 1, 0, 0, 0, H
S, X, 1, 2, 1, 2, 1, 1, 0, 0, 0, H
X, O, 1, 3, 1, 1, 2, 1, 0, 0, 0, B
S, X, 1, 2, 1, 2, 1, 1, 0, 0, 0, H
X, O, 2, 2, 1, 1, 2, 1, 0, 0, 0, B
S, X, 1, 2, 1, 1, 2, 1, 0, 0, 0, H
X, O, 1, 2, 1, 1, 2, 1, 0, 0, 0, B
S, X, 1, 2, 1, 1, 1, 1, 0, 0, 0, H
S, X, 1, 1, 1, 1, 2, 1, 0, 0, 0, H
R, O, 1, 3, 1, 1, 2, 1, 0, 0, 0, D
S, X, 1, 2, 1, 2, 2, 1, 0, 0, 0, H
S, O, 1, 1, 1, 2, 2, 1, 0, 0, 0, C
S, I, 1, 3, 1, 1, 2, 1, 0, 0, 0, E
S, X, 1, 3, 1, 2, 1, 1, 0, 0, 0, H
R, X, 1, 3, 1, 1, 2, 1, 1, 0, 0, H
K, C, 1, 2, 1, 2, 2, 2, 0, 1, 1, F
X, O, 1, 3, 1, 1, 2, 1, 0, 0, 0, B
A, I, 1, 2, 1, 2, 2, 1, 1, 0, 0, D
S, I, 1, 2, 1, 1, 2, 1, 0, 0, 0, C
K, C, 2, 3, 3, 2, 2, 2, 1, 0, 1, E
R, I, 1, 2, 1, 1, 2, 1, 0, 0, 0, C
K, C, 2, 2, 2, 2, 2, 2, 4, 0, 0, E
S, O, 1, 3, 1, 2, 2, 1, 0, 0, 0, D
A, X, 1, 2, 1, 1, 1, 1, 0, 0, 0, H
S, O, 1, 2, 1, 2, 2, 1, 0, 0, 0, C
S, X, 2, 2, 1, 1, 2, 1, 0, 0, 0, H
S, X, 2, 2, 1, 1, 2, 1, 0, 0, 0, H
A, I, 2, 3, 1, 1, 2, 1, 2, 0, 0, D
R, O, 1, 3, 1, 1, 2, 1, 0, 0, 0, C
A, I, 1, 2, 1, 2, 2, 1, 1, 0, 0, E
S, X, 1, 3, 1, 1, 2, 1, 1, 0, 0, H
R, I, 1, 3, 1, 1, 2, 1, 0, 0, 0, C
S, O, 1, 3, 1, 1, 2, 1, 1, 0, 0, D
S, I, 2, 2, 1, 2, 2, 1, 0, 0, 0, C
X, O, 2, 1, 1, 2, 2, 1, 0, 0, 0, B
X, O, 1, 2, 1, 1, 2, 1, 0, 0, 0, B
R, X, 1, 2, 1, 1, 2, 1, 0, 0, 0, H
A, O, 1, 1, 1, 2, 2, 1, 0, 0, 0, D
A, I, 2, 3, 1, 2, 2, 1, 2, 0, 0, E
R, I, 2, 3, 1, 2, 2, 1, 1, 0, 0, D
R, O, 1, 3, 1, 1, 2, 1, 0, 0, 0, C
R, I, 1, 3, 1, 1, 2, 1, 0, 0, 0, D
S, O, 1, 3, 1, 1, 2, 1, 6, 0, 0, E
R, X, 1, 2, 1, 1, 2, 1, 0, 0, 0, H
S, X, 1, 3, 1, 1, 2, 1, 0, 0, 0, H
S, X, 1, 3, 1, 1, 2, 1, 0, 0, 0, H
S, O, 2, 2, 2, 1, 2, 1, 0, 0, 0, C
K, C, 2, 3, 1, 2, 2, 2, 1, 3, 2, D
