@relation bupa
@attribute Mcv integer [65.0, 103]
@attribute Alkphos integer [23.0, 138]
@attribute Sgpt integer [4.0, 155]
@attribute Sgot integer [5.0, 82]
@attribute Gammagt integer [5.0, 297]
@attribute Drinks real [0.0, 20.0]
@attribute Selector {1,2}
@inputs Mcv, Alkphos, Sgpt, Sgot, Gammagt, Drinks
@outputs Selector
@data
87.0, 70.0, 12.0, 28.0, 10.0, 0.0, 2
90.0, 64.0, 61.0, 32.0, 13.0, 0.5, 1
90.0, 60.0, 23.0, 27.0, 5.0, 0.5, 1
96.0, 68.0, 18.0, 19.0, 19.0, 0.5, 1
84.0, 80.0, 47.0, 33.0, 97.0, 0.5, 1
91.0, 57.0, 31.0, 23.0, 42.0, 0.5, 1
79.0, 39.0, 14.0, 19.0, 9.0, 0.5, 2
83.0, 40.0, 29.0, 25.0, 38.0, 0.5, 2
92.0, 60.0, 30.0, 27.0, 297.0, 2.0, 2
84.0, 83.0, 20.0, 25.0, 7.0, 3.0, 1
99.0, 69.0, 45.0, 32.0, 30.0, 3.0, 1
92.0, 75.0, 26.0, 26.0, 24.0, 3.0, 2
90.0, 96.0, 34.0, 49.0, 169.0, 4.0, 2
89.0, 90.0, 15.0, 17.0, 25.0, 4.0, 2
90.0, 67.0, 10.0, 16.0, 16.0, 4.0, 2
92.0, 62.0, 20.0, 23.0, 20.0, 6.0, 1
91.0, 63.0, 25.0, 26.0, 15.0, 6.0, 1
90.0, 63.0, 12.0, 26.0, 21.0, 6.0, 2
91.0, 74.0, 87.0, 50.0, 67.0, 6.0, 2
92.0, 87.0, 57.0, 25.0, 44.0, 6.0, 2
90.0, 72.0, 17.0, 19.0, 19.0, 6.0, 2
93.0, 77.0, 39.0, 37.0, 108.0, 16.0, 1
97.0, 62.0, 17.0, 13.0, 5.0, 0.5, 1
90.0, 87.0, 19.0, 25.0, 19.0, 0.5, 1
89.0, 101.0, 27.0, 34.0, 14.0, 0.5, 1
88.0, 81.0, 41.0, 27.0, 36.0, 0.5, 2
83.0, 68.0, 17.0, 20.0, 71.0, 0.5, 2
83.0, 78.0, 31.0, 19.0, 115.0, 1.0, 2
86.0, 44.0, 24.0, 15.0, 18.0, 2.0, 1
82.0, 72.0, 31.0, 20.0, 84.0, 3.0, 2
91.0, 54.0, 25.0, 22.0, 35.0, 4.0, 1
89.0, 48.0, 32.0, 22.0, 14.0, 4.0, 2
85.0, 52.0, 22.0, 23.0, 34.0, 4.0, 2
95.0, 93.0, 21.0, 27.0, 47.0, 6.0, 2
91.0, 93.0, 35.0, 34.0, 37.0, 10.0, 2
