@relation bupa
@attribute Mcv integer [65, 103]
@attribute Alkphos integer [23, 138]
@attribute Sgpt integer [4, 155]
@attribute Sgot integer [5, 82]
@attribute Gammagt integer [5, 297]
@attribute Drinks real [0.0, 20.0]
@attribute Selector {1,2}
@inputs Mcv, Alkphos, Sgpt, Sgot, Gammagt, Drinks
@outputs Selector
@data
88.0, 67.0, 21.0, 11.0, 11.0, 0.5, 1
87.0, 41.0, 31.0, 19.0, 16.0, 0.5, 1
93.0, 77.0, 32.0, 18.0, 29.0, 0.5, 1
86.0, 84.0, 18.0, 14.0, 16.0, 0.5, 2
85.0, 65.0, 25.0, 14.0, 18.0, 0.5, 2
92.0, 57.0, 64.0, 36.0, 90.0, 0.5, 2
88.0, 49.0, 20.0, 22.0, 19.0, 0.5, 2
91.0, 52.0, 15.0, 22.0, 11.0, 0.5, 2
89.0, 67.0, 5.0, 17.0, 14.0, 1.0, 2
87.0, 66.0, 27.0, 22.0, 9.0, 2.0, 1
87.0, 90.0, 43.0, 28.0, 156.0, 2.0, 2
91.0, 55.0, 9.0, 25.0, 16.0, 2.0, 2
95.0, 78.0, 27.0, 25.0, 30.0, 2.0, 2
89.0, 51.0, 41.0, 22.0, 48.0, 2.0, 2
94.0, 58.0, 21.0, 18.0, 26.0, 2.0, 2
89.0, 65.0, 26.0, 18.0, 36.0, 3.0, 2
88.0, 95.0, 25.0, 19.0, 14.0, 4.0, 1
89.0, 35.0, 27.0, 29.0, 17.0, 4.0, 1
91.0, 80.0, 37.0, 23.0, 27.0, 4.0, 1
87.0, 76.0, 22.0, 55.0, 9.0, 4.0, 2
88.0, 80.0, 24.0, 25.0, 17.0, 4.0, 2
92.0, 40.0, 19.0, 20.0, 21.0, 4.0, 2
91.0, 57.0, 15.0, 16.0, 16.0, 4.0, 2
87.0, 59.0, 15.0, 19.0, 12.0, 5.0, 2
95.0, 60.0, 26.0, 22.0, 28.0, 6.0, 1
91.0, 63.0, 25.0, 26.0, 15.0, 6.0, 1
90.0, 76.0, 37.0, 19.0, 50.0, 6.0, 1
98.0, 43.0, 35.0, 23.0, 69.0, 6.0, 2
93.0, 50.0, 18.0, 25.0, 17.0, 6.0, 2
90.0, 57.0, 20.0, 26.0, 33.0, 6.0, 2
89.0, 63.0, 24.0, 29.0, 29.0, 6.0, 2
90.0, 62.0, 22.0, 21.0, 21.0, 8.0, 1
90.0, 67.0, 77.0, 39.0, 114.0, 8.0, 1
88.0, 56.0, 23.0, 18.0, 12.0, 0.0, 1
89.0, 82.0, 23.0, 14.0, 35.0, 0.5, 1
91.0, 84.0, 11.0, 12.0, 10.0, 0.5, 1
88.0, 122.0, 35.0, 29.0, 42.0, 0.5, 2
84.0, 88.0, 28.0, 25.0, 35.0, 0.5, 2
85.0, 58.0, 18.0, 24.0, 16.0, 0.5, 2
98.0, 74.0, 148.0, 75.0, 159.0, 0.5, 2
93.0, 65.0, 28.0, 22.0, 10.0, 1.0, 1
95.0, 62.0, 24.0, 23.0, 14.0, 1.0, 2
93.0, 59.0, 41.0, 30.0, 48.0, 1.0, 2
87.0, 71.0, 33.0, 20.0, 22.0, 2.0, 1
91.0, 71.0, 12.0, 22.0, 11.0, 3.0, 1
98.0, 50.0, 27.0, 25.0, 53.0, 4.0, 2
82.0, 68.0, 20.0, 22.0, 9.0, 4.0, 2
93.0, 45.0, 11.0, 14.0, 21.0, 4.0, 2
84.0, 73.0, 46.0, 32.0, 39.0, 4.0, 2
91.0, 63.0, 17.0, 17.0, 46.0, 4.0, 2
96.0, 56.0, 38.0, 26.0, 23.0, 5.0, 2
99.0, 42.0, 14.0, 21.0, 49.0, 5.0, 2
87.0, 54.0, 41.0, 29.0, 23.0, 6.0, 1
97.0, 94.0, 43.0, 43.0, 82.0, 6.0, 1
96.0, 74.0, 27.0, 25.0, 43.0, 6.0, 2
86.0, 109.0, 16.0, 22.0, 28.0, 6.0, 2
87.0, 56.0, 52.0, 43.0, 55.0, 10.0, 2
91.0, 68.0, 27.0, 26.0, 14.0, 16.0, 1
98.0, 99.0, 57.0, 45.0, 65.0, 20.0, 1
90.0, 64.0, 61.0, 32.0, 13.0, 0.5, 1
91.0, 57.0, 31.0, 23.0, 42.0, 0.5, 1
99.0, 69.0, 45.0, 32.0, 30.0, 3.0, 1
89.0, 90.0, 15.0, 17.0, 25.0, 4.0, 2
92.0, 62.0, 20.0, 23.0, 20.0, 6.0, 1
90.0, 63.0, 12.0, 26.0, 21.0, 6.0, 2
97.0, 62.0, 17.0, 13.0, 5.0, 0.5, 1
90.0, 87.0, 19.0, 25.0, 19.0, 0.5, 1
86.0, 44.0, 24.0, 15.0, 18.0, 2.0, 1
89.0, 48.0, 32.0, 22.0, 14.0, 4.0, 2
