@relation page-blocks
@attribute Height integer [1, 804]
@attribute Lenght integer [1, 553]
@attribute Area integer [7, 143993]
@attribute Eccen real [0.0070, 537.0]
@attribute P_black real [0.052, 1.0]
@attribute P_and real [0.062, 1.0]
@attribute Mean_tr real [1.0, 4955.0]
@attribute Blackpix integer [1, 33017]
@attribute Blackand integer [7, 46133]
@attribute Wb_trans integer [1, 3212]
@attribute Class {1, 2, 3, 4, 5}
@inputs Height, Lenght, Area, Eccen, P_black, P_and, Mean_tr, Blackpix, Blackand, Wb_trans
@outputs Class
@data
6, 4, 24, 0.667, 0.417, 0.708, 2.5, 10, 17, 4, 1
5, 7, 35, 1.4, 0.429, 0.857, 5.0, 15, 30, 3, 1
6, 7, 42, 1.167, 0.405, 0.952, 4.25, 17, 40, 4, 1
13, 25, 325, 1.923, 0.234, 0.286, 10.86, 76, 93, 7, 1
11, 35, 385, 3.182, 0.382, 0.657, 6.13, 147, 253, 24, 1
10, 38, 380, 3.8, 0.426, 0.947, 3.12, 162, 360, 52, 1
10, 53, 530, 5.3, 0.294, 0.819, 1.79, 156, 434, 87, 1
11, 102, 1122, 9.273, 0.223, 0.768, 1.53, 250, 862, 163, 1
12, 56, 672, 4.667, 0.256, 0.827, 2.02, 172, 556, 85, 1
2, 20, 40, 10.0, 0.775, 0.85, 31.0, 31, 34, 1, 2
11, 86, 946, 7.818, 0.413, 0.853, 3.1, 391, 807, 126, 1
11, 101, 1111, 9.182, 0.398, 0.888, 2.76, 442, 987, 160, 1
11, 119, 1309, 10.818, 0.261, 0.798, 1.88, 341, 1045, 181, 1
11, 119, 1309, 10.818, 0.236, 0.747, 1.75, 309, 978, 177, 1
8, 48, 384, 6.0, 0.302, 0.914, 1.76, 116, 351, 66, 1
2, 18, 36, 9.0, 0.722, 0.722, 26.0, 26, 26, 1, 2
7, 17, 119, 2.429, 0.227, 0.58, 2.7, 27, 69, 10, 1
9, 19, 171, 2.111, 0.292, 0.76, 2.63, 50, 130, 19, 1
9, 66, 594, 7.333, 0.323, 0.805, 2.0, 192, 478, 96, 1
9, 34, 306, 3.778, 0.337, 0.817, 1.81, 103, 250, 57, 1
7, 35, 245, 5.0, 0.453, 0.873, 2.47, 111, 214, 45, 1
5, 35, 175, 7.0, 0.2, 0.829, 4.38, 35, 145, 8, 1
3, 16, 48, 5.333, 0.375, 0.938, 2.25, 18, 45, 8, 1
9, 81, 729, 9.0, 0.388, 0.897, 2.38, 283, 654, 119, 1
10, 11, 110, 1.1, 0.382, 1.0, 1.5, 42, 110, 28, 1
9, 32, 288, 3.556, 0.333, 0.861, 1.68, 96, 248, 57, 1
4, 8, 32, 2.0, 0.344, 0.781, 1.83, 11, 25, 6, 1
10, 100, 1000, 10.0, 0.449, 0.874, 2.82, 449, 874, 159, 1
9, 82, 738, 9.111, 0.337, 0.817, 2.01, 249, 603, 124, 1
2, 446, 892, 223.0, 0.439, 0.603, 17.82, 392, 538, 22, 2
48, 402, 19296, 8.375, 0.055, 0.094, 4.13, 1058, 1814, 256, 5
304, 463, 140752, 1.523, 0.063, 0.121, 3.91, 8898, 17081, 2273, 5
9, 76, 684, 8.444, 0.363, 0.874, 2.18, 248, 598, 114, 1
6, 17, 102, 2.833, 0.275, 0.824, 2.0, 28, 84, 14, 1
5, 46, 230, 9.2, 0.278, 0.835, 2.21, 64, 192, 29, 1
19, 462, 8778, 24.316, 0.523, 0.688, 16.88, 4591, 6035, 272, 2
10, 49, 490, 4.9, 0.551, 0.943, 3.07, 270, 462, 88, 1
1, 52, 52, 52.0, 0.538, 1.0, 14.0, 28, 52, 2, 2
22, 26, 572, 1.182, 0.283, 0.918, 1.93, 162, 525, 84, 1
10, 34, 340, 3.4, 0.356, 0.803, 1.83, 121, 273, 66, 1
37, 101, 3737, 2.73, 0.282, 0.695, 2.44, 1053, 2596, 432, 1
10, 21, 210, 2.1, 0.362, 0.819, 2.11, 76, 172, 36, 1
1, 48, 48, 48.0, 0.875, 1.0, 10.5, 42, 48, 4, 2
8, 59, 472, 7.375, 0.292, 0.888, 1.82, 138, 419, 76, 1
9, 23, 207, 2.556, 0.3, 1.0, 1.51, 62, 207, 41, 1
10, 66, 660, 6.6, 0.324, 0.78, 2.25, 214, 515, 95, 1
10, 79, 790, 7.9, 0.347, 0.784, 2.25, 274, 619, 122, 1
10, 80, 800, 8.0, 0.308, 0.838, 2.02, 246, 670, 122, 1
7, 18, 126, 2.571, 0.119, 0.452, 2.14, 15, 57, 7, 1
7, 121, 847, 17.286, 0.276, 0.607, 1.79, 234, 514, 131, 1
11, 8, 88, 0.727, 0.727, 0.989, 10.67, 64, 87, 6, 1
11, 7, 77, 0.636, 0.468, 0.481, 36.0, 36, 37, 1, 1
9, 49, 441, 5.444, 0.592, 0.998, 2.97, 261, 440, 88, 1
9, 78, 702, 8.667, 0.329, 0.896, 2.1, 231, 629, 110, 1
9, 12, 108, 1.333, 0.407, 1.0, 1.57, 44, 108, 28, 1
9, 63, 567, 7.0, 0.298, 0.787, 2.01, 169, 446, 84, 1
11, 75, 825, 6.818, 0.27, 0.679, 2.08, 223, 560, 107, 1
8, 12, 96, 1.5, 0.469, 1.0, 1.61, 45, 96, 28, 1
12, 102, 1224, 8.5, 0.257, 0.804, 1.77, 315, 984, 178, 1
12, 26, 312, 2.167, 0.224, 0.907, 1.63, 70, 283, 43, 1
11, 86, 946, 7.818, 0.289, 0.701, 1.98, 273, 663, 138, 1
8, 6, 48, 0.75, 0.583, 0.813, 7.0, 28, 39, 4, 1
9, 99, 891, 11.0, 0.461, 0.906, 2.65, 411, 807, 155, 1
8, 14, 112, 1.75, 0.268, 0.554, 3.0, 30, 62, 10, 1
11, 21, 231, 1.909, 0.316, 0.58, 4.29, 73, 134, 17, 1
10, 67, 670, 6.7, 0.291, 0.649, 2.17, 195, 435, 90, 1
9, 32, 288, 3.556, 0.354, 0.806, 1.7, 102, 232, 60, 1
10, 80, 800, 8.0, 0.279, 0.8, 1.92, 223, 640, 116, 1
12, 72, 864, 6.0, 0.281, 0.807, 2.15, 243, 697, 113, 1
9, 81, 729, 9.0, 0.328, 0.916, 2.04, 239, 668, 117, 1
11, 8, 88, 0.727, 0.261, 1.0, 2.09, 23, 88, 11, 1
9, 75, 675, 8.333, 0.373, 0.913, 2.23, 252, 616, 113, 1
10, 101, 1010, 10.1, 0.45, 0.869, 2.95, 455, 878, 154, 1
9, 85, 765, 9.444, 0.308, 0.744, 1.95, 236, 569, 121, 1
9, 43, 387, 4.778, 0.47, 0.948, 3.31, 182, 367, 55, 1
9, 42, 378, 4.667, 0.344, 0.931, 2.13, 130, 352, 61, 1
9, 130, 1170, 14.444, 0.513, 0.925, 2.86, 600, 1082, 210, 1
9, 21, 189, 2.333, 0.365, 0.905, 2.3, 69, 171, 30, 1
11, 82, 902, 7.455, 0.236, 0.814, 1.97, 213, 734, 108, 1
9, 21, 189, 2.333, 0.323, 0.81, 1.79, 61, 153, 34, 1
8, 7, 56, 0.875, 0.321, 0.429, 6.0, 18, 24, 3, 1
9, 32, 288, 3.556, 0.299, 0.691, 2.1, 86, 199, 41, 1
8, 46, 368, 5.75, 0.315, 0.938, 1.78, 116, 345, 65, 1
10, 44, 440, 4.4, 0.441, 0.92, 2.94, 194, 405, 66, 1
14, 301, 4214, 21.5, 0.257, 0.564, 2.37, 1084, 2378, 458, 1
9, 123, 1107, 13.667, 0.359, 0.898, 2.78, 397, 994, 143, 1
261, 30, 7830, 0.115, 0.063, 0.09, 2.4, 492, 701, 205, 4
8, 3, 24, 0.375, 0.5, 0.667, 3.0, 12, 16, 4, 1
8, 3, 24, 0.375, 0.458, 0.708, 2.75, 11, 17, 4, 1
10, 8, 80, 0.8, 0.688, 1.0, 9.17, 55, 80, 6, 1
10, 9, 90, 0.9, 0.522, 0.656, 9.4, 47, 59, 5, 1
8, 21, 168, 2.625, 0.548, 1.0, 3.54, 92, 168, 26, 1
12, 72, 864, 6.0, 0.228, 0.78, 1.79, 197, 674, 110, 1
9, 97, 873, 10.778, 0.317, 0.863, 1.76, 277, 753, 157, 1
11, 26, 286, 2.364, 0.283, 0.888, 2.19, 81, 254, 37, 1
8, 76, 608, 9.5, 0.388, 0.903, 2.11, 236, 549, 112, 1
10, 116, 1160, 11.6, 0.273, 0.797, 1.7, 317, 925, 186, 1
10, 131, 1310, 13.1, 0.487, 0.856, 2.94, 638, 1121, 217, 1
36, 172, 6192, 4.778, 0.128, 0.337, 4.84, 793, 2086, 164, 5
13, 116, 1508, 8.923, 0.279, 0.658, 2.3, 421, 992, 183, 1
11, 1, 11, 0.091, 1.0, 1.0, 11.0, 11, 11, 1, 4
9, 34, 306, 3.778, 0.366, 0.846, 2.38, 112, 259, 47, 1
7, 46, 322, 6.571, 0.304, 0.963, 2.58, 98, 310, 38, 1
3, 54, 162, 18.0, 0.364, 0.519, 8.43, 59, 84, 7, 2
6, 181, 1086, 30.167, 0.298, 0.684, 1.69, 324, 743, 192, 1
8, 71, 568, 8.875, 0.407, 0.903, 2.06, 231, 513, 112, 1
5, 99, 495, 19.8, 0.356, 0.881, 1.5, 176, 436, 117, 1
13, 407, 5291, 31.308, 0.266, 0.649, 2.31, 1406, 3435, 609, 1
11, 63, 693, 5.727, 0.332, 0.724, 2.77, 230, 502, 83, 1
6, 114, 684, 19.0, 0.278, 0.741, 1.76, 190, 507, 108, 1
7, 28, 196, 4.0, 0.337, 0.99, 2.13, 66, 194, 31, 1
22, 71, 1562, 3.227, 0.487, 0.834, 10.13, 760, 1302, 75, 1
12, 129, 1548, 10.75, 0.303, 0.711, 2.51, 469, 1100, 187, 1
11, 33, 363, 3.0, 0.295, 0.694, 1.98, 107, 252, 54, 1
22, 71, 1562, 3.227, 0.519, 0.843, 11.25, 810, 1317, 72, 1
8, 70, 560, 8.75, 0.463, 0.986, 2.31, 259, 552, 112, 1
11, 29, 319, 2.636, 0.408, 0.765, 3.1, 130, 244, 42, 1
6, 100, 600, 16.667, 0.385, 0.828, 1.72, 231, 497, 134, 1
9, 9, 81, 1.0, 0.63, 0.802, 5.1, 51, 65, 10, 1
8, 183, 1464, 22.875, 0.288, 0.664, 2.08, 421, 972, 202, 1
11, 37, 407, 3.364, 0.371, 0.899, 2.01, 151, 366, 75, 1
12, 497, 5964, 41.417, 0.278, 0.751, 2.27, 1657, 4478, 731, 1
8, 27, 216, 3.375, 0.218, 0.852, 2.24, 47, 184, 21, 1
9, 76, 684, 8.444, 0.436, 0.955, 2.37, 298, 653, 126, 1
8, 93, 744, 11.625, 0.261, 0.937, 1.55, 194, 697, 125, 1
7, 115, 805, 16.429, 0.273, 0.704, 1.72, 220, 567, 128, 1
8, 69, 552, 8.625, 0.312, 0.842, 1.91, 172, 465, 90, 1
9, 91, 819, 10.111, 0.233, 0.789, 1.71, 191, 646, 112, 1
8, 127, 1016, 15.875, 0.314, 0.825, 1.98, 319, 838, 161, 1
11, 104, 1144, 9.455, 0.377, 0.779, 2.57, 431, 891, 168, 1
2, 6, 12, 3.0, 0.667, 1.0, 4.0, 8, 12, 2, 2
9, 108, 972, 12.0, 0.364, 0.794, 2.15, 354, 772, 165, 1
11, 104, 1144, 9.455, 0.367, 0.747, 2.56, 420, 854, 164, 1
6, 89, 534, 14.833, 0.403, 0.82, 2.03, 215, 438, 106, 1
18, 64, 1152, 3.556, 0.261, 0.705, 3.24, 301, 812, 93, 1
10, 26, 260, 2.6, 0.312, 0.577, 2.03, 81, 150, 40, 1
13, 13, 169, 1.0, 0.124, 0.45, 3.5, 21, 76, 6, 5
8, 271, 2168, 33.875, 0.314, 0.819, 1.82, 681, 1775, 375, 1
8, 21, 168, 2.625, 0.28, 0.923, 1.38, 47, 155, 34, 1
7, 6, 42, 0.857, 0.214, 0.286, 9.0, 9, 12, 1, 1
7, 7, 49, 1.0, 0.367, 1.0, 1.38, 18, 49, 13, 1
100, 49, 4900, 0.49, 0.093, 0.4, 1.77, 458, 1958, 259, 5
7, 47, 329, 6.714, 0.158, 0.289, 5.78, 52, 95, 9, 5
11, 271, 2981, 24.636, 0.162, 0.542, 1.36, 483, 1616, 355, 1
10, 47, 470, 4.7, 0.223, 0.706, 1.62, 105, 332, 65, 1
8, 65, 520, 8.125, 0.269, 0.725, 1.4, 140, 377, 100, 1
11, 271, 2981, 24.636, 0.168, 0.598, 1.35, 502, 1784, 371, 1
10, 197, 1970, 19.7, 0.144, 0.589, 1.25, 284, 1160, 228, 1
8, 96, 768, 12.0, 0.111, 0.479, 1.35, 85, 368, 63, 1
10, 271, 2710, 27.1, 0.193, 0.693, 1.37, 522, 1878, 380, 1
7, 14, 98, 2.0, 0.357, 0.959, 1.84, 35, 94, 19, 1
7, 7, 49, 1.0, 0.286, 0.633, 1.56, 14, 31, 9, 1
7, 18, 126, 2.571, 0.31, 0.96, 1.39, 39, 121, 28, 1
5, 12, 60, 2.4, 0.383, 0.883, 1.92, 23, 53, 12, 1
7, 14, 98, 2.0, 0.337, 0.99, 1.65, 33, 97, 20, 1
10, 12, 120, 1.2, 0.183, 0.392, 2.2, 22, 47, 10, 1
6, 13, 78, 2.167, 0.308, 0.872, 1.6, 24, 68, 15, 1
10, 12, 120, 1.2, 0.225, 0.558, 2.7, 27, 67, 10, 1
10, 58, 580, 5.8, 0.081, 0.224, 1.62, 47, 130, 29, 1
9, 73, 657, 8.111, 0.174, 0.434, 1.44, 114, 285, 79, 1
9, 18, 162, 2.0, 0.278, 0.716, 1.67, 45, 116, 27, 1
9, 21, 189, 2.333, 0.243, 0.757, 1.31, 46, 143, 35, 1
5, 17, 85, 3.4, 0.412, 0.941, 1.75, 35, 80, 20, 1
7, 19, 133, 2.714, 0.331, 0.767, 1.42, 44, 102, 31, 1
7, 30, 210, 4.286, 0.352, 0.79, 1.54, 74, 166, 48, 1
9, 46, 414, 5.111, 0.242, 0.575, 1.43, 100, 238, 70, 1
7, 54, 378, 7.714, 0.254, 0.608, 1.39, 96, 230, 69, 1
7, 8, 56, 1.143, 0.375, 1.0, 1.62, 21, 56, 13, 1
6, 6, 36, 1.0, 0.417, 0.944, 1.5, 15, 34, 10, 1
7, 23, 161, 3.286, 0.329, 1.0, 1.39, 53, 161, 38, 1
8, 11, 88, 1.375, 0.25, 0.83, 1.29, 22, 73, 17, 1
7, 15, 105, 2.143, 0.229, 0.981, 1.41, 24, 103, 17, 1
7, 17, 119, 2.429, 0.286, 0.916, 1.31, 34, 109, 26, 1
7, 13, 91, 1.857, 0.297, 0.857, 1.17, 27, 78, 23, 1
7, 7, 49, 1.0, 0.245, 1.0, 1.71, 12, 49, 7, 1
7, 31, 217, 4.429, 0.313, 0.853, 1.58, 68, 185, 43, 1
5, 11, 55, 2.2, 0.455, 1.0, 1.67, 25, 55, 15, 1
9, 58, 522, 6.444, 0.203, 0.531, 1.34, 106, 277, 79, 1
9, 19, 171, 2.111, 0.222, 0.673, 1.31, 38, 115, 29, 1
8, 25, 200, 3.125, 0.285, 0.88, 1.36, 57, 176, 42, 1
7, 23, 161, 3.286, 0.329, 0.845, 1.66, 53, 136, 32, 1
7, 13, 91, 1.857, 0.308, 0.934, 1.65, 28, 85, 17, 1
5, 24, 120, 4.8, 0.375, 0.95, 1.45, 45, 114, 31, 1
7, 10, 70, 1.429, 0.329, 1.0, 1.77, 23, 70, 13, 1
7, 32, 224, 4.571, 0.277, 0.83, 1.41, 62, 186, 44, 1
7, 31, 217, 4.429, 0.318, 0.839, 1.35, 69, 182, 51, 1
10, 13, 130, 1.3, 0.231, 0.8, 1.76, 30, 104, 17, 1
7, 11, 77, 1.571, 0.299, 0.779, 1.64, 23, 60, 14, 1
6, 13, 78, 2.167, 0.269, 0.667, 1.5, 21, 52, 14, 1
7, 9, 63, 1.286, 0.238, 0.619, 1.5, 15, 39, 10, 1
7, 12, 84, 1.714, 0.357, 0.81, 1.67, 30, 68, 18, 1
7, 14, 98, 2.0, 0.408, 0.98, 1.74, 40, 96, 23, 1
6, 24, 144, 4.0, 0.292, 0.778, 1.35, 42, 112, 31, 1
7, 38, 266, 5.429, 0.286, 0.748, 1.69, 76, 199, 45, 1
9, 11, 99, 1.222, 0.253, 0.778, 1.92, 25, 77, 13, 1
6, 30, 180, 5.0, 0.311, 0.8, 1.22, 56, 144, 46, 1
7, 36, 252, 5.143, 0.278, 0.937, 1.25, 70, 236, 56, 1
7, 6, 42, 0.857, 0.333, 0.643, 1.75, 14, 27, 8, 1
7, 17, 119, 2.429, 0.311, 0.908, 1.54, 37, 108, 24, 1
7, 42, 294, 6.0, 0.235, 0.571, 1.33, 69, 168, 52, 1
8, 4, 32, 0.5, 0.25, 0.344, 8.0, 8, 11, 1, 1
7, 34, 238, 4.857, 0.298, 0.937, 1.31, 71, 223, 54, 1
7, 11, 77, 1.571, 0.39, 0.766, 1.76, 30, 59, 17, 1
7, 74, 518, 10.571, 0.276, 0.683, 1.57, 143, 354, 91, 1
6, 19, 114, 3.167, 0.333, 0.93, 1.27, 38, 106, 30, 1
9, 65, 585, 7.222, 0.265, 0.73, 1.67, 155, 427, 93, 1
7, 11, 77, 1.571, 0.377, 0.961, 1.45, 29, 74, 20, 1
6, 11, 66, 1.833, 0.379, 0.818, 1.67, 25, 54, 15, 1
7, 7, 49, 1.0, 0.347, 1.0, 1.42, 17, 49, 12, 1
5, 43, 215, 8.6, 0.456, 1.0, 1.42, 98, 215, 69, 1
5, 6, 30, 1.2, 0.433, 1.0, 1.63, 13, 30, 8, 1
9, 157, 1413, 17.444, 0.222, 0.54, 1.58, 313, 763, 198, 1
6, 16, 96, 2.667, 0.354, 1.0, 1.48, 34, 96, 23, 1
5, 4, 20, 0.8, 0.45, 0.8, 3.0, 9, 16, 3, 1
9, 48, 432, 5.333, 0.227, 0.657, 1.42, 98, 284, 69, 1
7, 30, 210, 4.286, 0.324, 0.948, 1.55, 68, 199, 44, 1
7, 31, 217, 4.429, 0.281, 0.682, 1.56, 61, 148, 39, 1
7, 25, 175, 3.571, 0.371, 1.0, 1.63, 65, 175, 40, 1
9, 17, 153, 1.889, 0.307, 0.987, 1.38, 47, 151, 34, 1
7, 38, 266, 5.429, 0.252, 0.628, 1.4, 67, 167, 48, 1
9, 262, 2358, 29.111, 0.209, 0.703, 1.38, 492, 1657, 356, 1
6, 19, 114, 3.167, 0.316, 0.886, 1.8, 36, 101, 20, 1
8, 41, 328, 5.125, 0.21, 0.662, 1.44, 69, 217, 48, 1
9, 14, 126, 1.556, 0.238, 0.897, 1.36, 30, 113, 22, 1
7, 14, 98, 2.0, 0.337, 0.898, 1.94, 33, 88, 17, 1
9, 16, 144, 1.778, 0.215, 0.764, 1.55, 31, 110, 20, 1
9, 13, 117, 1.444, 0.308, 0.88, 1.71, 36, 103, 21, 1
6, 37, 222, 6.167, 0.306, 0.811, 1.42, 68, 180, 48, 1
5, 9, 45, 1.8, 0.444, 0.956, 1.43, 20, 43, 14, 1
9, 7, 63, 0.778, 0.286, 0.778, 2.0, 18, 49, 9, 1
7, 31, 217, 4.429, 0.313, 0.71, 1.51, 68, 154, 45, 1
9, 53, 477, 5.889, 0.218, 0.591, 1.24, 104, 282, 84, 1
9, 29, 261, 3.222, 0.188, 0.502, 1.48, 49, 131, 33, 1
8, 15, 120, 1.875, 0.467, 0.783, 2.24, 56, 94, 25, 1
10, 33, 330, 3.3, 0.321, 0.852, 2.47, 106, 281, 43, 1
8, 6, 48, 0.75, 0.458, 0.833, 2.75, 22, 40, 8, 1
16, 4, 64, 0.25, 0.156, 0.531, 5.0, 10, 34, 2, 5
8, 9, 72, 1.125, 0.458, 1.0, 3.0, 33, 72, 11, 1
8, 43, 344, 5.375, 0.398, 0.939, 2.4, 137, 323, 57, 1
8, 13, 104, 1.625, 0.423, 0.99, 1.76, 44, 103, 25, 1
9, 37, 333, 4.111, 0.3, 0.694, 2.0, 100, 231, 50, 1
8, 7, 56, 0.875, 0.375, 1.0, 2.1, 21, 56, 10, 1
10, 79, 790, 7.9, 0.324, 0.671, 2.19, 256, 530, 117, 1
27, 4, 108, 0.148, 0.333, 0.667, 2.57, 36, 72, 14, 4
7, 46, 322, 6.571, 0.177, 0.304, 8.14, 57, 98, 7, 2
9, 16, 144, 1.778, 0.375, 1.0, 2.08, 54, 144, 26, 1
11, 46, 506, 4.182, 0.283, 0.84, 1.81, 143, 425, 79, 1
9, 91, 819, 10.111, 0.32, 0.773, 2.2, 262, 633, 119, 1
10, 19, 190, 1.9, 0.379, 0.816, 2.12, 72, 155, 34, 1
6, 18, 108, 3.0, 0.5, 0.991, 2.45, 54, 107, 22, 1
9, 15, 135, 1.667, 0.407, 0.844, 2.29, 55, 114, 24, 1
6, 13, 78, 2.167, 0.103, 0.449, 4.0, 8, 35, 2, 5
9, 26, 234, 2.889, 0.385, 0.85, 1.88, 90, 199, 48, 1
6, 14, 84, 2.333, 0.571, 0.976, 2.4, 48, 82, 20, 1
11, 84, 924, 7.636, 0.279, 0.679, 2.35, 258, 627, 110, 1
11, 272, 2992, 24.727, 0.275, 0.743, 2.1, 824, 2222, 392, 1
8, 34, 272, 4.25, 0.426, 0.985, 1.84, 116, 268, 63, 1
10, 28, 280, 2.8, 0.375, 0.657, 2.33, 105, 184, 45, 1
8, 51, 408, 6.375, 0.37, 0.743, 2.19, 151, 303, 69, 1
8, 36, 288, 4.5, 0.427, 1.0, 2.05, 123, 288, 60, 1
7, 26, 182, 3.714, 0.445, 0.978, 2.25, 81, 178, 36, 1
9, 20, 180, 2.222, 0.361, 0.7, 2.32, 65, 126, 28, 1
9, 64, 576, 7.111, 0.345, 0.694, 2.29, 199, 400, 87, 1
11, 51, 561, 4.636, 0.294, 0.824, 2.06, 165, 462, 80, 1
11, 60, 660, 5.455, 0.32, 0.608, 2.01, 211, 401, 105, 1
8, 12, 96, 1.5, 0.438, 1.0, 1.91, 42, 96, 22, 1
10, 26, 260, 2.6, 0.296, 0.942, 2.2, 77, 245, 35, 1
10, 18, 180, 1.8, 0.383, 1.0, 2.3, 69, 180, 30, 1
11, 213, 2343, 19.364, 0.264, 0.698, 1.95, 619, 1635, 317, 1
11, 96, 1056, 8.727, 0.277, 0.68, 1.83, 292, 718, 160, 1
10, 61, 610, 6.1, 0.305, 0.952, 1.98, 186, 581, 94, 1
10, 52, 520, 5.2, 0.319, 0.802, 1.87, 166, 417, 89, 1
10, 37, 370, 3.7, 0.324, 0.692, 1.85, 120, 256, 65, 1
8, 8, 64, 1.0, 0.359, 0.969, 1.53, 23, 62, 15, 1
8, 12, 96, 1.5, 0.396, 0.927, 1.65, 38, 89, 23, 1
8, 27, 216, 3.375, 0.343, 0.778, 1.76, 74, 168, 42, 1
8, 52, 416, 6.5, 0.325, 0.877, 1.75, 135, 365, 77, 1
10, 18, 180, 1.8, 0.294, 0.911, 1.89, 53, 164, 28, 1
8, 64, 512, 8.0, 0.385, 0.912, 1.93, 197, 467, 102, 1
6, 21, 126, 3.5, 0.246, 0.254, 31.0, 31, 32, 1, 2
8, 30, 240, 3.75, 0.354, 0.75, 2.02, 85, 180, 42, 1
6, 12, 72, 2.0, 0.486, 0.944, 2.19, 35, 68, 16, 1
11, 154, 1694, 14.0, 0.187, 0.522, 1.94, 317, 884, 163, 1
10, 7, 70, 0.7, 0.314, 0.857, 1.83, 22, 60, 12, 1
10, 10, 100, 1.0, 0.35, 0.89, 1.94, 35, 89, 18, 1
10, 30, 300, 3.0, 0.33, 0.843, 1.9, 99, 253, 52, 1
7, 20, 140, 2.857, 0.4, 1.0, 1.87, 56, 140, 30, 1
8, 4, 32, 0.5, 0.469, 0.719, 3.75, 15, 23, 4, 1
8, 39, 312, 4.875, 0.378, 0.962, 1.64, 118, 300, 72, 1
5, 14, 70, 2.8, 0.329, 0.5, 2.56, 23, 35, 9, 1
10, 39, 390, 3.9, 0.295, 0.908, 2.09, 115, 354, 55, 1
10, 61, 610, 6.1, 0.333, 0.954, 1.85, 203, 582, 110, 1
10, 31, 310, 3.1, 0.316, 0.752, 1.66, 98, 233, 59, 1
8, 20, 160, 2.5, 0.406, 0.906, 1.86, 65, 145, 35, 1
8, 12, 96, 1.5, 0.406, 0.917, 1.56, 39, 88, 25, 1
10, 29, 290, 2.9, 0.303, 0.731, 2.1, 88, 212, 42, 1
8, 31, 248, 3.875, 0.351, 0.839, 1.98, 87, 208, 44, 1
8, 12, 96, 1.5, 0.396, 0.99, 1.9, 38, 95, 20, 1
10, 28, 280, 2.8, 0.311, 0.957, 1.78, 87, 268, 49, 1
8, 15, 120, 1.875, 0.475, 1.0, 2.38, 57, 120, 24, 1
6, 26, 156, 4.333, 0.423, 0.769, 2.36, 66, 120, 28, 1
8, 71, 568, 8.875, 0.289, 0.574, 1.64, 164, 326, 100, 1
10, 16, 160, 1.6, 0.338, 0.888, 2.08, 54, 142, 26, 1
7, 25, 175, 3.571, 0.354, 0.606, 2.14, 62, 106, 29, 1
8, 16, 128, 2.0, 0.383, 0.742, 2.33, 49, 95, 21, 1
5, 4, 20, 0.8, 0.7, 1.0, 2.33, 14, 20, 6, 1
8, 14, 112, 1.75, 0.509, 0.768, 3.0, 57, 86, 19, 1
8, 20, 160, 2.5, 0.363, 0.931, 1.93, 58, 149, 30, 1
8, 34, 272, 4.25, 0.357, 0.75, 1.87, 97, 204, 52, 1
8, 30, 240, 3.75, 0.342, 0.896, 2.0, 82, 215, 41, 1
8, 9, 72, 1.125, 0.361, 0.792, 2.17, 26, 57, 12, 1
9, 89, 801, 9.889, 0.3, 0.559, 2.18, 240, 448, 110, 1
8, 16, 128, 2.0, 0.422, 0.992, 1.86, 54, 127, 29, 1
8, 12, 96, 1.5, 0.417, 0.927, 1.74, 40, 89, 23, 1
10, 262, 2620, 26.2, 0.281, 0.691, 1.89, 736, 1811, 390, 1
7, 14, 98, 2.0, 0.5, 1.0, 2.72, 49, 98, 18, 1
10, 53, 530, 5.3, 0.294, 0.908, 1.75, 156, 481, 89, 1
8, 80, 640, 10.0, 0.347, 0.933, 1.75, 222, 597, 127, 1
9, 29, 261, 3.222, 0.318, 0.893, 1.73, 83, 233, 48, 1
11, 262, 2882, 23.818, 0.242, 0.618, 1.91, 697, 1781, 364, 1
8, 13, 104, 1.625, 0.365, 0.933, 1.65, 38, 97, 23, 1
9, 18, 162, 2.0, 0.327, 0.765, 1.83, 53, 124, 29, 1
8, 25, 200, 3.125, 0.38, 0.795, 1.81, 76, 159, 42, 1
6, 7, 42, 1.167, 0.5, 1.0, 1.75, 21, 42, 12, 1
8, 43, 344, 5.375, 0.34, 0.892, 1.83, 117, 307, 64, 1
7, 16, 112, 2.286, 0.438, 0.857, 2.04, 49, 96, 24, 1
10, 37, 370, 3.7, 0.33, 0.897, 2.0, 122, 332, 61, 1
10, 41, 410, 4.1, 0.266, 0.539, 1.98, 109, 221, 55, 1
7, 45, 315, 6.429, 0.381, 0.771, 2.22, 120, 243, 54, 1
8, 16, 128, 2.0, 0.406, 0.93, 1.68, 52, 119, 31, 1
7, 14, 98, 2.0, 0.408, 0.939, 2.5, 40, 92, 16, 1
7, 18, 126, 2.571, 0.413, 0.952, 1.86, 52, 120, 28, 1
8, 29, 232, 3.625, 0.341, 0.78, 1.93, 79, 181, 41, 1
8, 46, 368, 5.75, 0.356, 0.957, 1.79, 131, 352, 73, 1
7, 3, 21, 0.429, 0.571, 1.0, 4.0, 12, 21, 3, 1
7, 16, 112, 2.286, 0.42, 0.768, 1.96, 47, 86, 24, 1
6, 32, 192, 5.333, 0.286, 0.891, 1.41, 55, 171, 39, 1
9, 132, 1188, 14.667, 0.168, 0.693, 1.34, 199, 823, 149, 1
7, 13, 91, 1.857, 0.242, 0.912, 1.47, 22, 83, 15, 1
9, 268, 2412, 29.778, 0.183, 0.686, 1.29, 441, 1654, 341, 1
6, 12, 72, 2.0, 0.278, 1.0, 2.22, 20, 72, 9, 1
9, 465, 4185, 51.667, 0.157, 0.644, 1.24, 658, 2694, 532, 1
1, 89, 89, 89.0, 0.191, 1.0, 1.06, 17, 89, 16, 1
6, 12, 72, 2.0, 0.292, 0.778, 1.62, 21, 56, 13, 1
9, 343, 3087, 38.111, 0.162, 0.677, 1.24, 499, 2091, 401, 1
9, 508, 4572, 56.444, 0.164, 0.69, 1.22, 748, 3154, 614, 1
9, 518, 4662, 57.556, 0.096, 0.429, 1.25, 449, 2001, 360, 1
30, 60, 1800, 2.0, 0.154, 0.457, 1.85, 278, 823, 150, 5
8, 110, 880, 13.75, 0.23, 0.872, 1.66, 202, 767, 122, 1
9, 272, 2448, 30.222, 0.137, 0.532, 1.33, 336, 1303, 252, 1
9, 275, 2475, 30.556, 0.202, 0.717, 1.39, 500, 1775, 359, 1
14, 298, 4172, 21.286, 0.207, 0.71, 3.49, 862, 2962, 247, 1
8, 83, 664, 10.375, 0.404, 0.741, 2.58, 268, 492, 104, 1
8, 275, 2200, 34.375, 0.209, 0.737, 1.31, 460, 1621, 351, 1
9, 508, 4572, 56.444, 0.184, 0.705, 1.31, 840, 3224, 640, 1
8, 274, 2192, 34.25, 0.15, 0.583, 1.35, 329, 1277, 244, 1
10, 499, 4990, 49.9, 0.147, 0.631, 1.27, 733, 3150, 575, 1
8, 62, 496, 7.75, 0.296, 0.869, 1.81, 147, 431, 81, 1
9, 109, 981, 12.111, 0.219, 0.779, 1.67, 215, 764, 129, 1
8, 83, 664, 10.375, 0.437, 0.866, 2.52, 290, 575, 115, 1
9, 349, 3141, 38.778, 0.125, 0.453, 1.29, 394, 1422, 306, 1
25, 494, 12350, 19.76, 0.462, 0.93, 7.35, 5707, 11482, 776, 1
28, 32, 896, 1.143, 0.488, 0.743, 7.05, 437, 666, 62, 3
8, 299, 2392, 37.375, 0.186, 0.687, 1.32, 446, 1643, 338, 1
8, 83, 664, 10.375, 0.393, 0.7, 2.42, 261, 465, 108, 1
1, 214, 214, 214.0, 1.0, 1.0, 214.0, 214, 214, 1, 2
9, 280, 2520, 31.111, 0.165, 0.684, 1.24, 415, 1724, 336, 1
7, 59, 413, 8.429, 0.15, 0.576, 1.38, 62, 238, 45, 1
7, 62, 434, 8.857, 0.189, 0.756, 1.28, 82, 328, 64, 1
10, 318, 3180, 31.8, 0.128, 0.511, 1.18, 406, 1625, 344, 1
9, 105, 945, 11.667, 0.334, 0.869, 2.19, 316, 821, 144, 1
2, 538, 1076, 269.0, 0.637, 0.703, 29.78, 685, 756, 23, 2
10, 176, 1760, 17.6, 0.181, 0.552, 1.36, 319, 972, 235, 1
10, 309, 3090, 30.9, 0.2, 0.73, 1.4, 618, 2257, 441, 1
10, 511, 5110, 51.1, 0.161, 0.634, 1.43, 822, 3238, 575, 1
13, 375, 4875, 28.846, 0.154, 0.519, 1.44, 751, 2531, 521, 1
8, 15, 120, 1.875, 0.317, 0.742, 2.0, 38, 89, 19, 1
8, 15, 120, 1.875, 0.283, 0.65, 2.27, 34, 78, 15, 1
8, 114, 912, 14.25, 0.116, 0.408, 1.45, 106, 372, 73, 1
13, 38, 494, 2.923, 0.324, 0.935, 3.81, 160, 462, 42, 1
24, 177, 4248, 7.375, 0.514, 0.961, 8.02, 2182, 4082, 272, 1
9, 82, 738, 9.111, 0.383, 0.641, 2.62, 283, 473, 108, 1
9, 166, 1494, 18.444, 0.386, 0.75, 2.95, 576, 1121, 195, 1
25, 186, 4650, 7.44, 0.456, 0.868, 8.06, 2121, 4035, 263, 1
9, 181, 1629, 20.111, 0.369, 0.737, 2.99, 601, 1201, 201, 1
9, 172, 1548, 19.111, 0.167, 0.678, 1.28, 258, 1050, 202, 1
9, 353, 3177, 39.222, 0.187, 0.634, 1.45, 594, 2013, 411, 1
9, 144, 1296, 16.0, 0.123, 0.612, 1.33, 160, 793, 120, 1
9, 99, 891, 11.0, 0.21, 0.778, 1.39, 187, 693, 135, 1
2, 537, 1074, 268.5, 0.523, 0.567, 62.44, 562, 609, 9, 2
9, 164, 1476, 18.222, 0.189, 0.65, 1.26, 279, 959, 221, 1
8, 273, 2184, 34.125, 0.215, 0.808, 1.27, 469, 1764, 369, 1
8, 99, 792, 12.375, 0.211, 0.886, 1.48, 167, 702, 113, 1
8, 215, 1720, 26.875, 0.367, 0.746, 2.6, 631, 1283, 243, 1
9, 457, 4113, 50.778, 0.173, 0.63, 1.28, 712, 2590, 555, 1
7, 168, 1176, 24.0, 0.081, 0.369, 1.14, 95, 434, 83, 1
9, 326, 2934, 36.222, 0.171, 0.641, 1.3, 501, 1882, 385, 1
6, 131, 786, 21.833, 0.106, 0.471, 1.38, 83, 370, 60, 1
1, 104, 104, 104.0, 0.192, 1.0, 1.05, 20, 104, 19, 1
54, 1, 54, 0.019, 1.0, 1.0, 54.0, 54, 54, 1, 4
10, 55, 550, 5.5, 0.678, 0.827, 6.32, 373, 455, 59, 1
10, 162, 1620, 16.2, 0.454, 0.573, 5.93, 735, 928, 124, 1
1, 11, 11, 11.0, 1.0, 1.0, 11.0, 11, 11, 1, 2
10, 18, 180, 1.8, 0.55, 0.656, 7.62, 99, 118, 13, 1
11, 185, 2035, 16.818, 0.356, 0.772, 2.94, 724, 1572, 246, 1
13, 342, 4446, 26.308, 0.231, 0.548, 2.15, 1027, 2437, 477, 1
6, 13, 78, 2.167, 0.346, 0.577, 3.38, 27, 45, 8, 1
1, 379, 379, 379.0, 0.963, 1.0, 60.83, 365, 379, 6, 2
10, 50, 500, 5.0, 0.602, 0.746, 5.57, 301, 373, 54, 1
10, 80, 800, 8.0, 0.275, 0.435, 3.93, 220, 348, 56, 1
11, 275, 3025, 25.0, 0.287, 0.637, 2.83, 868, 1928, 307, 1
7, 36, 252, 5.143, 0.567, 0.929, 2.51, 143, 234, 57, 1
1, 15, 15, 15.0, 0.733, 1.0, 3.67, 11, 15, 3, 2
8, 141, 1128, 17.625, 0.447, 0.932, 2.45, 504, 1051, 206, 1
24, 336, 8064, 14.0, 0.898, 0.958, 15.91, 7238, 7729, 455, 1
7, 1, 7, 0.143, 1.0, 1.0, 7.0, 7, 7, 1, 2
132, 547, 72204, 4.144, 0.37, 0.483, 20.66, 26693, 34874, 1292, 3
1, 32, 32, 32.0, 0.438, 1.0, 2.0, 14, 32, 7, 1
10, 155, 1550, 15.5, 0.314, 0.631, 2.64, 486, 978, 184, 1
1, 39, 39, 39.0, 0.308, 1.0, 1.71, 12, 39, 7, 2
24, 124, 2976, 5.167, 0.902, 0.961, 16.66, 2683, 2859, 161, 1
10, 19, 190, 1.9, 0.568, 0.774, 9.82, 108, 147, 11, 1
15, 419, 6285, 27.933, 0.345, 0.526, 4.5, 2170, 3309, 482, 1
54, 357, 19278, 6.611, 0.324, 0.644, 6.22, 6238, 12422, 1003, 5
9, 83, 747, 9.222, 0.391, 0.795, 3.21, 292, 594, 91, 1
10, 1, 10, 0.1, 1.0, 1.0, 10.0, 10, 10, 1, 4
17, 106, 1802, 6.235, 0.927, 1.0, 14.53, 1671, 1802, 115, 1
17, 266, 4522, 15.647, 0.921, 1.0, 12.82, 4167, 4522, 325, 1
9, 17, 153, 1.889, 0.627, 0.922, 6.4, 96, 141, 15, 1
1, 193, 193, 193.0, 0.57, 1.0, 2.97, 110, 193, 37, 2
8, 50, 400, 6.25, 0.528, 0.955, 3.01, 211, 382, 70, 1
10, 154, 1540, 15.4, 0.315, 0.639, 2.53, 485, 984, 192, 1
10, 240, 2400, 24.0, 0.383, 0.821, 2.75, 919, 1971, 334, 1
14, 419, 5866, 29.929, 0.373, 0.603, 4.51, 2188, 3535, 485, 1
9, 19, 171, 2.111, 0.62, 0.836, 7.57, 106, 143, 14, 1
14, 319, 4466, 22.786, 0.37, 0.577, 4.54, 1654, 2577, 364, 1
6, 54, 324, 9.0, 0.549, 0.96, 3.36, 178, 311, 53, 1
9, 1, 9, 0.111, 1.0, 1.0, 9.0, 9, 9, 1, 4
1, 32, 32, 32.0, 0.469, 1.0, 1.88, 15, 32, 8, 2
11, 433, 4763, 39.364, 0.449, 0.706, 4.65, 2137, 3365, 460, 1
14, 420, 5880, 30.0, 0.376, 0.571, 4.92, 2209, 3356, 449, 1
24, 198, 4752, 8.25, 0.911, 0.983, 15.8, 4329, 4670, 274, 1
9, 250, 2250, 27.778, 0.366, 0.768, 2.6, 823, 1727, 317, 1
24, 170, 4080, 7.083, 0.931, 0.999, 17.04, 3799, 4075, 223, 1
10, 19, 190, 1.9, 0.611, 0.874, 8.92, 116, 166, 13, 1
17, 350, 5950, 20.588, 0.363, 0.577, 5.22, 2162, 3433, 414, 1
12, 266, 3192, 22.167, 0.338, 0.667, 2.72, 1079, 2130, 397, 1
16, 181, 2896, 11.313, 0.4, 0.759, 5.1, 1157, 2198, 227, 1
7, 79, 553, 11.286, 0.566, 0.967, 3.56, 313, 535, 88, 1
10, 155, 1550, 15.5, 0.332, 0.687, 2.47, 514, 1065, 208, 1
9, 78, 702, 8.667, 0.464, 0.89, 3.33, 326, 625, 98, 1
11, 70, 770, 6.364, 0.381, 0.639, 3.53, 293, 492, 83, 1
12, 71, 852, 5.917, 0.608, 0.863, 6.4, 518, 735, 81, 1
24, 309, 7416, 12.875, 0.921, 0.984, 17.51, 6828, 7295, 390, 1
16, 337, 5392, 21.063, 0.363, 0.598, 5.19, 1956, 3225, 377, 1
16, 212, 3392, 13.25, 0.376, 0.693, 5.75, 1276, 2349, 222, 1
3, 424, 1272, 141.33, 0.537, 0.557, 136.6, 683, 709, 5, 1
186, 469, 87234, 2.522, 0.378, 0.529, 22.29, 33017, 46133, 1481, 3
9, 155, 1395, 17.222, 0.346, 0.731, 2.44, 483, 1020, 198, 1
23, 137, 3151, 5.957, 0.855, 0.934, 16.64, 2695, 2943, 162, 1
11, 87, 957, 7.909, 0.319, 0.628, 2.65, 305, 601, 115, 1
9, 155, 1395, 17.222, 0.376, 0.722, 2.53, 524, 1007, 207, 1
1, 14, 14, 14.0, 0.5, 1.0, 2.33, 7, 14, 3, 2
15, 154, 2310, 10.267, 0.423, 0.704, 5.84, 976, 1626, 167, 1
12, 216, 2592, 18.0, 0.507, 0.764, 5.3, 1315, 1981, 248, 1
17, 403, 6851, 23.706, 0.349, 0.521, 5.43, 2388, 3568, 440, 1
11, 378, 4158, 34.364, 0.33, 0.684, 2.95, 1371, 2846, 465, 1
9, 150, 1350, 16.667, 0.284, 0.756, 1.76, 384, 1020, 218, 1
8, 13, 104, 1.625, 0.635, 0.788, 8.25, 66, 82, 8, 1
7, 80, 560, 11.429, 0.361, 0.961, 1.63, 202, 538, 124, 1
8, 131, 1048, 16.375, 0.246, 0.796, 1.46, 258, 834, 177, 1
8, 206, 1648, 25.75, 0.236, 0.793, 1.64, 389, 1307, 237, 1
8, 231, 1848, 28.875, 0.228, 0.569, 1.64, 421, 1052, 257, 1
4, 19, 76, 4.75, 0.421, 0.921, 1.78, 32, 70, 18, 1
17, 22, 374, 1.294, 0.425, 0.765, 4.68, 159, 286, 34, 1
7, 135, 945, 19.286, 0.156, 0.753, 1.23, 147, 712, 120, 1
8, 117, 936, 14.625, 0.173, 0.642, 1.3, 162, 601, 125, 1
6, 21, 126, 3.5, 0.198, 0.444, 1.67, 25, 56, 15, 4
4, 31, 124, 7.75, 0.419, 0.944, 1.58, 52, 117, 33, 1
6, 93, 558, 15.5, 0.238, 0.711, 1.71, 133, 397, 78, 1
1, 18, 18, 18.0, 0.389, 1.0, 3.5, 7, 18, 2, 1
10, 323, 3230, 32.3, 0.198, 0.676, 1.38, 641, 2183, 465, 1
8, 298, 2384, 37.25, 0.242, 0.791, 1.5, 576, 1886, 383, 1
10, 319, 3190, 31.9, 0.239, 0.674, 1.67, 764, 2149, 458, 1
6, 96, 576, 16.0, 0.297, 0.811, 2.25, 171, 467, 76, 1
6, 96, 576, 16.0, 0.302, 0.795, 2.2, 174, 458, 79, 1
6, 97, 582, 16.167, 0.266, 0.72, 1.82, 155, 419, 85, 1
10, 303, 3030, 30.3, 0.179, 0.669, 1.32, 543, 2028, 410, 1
4, 69, 276, 17.25, 0.377, 0.96, 1.82, 104, 265, 57, 1
32, 1, 32, 0.031, 1.0, 1.0, 32.0, 32, 32, 1, 4
9, 38, 342, 4.222, 0.377, 0.731, 2.74, 129, 250, 47, 1
9, 160, 1440, 17.778, 0.215, 0.8, 1.58, 310, 1152, 196, 1
8, 120, 960, 15.0, 0.25, 0.748, 1.66, 240, 718, 145, 1
1, 35, 35, 35.0, 0.429, 1.0, 1.07, 15, 35, 14, 1
7, 31, 217, 4.429, 0.336, 0.834, 1.52, 73, 181, 48, 1
1, 63, 63, 63.0, 0.952, 1.0, 20.0, 60, 63, 3, 2
7, 105, 735, 15.0, 0.256, 0.705, 1.69, 188, 518, 111, 1
7, 53, 371, 7.571, 0.089, 0.245, 1.5, 33, 91, 22, 1
9, 75, 675, 8.333, 0.194, 0.698, 1.46, 131, 471, 90, 1
8, 69, 552, 8.625, 0.261, 0.879, 1.47, 144, 485, 98, 1
1, 47, 47, 47.0, 0.34, 1.0, 1.14, 16, 47, 14, 1
6, 39, 234, 6.5, 0.226, 0.705, 1.66, 53, 165, 32, 1
8, 17, 136, 2.125, 0.228, 0.86, 1.48, 31, 117, 21, 1
8, 180, 1440, 22.5, 0.213, 0.794, 1.39, 306, 1143, 220, 1
7, 40, 280, 5.714, 0.25, 0.832, 1.59, 70, 233, 44, 1
7, 96, 672, 13.714, 0.271, 0.688, 1.54, 182, 462, 118, 1
7, 108, 756, 15.429, 0.362, 0.807, 2.11, 274, 610, 130, 1
1, 184, 184, 184.0, 0.967, 1.0, 44.5, 178, 184, 4, 2
3, 550, 1650, 183.33, 0.329, 0.375, 27.15, 543, 619, 20, 2
10, 18, 180, 1.8, 0.289, 0.744, 2.6, 52, 134, 20, 1
11, 22, 242, 2.0, 0.281, 0.669, 1.94, 68, 162, 35, 1
10, 23, 230, 2.3, 0.313, 0.891, 2.4, 72, 205, 30, 1
3, 463, 1389, 154.33, 0.296, 0.382, 13.7, 411, 531, 30, 2
9, 18, 162, 2.0, 0.309, 0.901, 2.63, 50, 146, 19, 1
1, 8, 8, 8.0, 1.0, 1.0, 8.0, 8, 8, 1, 2
13, 218, 2834, 16.769, 0.216, 0.737, 1.78, 612, 2090, 344, 1
5, 5, 25, 1.0, 0.72, 0.72, 18.0, 18, 18, 1, 1
8, 109, 872, 13.625, 0.271, 0.864, 1.83, 236, 753, 129, 1
9, 311, 2799, 34.556, 0.163, 0.582, 1.34, 456, 1629, 340, 1
2, 52, 104, 26.0, 0.231, 0.529, 1.5, 24, 55, 16, 2
158, 167, 26386, 1.057, 0.16, 0.276, 8.24, 4213, 7279, 511, 5
9, 181, 1629, 20.111, 0.217, 0.661, 1.66, 354, 1077, 213, 1
7, 43, 301, 6.143, 0.219, 0.983, 1.27, 66, 296, 52, 1
11, 48, 528, 4.364, 0.237, 0.39, 7.35, 125, 206, 17, 5
9, 231, 2079, 25.667, 0.196, 0.637, 1.49, 407, 1324, 274, 1
7, 85, 595, 12.143, 0.192, 0.869, 1.3, 114, 517, 88, 1
1, 172, 172, 172.0, 0.465, 1.0, 1.04, 80, 172, 77, 2
7, 95, 665, 13.571, 0.268, 0.929, 1.56, 178, 618, 114, 1
7, 86, 602, 12.286, 0.281, 0.958, 1.55, 169, 577, 109, 1
7, 60, 420, 8.571, 0.286, 0.886, 1.5, 120, 372, 80, 1
8, 90, 720, 11.25, 0.207, 0.738, 1.54, 149, 531, 97, 1
5, 19, 95, 3.8, 0.211, 0.779, 1.33, 20, 74, 15, 1
7, 123, 861, 17.571, 0.139, 0.674, 1.26, 120, 580, 95, 1
5, 89, 445, 17.8, 0.169, 0.717, 1.14, 75, 319, 66, 1
5, 12, 60, 2.4, 0.2, 0.583, 2.0, 12, 35, 6, 1
8, 28, 224, 3.5, 0.438, 0.496, 19.6, 98, 111, 5, 1
10, 10, 100, 1.0, 0.56, 0.91, 4.0, 56, 91, 14, 1
1, 138, 138, 138.0, 1.0, 1.0, 138.0, 138, 138, 1, 2
9, 29, 261, 3.222, 0.31, 0.686, 2.13, 81, 179, 38, 1
2, 25, 50, 12.5, 0.36, 1.0, 4.5, 18, 50, 4, 2
2, 24, 48, 12.0, 0.354, 1.0, 3.4, 17, 48, 5, 2
11, 11, 121, 1.0, 0.43, 0.802, 4.73, 52, 97, 11, 1
1, 159, 159, 159.0, 0.994, 1.0, 158.0, 158, 159, 1, 2
1, 199, 199, 199.0, 0.99, 1.0, 197.0, 197, 199, 1, 2
60, 57, 3420, 0.95, 0.46, 0.831, 3.91, 1574, 2843, 403, 1
11, 156, 1716, 14.182, 0.224, 0.71, 1.52, 385, 1219, 253, 1
11, 12, 132, 1.091, 0.5, 0.818, 4.13, 66, 108, 16, 1
