Age,Menopause,Tumor-size,Inv-nodes,Node-caps,Deg-malig,Breast,Breast-quad,Irradiated,TARGET
2,2,3,0,0,1,1,1,0,0
2,0,4,0,0,2,0,1,0,0
2,2,4,0,0,2,1,2,0,0
2,2,5,0,0,2,1,3,0,0
2,0,3,0,0,3,0,2,0,0
2,2,1,0,0,1,1,2,0,0
3,2,2,0,0,2,1,1,0,0
4,0,4,0,0,2,0,1,0,0
3,1,2,0,0,2,0,1,0,0
2,2,2,1,0,3,1,3,1,0
4,0,5,0,0,3,0,1,0,0
3,0,4,0,0,2,1,2,0,0
2,2,3,5,0,2,1,1,1,0
2,2,3,0,0,2,1,2,0,0
2,2,6,0,1,3,1,1,1,0
3,0,5,0,0,3,1,1,0,0
4,0,2,0,0,2,1,1,0,0
2,2,4,0,0,2,0,2,0,0
2,2,4,0,0,2,1,0,0,0
3,2,4,0,0,1,0,1,0,0
1,2,5,6,0,2,1,2,1,1
1,2,6,0,0,3,0,1,0,1
2,2,4,0,0,3,0,4,0,1
4,0,5,0,1,2,1,4,1,1
4,0,6,5,1,3,0,1,0,1
2,2,4,0,0,2,1,1,0,1
3,2,4,0,0,2,0,4,0,1
2,2,3,4,1,2,1,4,1,1
3,0,2,0,0,1,1,0,0,0
2,0,5,0,0,2,0,2,1,0
1,2,7,4,0,3,1,4,1,0
3,0,2,0,1,2,0,0,1,0
2,2,1,0,0,2,1,1,0,0
3,0,3,0,0,1,1,1,0,0
3,0,6,0,0,3,0,2,0,0
3,0,7,0,0,2,0,1,0,0
3,2,5,0,0,3,0,1,0,0
4,0,2,0,0,3,1,2,1,0
2,2,4,0,0,1,1,3,0,0
2,2,3,0,0,3,1,1,1,0
2,2,8,0,0,2,0,1,1,0
1,2,1,0,0,2,0,3,0,0
3,0,2,0,0,2,1,1,0,0
4,0,3,0,0,2,1,2,0,0
3,2,3,4,1,2,0,1,0,0
2,2,2,0,0,2,0,1,0,0
2,2,3,0,0,2,0,1,0,0
3,0,3,0,0,2,1,2,0,0
2,2,5,2,1,3,0,1,0,1
4,0,8,0,0,1,1,4,1,1
3,2,4,0,0,2,0,4,0,1
2,2,2,0,0,2,0,2,0,1
4,0,3,0,0,1,1,2,0,1
2,0,3,4,0,3,1,1,1,1
4,0,3,0,0,3,1,1,0,1
1,2,3,4,1,2,0,1,0,1
4,0,3,0,0,1,0,1,0,0
1,1,2,0,0,3,1,2,0,0
3,0,5,0,0,1,1,4,0,0
4,0,2,0,0,2,1,2,0,0
4,0,1,0,0,1,1,1,0,0
2,2,5,5,0,2,0,2,0,0
2,2,4,0,0,1,1,1,1,0
3,0,7,4,1,2,0,1,0,0
4,0,2,0,0,2,0,2,1,0
3,0,7,0,0,3,1,2,0,0
2,2,3,0,0,2,1,2,0,0
2,2,3,0,0,1,1,4,0,0
1,2,5,5,1,2,1,4,0,0
2,2,9,0,0,1,0,1,1,0
2,2,7,0,0,2,1,1,0,0
2,2,5,0,0,2,1,4,1,0
1,2,4,0,0,1,0,0,0,0
4,0,7,4,0,2,1,2,1,0
2,2,6,0,0,2,1,4,0,0
1,2,3,0,0,3,0,2,1,1
2,2,6,0,0,1,1,2,0,1
2,2,3,4,1,2,0,1,1,1
2,2,5,0,0,3,1,4,0,1
2,2,3,0,0,2,0,1,0,1
4,0,3,4,0,2,0,1,1,1
2,2,4,6,1,3,1,2,0,1
1,2,6,0,0,3,0,1,0,1
4,0,5,0,0,2,0,1,0,0
1,2,2,0,0,1,0,1,0,0
4,0,4,0,0,3,1,1,0,0
4,1,5,0,0,1,0,1,0,0
4,0,5,5,1,2,1,4,0,0
2,2,6,0,0,1,0,1,0,0
4,0,5,0,0,1,0,2,0,0
3,2,10,0,1,2,1,2,1,0
4,0,10,0,0,2,1,2,1,0
5,0,7,0,0,1,1,4,0,0
3,0,5,0,0,1,1,1,0,0
2,2,10,0,0,2,0,1,0,0
2,2,5,4,1,2,1,1,0,0
4,1,1,0,0,1,0,4,0,0
3,0,6,2,0,3,0,1,0,0
4,0,5,0,0,2,0,2,0,0
4,0,1,0,0,1,0,1,0,0
2,2,5,0,0,1,0,4,0,0
3,0,3,0,1,2,1,2,0,0
3,0,3,0,0,3,0,2,0,0
3,0,3,4,1,3,1,4,0,1
4,0,5,4,1,2,0,0,1,1
2,2,4,0,0,2,0,1,1,1
3,0,4,5,0,3,0,1,1,1
4,0,1,5,1,3,0,2,1,1
2,2,5,4,0,2,1,2,0,1
1,2,4,4,1,3,0,1,1,1
1,2,5,4,0,3,1,2,1,1
3,0,5,4,0,3,0,1,0,1
3,2,5,0,0,3,1,2,1,1
2,2,3,0,0,2,0,3,0,0
3,0,1,0,0,1,0,1,0,0
4,0,5,4,1,3,0,1,0,0
3,2,4,4,1,2,0,1,1,0
4,0,3,0,0,1,0,1,0,0
2,2,7,4,1,3,1,2,1,0
4,0,5,0,0,2,0,1,1,0
3,0,0,0,0,1,0,1,0,0
4,0,2,0,0,1,0,3,0,0
2,2,5,0,0,3,1,4,0,0
4,0,4,0,0,3,1,2,0,0
3,0,0,0,0,2,0,0,0,0
4,0,9,0,0,1,0,0,0,0
3,0,5,0,0,1,1,0,0,0
2,2,1,0,0,2,0,2,0,0
3,0,4,2,1,3,1,2,0,0
3,0,7,0,0,3,0,4,0,0
4,0,1,0,0,2,1,2,1,0
3,2,4,4,0,2,1,2,1,0
3,0,5,5,1,2,0,1,0,0
1,2,7,0,0,1,0,2,0,1
2,2,5,4,1,2,0,4,0,1
4,0,4,4,0,2,1,4,0,1
2,2,2,0,1,3,1,2,0,1
3,0,5,6,1,3,0,3,1,1
2,2,4,0,0,2,1,1,0,1
3,2,6,2,1,3,1,4,0,1
2,0,4,1,1,3,0,3,1,1
1,2,4,5,1,3,0,3,1,1
3,2,2,0,0,2,1,3,0,0
3,2,4,0,1,2,0,2,0,0
3,2,3,0,0,1,0,1,0,0
5,0,1,0,0,2,0,0,0,0
3,1,5,0,0,3,1,2,0,0
4,0,1,0,0,1,0,2,0,0
3,2,5,0,0,1,0,0,0,0
4,0,3,0,0,2,0,2,0,0
3,2,4,0,0,2,0,1,0,0
2,2,1,0,0,2,1,2,0,0
2,2,3,4,0,2,1,2,0,0
1,2,3,4,0,2,1,0,0,0
3,2,2,0,0,1,0,1,0,0
2,2,3,0,0,1,0,3,0,0
3,0,6,0,0,3,0,1,0,0
3,0,10,0,0,1,1,4,0,0
3,0,9,0,0,2,1,4,0,0
5,0,3,0,0,3,0,2,0,0
3,2,4,0,0,2,0,1,0,0
2,2,10,0,0,2,1,1,1,1
4,0,5,0,0,3,1,2,1,1
3,2,4,4,1,3,0,1,1,1
2,2,5,1,1,3,0,2,1,1
3,0,5,5,1,3,0,3,0,1
1,2,2,5,1,3,0,1,1,1
1,2,5,0,0,1,1,2,0,1
2,2,2,2,1,3,0,1,0,1
3,0,1,0,0,1,1,2,0,0
1,2,5,0,0,2,0,2,0,0
1,2,7,0,0,2,0,1,1,0
3,0,4,4,1,3,1,2,0,0
3,2,1,0,0,1,0,1,0,0
2,2,4,0,0,2,0,2,1,0
3,0,2,0,0,1,1,0,0,0
3,0,1,0,0,2,1,1,0,0
2,2,6,0,1,3,1,2,1,0
4,0,2,0,0,1,1,2,0,0
2,2,6,6,1,2,1,2,1,0
2,2,4,0,0,1,0,3,0,0
3,2,7,0,0,2,0,2,0,0
3,0,3,0,0,3,0,2,0,0
3,2,1,4,0,1,1,2,0,0
3,0,1,0,0,1,0,2,0,0
4,0,1,0,0,1,0,2,0,0
2,2,1,0,0,1,1,2,0,0
3,2,5,4,1,2,0,1,1,0
4,0,10,0,0,3,1,2,0,1
1,2,0,0,0,2,1,0,0,1
3,0,3,0,0,2,1,0,0,1
4,0,7,0,0,2,1,1,0,1
3,0,5,4,0,3,1,2,0,1
2,2,7,0,0,1,0,1,0,1
4,0,5,0,0,3,1,0,0,1
4,0,3,3,1,3,0,1,1,1
2,2,0,0,0,2,1,3,0,0
3,0,5,0,0,1,0,2,0,0
1,2,9,0,0,2,0,3,0,0
3,0,1,0,0,2,0,1,0,0
3,0,2,0,0,2,1,4,0,0
5,0,7,0,0,1,1,2,0,0
1,2,3,0,0,2,0,3,0,0
1,2,2,0,0,1,0,1,0,0
2,2,5,0,0,3,0,2,0,0
1,2,3,4,1,2,1,2,1,0
5,0,0,0,0,1,0,3,0,0
4,0,5,0,0,1,1,2,0,0
2,0,3,0,0,3,0,1,0,0
2,2,3,0,0,2,1,4,0,0
1,2,0,0,0,2,1,0,0,0
2,2,4,0,0,3,1,2,1,0
2,2,1,0,0,2,0,1,0,0
2,2,7,0,0,1,1,2,0,0
3,0,4,0,0,1,0,3,0,0
2,2,5,0,0,1,1,2,0,0
1,2,2,0,0,1,1,1,0,1
3,2,10,6,1,2,1,2,0,1
2,0,3,0,0,2,1,2,0,1
2,2,5,0,0,1,0,1,1,1
4,0,4,0,0,3,0,3,1,1
3,0,5,5,1,2,0,3,1,1
4,0,7,4,1,3,1,1,0,1
2,2,3,0,0,2,0,2,0,0
3,2,1,0,0,3,0,1,0,0
3,0,3,4,1,2,1,2,0,0
2,2,4,0,0,2,1,1,0,0
1,2,4,0,0,2,1,1,0,0
1,2,4,5,1,2,1,2,1,0
3,2,4,0,0,1,1,2,0,0
4,0,10,0,0,2,0,1,0,0
3,0,6,0,0,2,0,2,0,0
1,2,4,0,0,2,0,1,0,0
4,0,1,0,0,2,0,1,0,0
1,2,7,0,0,2,1,4,0,0
1,2,3,0,0,3,0,0,0,0
2,2,5,0,0,1,0,1,0,0
3,0,7,0,0,3,0,2,0,0
4,0,2,0,0,2,0,1,0,0
2,2,1,0,0,1,1,3,0,0
2,2,1,0,0,2,0,1,1,0
2,2,6,6,1,2,1,4,1,0
0,2,6,0,0,2,1,4,0,0
3,0,3,0,0,2,0,2,0,1
2,2,5,5,1,3,1,2,0,1
3,0,6,0,0,2,0,1,0,1
3,2,5,0,0,3,0,4,0,1
2,2,5,0,1,3,1,4,0,1
3,0,7,5,1,3,0,1,1,1
2,0,5,4,0,3,0,1,0,1
3,0,0,0,0,1,1,0,0,0
3,2,1,0,0,2,1,2,0,0
3,0,3,0,0,3,1,2,0,0
3,0,4,0,0,3,0,4,0,0
2,2,0,0,0,3,0,0,0,0
4,0,2,0,0,2,1,2,0,0
3,0,4,0,0,2,0,1,0,0
2,2,5,0,0,2,0,3,0,0
4,0,8,5,1,3,0,0,0,0
1,2,5,0,0,3,0,1,0,0
2,2,3,0,0,2,0,0,0,0
2,0,7,2,1,2,1,2,1,0
4,0,2,0,0,2,0,1,0,0
4,0,4,0,0,2,1,1,0,0
3,2,6,0,0,2,1,2,0,0
1,2,1,0,0,1,1,1,0,0
2,2,3,4,0,2,1,1,0,0
3,0,4,0,0,1,0,1,0,0
3,2,4,0,0,2,1,3,0,0
1,2,6,6,1,3,0,1,0,1
3,0,7,5,1,3,0,1,1,1
3,2,2,0,0,2,0,1,0,1
1,2,5,0,0,2,0,2,0,1
3,2,4,0,0,3,1,1,1,1
3,2,4,0,0,1,1,2,0,1
4,0,4,0,0,3,0,2,0,1
2,2,4,0,0,3,0,2,0,1
