Mcv,Alkphos,Sgpt,Sgot,Gammagt,Drinks,TARGET
85.0,92.0,45.0,27.0,31.0,0.0,1
85.0,64.0,59.0,32.0,23.0,0.0,2
86.0,54.0,33.0,16.0,54.0,0.0,2
91.0,78.0,34.0,24.0,36.0,0.0,2
98.0,55.0,13.0,17.0,17.0,0.0,2
88.0,62.0,20.0,17.0,9.0,0.5,1
88.0,67.0,21.0,11.0,11.0,0.5,1
92.0,54.0,22.0,20.0,7.0,0.5,1
90.0,60.0,25.0,19.0,5.0,0.5,1
89.0,52.0,13.0,24.0,15.0,0.5,1
82.0,62.0,17.0,17.0,15.0,0.5,1
86.0,77.0,25.0,19.0,18.0,0.5,1
96.0,67.0,29.0,20.0,11.0,0.5,1
91.0,78.0,20.0,31.0,18.0,0.5,1
89.0,67.0,23.0,16.0,10.0,0.5,1
89.0,79.0,17.0,17.0,16.0,0.5,1
91.0,107.0,20.0,20.0,56.0,0.5,1
94.0,116.0,11.0,33.0,11.0,0.5,1
92.0,59.0,35.0,13.0,19.0,0.5,1
93.0,23.0,35.0,20.0,20.0,0.5,1
92.0,70.0,24.0,13.0,26.0,0.5,1
90.0,47.0,28.0,15.0,18.0,0.5,1
88.0,66.0,20.0,21.0,10.0,0.5,1
91.0,102.0,17.0,13.0,19.0,0.5,1
87.0,41.0,31.0,19.0,16.0,0.5,1
86.0,79.0,28.0,16.0,17.0,0.5,1
93.0,77.0,32.0,18.0,29.0,0.5,1
88.0,96.0,28.0,21.0,40.0,0.5,1
94.0,65.0,22.0,18.0,11.0,0.5,1
91.0,72.0,155.0,68.0,82.0,0.5,2
85.0,54.0,47.0,33.0,22.0,0.5,2
85.0,85.0,25.0,26.0,30.0,0.5,2
89.0,63.0,24.0,20.0,38.0,0.5,2
84.0,92.0,68.0,37.0,44.0,0.5,2
89.0,68.0,26.0,39.0,42.0,0.5,2
89.0,101.0,18.0,25.0,13.0,0.5,2
86.0,84.0,18.0,14.0,16.0,0.5,2
85.0,65.0,25.0,14.0,18.0,0.5,2
88.0,61.0,19.0,21.0,13.0,0.5,2
92.0,56.0,14.0,16.0,10.0,0.5,2
95.0,50.0,29.0,25.0,50.0,0.5,2
91.0,75.0,24.0,22.0,11.0,0.5,2
89.0,74.0,19.0,23.0,16.0,0.5,2
85.0,64.0,24.0,22.0,11.0,0.5,2
92.0,57.0,64.0,36.0,90.0,0.5,2
94.0,48.0,11.0,23.0,43.0,0.5,2
87.0,52.0,21.0,19.0,30.0,0.5,2
85.0,65.0,23.0,29.0,15.0,0.5,2
84.0,82.0,21.0,21.0,19.0,0.5,2
88.0,49.0,20.0,22.0,19.0,0.5,2
96.0,67.0,26.0,26.0,36.0,0.5,2
90.0,63.0,24.0,24.0,24.0,0.5,2
90.0,45.0,33.0,34.0,27.0,0.5,2
90.0,72.0,14.0,15.0,18.0,0.5,2
91.0,55.0,4.0,8.0,13.0,0.5,2
91.0,52.0,15.0,22.0,11.0,0.5,2
87.0,71.0,32.0,19.0,27.0,1.0,1
89.0,77.0,26.0,20.0,19.0,1.0,1
89.0,67.0,5.0,17.0,14.0,1.0,2
85.0,51.0,26.0,24.0,23.0,1.0,2
103.0,75.0,19.0,30.0,13.0,1.0,2
90.0,63.0,16.0,21.0,14.0,1.0,2
90.0,63.0,29.0,23.0,57.0,2.0,1
90.0,67.0,35.0,19.0,35.0,2.0,1
87.0,66.0,27.0,22.0,9.0,2.0,1
90.0,73.0,34.0,21.0,22.0,2.0,1
86.0,54.0,20.0,21.0,16.0,2.0,1
90.0,80.0,19.0,14.0,42.0,2.0,1
87.0,90.0,43.0,28.0,156.0,2.0,2
96.0,72.0,28.0,19.0,30.0,2.0,2
91.0,55.0,9.0,25.0,16.0,2.0,2
95.0,78.0,27.0,25.0,30.0,2.0,2
92.0,101.0,34.0,30.0,64.0,2.0,2
89.0,51.0,41.0,22.0,48.0,2.0,2
91.0,99.0,42.0,33.0,16.0,2.0,2
94.0,58.0,21.0,18.0,26.0,2.0,2
94.0,58.0,21.0,18.0,26.0,2.0,2
88.0,47.0,33.0,26.0,29.0,2.0,2
92.0,65.0,17.0,25.0,9.0,2.0,2
92.0,79.0,22.0,20.0,11.0,3.0,1
88.0,68.0,27.0,21.0,26.0,3.0,1
86.0,48.0,20.0,20.0,6.0,3.0,1
88.0,66.0,23.0,12.0,15.0,3.0,1
89.0,62.0,42.0,30.0,20.0,3.0,1
90.0,51.0,23.0,17.0,27.0,3.0,1
81.0,61.0,32.0,37.0,53.0,3.0,2
89.0,89.0,23.0,18.0,104.0,3.0,2
89.0,65.0,26.0,18.0,36.0,3.0,2
85.0,59.0,25.0,20.0,25.0,3.0,2
92.0,61.0,18.0,13.0,81.0,3.0,2
89.0,63.0,22.0,27.0,10.0,4.0,1
90.0,84.0,18.0,23.0,13.0,4.0,1
88.0,95.0,25.0,19.0,14.0,4.0,1
89.0,35.0,27.0,29.0,17.0,4.0,1
91.0,80.0,37.0,23.0,27.0,4.0,1
91.0,109.0,33.0,15.0,18.0,4.0,1
91.0,65.0,17.0,5.0,7.0,4.0,1
88.0,107.0,29.0,20.0,50.0,4.0,2
87.0,76.0,22.0,55.0,9.0,4.0,2
87.0,86.0,28.0,23.0,21.0,4.0,2
87.0,42.0,26.0,23.0,17.0,4.0,2
88.0,80.0,24.0,25.0,17.0,4.0,2
86.0,67.0,11.0,15.0,8.0,4.0,2
92.0,40.0,19.0,20.0,21.0,4.0,2
85.0,60.0,17.0,21.0,14.0,4.0,2
91.0,57.0,15.0,16.0,16.0,4.0,2
96.0,55.0,48.0,39.0,42.0,4.0,2
79.0,101.0,17.0,27.0,23.0,4.0,2
90.0,134.0,14.0,20.0,14.0,4.0,2
89.0,76.0,14.0,21.0,24.0,4.0,2
88.0,93.0,29.0,27.0,31.0,4.0,2
92.0,73.0,24.0,21.0,48.0,4.0,2
91.0,55.0,28.0,28.0,82.0,4.0,2
83.0,45.0,19.0,21.0,13.0,4.0,2
90.0,74.0,19.0,14.0,22.0,4.0,2
92.0,66.0,21.0,16.0,33.0,5.0,1
93.0,63.0,26.0,18.0,18.0,5.0,1
86.0,78.0,47.0,39.0,107.0,5.0,2
97.0,44.0,113.0,45.0,150.0,5.0,2
87.0,59.0,15.0,19.0,12.0,5.0,2
86.0,44.0,21.0,11.0,15.0,5.0,2
87.0,64.0,16.0,20.0,24.0,5.0,2
92.0,57.0,21.0,23.0,22.0,5.0,2
90.0,70.0,25.0,23.0,112.0,5.0,2
99.0,59.0,17.0,19.0,11.0,5.0,2
92.0,80.0,10.0,26.0,20.0,6.0,1
95.0,60.0,26.0,22.0,28.0,6.0,1
91.0,63.0,25.0,26.0,15.0,6.0,1
92.0,62.0,37.0,21.0,36.0,6.0,1
95.0,50.0,13.0,14.0,15.0,6.0,1
90.0,76.0,37.0,19.0,50.0,6.0,1
96.0,70.0,70.0,26.0,36.0,6.0,1
95.0,62.0,64.0,42.0,76.0,6.0,1
82.0,56.0,67.0,38.0,92.0,6.0,2
92.0,82.0,27.0,24.0,37.0,6.0,2
88.0,37.0,9.0,15.0,16.0,6.0,2
100.0,60.0,29.0,23.0,76.0,6.0,2
98.0,43.0,35.0,23.0,69.0,6.0,2
93.0,99.0,36.0,34.0,48.0,6.0,2
97.0,93.0,21.0,20.0,68.0,6.0,2
93.0,50.0,18.0,25.0,17.0,6.0,2
90.0,57.0,20.0,26.0,33.0,6.0,2
92.0,76.0,31.0,28.0,41.0,6.0,2
88.0,55.0,19.0,17.0,14.0,6.0,2
89.0,63.0,24.0,29.0,29.0,6.0,2
92.0,79.0,70.0,32.0,84.0,7.0,1
92.0,93.0,58.0,35.0,120.0,7.0,1
93.0,84.0,58.0,47.0,62.0,7.0,2
97.0,71.0,29.0,22.0,52.0,8.0,1
84.0,99.0,33.0,19.0,26.0,8.0,1
96.0,44.0,42.0,23.0,73.0,8.0,1
90.0,62.0,22.0,21.0,21.0,8.0,1
92.0,94.0,18.0,17.0,6.0,8.0,1
90.0,67.0,77.0,39.0,114.0,8.0,1
97.0,71.0,29.0,22.0,52.0,8.0,1
91.0,69.0,25.0,25.0,66.0,8.0,2
93.0,59.0,17.0,20.0,14.0,8.0,2
92.0,95.0,85.0,48.0,200.0,8.0,2
90.0,50.0,26.0,22.0,53.0,8.0,2
91.0,62.0,59.0,47.0,60.0,8.0,2
92.0,93.0,22.0,28.0,123.0,9.0,1
92.0,77.0,86.0,41.0,31.0,10.0,1
86.0,66.0,22.0,24.0,26.0,10.0,2
98.0,57.0,31.0,34.0,73.0,10.0,2
95.0,80.0,50.0,64.0,55.0,10.0,2
92.0,108.0,53.0,33.0,94.0,12.0,2
97.0,92.0,22.0,28.0,49.0,12.0,2
94.0,83.0,81.0,34.0,201.0,20.0,1
87.0,75.0,25.0,21.0,14.0,0.0,1
88.0,56.0,23.0,18.0,12.0,0.0,1
84.0,97.0,41.0,20.0,32.0,0.0,2
94.0,91.0,27.0,20.0,15.0,0.5,1
92.0,85.0,25.0,20.0,12.0,0.5,1
82.0,48.0,27.0,15.0,12.0,0.5,1
88.0,74.0,31.0,25.0,15.0,0.5,1
95.0,77.0,30.0,14.0,21.0,0.5,1
88.0,94.0,26.0,18.0,8.0,0.5,1
91.0,70.0,19.0,19.0,22.0,0.5,1
83.0,54.0,27.0,15.0,12.0,0.5,1
91.0,105.0,40.0,26.0,56.0,0.5,1
86.0,79.0,37.0,28.0,14.0,0.5,1
91.0,96.0,35.0,22.0,135.0,0.5,1
89.0,82.0,23.0,14.0,35.0,0.5,1
90.0,73.0,24.0,23.0,11.0,0.5,1
89.0,82.0,33.0,32.0,18.0,0.5,1
85.0,79.0,17.0,8.0,9.0,0.5,1
85.0,119.0,30.0,26.0,17.0,0.5,1
78.0,69.0,24.0,18.0,31.0,0.5,1
88.0,107.0,34.0,21.0,27.0,0.5,1
89.0,115.0,17.0,27.0,7.0,0.5,1
92.0,67.0,23.0,15.0,12.0,0.5,1
91.0,84.0,11.0,12.0,10.0,0.5,1
94.0,101.0,41.0,20.0,53.0,0.5,2
88.0,46.0,29.0,22.0,18.0,0.5,2
88.0,122.0,35.0,29.0,42.0,0.5,2
84.0,88.0,28.0,25.0,35.0,0.5,2
90.0,79.0,18.0,15.0,24.0,0.5,2
87.0,69.0,22.0,26.0,11.0,0.5,2
65.0,63.0,19.0,20.0,14.0,0.5,2
90.0,64.0,12.0,17.0,14.0,0.5,2
85.0,58.0,18.0,24.0,16.0,0.5,2
86.0,78.0,52.0,29.0,62.0,0.5,2
82.0,74.0,38.0,28.0,48.0,0.5,2
86.0,58.0,36.0,27.0,59.0,0.5,2
94.0,56.0,30.0,18.0,27.0,0.5,2
87.0,57.0,30.0,30.0,22.0,0.5,2
98.0,74.0,148.0,75.0,159.0,0.5,2
94.0,75.0,20.0,25.0,38.0,0.5,2
93.0,56.0,25.0,21.0,33.0,0.5,2
101.0,65.0,18.0,21.0,22.0,0.5,2
92.0,65.0,25.0,20.0,31.0,0.5,2
92.0,58.0,14.0,16.0,13.0,0.5,2
86.0,58.0,16.0,23.0,23.0,0.5,2
85.0,62.0,15.0,13.0,22.0,0.5,2
86.0,57.0,13.0,20.0,13.0,0.5,2
86.0,54.0,26.0,30.0,13.0,0.5,2
81.0,41.0,33.0,27.0,34.0,1.0,1
91.0,67.0,32.0,26.0,13.0,1.0,1
91.0,80.0,21.0,19.0,14.0,1.0,1
92.0,60.0,23.0,15.0,19.0,1.0,1
91.0,60.0,32.0,14.0,8.0,1.0,1
93.0,65.0,28.0,22.0,10.0,1.0,1
90.0,63.0,45.0,24.0,85.0,1.0,2
87.0,92.0,21.0,22.0,37.0,1.0,2
95.0,62.0,24.0,23.0,14.0,1.0,2
93.0,59.0,41.0,30.0,48.0,1.0,2
84.0,82.0,43.0,32.0,38.0,2.0,1
87.0,71.0,33.0,20.0,22.0,2.0,1
86.0,66.0,28.0,24.0,21.0,2.0,1
88.0,58.0,31.0,17.0,17.0,2.0,1
90.0,61.0,28.0,29.0,31.0,2.0,1
88.0,69.0,70.0,24.0,64.0,2.0,1
93.0,87.0,18.0,17.0,26.0,2.0,1
98.0,58.0,33.0,21.0,28.0,2.0,1
91.0,44.0,18.0,18.0,23.0,2.0,2
87.0,75.0,37.0,19.0,70.0,2.0,2
94.0,91.0,30.0,26.0,25.0,2.0,2
88.0,85.0,14.0,15.0,10.0,2.0,2
89.0,109.0,26.0,25.0,27.0,2.0,2
87.0,59.0,37.0,27.0,34.0,2.0,2
93.0,58.0,20.0,23.0,18.0,2.0,2
88.0,57.0,9.0,15.0,16.0,2.0,2
94.0,65.0,38.0,27.0,17.0,3.0,1
91.0,71.0,12.0,22.0,11.0,3.0,1
90.0,55.0,20.0,20.0,16.0,3.0,1
91.0,64.0,21.0,17.0,26.0,3.0,2
88.0,47.0,35.0,26.0,33.0,3.0,2
85.0,58.0,83.0,49.0,51.0,3.0,2
98.0,50.0,27.0,25.0,53.0,4.0,2
86.0,62.0,29.0,21.0,26.0,4.0,2
82.0,68.0,20.0,22.0,9.0,4.0,2
83.0,70.0,17.0,19.0,23.0,4.0,2
96.0,70.0,21.0,26.0,21.0,4.0,2
94.0,117.0,77.0,56.0,52.0,4.0,2
93.0,45.0,11.0,14.0,21.0,4.0,2
93.0,49.0,27.0,21.0,29.0,4.0,2
84.0,73.0,46.0,32.0,39.0,4.0,2
91.0,63.0,17.0,17.0,46.0,4.0,2
90.0,57.0,31.0,18.0,37.0,4.0,2
87.0,45.0,19.0,13.0,16.0,4.0,2
91.0,68.0,14.0,20.0,19.0,4.0,2
86.0,55.0,29.0,35.0,108.0,4.0,2
91.0,86.0,52.0,47.0,52.0,4.0,2
88.0,46.0,15.0,33.0,55.0,4.0,2
89.0,72.0,33.0,27.0,55.0,4.0,2
95.0,59.0,23.0,18.0,19.0,4.0,2
94.0,43.0,154.0,82.0,121.0,4.0,2
96.0,56.0,38.0,26.0,23.0,5.0,2
90.0,52.0,10.0,17.0,12.0,5.0,2
94.0,45.0,20.0,16.0,12.0,5.0,2
99.0,42.0,14.0,21.0,49.0,5.0,2
93.0,102.0,47.0,23.0,37.0,5.0,2
94.0,71.0,25.0,26.0,31.0,5.0,2
92.0,73.0,33.0,34.0,115.0,5.0,2
87.0,54.0,41.0,29.0,23.0,6.0,1
92.0,67.0,15.0,14.0,14.0,6.0,1
98.0,101.0,31.0,26.0,32.0,6.0,1
92.0,53.0,51.0,33.0,92.0,6.0,1
97.0,94.0,43.0,43.0,82.0,6.0,1
93.0,43.0,11.0,16.0,54.0,6.0,1
93.0,68.0,24.0,18.0,19.0,6.0,1
95.0,36.0,38.0,19.0,15.0,6.0,1
99.0,86.0,58.0,42.0,203.0,6.0,1
98.0,66.0,103.0,57.0,114.0,6.0,1
92.0,80.0,10.0,26.0,20.0,6.0,1
96.0,74.0,27.0,25.0,43.0,6.0,2
86.0,109.0,16.0,22.0,28.0,6.0,2
91.0,46.0,30.0,24.0,39.0,7.0,2
102.0,82.0,34.0,78.0,203.0,7.0,2
85.0,50.0,12.0,18.0,14.0,7.0,2
91.0,57.0,33.0,23.0,12.0,8.0,1
91.0,52.0,76.0,32.0,24.0,8.0,1
93.0,70.0,46.0,30.0,33.0,8.0,1
87.0,55.0,36.0,19.0,25.0,8.0,1
98.0,123.0,28.0,24.0,31.0,8.0,1
82.0,55.0,18.0,23.0,44.0,8.0,2
95.0,73.0,20.0,25.0,225.0,8.0,2
97.0,80.0,17.0,20.0,53.0,8.0,2
100.0,83.0,25.0,24.0,28.0,8.0,2
88.0,91.0,56.0,35.0,126.0,9.0,2
91.0,138.0,45.0,21.0,48.0,10.0,1
92.0,41.0,37.0,22.0,37.0,10.0,1
86.0,123.0,20.0,25.0,23.0,10.0,2
87.0,87.0,15.0,23.0,11.0,10.0,2
87.0,56.0,52.0,43.0,55.0,10.0,2
99.0,75.0,26.0,24.0,41.0,12.0,1
96.0,69.0,53.0,43.0,203.0,12.0,2
98.0,77.0,55.0,35.0,89.0,15.0,1
91.0,68.0,27.0,26.0,14.0,16.0,1
98.0,99.0,57.0,45.0,65.0,20.0,1
87.0,70.0,12.0,28.0,10.0,0.0,2
90.0,64.0,61.0,32.0,13.0,0.5,1
90.0,60.0,23.0,27.0,5.0,0.5,1
96.0,68.0,18.0,19.0,19.0,0.5,1
84.0,80.0,47.0,33.0,97.0,0.5,1
91.0,57.0,31.0,23.0,42.0,0.5,1
79.0,39.0,14.0,19.0,9.0,0.5,2
83.0,40.0,29.0,25.0,38.0,0.5,2
92.0,60.0,30.0,27.0,297.0,2.0,2
84.0,83.0,20.0,25.0,7.0,3.0,1
99.0,69.0,45.0,32.0,30.0,3.0,1
92.0,75.0,26.0,26.0,24.0,3.0,2
90.0,96.0,34.0,49.0,169.0,4.0,2
89.0,90.0,15.0,17.0,25.0,4.0,2
90.0,67.0,10.0,16.0,16.0,4.0,2
92.0,62.0,20.0,23.0,20.0,6.0,1
91.0,63.0,25.0,26.0,15.0,6.0,1
90.0,63.0,12.0,26.0,21.0,6.0,2
91.0,74.0,87.0,50.0,67.0,6.0,2
92.0,87.0,57.0,25.0,44.0,6.0,2
90.0,72.0,17.0,19.0,19.0,6.0,2
93.0,77.0,39.0,37.0,108.0,16.0,1
97.0,62.0,17.0,13.0,5.0,0.5,1
90.0,87.0,19.0,25.0,19.0,0.5,1
89.0,101.0,27.0,34.0,14.0,0.5,1
88.0,81.0,41.0,27.0,36.0,0.5,2
83.0,68.0,17.0,20.0,71.0,0.5,2
83.0,78.0,31.0,19.0,115.0,1.0,2
86.0,44.0,24.0,15.0,18.0,2.0,1
82.0,72.0,31.0,20.0,84.0,3.0,2
91.0,54.0,25.0,22.0,35.0,4.0,1
89.0,48.0,32.0,22.0,14.0,4.0,2
85.0,52.0,22.0,23.0,34.0,4.0,2
95.0,93.0,21.0,27.0,47.0,6.0,2
91.0,93.0,35.0,34.0,37.0,10.0,2
