"L-CORE{mid,high,low}","L-SURF{low,high,mid}","L-O2{excellent,good}","L-BP{mid,high,low}","SURF-STBL{stable,unstable}","CORE-STBL{stable,unstable,mod-stable}","BP-STBL{stable,mod-stable,unstable}","COMFORT{15,10,05,07}",TARGET
2,1,0,2,0,1,1,15,0
2,0,0,0,0,1,1,10,2
0,1,0,0,0,1,0,10,0
2,1,1,0,0,2,0,15,0
2,2,0,0,0,1,1,10,0
0,1,1,2,0,1,2,15,2
2,1,0,0,0,1,0,5,2
0,2,0,2,1,2,1,10,2
2,0,1,2,0,1,1,10,2
2,1,0,2,1,1,0,10,2
2,2,1,2,0,1,1,15,0
2,1,1,0,0,1,0,10,0
0,0,0,0,1,1,2,15,0
2,0,1,2,1,1,0,10,0
2,1,1,0,1,2,1,15,2
0,0,0,0,1,1,2,10,0
1,0,1,0,1,1,0,15,0
2,1,1,0,1,1,1,10,0
2,0,1,2,1,1,2,15,0
2,2,1,2,0,1,1,10,0
1,0,1,2,1,1,1,15,0
1,2,0,0,1,1,2,10,2
2,2,1,2,1,1,2,15,0
2,2,1,2,1,1,1,10,0
0,0,1,2,0,1,0,10,0
1,2,1,2,1,1,1,10,0
0,2,1,1,0,1,0,10,0
1,2,0,0,0,1,0,10,0
2,2,0,2,0,1,2,15,0
2,2,1,2,1,1,2,10,2
2,2,1,0,1,1,1,10,0
1,1,1,2,1,1,2,10,0
2,2,0,0,1,1,0,10,0
2,1,1,2,0,1,1,10,0
1,2,0,0,0,1,0,10,0
2,2,1,2,0,1,1,10,0
1,2,0,2,0,1,1,10,2
1,1,1,2,1,1,2,10,2
1,1,1,2,0,1,1,7,2
2,2,1,0,1,1,0,10,0
1,1,1,2,1,1,1,10,0
1,2,1,2,0,1,1,15,2
0,0,1,0,1,1,1,15,2
2,2,1,2,0,1,1,10,2
1,1,0,2,0,1,1,10,0
1,2,1,2,1,1,1,10,2
2,2,0,2,1,1,1,10,0
2,0,1,1,1,1,1,10,0
2,0,1,2,1,0,0,10,0
1,0,0,2,1,1,1,10,0
2,1,0,0,1,1,2,10,0
2,2,1,2,1,1,0,10,2
0,0,0,2,1,1,0,10,0
2,2,1,2,1,1,1,15,0
0,2,1,0,0,1,2,15,0
2,1,1,0,1,1,0,10,0
1,1,1,0,0,1,1,10,0
2,0,1,2,0,1,0,10,0
2,0,1,2,1,1,2,10,0
2,1,0,0,0,1,1,10,0
2,2,1,2,0,1,2,10,0
2,1,0,2,0,1,2,10,2
0,2,0,2,1,2,2,10,0
2,2,1,0,0,1,1,10,2
2,1,0,2,1,1,1,10,0
2,2,0,2,1,1,1,10,0
2,2,0,0,0,1,1,10,0
2,2,0,1,0,1,1,10,0
1,1,0,2,0,1,1,10,0
2,2,0,2,0,1,0,10,2
2,2,0,0,0,1,1,10,0
2,1,0,0,0,1,0,10,0
1,2,1,2,0,1,2,10,0
2,2,0,2,0,1,0,10,0
2,2,0,2,0,1,2,10,0
2,2,0,2,1,2,1,10,2
2,2,1,0,0,1,1,10,0
2,2,0,2,0,1,1,15,0
2,2,0,2,0,1,1,10,2
2,1,1,2,0,1,2,10,1
0,2,0,2,1,1,2,5,0
2,2,0,2,0,1,2,10,0
2,2,0,2,1,1,1,10,0
2,2,0,2,1,1,1,15,2
2,2,1,2,1,1,1,15,0
2,2,0,2,1,1,1,10,0
2,2,1,2,1,1,1,15,2
